HEADER_TIME_STAMP,START_TIME,STOP_TIME,LABEL_NAME
2017-05-30 06:00:06.400,2017-05-30 06:00:06.400,2017-05-30 06:00:19.200,sleep
2017-05-30 06:00:19.200,2017-05-30 06:00:19.200,2017-05-30 06:00:32.000,sleep
2017-05-30 06:00:32.000,2017-05-30 06:00:32.000,2017-05-30 06:00:44.800,sleep
2017-05-30 06:00:44.800,2017-05-30 06:00:44.800,2017-05-30 06:00:57.600,sleep
2017-05-30 06:00:57.600,2017-05-30 06:00:57.600,2017-05-30 06:01:10.400,sleep
2017-05-30 06:01:10.400,2017-05-30 06:01:10.400,2017-05-30 06:01:23.200,sleep
2017-05-30 06:01:23.200,2017-05-30 06:01:23.200,2017-05-30 06:01:36.000,sleep
2017-05-30 06:01:36.000,2017-05-30 06:01:36.000,2017-05-30 06:01:48.800,sleep
2017-05-30 06:01:48.800,2017-05-30 06:01:48.800,2017-05-30 06:02:01.600,sleep
2017-05-30 06:02:01.600,2017-05-30 06:02:01.600,2017-05-30 06:02:14.400,sleep
2017-05-30 06:02:14.400,2017-05-30 06:02:14.400,2017-05-30 06:02:27.200,sleep
2017-05-30 06:02:27.200,2017-05-30 06:02:27.200,2017-05-30 06:02:40.000,sleep
2017-05-30 06:02:40.000,2017-05-30 06:02:40.000,2017-05-30 06:02:52.800,sleep
2017-05-30 06:02:52.800,2017-05-30 06:02:52.800,2017-05-30 06:03:05.600,sleep
2017-05-30 06:03:05.600,2017-05-30 06:03:05.600,2017-05-30 06:03:18.400,sleep
2017-05-30 06:03:18.400,2017-05-30 06:03:18.400,2017-05-30 06:03:31.200,sleep
2017-05-30 06:03:31.200,2017-05-30 06:03:31.200,2017-05-30 06:03:44.000,sleep
2017-05-30 06:03:44.000,2017-05-30 06:03:44.000,2017-05-30 06:03:56.800,sleep
2017-05-30 06:03:56.800,2017-05-30 06:03:56.800,2017-05-30 06:04:09.600,sleep
2017-05-30 06:04:09.600,2017-05-30 06:04:09.600,2017-05-30 06:04:22.400,sleep
2017-05-30 06:04:22.400,2017-05-30 06:04:22.400,2017-05-30 06:04:35.200,sleep
2017-05-30 06:04:35.200,2017-05-30 06:04:35.200,2017-05-30 06:04:48.000,sleep
2017-05-30 06:04:48.000,2017-05-30 06:04:48.000,2017-05-30 06:05:00.800,sleep
2017-05-30 06:05:00.800,2017-05-30 06:05:00.800,2017-05-30 06:05:13.600,sleep
2017-05-30 06:05:13.600,2017-05-30 06:05:13.600,2017-05-30 06:05:26.400,sleep
2017-05-30 06:05:26.400,2017-05-30 06:05:26.400,2017-05-30 06:05:39.200,sleep
2017-05-30 06:05:39.200,2017-05-30 06:05:39.200,2017-05-30 06:05:52.000,sleep
2017-05-30 06:05:52.000,2017-05-30 06:05:52.000,2017-05-30 06:06:04.800,sleep
2017-05-30 06:06:04.800,2017-05-30 06:06:04.800,2017-05-30 06:06:17.600,sleep
2017-05-30 06:06:17.600,2017-05-30 06:06:17.600,2017-05-30 06:06:30.400,sleep
2017-05-30 06:06:30.400,2017-05-30 06:06:30.400,2017-05-30 06:06:43.200,sleep
2017-05-30 06:06:43.200,2017-05-30 06:06:43.200,2017-05-30 06:06:56.000,sleep
2017-05-30 06:06:56.000,2017-05-30 06:06:56.000,2017-05-30 06:07:08.800,sleep
2017-05-30 06:07:08.800,2017-05-30 06:07:08.800,2017-05-30 06:07:21.600,sleep
2017-05-30 06:07:21.600,2017-05-30 06:07:21.600,2017-05-30 06:07:34.400,sleep
2017-05-30 06:07:34.400,2017-05-30 06:07:34.400,2017-05-30 06:07:47.200,sleep
2017-05-30 06:07:47.200,2017-05-30 06:07:47.200,2017-05-30 06:08:00.000,sleep
2017-05-30 06:08:00.000,2017-05-30 06:08:00.000,2017-05-30 06:08:12.800,sleep
2017-05-30 06:08:12.800,2017-05-30 06:08:12.800,2017-05-30 06:08:25.600,sleep
2017-05-30 06:08:25.600,2017-05-30 06:08:25.600,2017-05-30 06:08:38.400,sleep
2017-05-30 06:08:38.400,2017-05-30 06:08:38.400,2017-05-30 06:08:51.200,sleep
2017-05-30 06:08:51.200,2017-05-30 06:08:51.200,2017-05-30 06:09:04.000,sleep
2017-05-30 06:09:04.000,2017-05-30 06:09:04.000,2017-05-30 06:09:16.800,sleep
2017-05-30 06:09:16.800,2017-05-30 06:09:16.800,2017-05-30 06:09:29.600,sleep
2017-05-30 06:09:29.600,2017-05-30 06:09:29.600,2017-05-30 06:09:42.400,sleep
2017-05-30 06:09:42.400,2017-05-30 06:09:42.400,2017-05-30 06:09:55.200,sleep
2017-05-30 06:09:55.200,2017-05-30 06:09:55.200,2017-05-30 06:10:08.000,sleep
2017-05-30 06:10:08.000,2017-05-30 06:10:08.000,2017-05-30 06:10:20.800,sleep
2017-05-30 06:10:20.800,2017-05-30 06:10:20.800,2017-05-30 06:10:33.600,sleep
2017-05-30 06:10:33.600,2017-05-30 06:10:33.600,2017-05-30 06:10:46.400,sleep
2017-05-30 06:10:46.400,2017-05-30 06:10:46.400,2017-05-30 06:10:59.200,sleep
2017-05-30 06:10:59.200,2017-05-30 06:10:59.200,2017-05-30 06:11:12.000,sleep
2017-05-30 06:11:12.000,2017-05-30 06:11:12.000,2017-05-30 06:11:24.800,sleep
2017-05-30 06:11:24.800,2017-05-30 06:11:24.800,2017-05-30 06:11:37.600,sleep
2017-05-30 06:11:37.600,2017-05-30 06:11:37.600,2017-05-30 06:11:50.400,sleep
2017-05-30 06:11:50.400,2017-05-30 06:11:50.400,2017-05-30 06:12:03.200,sleep
2017-05-30 06:12:03.200,2017-05-30 06:12:03.200,2017-05-30 06:12:16.000,sleep
2017-05-30 06:12:16.000,2017-05-30 06:12:16.000,2017-05-30 06:12:28.800,sleep
2017-05-30 06:12:28.800,2017-05-30 06:12:28.800,2017-05-30 06:12:41.600,sleep
2017-05-30 06:12:41.600,2017-05-30 06:12:41.600,2017-05-30 06:12:54.400,sleep
2017-05-30 06:12:54.400,2017-05-30 06:12:54.400,2017-05-30 06:13:07.200,sleep
2017-05-30 06:13:07.200,2017-05-30 06:13:07.200,2017-05-30 06:13:20.000,sleep
2017-05-30 06:13:20.000,2017-05-30 06:13:20.000,2017-05-30 06:13:32.800,sleep
2017-05-30 06:13:32.800,2017-05-30 06:13:32.800,2017-05-30 06:13:45.600,sleep
2017-05-30 06:13:45.600,2017-05-30 06:13:45.600,2017-05-30 06:13:58.400,sleep
2017-05-30 06:13:58.400,2017-05-30 06:13:58.400,2017-05-30 06:14:11.200,sleep
2017-05-30 06:14:11.200,2017-05-30 06:14:11.200,2017-05-30 06:14:24.000,sleep
2017-05-30 06:14:24.000,2017-05-30 06:14:24.000,2017-05-30 06:14:36.800,sleep
2017-05-30 06:14:36.800,2017-05-30 06:14:36.800,2017-05-30 06:14:49.600,sleep
2017-05-30 06:14:49.600,2017-05-30 06:14:49.600,2017-05-30 06:15:02.400,sleep
2017-05-30 06:15:02.400,2017-05-30 06:15:02.400,2017-05-30 06:15:15.200,sleep
2017-05-30 06:15:15.200,2017-05-30 06:15:15.200,2017-05-30 06:15:28.000,sleep
2017-05-30 06:15:28.000,2017-05-30 06:15:28.000,2017-05-30 06:15:40.800,sleep
2017-05-30 06:15:40.800,2017-05-30 06:15:40.800,2017-05-30 06:15:53.600,sleep
2017-05-30 06:15:53.600,2017-05-30 06:15:53.600,2017-05-30 06:16:06.400,sleep
2017-05-30 06:16:06.400,2017-05-30 06:16:06.400,2017-05-30 06:16:19.200,sleep
2017-05-30 06:16:19.200,2017-05-30 06:16:19.200,2017-05-30 06:16:32.000,sleep
2017-05-30 06:16:32.000,2017-05-30 06:16:32.000,2017-05-30 06:16:44.800,sleep
2017-05-30 06:16:44.800,2017-05-30 06:16:44.800,2017-05-30 06:16:57.600,sleep
2017-05-30 06:16:57.600,2017-05-30 06:16:57.600,2017-05-30 06:17:10.400,sleep
2017-05-30 06:17:10.400,2017-05-30 06:17:10.400,2017-05-30 06:17:23.200,sleep
2017-05-30 06:17:23.200,2017-05-30 06:17:23.200,2017-05-30 06:17:36.000,sleep
2017-05-30 06:17:36.000,2017-05-30 06:17:36.000,2017-05-30 06:17:48.800,sleep
2017-05-30 06:17:48.800,2017-05-30 06:17:48.800,2017-05-30 06:18:01.600,sleep
2017-05-30 06:18:01.600,2017-05-30 06:18:01.600,2017-05-30 06:18:14.400,sleep
2017-05-30 06:18:14.400,2017-05-30 06:18:14.400,2017-05-30 06:18:27.200,sleep
2017-05-30 06:18:27.200,2017-05-30 06:18:27.200,2017-05-30 06:18:40.000,sleep
2017-05-30 06:18:40.000,2017-05-30 06:18:40.000,2017-05-30 06:18:52.800,sleep
2017-05-30 06:18:52.800,2017-05-30 06:18:52.800,2017-05-30 06:19:05.600,sleep
2017-05-30 06:19:05.600,2017-05-30 06:19:05.600,2017-05-30 06:19:18.400,sleep
2017-05-30 06:19:18.400,2017-05-30 06:19:18.400,2017-05-30 06:19:31.200,sleep
2017-05-30 06:19:31.200,2017-05-30 06:19:31.200,2017-05-30 06:19:44.000,sleep
2017-05-30 06:19:44.000,2017-05-30 06:19:44.000,2017-05-30 06:19:56.800,sleep
2017-05-30 06:19:56.800,2017-05-30 06:19:56.800,2017-05-30 06:20:09.600,sleep
2017-05-30 06:20:09.600,2017-05-30 06:20:09.600,2017-05-30 06:20:22.400,sleep
2017-05-30 06:20:22.400,2017-05-30 06:20:22.400,2017-05-30 06:20:35.200,sleep
2017-05-30 06:20:35.200,2017-05-30 06:20:35.200,2017-05-30 06:20:48.000,sleep
2017-05-30 06:20:48.000,2017-05-30 06:20:48.000,2017-05-30 06:21:00.800,sleep
2017-05-30 06:21:00.800,2017-05-30 06:21:00.800,2017-05-30 06:21:13.600,sleep
2017-05-30 06:21:13.600,2017-05-30 06:21:13.600,2017-05-30 06:21:26.400,sleep
2017-05-30 06:21:26.400,2017-05-30 06:21:26.400,2017-05-30 06:21:39.200,sleep
2017-05-30 06:21:39.200,2017-05-30 06:21:39.200,2017-05-30 06:21:52.000,sleep
2017-05-30 06:21:52.000,2017-05-30 06:21:52.000,2017-05-30 06:22:04.800,sleep
2017-05-30 06:22:04.800,2017-05-30 06:22:04.800,2017-05-30 06:22:17.600,sleep
2017-05-30 06:22:17.600,2017-05-30 06:22:17.600,2017-05-30 06:22:30.400,sleep
2017-05-30 06:22:30.400,2017-05-30 06:22:30.400,2017-05-30 06:22:43.200,sleep
2017-05-30 06:22:43.200,2017-05-30 06:22:43.200,2017-05-30 06:22:56.000,sleep
2017-05-30 06:22:56.000,2017-05-30 06:22:56.000,2017-05-30 06:23:08.800,sleep
2017-05-30 06:23:08.800,2017-05-30 06:23:08.800,2017-05-30 06:23:21.600,sleep
2017-05-30 06:23:21.600,2017-05-30 06:23:21.600,2017-05-30 06:23:34.400,sleep
2017-05-30 06:23:34.400,2017-05-30 06:23:34.400,2017-05-30 06:23:47.200,sleep
2017-05-30 06:23:47.200,2017-05-30 06:23:47.200,2017-05-30 06:24:00.000,sleep
2017-05-30 06:24:00.000,2017-05-30 06:24:00.000,2017-05-30 06:24:12.800,sleep
2017-05-30 06:24:12.800,2017-05-30 06:24:12.800,2017-05-30 06:24:25.600,sleep
2017-05-30 06:24:25.600,2017-05-30 06:24:25.600,2017-05-30 06:24:38.400,sleep
2017-05-30 06:24:38.400,2017-05-30 06:24:38.400,2017-05-30 06:24:51.200,sleep
2017-05-30 06:24:51.200,2017-05-30 06:24:51.200,2017-05-30 06:25:04.000,sleep
2017-05-30 06:25:04.000,2017-05-30 06:25:04.000,2017-05-30 06:25:16.800,sleep
2017-05-30 06:25:16.800,2017-05-30 06:25:16.800,2017-05-30 06:25:29.600,sleep
2017-05-30 06:25:29.600,2017-05-30 06:25:29.600,2017-05-30 06:25:42.400,sleep
2017-05-30 06:25:42.400,2017-05-30 06:25:42.400,2017-05-30 06:25:55.200,sleep
2017-05-30 06:25:55.200,2017-05-30 06:25:55.200,2017-05-30 06:26:08.000,sleep
2017-05-30 06:26:08.000,2017-05-30 06:26:08.000,2017-05-30 06:26:20.800,sleep
2017-05-30 06:26:20.800,2017-05-30 06:26:20.800,2017-05-30 06:26:33.600,sleep
2017-05-30 06:26:33.600,2017-05-30 06:26:33.600,2017-05-30 06:26:46.400,sleep
2017-05-30 06:26:46.400,2017-05-30 06:26:46.400,2017-05-30 06:26:59.200,sleep
2017-05-30 06:26:59.200,2017-05-30 06:26:59.200,2017-05-30 06:27:12.000,sleep
2017-05-30 06:27:12.000,2017-05-30 06:27:12.000,2017-05-30 06:27:24.800,sleep
2017-05-30 06:27:24.800,2017-05-30 06:27:24.800,2017-05-30 06:27:37.600,sleep
2017-05-30 06:27:37.600,2017-05-30 06:27:37.600,2017-05-30 06:27:50.400,sleep
2017-05-30 06:27:50.400,2017-05-30 06:27:50.400,2017-05-30 06:28:03.200,sleep
2017-05-30 06:28:03.200,2017-05-30 06:28:03.200,2017-05-30 06:28:16.000,sleep
2017-05-30 06:28:16.000,2017-05-30 06:28:16.000,2017-05-30 06:28:28.800,sleep
2017-05-30 06:28:28.800,2017-05-30 06:28:28.800,2017-05-30 06:28:41.600,sleep
2017-05-30 06:28:41.600,2017-05-30 06:28:41.600,2017-05-30 06:28:54.400,sleep
2017-05-30 06:28:54.400,2017-05-30 06:28:54.400,2017-05-30 06:29:07.200,sleep
2017-05-30 06:29:07.200,2017-05-30 06:29:07.200,2017-05-30 06:29:20.000,sleep
2017-05-30 06:29:20.000,2017-05-30 06:29:20.000,2017-05-30 06:29:32.800,sleep
2017-05-30 06:29:32.800,2017-05-30 06:29:32.800,2017-05-30 06:29:45.600,sleep
2017-05-30 06:29:45.600,2017-05-30 06:29:45.600,2017-05-30 06:29:58.400,sleep
2017-05-30 06:29:58.400,2017-05-30 06:29:58.400,2017-05-30 06:30:11.200,sleep
2017-05-30 06:30:11.200,2017-05-30 06:30:11.200,2017-05-30 06:30:24.000,sleep
2017-05-30 06:30:24.000,2017-05-30 06:30:24.000,2017-05-30 06:30:36.800,sleep
2017-05-30 06:30:36.800,2017-05-30 06:30:36.800,2017-05-30 06:30:49.600,sleep
2017-05-30 06:30:49.600,2017-05-30 06:30:49.600,2017-05-30 06:31:02.400,sleep
2017-05-30 06:31:02.400,2017-05-30 06:31:02.400,2017-05-30 06:31:15.200,sleep
2017-05-30 06:31:15.200,2017-05-30 06:31:15.200,2017-05-30 06:31:28.000,sleep
2017-05-30 06:31:28.000,2017-05-30 06:31:28.000,2017-05-30 06:31:40.800,sleep
2017-05-30 06:31:40.800,2017-05-30 06:31:40.800,2017-05-30 06:31:53.600,sleep
2017-05-30 06:31:53.600,2017-05-30 06:31:53.600,2017-05-30 06:32:06.400,sleep
2017-05-30 06:32:06.400,2017-05-30 06:32:06.400,2017-05-30 06:32:19.200,sleep
2017-05-30 06:32:19.200,2017-05-30 06:32:19.200,2017-05-30 06:32:32.000,sleep
2017-05-30 06:32:32.000,2017-05-30 06:32:32.000,2017-05-30 06:32:44.800,sleep
2017-05-30 06:32:44.800,2017-05-30 06:32:44.800,2017-05-30 06:32:57.600,sleep
2017-05-30 06:32:57.600,2017-05-30 06:32:57.600,2017-05-30 06:33:10.400,sleep
2017-05-30 06:33:10.400,2017-05-30 06:33:10.400,2017-05-30 06:33:23.200,sleep
2017-05-30 06:33:23.200,2017-05-30 06:33:23.200,2017-05-30 06:33:36.000,sleep
2017-05-30 06:33:36.000,2017-05-30 06:33:36.000,2017-05-30 06:33:48.800,sleep
2017-05-30 06:33:48.800,2017-05-30 06:33:48.800,2017-05-30 06:34:01.600,sleep
2017-05-30 06:34:01.600,2017-05-30 06:34:01.600,2017-05-30 06:34:14.400,sleep
2017-05-30 06:34:14.400,2017-05-30 06:34:14.400,2017-05-30 06:34:27.200,sleep
2017-05-30 06:34:27.200,2017-05-30 06:34:27.200,2017-05-30 06:34:40.000,sleep
2017-05-30 06:34:40.000,2017-05-30 06:34:40.000,2017-05-30 06:34:52.800,sleep
2017-05-30 06:34:52.800,2017-05-30 06:34:52.800,2017-05-30 06:35:05.600,sleep
2017-05-30 06:35:05.600,2017-05-30 06:35:05.600,2017-05-30 06:35:18.400,sleep
2017-05-30 06:35:18.400,2017-05-30 06:35:18.400,2017-05-30 06:35:31.200,sleep
2017-05-30 06:35:31.200,2017-05-30 06:35:31.200,2017-05-30 06:35:44.000,sleep
2017-05-30 06:35:44.000,2017-05-30 06:35:44.000,2017-05-30 06:35:56.800,sleep
2017-05-30 06:35:56.800,2017-05-30 06:35:56.800,2017-05-30 06:36:09.600,sleep
2017-05-30 06:36:09.600,2017-05-30 06:36:09.600,2017-05-30 06:36:22.400,sleep
2017-05-30 06:36:22.400,2017-05-30 06:36:22.400,2017-05-30 06:36:35.200,sleep
2017-05-30 06:36:35.200,2017-05-30 06:36:35.200,2017-05-30 06:36:48.000,sleep
2017-05-30 06:36:48.000,2017-05-30 06:36:48.000,2017-05-30 06:37:00.800,sleep
2017-05-30 06:37:00.800,2017-05-30 06:37:00.800,2017-05-30 06:37:13.600,sleep
2017-05-30 06:37:13.600,2017-05-30 06:37:13.600,2017-05-30 06:37:26.400,sleep
2017-05-30 06:37:26.400,2017-05-30 06:37:26.400,2017-05-30 06:37:39.200,sleep
2017-05-30 06:37:39.200,2017-05-30 06:37:39.200,2017-05-30 06:37:52.000,sleep
2017-05-30 06:37:52.000,2017-05-30 06:37:52.000,2017-05-30 06:38:04.800,sleep
2017-05-30 06:38:04.800,2017-05-30 06:38:04.800,2017-05-30 06:38:17.600,sleep
2017-05-30 06:38:17.600,2017-05-30 06:38:17.600,2017-05-30 06:38:30.400,sleep
2017-05-30 06:38:30.400,2017-05-30 06:38:30.400,2017-05-30 06:38:43.200,sleep
2017-05-30 06:38:43.200,2017-05-30 06:38:43.200,2017-05-30 06:38:56.000,sleep
2017-05-30 06:38:56.000,2017-05-30 06:38:56.000,2017-05-30 06:39:08.800,sleep
2017-05-30 06:39:08.800,2017-05-30 06:39:08.800,2017-05-30 06:39:21.600,sleep
2017-05-30 06:39:21.600,2017-05-30 06:39:21.600,2017-05-30 06:39:34.400,sleep
2017-05-30 06:39:34.400,2017-05-30 06:39:34.400,2017-05-30 06:39:47.200,sleep
2017-05-30 06:39:47.200,2017-05-30 06:39:47.200,2017-05-30 06:40:00.000,sleep
2017-05-30 06:40:00.000,2017-05-30 06:40:00.000,2017-05-30 06:40:12.800,sleep
2017-05-30 06:40:12.800,2017-05-30 06:40:12.800,2017-05-30 06:40:25.600,sleep
2017-05-30 06:40:25.600,2017-05-30 06:40:25.600,2017-05-30 06:40:38.400,sleep
2017-05-30 06:40:38.400,2017-05-30 06:40:38.400,2017-05-30 06:40:51.200,sleep
2017-05-30 06:40:51.200,2017-05-30 06:40:51.200,2017-05-30 06:41:04.000,sleep
2017-05-30 06:41:04.000,2017-05-30 06:41:04.000,2017-05-30 06:41:16.800,sleep
2017-05-30 06:41:16.800,2017-05-30 06:41:16.800,2017-05-30 06:41:29.600,sleep
2017-05-30 06:41:29.600,2017-05-30 06:41:29.600,2017-05-30 06:41:42.400,sleep
2017-05-30 06:41:42.400,2017-05-30 06:41:42.400,2017-05-30 06:41:55.200,sleep
2017-05-30 06:41:55.200,2017-05-30 06:41:55.200,2017-05-30 06:42:08.000,sleep
2017-05-30 06:42:08.000,2017-05-30 06:42:08.000,2017-05-30 06:42:20.800,sleep
2017-05-30 06:42:20.800,2017-05-30 06:42:20.800,2017-05-30 06:42:33.600,sleep
2017-05-30 06:42:33.600,2017-05-30 06:42:33.600,2017-05-30 06:42:46.400,sleep
2017-05-30 06:42:46.400,2017-05-30 06:42:46.400,2017-05-30 06:42:59.200,sleep
2017-05-30 06:42:59.200,2017-05-30 06:42:59.200,2017-05-30 06:43:12.000,sleep
2017-05-30 06:43:12.000,2017-05-30 06:43:12.000,2017-05-30 06:43:24.800,sleep
2017-05-30 06:43:24.800,2017-05-30 06:43:24.800,2017-05-30 06:43:37.600,sleep
2017-05-30 06:43:37.600,2017-05-30 06:43:37.600,2017-05-30 06:43:50.400,sleep
2017-05-30 06:43:50.400,2017-05-30 06:43:50.400,2017-05-30 06:44:03.200,sleep
2017-05-30 06:44:03.200,2017-05-30 06:44:03.200,2017-05-30 06:44:16.000,sleep
2017-05-30 06:44:16.000,2017-05-30 06:44:16.000,2017-05-30 06:44:28.800,sleep
2017-05-30 06:44:28.800,2017-05-30 06:44:28.800,2017-05-30 06:44:41.600,sleep
2017-05-30 06:44:41.600,2017-05-30 06:44:41.600,2017-05-30 06:44:54.400,sleep
2017-05-30 06:44:54.400,2017-05-30 06:44:54.400,2017-05-30 06:45:07.200,sleep
2017-05-30 06:45:07.200,2017-05-30 06:45:07.200,2017-05-30 06:45:20.000,sleep
2017-05-30 06:45:20.000,2017-05-30 06:45:20.000,2017-05-30 06:45:32.800,sleep
2017-05-30 06:45:32.800,2017-05-30 06:45:32.800,2017-05-30 06:45:45.600,sleep
2017-05-30 06:45:45.600,2017-05-30 06:45:45.600,2017-05-30 06:45:58.400,sleep
2017-05-30 06:45:58.400,2017-05-30 06:45:58.400,2017-05-30 06:46:11.200,sleep
2017-05-30 06:46:11.200,2017-05-30 06:46:11.200,2017-05-30 06:46:24.000,sleep
2017-05-30 06:46:24.000,2017-05-30 06:46:24.000,2017-05-30 06:46:36.800,sleep
2017-05-30 06:46:36.800,2017-05-30 06:46:36.800,2017-05-30 06:46:49.600,sleep
2017-05-30 06:46:49.600,2017-05-30 06:46:49.600,2017-05-30 06:47:02.400,sleep
2017-05-30 06:47:02.400,2017-05-30 06:47:02.400,2017-05-30 06:47:15.200,sleep
2017-05-30 06:47:15.200,2017-05-30 06:47:15.200,2017-05-30 06:47:28.000,sleep
2017-05-30 06:47:28.000,2017-05-30 06:47:28.000,2017-05-30 06:47:40.800,sleep
2017-05-30 06:47:40.800,2017-05-30 06:47:40.800,2017-05-30 06:47:53.600,sleep
2017-05-30 06:47:53.600,2017-05-30 06:47:53.600,2017-05-30 06:48:06.400,sleep
2017-05-30 06:48:06.400,2017-05-30 06:48:06.400,2017-05-30 06:48:19.200,sleep
2017-05-30 06:48:19.200,2017-05-30 06:48:19.200,2017-05-30 06:48:32.000,sleep
2017-05-30 06:48:32.000,2017-05-30 06:48:32.000,2017-05-30 06:48:44.800,sleep
2017-05-30 06:48:44.800,2017-05-30 06:48:44.800,2017-05-30 06:48:57.600,sleep
2017-05-30 06:48:57.600,2017-05-30 06:48:57.600,2017-05-30 06:49:10.400,sleep
2017-05-30 06:49:10.400,2017-05-30 06:49:10.400,2017-05-30 06:49:23.200,sleep
2017-05-30 06:49:23.200,2017-05-30 06:49:23.200,2017-05-30 06:49:36.000,sleep
2017-05-30 06:49:36.000,2017-05-30 06:49:36.000,2017-05-30 06:49:48.800,sleep
2017-05-30 06:49:48.800,2017-05-30 06:49:48.800,2017-05-30 06:50:01.600,sleep
2017-05-30 06:50:01.600,2017-05-30 06:50:01.600,2017-05-30 06:50:14.400,sleep
2017-05-30 06:50:14.400,2017-05-30 06:50:14.400,2017-05-30 06:50:27.200,sleep
2017-05-30 06:50:27.200,2017-05-30 06:50:27.200,2017-05-30 06:50:40.000,sleep
2017-05-30 06:50:40.000,2017-05-30 06:50:40.000,2017-05-30 06:50:52.800,sleep
2017-05-30 06:50:52.800,2017-05-30 06:50:52.800,2017-05-30 06:51:05.600,sleep
2017-05-30 06:51:05.600,2017-05-30 06:51:05.600,2017-05-30 06:51:18.400,sleep
2017-05-30 06:51:18.400,2017-05-30 06:51:18.400,2017-05-30 06:51:31.200,sleep
2017-05-30 06:51:31.200,2017-05-30 06:51:31.200,2017-05-30 06:51:44.000,sleep
2017-05-30 06:51:44.000,2017-05-30 06:51:44.000,2017-05-30 06:51:56.800,sleep
2017-05-30 06:51:56.800,2017-05-30 06:51:56.800,2017-05-30 06:52:09.600,sleep
2017-05-30 06:52:09.600,2017-05-30 06:52:09.600,2017-05-30 06:52:22.400,sleep
2017-05-30 06:52:22.400,2017-05-30 06:52:22.400,2017-05-30 06:52:35.200,sleep
2017-05-30 06:52:35.200,2017-05-30 06:52:35.200,2017-05-30 06:52:48.000,sleep
2017-05-30 06:52:48.000,2017-05-30 06:52:48.000,2017-05-30 06:53:00.800,sleep
2017-05-30 06:53:00.800,2017-05-30 06:53:00.800,2017-05-30 06:53:13.600,sleep
2017-05-30 06:53:13.600,2017-05-30 06:53:13.600,2017-05-30 06:53:26.400,sleep
2017-05-30 06:53:26.400,2017-05-30 06:53:26.400,2017-05-30 06:53:39.200,sleep
2017-05-30 06:53:39.200,2017-05-30 06:53:39.200,2017-05-30 06:53:52.000,sleep
2017-05-30 06:53:52.000,2017-05-30 06:53:52.000,2017-05-30 06:54:04.800,sleep
2017-05-30 06:54:04.800,2017-05-30 06:54:04.800,2017-05-30 06:54:17.600,sleep
2017-05-30 06:54:17.600,2017-05-30 06:54:17.600,2017-05-30 06:54:30.400,sleep
2017-05-30 06:54:30.400,2017-05-30 06:54:30.400,2017-05-30 06:54:43.200,sleep
2017-05-30 06:54:43.200,2017-05-30 06:54:43.200,2017-05-30 06:54:56.000,sleep
2017-05-30 06:54:56.000,2017-05-30 06:54:56.000,2017-05-30 06:55:08.800,sleep
2017-05-30 06:55:08.800,2017-05-30 06:55:08.800,2017-05-30 06:55:21.600,sleep
2017-05-30 06:55:21.600,2017-05-30 06:55:21.600,2017-05-30 06:55:34.400,sleep
2017-05-30 06:55:34.400,2017-05-30 06:55:34.400,2017-05-30 06:55:47.200,sleep
2017-05-30 06:55:47.200,2017-05-30 06:55:47.200,2017-05-30 06:56:00.000,sleep
2017-05-30 06:56:00.000,2017-05-30 06:56:00.000,2017-05-30 06:56:12.800,sleep
2017-05-30 06:56:12.800,2017-05-30 06:56:12.800,2017-05-30 06:56:25.600,sleep
2017-05-30 06:56:25.600,2017-05-30 06:56:25.600,2017-05-30 06:56:38.400,sleep
2017-05-30 06:56:38.400,2017-05-30 06:56:38.400,2017-05-30 06:56:51.200,sleep
2017-05-30 06:56:51.200,2017-05-30 06:56:51.200,2017-05-30 06:57:04.000,sleep
2017-05-30 06:57:04.000,2017-05-30 06:57:04.000,2017-05-30 06:57:16.800,sleep
2017-05-30 06:57:16.800,2017-05-30 06:57:16.800,2017-05-30 06:57:29.600,sleep
2017-05-30 06:57:29.600,2017-05-30 06:57:29.600,2017-05-30 06:57:42.400,sleep
2017-05-30 06:57:42.400,2017-05-30 06:57:42.400,2017-05-30 06:57:55.200,sleep
2017-05-30 06:57:55.200,2017-05-30 06:57:55.200,2017-05-30 06:58:08.000,sleep
2017-05-30 06:58:08.000,2017-05-30 06:58:08.000,2017-05-30 06:58:20.800,sleep
2017-05-30 06:58:20.800,2017-05-30 06:58:20.800,2017-05-30 06:58:33.600,sleep
2017-05-30 06:58:33.600,2017-05-30 06:58:33.600,2017-05-30 06:58:46.400,sleep
2017-05-30 06:58:46.400,2017-05-30 06:58:46.400,2017-05-30 06:58:59.200,sleep
2017-05-30 06:58:59.200,2017-05-30 06:58:59.200,2017-05-30 06:59:12.000,sleep
2017-05-30 06:59:12.000,2017-05-30 06:59:12.000,2017-05-30 06:59:24.800,sleep
2017-05-30 06:59:24.800,2017-05-30 06:59:24.800,2017-05-30 06:59:37.600,sleep
2017-05-30 06:59:37.600,2017-05-30 06:59:37.600,2017-05-30 06:59:50.400,sleep
2017-05-30 06:59:50.400,2017-05-30 06:59:50.400,2017-05-30 06:59:59.999,sleep
2017-05-30 06:59:50.400,2017-05-30 06:59:50.400,2017-05-30 06:59:59.999,sleep
