HEADER_TIME_STAMP,START_TIME,STOP_TIME,LABEL_PROBABILITY
2017-05-30 06:00:32.000,2017-05-30 06:00:32.000,2017-05-30 06:01:36.000,0.999
2017-05-30 06:01:36.000,2017-05-30 06:01:36.000,2017-05-30 06:02:40.000,0.997
2017-05-30 06:02:40.000,2017-05-30 06:02:40.000,2017-05-30 06:03:44.000,0.999
2017-05-30 06:03:44.000,2017-05-30 06:03:44.000,2017-05-30 06:04:48.000,0.993
2017-05-30 06:04:48.000,2017-05-30 06:04:48.000,2017-05-30 06:05:52.000,0.999
2017-05-30 06:05:52.000,2017-05-30 06:05:52.000,2017-05-30 06:06:56.000,1.0
2017-05-30 06:06:56.000,2017-05-30 06:06:56.000,2017-05-30 06:08:00.000,1.0
2017-05-30 06:08:00.000,2017-05-30 06:08:00.000,2017-05-30 06:09:04.000,1.0
2017-05-30 06:09:04.000,2017-05-30 06:09:04.000,2017-05-30 06:10:08.000,1.0
2017-05-30 06:10:08.000,2017-05-30 06:10:08.000,2017-05-30 06:11:12.000,1.0
2017-05-30 06:11:12.000,2017-05-30 06:11:12.000,2017-05-30 06:12:16.000,0.999
2017-05-30 06:12:16.000,2017-05-30 06:12:16.000,2017-05-30 06:13:20.000,0.896
2017-05-30 06:13:20.000,2017-05-30 06:13:20.000,2017-05-30 06:14:24.000,0.97
2017-05-30 06:14:24.000,2017-05-30 06:14:24.000,2017-05-30 06:15:28.000,0.992
2017-05-30 06:15:28.000,2017-05-30 06:15:28.000,2017-05-30 06:16:32.000,0.998
2017-05-30 06:16:32.000,2017-05-30 06:16:32.000,2017-05-30 06:17:36.000,0.997
2017-05-30 06:17:36.000,2017-05-30 06:17:36.000,2017-05-30 06:18:40.000,0.996
2017-05-30 06:18:40.000,2017-05-30 06:18:40.000,2017-05-30 06:19:44.000,0.976
2017-05-30 06:19:44.000,2017-05-30 06:19:44.000,2017-05-30 06:20:48.000,0.997
2017-05-30 06:20:48.000,2017-05-30 06:20:48.000,2017-05-30 06:21:52.000,0.975
2017-05-30 06:21:52.000,2017-05-30 06:21:52.000,2017-05-30 06:22:56.000,0.963
2017-05-30 06:22:56.000,2017-05-30 06:22:56.000,2017-05-30 06:24:00.000,0.876
2017-05-30 06:24:00.000,2017-05-30 06:24:00.000,2017-05-30 06:25:04.000,0.918
2017-05-30 06:25:04.000,2017-05-30 06:25:04.000,2017-05-30 06:26:08.000,0.973
2017-05-30 06:26:08.000,2017-05-30 06:26:08.000,2017-05-30 06:27:12.000,0.977
2017-05-30 06:27:12.000,2017-05-30 06:27:12.000,2017-05-30 06:28:16.000,0.913
2017-05-30 06:28:16.000,2017-05-30 06:28:16.000,2017-05-30 06:29:20.000,0.982
2017-05-30 06:29:20.000,2017-05-30 06:29:20.000,2017-05-30 06:30:24.000,0.955
2017-05-30 06:30:24.000,2017-05-30 06:30:24.000,2017-05-30 06:31:28.000,0.875
2017-05-30 06:31:28.000,2017-05-30 06:31:28.000,2017-05-30 06:32:32.000,0.91
2017-05-30 06:32:32.000,2017-05-30 06:32:32.000,2017-05-30 06:33:36.000,0.978
2017-05-30 06:33:36.000,2017-05-30 06:33:36.000,2017-05-30 06:34:40.000,0.943
2017-05-30 06:34:40.000,2017-05-30 06:34:40.000,2017-05-30 06:35:44.000,0.983
2017-05-30 06:35:44.000,2017-05-30 06:35:44.000,2017-05-30 06:36:48.000,0.976
2017-05-30 06:36:48.000,2017-05-30 06:36:48.000,2017-05-30 06:37:52.000,0.961
2017-05-30 06:37:52.000,2017-05-30 06:37:52.000,2017-05-30 06:38:56.000,0.935
2017-05-30 06:38:56.000,2017-05-30 06:38:56.000,2017-05-30 06:40:00.000,0.979
2017-05-30 06:40:00.000,2017-05-30 06:40:00.000,2017-05-30 06:41:04.000,0.972
2017-05-30 06:41:04.000,2017-05-30 06:41:04.000,2017-05-30 06:42:08.000,0.911
2017-05-30 06:42:08.000,2017-05-30 06:42:08.000,2017-05-30 06:43:12.000,0.911
2017-05-30 06:43:12.000,2017-05-30 06:43:12.000,2017-05-30 06:44:16.000,0.876
2017-05-30 06:44:16.000,2017-05-30 06:44:16.000,2017-05-30 06:45:20.000,0.947
2017-05-30 06:45:20.000,2017-05-30 06:45:20.000,2017-05-30 06:46:24.000,0.994
2017-05-30 06:46:24.000,2017-05-30 06:46:24.000,2017-05-30 06:47:28.000,0.663
2017-05-30 06:47:28.000,2017-05-30 06:47:28.000,2017-05-30 06:48:32.000,0.881
2017-05-30 06:48:32.000,2017-05-30 06:48:32.000,2017-05-30 06:49:36.000,0.988
2017-05-30 06:49:36.000,2017-05-30 06:49:36.000,2017-05-30 06:50:40.000,0.577
2017-05-30 06:50:40.000,2017-05-30 06:50:40.000,2017-05-30 06:51:44.000,0.974
2017-05-30 06:51:44.000,2017-05-30 06:51:44.000,2017-05-30 06:52:48.000,0.932
2017-05-30 06:52:48.000,2017-05-30 06:52:48.000,2017-05-30 06:53:52.000,0.89
2017-05-30 06:53:52.000,2017-05-30 06:53:52.000,2017-05-30 06:54:56.000,0.967
2017-05-30 06:54:56.000,2017-05-30 06:54:56.000,2017-05-30 06:56:00.000,0.976
2017-05-30 06:56:00.000,2017-05-30 06:56:00.000,2017-05-30 06:57:04.000,0.936
2017-05-30 06:57:04.000,2017-05-30 06:57:04.000,2017-05-30 06:58:08.000,0.976
2017-05-30 06:58:08.000,2017-05-30 06:58:08.000,2017-05-30 06:59:12.000,0.989
2017-05-30 06:59:12.000,2017-05-30 06:59:12.000,2017-05-30 06:59:59.999,0.886
