HEADER_TIME_STAMP,START_TIME,STOP_TIME,LABEL_PREDICTED
2017-05-28 03:00:16.000,2017-05-28 03:00:16.000,2017-05-28 03:01:20.000,nonwear
2017-05-28 03:01:20.000,2017-05-28 03:01:20.000,2017-05-28 03:02:24.000,nonwear
2017-05-28 03:02:24.000,2017-05-28 03:02:24.000,2017-05-28 03:03:28.000,nonwear
2017-05-28 03:03:28.000,2017-05-28 03:03:28.000,2017-05-28 03:04:32.000,wear
2017-05-28 03:04:32.000,2017-05-28 03:04:32.000,2017-05-28 03:05:36.000,nonwear
2017-05-28 03:05:36.000,2017-05-28 03:05:36.000,2017-05-28 03:06:40.000,wear
2017-05-28 03:06:40.000,2017-05-28 03:06:40.000,2017-05-28 03:07:44.000,nonwear
2017-05-28 03:07:44.000,2017-05-28 03:07:44.000,2017-05-28 03:08:48.000,nonwear
2017-05-28 03:08:48.000,2017-05-28 03:08:48.000,2017-05-28 03:09:52.000,nonwear
2017-05-28 03:09:52.000,2017-05-28 03:09:52.000,2017-05-28 03:10:56.000,wear
2017-05-28 03:10:56.000,2017-05-28 03:10:56.000,2017-05-28 03:12:00.000,wear
2017-05-28 03:12:00.000,2017-05-28 03:12:00.000,2017-05-28 03:13:04.000,wear
2017-05-28 03:13:04.000,2017-05-28 03:13:04.000,2017-05-28 03:14:08.000,nonwear
2017-05-28 03:14:08.000,2017-05-28 03:14:08.000,2017-05-28 03:15:12.000,nonwear
2017-05-28 03:15:12.000,2017-05-28 03:15:12.000,2017-05-28 03:16:16.000,nonwear
2017-05-28 03:16:16.000,2017-05-28 03:16:16.000,2017-05-28 03:17:20.000,nonwear
2017-05-28 03:17:20.000,2017-05-28 03:17:20.000,2017-05-28 03:18:24.000,nonwear
2017-05-28 03:18:24.000,2017-05-28 03:18:24.000,2017-05-28 03:19:28.000,nonwear
2017-05-28 03:19:28.000,2017-05-28 03:19:28.000,2017-05-28 03:20:32.000,nonwear
2017-05-28 03:20:32.000,2017-05-28 03:20:32.000,2017-05-28 03:21:36.000,wear
2017-05-28 03:21:36.000,2017-05-28 03:21:36.000,2017-05-28 03:22:40.000,wear
2017-05-28 03:22:40.000,2017-05-28 03:22:40.000,2017-05-28 03:23:44.000,wear
2017-05-28 03:23:44.000,2017-05-28 03:23:44.000,2017-05-28 03:24:48.000,wear
2017-05-28 03:24:48.000,2017-05-28 03:24:48.000,2017-05-28 03:25:52.000,wear
2017-05-28 03:25:52.000,2017-05-28 03:25:52.000,2017-05-28 03:26:56.000,wear
2017-05-28 03:26:56.000,2017-05-28 03:26:56.000,2017-05-28 03:28:00.000,wear
2017-05-28 03:28:00.000,2017-05-28 03:28:00.000,2017-05-28 03:29:04.000,wear
2017-05-28 03:29:04.000,2017-05-28 03:29:04.000,2017-05-28 03:30:08.000,wear
2017-05-28 03:30:08.000,2017-05-28 03:30:08.000,2017-05-28 03:31:12.000,wear
2017-05-28 03:31:12.000,2017-05-28 03:31:12.000,2017-05-28 03:32:16.000,nonwear
2017-05-28 03:32:16.000,2017-05-28 03:32:16.000,2017-05-28 03:33:20.000,wear
2017-05-28 03:33:20.000,2017-05-28 03:33:20.000,2017-05-28 03:34:24.000,nonwear
2017-05-28 03:34:24.000,2017-05-28 03:34:24.000,2017-05-28 03:35:28.000,nonwear
2017-05-28 03:35:28.000,2017-05-28 03:35:28.000,2017-05-28 03:36:32.000,nonwear
2017-05-28 03:36:32.000,2017-05-28 03:36:32.000,2017-05-28 03:37:36.000,nonwear
2017-05-28 03:37:36.000,2017-05-28 03:37:36.000,2017-05-28 03:38:40.000,nonwear
2017-05-28 03:38:40.000,2017-05-28 03:38:40.000,2017-05-28 03:39:44.000,wear
2017-05-28 03:39:44.000,2017-05-28 03:39:44.000,2017-05-28 03:40:48.000,wear
2017-05-28 03:40:48.000,2017-05-28 03:40:48.000,2017-05-28 03:41:52.000,wear
2017-05-28 03:41:52.000,2017-05-28 03:41:52.000,2017-05-28 03:42:56.000,wear
2017-05-28 03:42:56.000,2017-05-28 03:42:56.000,2017-05-28 03:44:00.000,wear
2017-05-28 03:44:00.000,2017-05-28 03:44:00.000,2017-05-28 03:45:04.000,wear
2017-05-28 03:45:04.000,2017-05-28 03:45:04.000,2017-05-28 03:46:08.000,wear
2017-05-28 03:46:08.000,2017-05-28 03:46:08.000,2017-05-28 03:47:12.000,wear
2017-05-28 03:47:12.000,2017-05-28 03:47:12.000,2017-05-28 03:48:16.000,wear
2017-05-28 03:48:16.000,2017-05-28 03:48:16.000,2017-05-28 03:49:20.000,nonwear
2017-05-28 03:49:20.000,2017-05-28 03:49:20.000,2017-05-28 03:50:24.000,nonwear
2017-05-28 03:50:24.000,2017-05-28 03:50:24.000,2017-05-28 03:51:28.000,nonwear
2017-05-28 03:51:28.000,2017-05-28 03:51:28.000,2017-05-28 03:52:32.000,nonwear
2017-05-28 03:52:32.000,2017-05-28 03:52:32.000,2017-05-28 03:53:36.000,nonwear
2017-05-28 03:53:36.000,2017-05-28 03:53:36.000,2017-05-28 03:54:40.000,wear
2017-05-28 03:54:40.000,2017-05-28 03:54:40.000,2017-05-28 03:55:44.000,nonwear
2017-05-28 03:55:44.000,2017-05-28 03:55:44.000,2017-05-28 03:56:48.000,nonwear
2017-05-28 03:56:48.000,2017-05-28 03:56:48.000,2017-05-28 03:57:52.000,nonwear
2017-05-28 03:57:52.000,2017-05-28 03:57:52.000,2017-05-28 03:58:56.000,wear
2017-05-28 03:58:56.000,2017-05-28 03:58:56.000,2017-05-28 03:59:59.999,wear
