HEADER_TIME_STAMP,START_TIME,STOP_TIME,LABEL_PROBABILITY
2017-05-28 03:00:16.000,2017-05-28 03:00:16.000,2017-05-28 03:01:20.000,0.922
2017-05-28 03:01:20.000,2017-05-28 03:01:20.000,2017-05-28 03:02:24.000,0.86
2017-05-28 03:02:24.000,2017-05-28 03:02:24.000,2017-05-28 03:03:28.000,0.794
2017-05-28 03:03:28.000,2017-05-28 03:03:28.000,2017-05-28 03:04:32.000,0.689
2017-05-28 03:04:32.000,2017-05-28 03:04:32.000,2017-05-28 03:05:36.000,0.922
2017-05-28 03:05:36.000,2017-05-28 03:05:36.000,2017-05-28 03:06:40.000,0.581
2017-05-28 03:06:40.000,2017-05-28 03:06:40.000,2017-05-28 03:07:44.000,0.86
2017-05-28 03:07:44.000,2017-05-28 03:07:44.000,2017-05-28 03:08:48.000,0.881
2017-05-28 03:08:48.000,2017-05-28 03:08:48.000,2017-05-28 03:09:52.000,0.881
2017-05-28 03:09:52.000,2017-05-28 03:09:52.000,2017-05-28 03:10:56.000,0.797
2017-05-28 03:10:56.000,2017-05-28 03:10:56.000,2017-05-28 03:12:00.000,0.689
2017-05-28 03:12:00.000,2017-05-28 03:12:00.000,2017-05-28 03:13:04.000,0.689
2017-05-28 03:13:04.000,2017-05-28 03:13:04.000,2017-05-28 03:14:08.000,0.86
2017-05-28 03:14:08.000,2017-05-28 03:14:08.000,2017-05-28 03:15:12.000,0.86
2017-05-28 03:15:12.000,2017-05-28 03:15:12.000,2017-05-28 03:16:16.000,0.794
2017-05-28 03:16:16.000,2017-05-28 03:16:16.000,2017-05-28 03:17:20.000,0.86
2017-05-28 03:17:20.000,2017-05-28 03:17:20.000,2017-05-28 03:18:24.000,0.86
2017-05-28 03:18:24.000,2017-05-28 03:18:24.000,2017-05-28 03:19:28.000,0.86
2017-05-28 03:19:28.000,2017-05-28 03:19:28.000,2017-05-28 03:20:32.000,0.781
2017-05-28 03:20:32.000,2017-05-28 03:20:32.000,2017-05-28 03:21:36.000,0.739
2017-05-28 03:21:36.000,2017-05-28 03:21:36.000,2017-05-28 03:22:40.000,0.615
2017-05-28 03:22:40.000,2017-05-28 03:22:40.000,2017-05-28 03:23:44.000,0.615
2017-05-28 03:23:44.000,2017-05-28 03:23:44.000,2017-05-28 03:24:48.000,0.615
2017-05-28 03:24:48.000,2017-05-28 03:24:48.000,2017-05-28 03:25:52.000,0.739
2017-05-28 03:25:52.000,2017-05-28 03:25:52.000,2017-05-28 03:26:56.000,0.739
2017-05-28 03:26:56.000,2017-05-28 03:26:56.000,2017-05-28 03:28:00.000,0.739
2017-05-28 03:28:00.000,2017-05-28 03:28:00.000,2017-05-28 03:29:04.000,0.739
2017-05-28 03:29:04.000,2017-05-28 03:29:04.000,2017-05-28 03:30:08.000,0.739
2017-05-28 03:30:08.000,2017-05-28 03:30:08.000,2017-05-28 03:31:12.000,0.615
2017-05-28 03:31:12.000,2017-05-28 03:31:12.000,2017-05-28 03:32:16.000,0.611
2017-05-28 03:32:16.000,2017-05-28 03:32:16.000,2017-05-28 03:33:20.000,0.615
2017-05-28 03:33:20.000,2017-05-28 03:33:20.000,2017-05-28 03:34:24.000,0.5
2017-05-28 03:34:24.000,2017-05-28 03:34:24.000,2017-05-28 03:35:28.000,0.5
2017-05-28 03:35:28.000,2017-05-28 03:35:28.000,2017-05-28 03:36:32.000,0.5
2017-05-28 03:36:32.000,2017-05-28 03:36:32.000,2017-05-28 03:37:36.000,0.5
2017-05-28 03:37:36.000,2017-05-28 03:37:36.000,2017-05-28 03:38:40.000,0.5
2017-05-28 03:38:40.000,2017-05-28 03:38:40.000,2017-05-28 03:39:44.000,0.844
2017-05-28 03:39:44.000,2017-05-28 03:39:44.000,2017-05-28 03:40:48.000,0.776
2017-05-28 03:40:48.000,2017-05-28 03:40:48.000,2017-05-28 03:41:52.000,0.844
2017-05-28 03:41:52.000,2017-05-28 03:41:52.000,2017-05-28 03:42:56.000,0.844
2017-05-28 03:42:56.000,2017-05-28 03:42:56.000,2017-05-28 03:44:00.000,0.844
2017-05-28 03:44:00.000,2017-05-28 03:44:00.000,2017-05-28 03:45:04.000,0.844
2017-05-28 03:45:04.000,2017-05-28 03:45:04.000,2017-05-28 03:46:08.000,0.844
2017-05-28 03:46:08.000,2017-05-28 03:46:08.000,2017-05-28 03:47:12.000,0.844
2017-05-28 03:47:12.000,2017-05-28 03:47:12.000,2017-05-28 03:48:16.000,0.939
2017-05-28 03:48:16.000,2017-05-28 03:48:16.000,2017-05-28 03:49:20.000,0.706
2017-05-28 03:49:20.000,2017-05-28 03:49:20.000,2017-05-28 03:50:24.000,0.931
2017-05-28 03:50:24.000,2017-05-28 03:50:24.000,2017-05-28 03:51:28.000,0.756
2017-05-28 03:51:28.000,2017-05-28 03:51:28.000,2017-05-28 03:52:32.000,0.756
2017-05-28 03:52:32.000,2017-05-28 03:52:32.000,2017-05-28 03:53:36.000,0.853
2017-05-28 03:53:36.000,2017-05-28 03:53:36.000,2017-05-28 03:54:40.000,0.725
2017-05-28 03:54:40.000,2017-05-28 03:54:40.000,2017-05-28 03:55:44.000,0.799
2017-05-28 03:55:44.000,2017-05-28 03:55:44.000,2017-05-28 03:56:48.000,0.745
2017-05-28 03:56:48.000,2017-05-28 03:56:48.000,2017-05-28 03:57:52.000,0.799
2017-05-28 03:57:52.000,2017-05-28 03:57:52.000,2017-05-28 03:58:56.000,0.968
2017-05-28 03:58:56.000,2017-05-28 03:58:56.000,2017-05-28 03:59:59.999,0.984
