HEADER_TIME_STAMP,START_TIME,STOP_TIME,LABEL_PROBABILITY
2017-05-28 11:00:16.000,2017-05-28 11:00:16.000,2017-05-28 11:01:20.000,0.958
2017-05-28 11:01:20.000,2017-05-28 11:01:20.000,2017-05-28 11:02:24.000,0.955
2017-05-28 11:02:24.000,2017-05-28 11:02:24.000,2017-05-28 11:03:28.000,0.977
2017-05-28 11:03:28.000,2017-05-28 11:03:28.000,2017-05-28 11:04:32.000,0.919
2017-05-28 11:04:32.000,2017-05-28 11:04:32.000,2017-05-28 11:05:36.000,0.953
2017-05-28 11:05:36.000,2017-05-28 11:05:36.000,2017-05-28 11:06:40.000,0.992
2017-05-28 11:06:40.000,2017-05-28 11:06:40.000,2017-05-28 11:07:44.000,0.98
2017-05-28 11:07:44.000,2017-05-28 11:07:44.000,2017-05-28 11:08:48.000,0.941
2017-05-28 11:08:48.000,2017-05-28 11:08:48.000,2017-05-28 11:09:52.000,0.968
2017-05-28 11:09:52.000,2017-05-28 11:09:52.000,2017-05-28 11:10:56.000,0.983
2017-05-28 11:10:56.000,2017-05-28 11:10:56.000,2017-05-28 11:12:00.000,0.955
2017-05-28 11:12:00.000,2017-05-28 11:12:00.000,2017-05-28 11:13:04.000,0.991
2017-05-28 11:13:04.000,2017-05-28 11:13:04.000,2017-05-28 11:14:08.000,0.925
2017-05-28 11:14:08.000,2017-05-28 11:14:08.000,2017-05-28 11:15:12.000,0.996
2017-05-28 11:15:12.000,2017-05-28 11:15:12.000,2017-05-28 11:16:16.000,0.976
2017-05-28 11:16:16.000,2017-05-28 11:16:16.000,2017-05-28 11:17:20.000,0.992
2017-05-28 11:17:20.000,2017-05-28 11:17:20.000,2017-05-28 11:18:24.000,0.988
2017-05-28 11:18:24.000,2017-05-28 11:18:24.000,2017-05-28 11:19:28.000,0.994
2017-05-28 11:19:28.000,2017-05-28 11:19:28.000,2017-05-28 11:20:32.000,0.97
2017-05-28 11:20:32.000,2017-05-28 11:20:32.000,2017-05-28 11:21:36.000,0.989
2017-05-28 11:21:36.000,2017-05-28 11:21:36.000,2017-05-28 11:22:40.000,0.986
2017-05-28 11:22:40.000,2017-05-28 11:22:40.000,2017-05-28 11:23:44.000,0.989
2017-05-28 11:23:44.000,2017-05-28 11:23:44.000,2017-05-28 11:24:48.000,0.825
2017-05-28 11:24:48.000,2017-05-28 11:24:48.000,2017-05-28 11:25:52.000,0.797
2017-05-28 11:25:52.000,2017-05-28 11:25:52.000,2017-05-28 11:26:56.000,0.623
2017-05-28 11:26:56.000,2017-05-28 11:26:56.000,2017-05-28 11:28:00.000,0.914
2017-05-28 11:28:00.000,2017-05-28 11:28:00.000,2017-05-28 11:29:04.000,0.996
2017-05-28 11:29:04.000,2017-05-28 11:29:04.000,2017-05-28 11:30:08.000,0.992
2017-05-28 11:30:08.000,2017-05-28 11:30:08.000,2017-05-28 11:31:12.000,0.93
2017-05-28 11:31:12.000,2017-05-28 11:31:12.000,2017-05-28 11:32:16.000,0.838
2017-05-28 11:32:16.000,2017-05-28 11:32:16.000,2017-05-28 11:33:20.000,0.97
2017-05-28 11:33:20.000,2017-05-28 11:33:20.000,2017-05-28 11:34:24.000,0.986
2017-05-28 11:34:24.000,2017-05-28 11:34:24.000,2017-05-28 11:35:28.000,0.982
2017-05-28 11:35:28.000,2017-05-28 11:35:28.000,2017-05-28 11:36:32.000,0.996
2017-05-28 11:36:32.000,2017-05-28 11:36:32.000,2017-05-28 11:37:36.000,0.999
2017-05-28 11:37:36.000,2017-05-28 11:37:36.000,2017-05-28 11:38:40.000,0.978
2017-05-28 11:38:40.000,2017-05-28 11:38:40.000,2017-05-28 11:39:44.000,0.996
2017-05-28 11:39:44.000,2017-05-28 11:39:44.000,2017-05-28 11:40:48.000,0.976
2017-05-28 11:40:48.000,2017-05-28 11:40:48.000,2017-05-28 11:41:52.000,0.966
2017-05-28 11:41:52.000,2017-05-28 11:41:52.000,2017-05-28 11:42:56.000,0.997
2017-05-28 11:42:56.000,2017-05-28 11:42:56.000,2017-05-28 11:44:00.000,0.994
2017-05-28 11:44:00.000,2017-05-28 11:44:00.000,2017-05-28 11:45:04.000,0.995
2017-05-28 11:45:04.000,2017-05-28 11:45:04.000,2017-05-28 11:46:08.000,0.934
2017-05-28 11:46:08.000,2017-05-28 11:46:08.000,2017-05-28 11:47:12.000,0.694
2017-05-28 11:47:12.000,2017-05-28 11:47:12.000,2017-05-28 11:48:16.000,0.954
2017-05-28 11:48:16.000,2017-05-28 11:48:16.000,2017-05-28 11:49:20.000,0.969
2017-05-28 11:49:20.000,2017-05-28 11:49:20.000,2017-05-28 11:50:24.000,0.979
2017-05-28 11:50:24.000,2017-05-28 11:50:24.000,2017-05-28 11:51:28.000,0.984
2017-05-28 11:51:28.000,2017-05-28 11:51:28.000,2017-05-28 11:52:32.000,0.994
2017-05-28 11:52:32.000,2017-05-28 11:52:32.000,2017-05-28 11:53:36.000,0.988
2017-05-28 11:53:36.000,2017-05-28 11:53:36.000,2017-05-28 11:54:40.000,0.955
2017-05-28 11:54:40.000,2017-05-28 11:54:40.000,2017-05-28 11:55:44.000,0.991
2017-05-28 11:55:44.000,2017-05-28 11:55:44.000,2017-05-28 11:56:48.000,0.974
2017-05-28 11:56:48.000,2017-05-28 11:56:48.000,2017-05-28 11:57:52.000,0.996
2017-05-28 11:57:52.000,2017-05-28 11:57:52.000,2017-05-28 11:58:56.000,0.962
2017-05-28 11:58:56.000,2017-05-28 11:58:56.000,2017-05-28 11:59:59.999,0.992
