HEADER_TIME_STAMP,START_TIME,STOP_TIME,LABEL_NAME
2017-05-31 12:00:00.000,2017-05-31 12:00:00.000,2017-05-31 12:00:12.800,wear
2017-05-31 12:00:12.800,2017-05-31 12:00:12.800,2017-05-31 12:00:25.600,wear
2017-05-31 12:00:25.600,2017-05-31 12:00:25.600,2017-05-31 12:00:38.400,wear
2017-05-31 12:00:38.400,2017-05-31 12:00:38.400,2017-05-31 12:00:51.200,wear
2017-05-31 12:00:51.200,2017-05-31 12:00:51.200,2017-05-31 12:01:04.000,wear
2017-05-31 12:01:04.000,2017-05-31 12:01:04.000,2017-05-31 12:01:16.800,wear
2017-05-31 12:01:16.800,2017-05-31 12:01:16.800,2017-05-31 12:01:29.600,wear
2017-05-31 12:01:29.600,2017-05-31 12:01:29.600,2017-05-31 12:01:42.400,wear
2017-05-31 12:01:42.400,2017-05-31 12:01:42.400,2017-05-31 12:01:55.200,wear
2017-05-31 12:01:55.200,2017-05-31 12:01:55.200,2017-05-31 12:02:08.000,wear
2017-05-31 12:02:08.000,2017-05-31 12:02:08.000,2017-05-31 12:02:20.800,wear
2017-05-31 12:02:20.800,2017-05-31 12:02:20.800,2017-05-31 12:02:33.600,wear
2017-05-31 12:02:33.600,2017-05-31 12:02:33.600,2017-05-31 12:02:46.400,wear
2017-05-31 12:02:46.400,2017-05-31 12:02:46.400,2017-05-31 12:02:59.200,wear
2017-05-31 12:02:59.200,2017-05-31 12:02:59.200,2017-05-31 12:03:12.000,wear
2017-05-31 12:03:12.000,2017-05-31 12:03:12.000,2017-05-31 12:03:24.800,wear
2017-05-31 12:03:24.800,2017-05-31 12:03:24.800,2017-05-31 12:03:37.600,wear
2017-05-31 12:03:37.600,2017-05-31 12:03:37.600,2017-05-31 12:03:50.400,wear
2017-05-31 12:03:50.400,2017-05-31 12:03:50.400,2017-05-31 12:04:03.200,wear
2017-05-31 12:04:03.200,2017-05-31 12:04:03.200,2017-05-31 12:04:16.000,wear
2017-05-31 12:04:16.000,2017-05-31 12:04:16.000,2017-05-31 12:04:28.800,wear
2017-05-31 12:04:28.800,2017-05-31 12:04:28.800,2017-05-31 12:04:41.600,wear
2017-05-31 12:04:41.600,2017-05-31 12:04:41.600,2017-05-31 12:04:54.400,wear
2017-05-31 12:04:54.400,2017-05-31 12:04:54.400,2017-05-31 12:05:07.200,wear
2017-05-31 12:05:07.200,2017-05-31 12:05:07.200,2017-05-31 12:05:20.000,wear
2017-05-31 12:05:20.000,2017-05-31 12:05:20.000,2017-05-31 12:05:32.800,wear
2017-05-31 12:05:32.800,2017-05-31 12:05:32.800,2017-05-31 12:05:45.600,wear
2017-05-31 12:05:45.600,2017-05-31 12:05:45.600,2017-05-31 12:05:58.400,wear
2017-05-31 12:05:58.400,2017-05-31 12:05:58.400,2017-05-31 12:06:11.200,wear
2017-05-31 12:06:11.200,2017-05-31 12:06:11.200,2017-05-31 12:06:24.000,wear
2017-05-31 12:06:24.000,2017-05-31 12:06:24.000,2017-05-31 12:06:36.800,wear
2017-05-31 12:06:36.800,2017-05-31 12:06:36.800,2017-05-31 12:06:49.600,wear
2017-05-31 12:06:49.600,2017-05-31 12:06:49.600,2017-05-31 12:07:02.400,wear
2017-05-31 12:07:02.400,2017-05-31 12:07:02.400,2017-05-31 12:07:15.200,wear
2017-05-31 12:07:15.200,2017-05-31 12:07:15.200,2017-05-31 12:07:28.000,wear
2017-05-31 12:07:28.000,2017-05-31 12:07:28.000,2017-05-31 12:07:40.800,wear
2017-05-31 12:07:40.800,2017-05-31 12:07:40.800,2017-05-31 12:07:53.600,wear
2017-05-31 12:07:53.600,2017-05-31 12:07:53.600,2017-05-31 12:08:06.400,wear
2017-05-31 12:08:06.400,2017-05-31 12:08:06.400,2017-05-31 12:08:19.200,wear
2017-05-31 12:08:19.200,2017-05-31 12:08:19.200,2017-05-31 12:08:32.000,wear
2017-05-31 12:08:32.000,2017-05-31 12:08:32.000,2017-05-31 12:08:44.800,wear
2017-05-31 12:08:44.800,2017-05-31 12:08:44.800,2017-05-31 12:08:57.600,wear
2017-05-31 12:08:57.600,2017-05-31 12:08:57.600,2017-05-31 12:09:10.400,wear
2017-05-31 12:09:10.400,2017-05-31 12:09:10.400,2017-05-31 12:09:23.200,wear
2017-05-31 12:09:23.200,2017-05-31 12:09:23.200,2017-05-31 12:09:36.000,wear
2017-05-31 12:09:36.000,2017-05-31 12:09:36.000,2017-05-31 12:09:48.800,wear
2017-05-31 12:09:48.800,2017-05-31 12:09:48.800,2017-05-31 12:10:01.600,wear
2017-05-31 12:10:01.600,2017-05-31 12:10:01.600,2017-05-31 12:10:14.400,wear
2017-05-31 12:10:14.400,2017-05-31 12:10:14.400,2017-05-31 12:10:27.200,wear
2017-05-31 12:10:27.200,2017-05-31 12:10:27.200,2017-05-31 12:10:40.000,wear
2017-05-31 12:10:40.000,2017-05-31 12:10:40.000,2017-05-31 12:10:52.800,wear
2017-05-31 12:10:52.800,2017-05-31 12:10:52.800,2017-05-31 12:11:05.600,wear
2017-05-31 12:11:05.600,2017-05-31 12:11:05.600,2017-05-31 12:11:18.400,wear
2017-05-31 12:11:18.400,2017-05-31 12:11:18.400,2017-05-31 12:11:31.200,wear
2017-05-31 12:11:31.200,2017-05-31 12:11:31.200,2017-05-31 12:11:44.000,wear
2017-05-31 12:11:44.000,2017-05-31 12:11:44.000,2017-05-31 12:11:56.800,wear
2017-05-31 12:11:56.800,2017-05-31 12:11:56.800,2017-05-31 12:12:09.600,wear
2017-05-31 12:12:09.600,2017-05-31 12:12:09.600,2017-05-31 12:12:22.400,wear
2017-05-31 12:12:22.400,2017-05-31 12:12:22.400,2017-05-31 12:12:35.200,wear
2017-05-31 12:12:35.200,2017-05-31 12:12:35.200,2017-05-31 12:12:48.000,wear
2017-05-31 12:12:48.000,2017-05-31 12:12:48.000,2017-05-31 12:13:00.800,wear
2017-05-31 12:13:00.800,2017-05-31 12:13:00.800,2017-05-31 12:13:13.600,wear
2017-05-31 12:13:13.600,2017-05-31 12:13:13.600,2017-05-31 12:13:26.400,wear
2017-05-31 12:13:26.400,2017-05-31 12:13:26.400,2017-05-31 12:13:39.200,wear
2017-05-31 12:13:39.200,2017-05-31 12:13:39.200,2017-05-31 12:13:52.000,wear
2017-05-31 12:13:52.000,2017-05-31 12:13:52.000,2017-05-31 12:14:04.800,wear
2017-05-31 12:14:04.800,2017-05-31 12:14:04.800,2017-05-31 12:14:17.600,wear
2017-05-31 12:14:17.600,2017-05-31 12:14:17.600,2017-05-31 12:14:30.400,wear
2017-05-31 12:14:30.400,2017-05-31 12:14:30.400,2017-05-31 12:14:43.200,wear
2017-05-31 12:14:43.200,2017-05-31 12:14:43.200,2017-05-31 12:14:56.000,wear
2017-05-31 12:14:56.000,2017-05-31 12:14:56.000,2017-05-31 12:15:08.800,wear
2017-05-31 12:15:08.800,2017-05-31 12:15:08.800,2017-05-31 12:15:21.600,wear
2017-05-31 12:15:21.600,2017-05-31 12:15:21.600,2017-05-31 12:15:34.400,wear
2017-05-31 12:15:34.400,2017-05-31 12:15:34.400,2017-05-31 12:15:47.200,wear
2017-05-31 12:15:47.200,2017-05-31 12:15:47.200,2017-05-31 12:16:00.000,wear
2017-05-31 12:16:00.000,2017-05-31 12:16:00.000,2017-05-31 12:16:12.800,wear
2017-05-31 12:16:12.800,2017-05-31 12:16:12.800,2017-05-31 12:16:25.600,wear
2017-05-31 12:16:25.600,2017-05-31 12:16:25.600,2017-05-31 12:16:38.400,wear
2017-05-31 12:16:38.400,2017-05-31 12:16:38.400,2017-05-31 12:16:51.200,wear
2017-05-31 12:16:51.200,2017-05-31 12:16:51.200,2017-05-31 12:17:04.000,wear
2017-05-31 12:17:04.000,2017-05-31 12:17:04.000,2017-05-31 12:17:16.800,wear
2017-05-31 12:17:16.800,2017-05-31 12:17:16.800,2017-05-31 12:17:29.600,wear
2017-05-31 12:17:29.600,2017-05-31 12:17:29.600,2017-05-31 12:17:42.400,wear
2017-05-31 12:17:42.400,2017-05-31 12:17:42.400,2017-05-31 12:17:55.200,wear
2017-05-31 12:17:55.200,2017-05-31 12:17:55.200,2017-05-31 12:18:08.000,wear
2017-05-31 12:18:08.000,2017-05-31 12:18:08.000,2017-05-31 12:18:20.800,wear
2017-05-31 12:18:20.800,2017-05-31 12:18:20.800,2017-05-31 12:18:33.600,wear
2017-05-31 12:18:33.600,2017-05-31 12:18:33.600,2017-05-31 12:18:46.400,wear
2017-05-31 12:18:46.400,2017-05-31 12:18:46.400,2017-05-31 12:18:59.200,wear
2017-05-31 12:18:59.200,2017-05-31 12:18:59.200,2017-05-31 12:19:12.000,wear
2017-05-31 12:19:12.000,2017-05-31 12:19:12.000,2017-05-31 12:19:24.800,wear
2017-05-31 12:19:24.800,2017-05-31 12:19:24.800,2017-05-31 12:19:37.600,wear
2017-05-31 12:19:37.600,2017-05-31 12:19:37.600,2017-05-31 12:19:50.400,wear
2017-05-31 12:19:50.400,2017-05-31 12:19:50.400,2017-05-31 12:20:03.200,wear
2017-05-31 12:20:03.200,2017-05-31 12:20:03.200,2017-05-31 12:20:16.000,wear
2017-05-31 12:20:16.000,2017-05-31 12:20:16.000,2017-05-31 12:20:28.800,wear
2017-05-31 12:20:28.800,2017-05-31 12:20:28.800,2017-05-31 12:20:41.600,wear
2017-05-31 12:20:41.600,2017-05-31 12:20:41.600,2017-05-31 12:20:54.400,wear
2017-05-31 12:20:54.400,2017-05-31 12:20:54.400,2017-05-31 12:21:07.200,wear
2017-05-31 12:21:07.200,2017-05-31 12:21:07.200,2017-05-31 12:21:20.000,wear
2017-05-31 12:21:20.000,2017-05-31 12:21:20.000,2017-05-31 12:21:32.800,wear
2017-05-31 12:21:32.800,2017-05-31 12:21:32.800,2017-05-31 12:21:45.600,wear
2017-05-31 12:21:45.600,2017-05-31 12:21:45.600,2017-05-31 12:21:58.400,wear
2017-05-31 12:21:58.400,2017-05-31 12:21:58.400,2017-05-31 12:22:11.200,wear
2017-05-31 12:22:11.200,2017-05-31 12:22:11.200,2017-05-31 12:22:24.000,wear
2017-05-31 12:22:24.000,2017-05-31 12:22:24.000,2017-05-31 12:22:36.800,wear
2017-05-31 12:22:36.800,2017-05-31 12:22:36.800,2017-05-31 12:22:49.600,wear
2017-05-31 12:22:49.600,2017-05-31 12:22:49.600,2017-05-31 12:23:02.400,wear
2017-05-31 12:23:02.400,2017-05-31 12:23:02.400,2017-05-31 12:23:15.200,wear
2017-05-31 12:23:15.200,2017-05-31 12:23:15.200,2017-05-31 12:23:28.000,wear
2017-05-31 12:23:28.000,2017-05-31 12:23:28.000,2017-05-31 12:23:40.800,wear
2017-05-31 12:23:40.800,2017-05-31 12:23:40.800,2017-05-31 12:23:53.600,wear
2017-05-31 12:23:53.600,2017-05-31 12:23:53.600,2017-05-31 12:24:06.400,wear
2017-05-31 12:24:06.400,2017-05-31 12:24:06.400,2017-05-31 12:24:19.200,wear
2017-05-31 12:24:19.200,2017-05-31 12:24:19.200,2017-05-31 12:24:32.000,wear
2017-05-31 12:24:32.000,2017-05-31 12:24:32.000,2017-05-31 12:24:44.800,wear
2017-05-31 12:24:44.800,2017-05-31 12:24:44.800,2017-05-31 12:24:57.600,wear
2017-05-31 12:24:57.600,2017-05-31 12:24:57.600,2017-05-31 12:25:10.400,wear
2017-05-31 12:25:10.400,2017-05-31 12:25:10.400,2017-05-31 12:25:23.200,wear
2017-05-31 12:25:23.200,2017-05-31 12:25:23.200,2017-05-31 12:25:36.000,wear
2017-05-31 12:25:36.000,2017-05-31 12:25:36.000,2017-05-31 12:25:48.800,wear
2017-05-31 12:25:48.800,2017-05-31 12:25:48.800,2017-05-31 12:26:01.600,wear
2017-05-31 12:26:01.600,2017-05-31 12:26:01.600,2017-05-31 12:26:14.400,wear
2017-05-31 12:26:14.400,2017-05-31 12:26:14.400,2017-05-31 12:26:27.200,wear
2017-05-31 12:26:27.200,2017-05-31 12:26:27.200,2017-05-31 12:26:40.000,wear
2017-05-31 12:26:40.000,2017-05-31 12:26:40.000,2017-05-31 12:26:52.800,wear
2017-05-31 12:26:52.800,2017-05-31 12:26:52.800,2017-05-31 12:27:05.600,wear
2017-05-31 12:27:05.600,2017-05-31 12:27:05.600,2017-05-31 12:27:18.400,wear
2017-05-31 12:27:18.400,2017-05-31 12:27:18.400,2017-05-31 12:27:31.200,wear
2017-05-31 12:27:31.200,2017-05-31 12:27:31.200,2017-05-31 12:27:44.000,wear
2017-05-31 12:27:44.000,2017-05-31 12:27:44.000,2017-05-31 12:27:56.800,wear
2017-05-31 12:27:56.800,2017-05-31 12:27:56.800,2017-05-31 12:28:09.600,wear
2017-05-31 12:28:09.600,2017-05-31 12:28:09.600,2017-05-31 12:28:22.400,wear
2017-05-31 12:28:22.400,2017-05-31 12:28:22.400,2017-05-31 12:28:35.200,wear
2017-05-31 12:28:35.200,2017-05-31 12:28:35.200,2017-05-31 12:28:48.000,wear
2017-05-31 12:28:48.000,2017-05-31 12:28:48.000,2017-05-31 12:29:00.800,wear
2017-05-31 12:29:00.800,2017-05-31 12:29:00.800,2017-05-31 12:29:13.600,wear
2017-05-31 12:29:13.600,2017-05-31 12:29:13.600,2017-05-31 12:29:26.400,wear
2017-05-31 12:29:26.400,2017-05-31 12:29:26.400,2017-05-31 12:29:39.200,wear
2017-05-31 12:29:39.200,2017-05-31 12:29:39.200,2017-05-31 12:29:52.000,wear
2017-05-31 12:29:52.000,2017-05-31 12:29:52.000,2017-05-31 12:30:04.800,wear
2017-05-31 12:30:04.800,2017-05-31 12:30:04.800,2017-05-31 12:30:17.600,wear
2017-05-31 12:30:17.600,2017-05-31 12:30:17.600,2017-05-31 12:30:30.400,wear
2017-05-31 12:30:30.400,2017-05-31 12:30:30.400,2017-05-31 12:30:43.200,wear
2017-05-31 12:30:43.200,2017-05-31 12:30:43.200,2017-05-31 12:30:56.000,wear
2017-05-31 12:30:56.000,2017-05-31 12:30:56.000,2017-05-31 12:31:08.800,wear
2017-05-31 12:31:08.800,2017-05-31 12:31:08.800,2017-05-31 12:31:21.600,wear
2017-05-31 12:31:21.600,2017-05-31 12:31:21.600,2017-05-31 12:31:34.400,wear
2017-05-31 12:31:34.400,2017-05-31 12:31:34.400,2017-05-31 12:31:47.200,wear
2017-05-31 12:31:47.200,2017-05-31 12:31:47.200,2017-05-31 12:32:00.000,wear
2017-05-31 12:32:00.000,2017-05-31 12:32:00.000,2017-05-31 12:32:12.800,wear
2017-05-31 12:32:12.800,2017-05-31 12:32:12.800,2017-05-31 12:32:25.600,wear
2017-05-31 12:32:25.600,2017-05-31 12:32:25.600,2017-05-31 12:32:38.400,wear
2017-05-31 12:32:38.400,2017-05-31 12:32:38.400,2017-05-31 12:32:51.200,wear
2017-05-31 12:32:51.200,2017-05-31 12:32:51.200,2017-05-31 12:33:04.000,wear
2017-05-31 12:33:04.000,2017-05-31 12:33:04.000,2017-05-31 12:33:16.800,wear
2017-05-31 12:33:16.800,2017-05-31 12:33:16.800,2017-05-31 12:33:29.600,wear
2017-05-31 12:33:29.600,2017-05-31 12:33:29.600,2017-05-31 12:33:42.400,wear
2017-05-31 12:33:42.400,2017-05-31 12:33:42.400,2017-05-31 12:33:55.200,wear
2017-05-31 12:33:55.200,2017-05-31 12:33:55.200,2017-05-31 12:34:08.000,wear
2017-05-31 12:34:08.000,2017-05-31 12:34:08.000,2017-05-31 12:34:20.800,wear
2017-05-31 12:34:20.800,2017-05-31 12:34:20.800,2017-05-31 12:34:33.600,wear
2017-05-31 12:34:33.600,2017-05-31 12:34:33.600,2017-05-31 12:34:46.400,wear
2017-05-31 12:34:46.400,2017-05-31 12:34:46.400,2017-05-31 12:34:59.200,wear
2017-05-31 12:34:59.200,2017-05-31 12:34:59.200,2017-05-31 12:35:12.000,wear
2017-05-31 12:35:12.000,2017-05-31 12:35:12.000,2017-05-31 12:35:24.800,wear
2017-05-31 12:35:24.800,2017-05-31 12:35:24.800,2017-05-31 12:35:37.600,wear
2017-05-31 12:35:37.600,2017-05-31 12:35:37.600,2017-05-31 12:35:50.400,wear
2017-05-31 12:35:50.400,2017-05-31 12:35:50.400,2017-05-31 12:36:03.200,wear
2017-05-31 12:36:03.200,2017-05-31 12:36:03.200,2017-05-31 12:36:16.000,wear
2017-05-31 12:36:16.000,2017-05-31 12:36:16.000,2017-05-31 12:36:28.800,wear
2017-05-31 12:36:28.800,2017-05-31 12:36:28.800,2017-05-31 12:36:41.600,wear
2017-05-31 12:36:41.600,2017-05-31 12:36:41.600,2017-05-31 12:36:54.400,wear
2017-05-31 12:36:54.400,2017-05-31 12:36:54.400,2017-05-31 12:37:07.200,wear
2017-05-31 12:37:07.200,2017-05-31 12:37:07.200,2017-05-31 12:37:20.000,wear
2017-05-31 12:37:20.000,2017-05-31 12:37:20.000,2017-05-31 12:37:32.800,wear
2017-05-31 12:37:32.800,2017-05-31 12:37:32.800,2017-05-31 12:37:45.600,wear
2017-05-31 12:37:45.600,2017-05-31 12:37:45.600,2017-05-31 12:37:58.400,wear
2017-05-31 12:37:58.400,2017-05-31 12:37:58.400,2017-05-31 12:38:11.200,wear
2017-05-31 12:38:11.200,2017-05-31 12:38:11.200,2017-05-31 12:38:24.000,wear
2017-05-31 12:38:24.000,2017-05-31 12:38:24.000,2017-05-31 12:38:36.800,wear
2017-05-31 12:38:36.800,2017-05-31 12:38:36.800,2017-05-31 12:38:49.600,wear
2017-05-31 12:38:49.600,2017-05-31 12:38:49.600,2017-05-31 12:39:02.400,wear
2017-05-31 12:39:02.400,2017-05-31 12:39:02.400,2017-05-31 12:39:15.200,wear
2017-05-31 12:39:15.200,2017-05-31 12:39:15.200,2017-05-31 12:39:28.000,wear
2017-05-31 12:39:28.000,2017-05-31 12:39:28.000,2017-05-31 12:39:40.800,wear
2017-05-31 12:39:40.800,2017-05-31 12:39:40.800,2017-05-31 12:39:53.600,wear
2017-05-31 12:39:53.600,2017-05-31 12:39:53.600,2017-05-31 12:40:06.400,wear
2017-05-31 12:40:06.400,2017-05-31 12:40:06.400,2017-05-31 12:40:19.200,wear
2017-05-31 12:40:19.200,2017-05-31 12:40:19.200,2017-05-31 12:40:32.000,wear
2017-05-31 12:40:32.000,2017-05-31 12:40:32.000,2017-05-31 12:40:44.800,wear
2017-05-31 12:40:44.800,2017-05-31 12:40:44.800,2017-05-31 12:40:57.600,wear
2017-05-31 12:40:57.600,2017-05-31 12:40:57.600,2017-05-31 12:41:10.400,wear
2017-05-31 12:41:10.400,2017-05-31 12:41:10.400,2017-05-31 12:41:23.200,wear
2017-05-31 12:41:23.200,2017-05-31 12:41:23.200,2017-05-31 12:41:36.000,wear
2017-05-31 12:41:36.000,2017-05-31 12:41:36.000,2017-05-31 12:41:48.800,wear
2017-05-31 12:41:48.800,2017-05-31 12:41:48.800,2017-05-31 12:42:01.600,wear
2017-05-31 12:42:01.600,2017-05-31 12:42:01.600,2017-05-31 12:42:14.400,wear
2017-05-31 12:42:14.400,2017-05-31 12:42:14.400,2017-05-31 12:42:27.200,wear
2017-05-31 12:42:27.200,2017-05-31 12:42:27.200,2017-05-31 12:42:40.000,wear
2017-05-31 12:42:40.000,2017-05-31 12:42:40.000,2017-05-31 12:42:52.800,wear
2017-05-31 12:42:52.800,2017-05-31 12:42:52.800,2017-05-31 12:43:05.600,wear
2017-05-31 12:43:05.600,2017-05-31 12:43:05.600,2017-05-31 12:43:18.400,wear
2017-05-31 12:43:18.400,2017-05-31 12:43:18.400,2017-05-31 12:43:31.200,wear
2017-05-31 12:43:31.200,2017-05-31 12:43:31.200,2017-05-31 12:43:44.000,wear
2017-05-31 12:43:44.000,2017-05-31 12:43:44.000,2017-05-31 12:43:56.800,wear
2017-05-31 12:43:56.800,2017-05-31 12:43:56.800,2017-05-31 12:44:09.600,wear
2017-05-31 12:44:09.600,2017-05-31 12:44:09.600,2017-05-31 12:44:22.400,wear
2017-05-31 12:44:22.400,2017-05-31 12:44:22.400,2017-05-31 12:44:35.200,wear
2017-05-31 12:44:35.200,2017-05-31 12:44:35.200,2017-05-31 12:44:48.000,wear
2017-05-31 12:44:48.000,2017-05-31 12:44:48.000,2017-05-31 12:45:00.800,wear
2017-05-31 12:45:00.800,2017-05-31 12:45:00.800,2017-05-31 12:45:13.600,wear
2017-05-31 12:45:13.600,2017-05-31 12:45:13.600,2017-05-31 12:45:26.400,wear
2017-05-31 12:45:26.400,2017-05-31 12:45:26.400,2017-05-31 12:45:39.200,wear
2017-05-31 12:45:39.200,2017-05-31 12:45:39.200,2017-05-31 12:45:52.000,wear
2017-05-31 12:45:52.000,2017-05-31 12:45:52.000,2017-05-31 12:46:04.800,wear
2017-05-31 12:46:04.800,2017-05-31 12:46:04.800,2017-05-31 12:46:17.600,wear
2017-05-31 12:46:17.600,2017-05-31 12:46:17.600,2017-05-31 12:46:30.400,wear
2017-05-31 12:46:30.400,2017-05-31 12:46:30.400,2017-05-31 12:46:43.200,wear
2017-05-31 12:46:43.200,2017-05-31 12:46:43.200,2017-05-31 12:46:56.000,wear
2017-05-31 12:46:56.000,2017-05-31 12:46:56.000,2017-05-31 12:47:08.800,wear
2017-05-31 12:47:08.800,2017-05-31 12:47:08.800,2017-05-31 12:47:21.600,wear
2017-05-31 12:47:21.600,2017-05-31 12:47:21.600,2017-05-31 12:47:34.400,wear
2017-05-31 12:47:34.400,2017-05-31 12:47:34.400,2017-05-31 12:47:47.200,wear
2017-05-31 12:47:47.200,2017-05-31 12:47:47.200,2017-05-31 12:48:00.000,wear
2017-05-31 12:48:00.000,2017-05-31 12:48:00.000,2017-05-31 12:48:12.800,wear
2017-05-31 12:48:12.800,2017-05-31 12:48:12.800,2017-05-31 12:48:25.600,wear
2017-05-31 12:48:25.600,2017-05-31 12:48:25.600,2017-05-31 12:48:38.400,wear
2017-05-31 12:48:38.400,2017-05-31 12:48:38.400,2017-05-31 12:48:51.200,wear
2017-05-31 12:48:51.200,2017-05-31 12:48:51.200,2017-05-31 12:49:04.000,wear
2017-05-31 12:49:04.000,2017-05-31 12:49:04.000,2017-05-31 12:49:16.800,wear
2017-05-31 12:49:16.800,2017-05-31 12:49:16.800,2017-05-31 12:49:29.600,wear
2017-05-31 12:49:29.600,2017-05-31 12:49:29.600,2017-05-31 12:49:42.400,wear
2017-05-31 12:49:42.400,2017-05-31 12:49:42.400,2017-05-31 12:49:55.200,wear
2017-05-31 12:49:55.200,2017-05-31 12:49:55.200,2017-05-31 12:50:08.000,wear
2017-05-31 12:50:08.000,2017-05-31 12:50:08.000,2017-05-31 12:50:20.800,wear
2017-05-31 12:50:20.800,2017-05-31 12:50:20.800,2017-05-31 12:50:33.600,wear
2017-05-31 12:50:33.600,2017-05-31 12:50:33.600,2017-05-31 12:50:46.400,wear
2017-05-31 12:50:46.400,2017-05-31 12:50:46.400,2017-05-31 12:50:59.200,wear
2017-05-31 12:50:59.200,2017-05-31 12:50:59.200,2017-05-31 12:51:12.000,wear
2017-05-31 12:51:12.000,2017-05-31 12:51:12.000,2017-05-31 12:51:24.800,wear
2017-05-31 12:51:24.800,2017-05-31 12:51:24.800,2017-05-31 12:51:37.600,wear
2017-05-31 12:51:37.600,2017-05-31 12:51:37.600,2017-05-31 12:51:50.400,wear
2017-05-31 12:51:50.400,2017-05-31 12:51:50.400,2017-05-31 12:52:03.200,wear
2017-05-31 12:52:03.200,2017-05-31 12:52:03.200,2017-05-31 12:52:16.000,wear
2017-05-31 12:52:16.000,2017-05-31 12:52:16.000,2017-05-31 12:52:28.800,wear
2017-05-31 12:52:28.800,2017-05-31 12:52:28.800,2017-05-31 12:52:41.600,wear
2017-05-31 12:52:41.600,2017-05-31 12:52:41.600,2017-05-31 12:52:54.400,wear
2017-05-31 12:52:54.400,2017-05-31 12:52:54.400,2017-05-31 12:53:07.200,wear
2017-05-31 12:53:07.200,2017-05-31 12:53:07.200,2017-05-31 12:53:20.000,wear
2017-05-31 12:53:20.000,2017-05-31 12:53:20.000,2017-05-31 12:53:32.800,wear
2017-05-31 12:53:32.800,2017-05-31 12:53:32.800,2017-05-31 12:53:45.600,wear
2017-05-31 12:53:45.600,2017-05-31 12:53:45.600,2017-05-31 12:53:58.400,wear
2017-05-31 12:53:58.400,2017-05-31 12:53:58.400,2017-05-31 12:54:11.200,wear
2017-05-31 12:54:11.200,2017-05-31 12:54:11.200,2017-05-31 12:54:24.000,wear
2017-05-31 12:54:24.000,2017-05-31 12:54:24.000,2017-05-31 12:54:36.800,wear
2017-05-31 12:54:36.800,2017-05-31 12:54:36.800,2017-05-31 12:54:49.600,wear
2017-05-31 12:54:49.600,2017-05-31 12:54:49.600,2017-05-31 12:55:02.400,wear
2017-05-31 12:55:02.400,2017-05-31 12:55:02.400,2017-05-31 12:55:15.200,wear
2017-05-31 12:55:15.200,2017-05-31 12:55:15.200,2017-05-31 12:55:28.000,wear
2017-05-31 12:55:28.000,2017-05-31 12:55:28.000,2017-05-31 12:55:40.800,wear
2017-05-31 12:55:40.800,2017-05-31 12:55:40.800,2017-05-31 12:55:53.600,wear
2017-05-31 12:55:53.600,2017-05-31 12:55:53.600,2017-05-31 12:56:06.400,wear
2017-05-31 12:56:06.400,2017-05-31 12:56:06.400,2017-05-31 12:56:19.200,wear
2017-05-31 12:56:19.200,2017-05-31 12:56:19.200,2017-05-31 12:56:32.000,wear
2017-05-31 12:56:32.000,2017-05-31 12:56:32.000,2017-05-31 12:56:44.800,wear
2017-05-31 12:56:44.800,2017-05-31 12:56:44.800,2017-05-31 12:56:57.600,wear
2017-05-31 12:56:57.600,2017-05-31 12:56:57.600,2017-05-31 12:57:10.400,wear
2017-05-31 12:57:10.400,2017-05-31 12:57:10.400,2017-05-31 12:57:23.200,wear
2017-05-31 12:57:23.200,2017-05-31 12:57:23.200,2017-05-31 12:57:36.000,wear
2017-05-31 12:57:36.000,2017-05-31 12:57:36.000,2017-05-31 12:57:48.800,wear
2017-05-31 12:57:48.800,2017-05-31 12:57:48.800,2017-05-31 12:58:01.600,wear
2017-05-31 12:58:01.600,2017-05-31 12:58:01.600,2017-05-31 12:58:14.400,wear
2017-05-31 12:58:14.400,2017-05-31 12:58:14.400,2017-05-31 12:58:27.200,wear
2017-05-31 12:58:27.200,2017-05-31 12:58:27.200,2017-05-31 12:58:40.000,wear
2017-05-31 12:58:40.000,2017-05-31 12:58:40.000,2017-05-31 12:58:52.800,wear
2017-05-31 12:58:52.800,2017-05-31 12:58:52.800,2017-05-31 12:59:05.600,wear
2017-05-31 12:59:05.600,2017-05-31 12:59:05.600,2017-05-31 12:59:18.400,wear
2017-05-31 12:59:18.400,2017-05-31 12:59:18.400,2017-05-31 12:59:31.200,wear
2017-05-31 12:59:31.200,2017-05-31 12:59:31.200,2017-05-31 12:59:44.000,wear
2017-05-31 12:59:44.000,2017-05-31 12:59:44.000,2017-05-31 12:59:56.800,wear
2017-05-31 12:59:56.800,2017-05-31 12:59:56.800,2017-05-31 12:59:59.999,wear
2017-05-31 12:59:56.800,2017-05-31 12:59:56.800,2017-05-31 12:59:59.999,wear
