HEADER_TIME_STAMP,START_TIME,STOP_TIME,LABEL_PROBABILITY
2017-05-31 12:00:00.000,2017-05-31 12:00:00.000,2017-05-31 12:01:04.000,0.946
2017-05-31 12:01:04.000,2017-05-31 12:01:04.000,2017-05-31 12:02:08.000,0.939
2017-05-31 12:02:08.000,2017-05-31 12:02:08.000,2017-05-31 12:03:12.000,0.864
2017-05-31 12:03:12.000,2017-05-31 12:03:12.000,2017-05-31 12:04:16.000,0.972
2017-05-31 12:04:16.000,2017-05-31 12:04:16.000,2017-05-31 12:05:20.000,0.891
2017-05-31 12:05:20.000,2017-05-31 12:05:20.000,2017-05-31 12:06:24.000,0.981
2017-05-31 12:06:24.000,2017-05-31 12:06:24.000,2017-05-31 12:07:28.000,0.972
2017-05-31 12:07:28.000,2017-05-31 12:07:28.000,2017-05-31 12:08:32.000,0.981
2017-05-31 12:08:32.000,2017-05-31 12:08:32.000,2017-05-31 12:09:36.000,0.897
2017-05-31 12:09:36.000,2017-05-31 12:09:36.000,2017-05-31 12:10:40.000,0.986
2017-05-31 12:10:40.000,2017-05-31 12:10:40.000,2017-05-31 12:11:44.000,0.99
2017-05-31 12:11:44.000,2017-05-31 12:11:44.000,2017-05-31 12:12:48.000,0.974
2017-05-31 12:12:48.000,2017-05-31 12:12:48.000,2017-05-31 12:13:52.000,0.892
2017-05-31 12:13:52.000,2017-05-31 12:13:52.000,2017-05-31 12:14:56.000,0.984
2017-05-31 12:14:56.000,2017-05-31 12:14:56.000,2017-05-31 12:16:00.000,0.993
2017-05-31 12:16:00.000,2017-05-31 12:16:00.000,2017-05-31 12:17:04.000,0.997
2017-05-31 12:17:04.000,2017-05-31 12:17:04.000,2017-05-31 12:18:08.000,0.991
2017-05-31 12:18:08.000,2017-05-31 12:18:08.000,2017-05-31 12:19:12.000,0.756
2017-05-31 12:19:12.000,2017-05-31 12:19:12.000,2017-05-31 12:20:16.000,0.982
2017-05-31 12:20:16.000,2017-05-31 12:20:16.000,2017-05-31 12:21:20.000,0.984
2017-05-31 12:21:20.000,2017-05-31 12:21:20.000,2017-05-31 12:22:24.000,0.971
2017-05-31 12:22:24.000,2017-05-31 12:22:24.000,2017-05-31 12:23:28.000,0.836
2017-05-31 12:23:28.000,2017-05-31 12:23:28.000,2017-05-31 12:24:32.000,0.97
2017-05-31 12:24:32.000,2017-05-31 12:24:32.000,2017-05-31 12:25:36.000,0.999
2017-05-31 12:25:36.000,2017-05-31 12:25:36.000,2017-05-31 12:26:40.000,0.995
2017-05-31 12:26:40.000,2017-05-31 12:26:40.000,2017-05-31 12:27:44.000,0.999
2017-05-31 12:27:44.000,2017-05-31 12:27:44.000,2017-05-31 12:28:48.000,0.996
2017-05-31 12:28:48.000,2017-05-31 12:28:48.000,2017-05-31 12:29:52.000,0.995
2017-05-31 12:29:52.000,2017-05-31 12:29:52.000,2017-05-31 12:30:56.000,0.651
2017-05-31 12:30:56.000,2017-05-31 12:30:56.000,2017-05-31 12:32:00.000,0.924
2017-05-31 12:32:00.000,2017-05-31 12:32:00.000,2017-05-31 12:33:04.000,0.651
2017-05-31 12:33:04.000,2017-05-31 12:33:04.000,2017-05-31 12:34:08.000,0.605
2017-05-31 12:34:08.000,2017-05-31 12:34:08.000,2017-05-31 12:35:12.000,0.632
2017-05-31 12:35:12.000,2017-05-31 12:35:12.000,2017-05-31 12:36:16.000,1.0
2017-05-31 12:36:16.000,2017-05-31 12:36:16.000,2017-05-31 12:37:20.000,0.881
2017-05-31 12:37:20.000,2017-05-31 12:37:20.000,2017-05-31 12:38:24.000,0.981
2017-05-31 12:38:24.000,2017-05-31 12:38:24.000,2017-05-31 12:39:28.000,0.981
2017-05-31 12:39:28.000,2017-05-31 12:39:28.000,2017-05-31 12:40:32.000,0.97
2017-05-31 12:40:32.000,2017-05-31 12:40:32.000,2017-05-31 12:41:36.000,0.942
2017-05-31 12:41:36.000,2017-05-31 12:41:36.000,2017-05-31 12:42:40.000,0.983
2017-05-31 12:42:40.000,2017-05-31 12:42:40.000,2017-05-31 12:43:44.000,0.989
2017-05-31 12:43:44.000,2017-05-31 12:43:44.000,2017-05-31 12:44:48.000,0.995
2017-05-31 12:44:48.000,2017-05-31 12:44:48.000,2017-05-31 12:45:52.000,0.994
2017-05-31 12:45:52.000,2017-05-31 12:45:52.000,2017-05-31 12:46:56.000,0.998
2017-05-31 12:46:56.000,2017-05-31 12:46:56.000,2017-05-31 12:48:00.000,0.999
2017-05-31 12:48:00.000,2017-05-31 12:48:00.000,2017-05-31 12:49:04.000,0.941
2017-05-31 12:49:04.000,2017-05-31 12:49:04.000,2017-05-31 12:50:08.000,0.989
2017-05-31 12:50:08.000,2017-05-31 12:50:08.000,2017-05-31 12:51:12.000,0.997
2017-05-31 12:51:12.000,2017-05-31 12:51:12.000,2017-05-31 12:52:16.000,0.997
2017-05-31 12:52:16.000,2017-05-31 12:52:16.000,2017-05-31 12:53:20.000,0.99
2017-05-31 12:53:20.000,2017-05-31 12:53:20.000,2017-05-31 12:54:24.000,0.999
2017-05-31 12:54:24.000,2017-05-31 12:54:24.000,2017-05-31 12:55:28.000,0.999
2017-05-31 12:55:28.000,2017-05-31 12:55:28.000,2017-05-31 12:56:32.000,0.962
2017-05-31 12:56:32.000,2017-05-31 12:56:32.000,2017-05-31 12:57:36.000,0.727
2017-05-31 12:57:36.000,2017-05-31 12:57:36.000,2017-05-31 12:58:40.000,0.998
2017-05-31 12:58:40.000,2017-05-31 12:58:40.000,2017-05-31 12:59:44.000,0.986
2017-05-31 12:59:44.000,2017-05-31 12:59:44.000,2017-05-31 12:59:59.999,0.9995
