HEADER_TIME_STAMP,START_TIME,STOP_TIME,LABEL_NAME
2017-05-27 15:00:03.200,2017-05-27 15:00:03.200,2017-05-27 15:00:16.000,wear
2017-05-27 15:00:16.000,2017-05-27 15:00:16.000,2017-05-27 15:00:28.800,wear
2017-05-27 15:00:28.800,2017-05-27 15:00:28.800,2017-05-27 15:00:41.600,wear
2017-05-27 15:00:41.600,2017-05-27 15:00:41.600,2017-05-27 15:00:54.400,wear
2017-05-27 15:00:54.400,2017-05-27 15:00:54.400,2017-05-27 15:01:07.200,wear
2017-05-27 15:01:07.200,2017-05-27 15:01:07.200,2017-05-27 15:01:20.000,wear
2017-05-27 15:01:20.000,2017-05-27 15:01:20.000,2017-05-27 15:01:32.800,wear
2017-05-27 15:01:32.800,2017-05-27 15:01:32.800,2017-05-27 15:01:45.600,wear
2017-05-27 15:01:45.600,2017-05-27 15:01:45.600,2017-05-27 15:01:58.400,wear
2017-05-27 15:01:58.400,2017-05-27 15:01:58.400,2017-05-27 15:02:11.200,wear
2017-05-27 15:02:11.200,2017-05-27 15:02:11.200,2017-05-27 15:02:24.000,wear
2017-05-27 15:02:24.000,2017-05-27 15:02:24.000,2017-05-27 15:02:36.800,wear
2017-05-27 15:02:36.800,2017-05-27 15:02:36.800,2017-05-27 15:02:49.600,wear
2017-05-27 15:02:49.600,2017-05-27 15:02:49.600,2017-05-27 15:03:02.400,wear
2017-05-27 15:03:02.400,2017-05-27 15:03:02.400,2017-05-27 15:03:15.200,wear
2017-05-27 15:03:15.200,2017-05-27 15:03:15.200,2017-05-27 15:03:28.000,wear
2017-05-27 15:03:28.000,2017-05-27 15:03:28.000,2017-05-27 15:03:40.800,wear
2017-05-27 15:03:40.800,2017-05-27 15:03:40.800,2017-05-27 15:03:53.600,wear
2017-05-27 15:03:53.600,2017-05-27 15:03:53.600,2017-05-27 15:04:06.400,wear
2017-05-27 15:04:06.400,2017-05-27 15:04:06.400,2017-05-27 15:04:19.200,wear
2017-05-27 15:04:19.200,2017-05-27 15:04:19.200,2017-05-27 15:04:32.000,wear
2017-05-27 15:04:32.000,2017-05-27 15:04:32.000,2017-05-27 15:04:44.800,wear
2017-05-27 15:04:44.800,2017-05-27 15:04:44.800,2017-05-27 15:04:57.600,wear
2017-05-27 15:04:57.600,2017-05-27 15:04:57.600,2017-05-27 15:05:10.400,wear
2017-05-27 15:05:10.400,2017-05-27 15:05:10.400,2017-05-27 15:05:23.200,wear
2017-05-27 15:05:23.200,2017-05-27 15:05:23.200,2017-05-27 15:05:36.000,wear
2017-05-27 15:05:36.000,2017-05-27 15:05:36.000,2017-05-27 15:05:48.800,wear
2017-05-27 15:05:48.800,2017-05-27 15:05:48.800,2017-05-27 15:06:01.600,wear
2017-05-27 15:06:01.600,2017-05-27 15:06:01.600,2017-05-27 15:06:14.400,wear
2017-05-27 15:06:14.400,2017-05-27 15:06:14.400,2017-05-27 15:06:27.200,wear
2017-05-27 15:06:27.200,2017-05-27 15:06:27.200,2017-05-27 15:06:40.000,wear
2017-05-27 15:06:40.000,2017-05-27 15:06:40.000,2017-05-27 15:06:52.800,wear
2017-05-27 15:06:52.800,2017-05-27 15:06:52.800,2017-05-27 15:07:05.600,wear
2017-05-27 15:07:05.600,2017-05-27 15:07:05.600,2017-05-27 15:07:18.400,wear
2017-05-27 15:07:18.400,2017-05-27 15:07:18.400,2017-05-27 15:07:31.200,wear
2017-05-27 15:07:31.200,2017-05-27 15:07:31.200,2017-05-27 15:07:44.000,wear
2017-05-27 15:07:44.000,2017-05-27 15:07:44.000,2017-05-27 15:07:56.800,wear
2017-05-27 15:07:56.800,2017-05-27 15:07:56.800,2017-05-27 15:08:09.600,wear
2017-05-27 15:08:09.600,2017-05-27 15:08:09.600,2017-05-27 15:08:22.400,wear
2017-05-27 15:08:22.400,2017-05-27 15:08:22.400,2017-05-27 15:08:35.200,wear
2017-05-27 15:08:35.200,2017-05-27 15:08:35.200,2017-05-27 15:08:48.000,wear
2017-05-27 15:08:48.000,2017-05-27 15:08:48.000,2017-05-27 15:09:00.800,wear
2017-05-27 15:09:00.800,2017-05-27 15:09:00.800,2017-05-27 15:09:13.600,wear
2017-05-27 15:09:13.600,2017-05-27 15:09:13.600,2017-05-27 15:09:26.400,wear
2017-05-27 15:09:26.400,2017-05-27 15:09:26.400,2017-05-27 15:09:39.200,wear
2017-05-27 15:09:39.200,2017-05-27 15:09:39.200,2017-05-27 15:09:52.000,wear
2017-05-27 15:09:52.000,2017-05-27 15:09:52.000,2017-05-27 15:10:04.800,wear
2017-05-27 15:10:04.800,2017-05-27 15:10:04.800,2017-05-27 15:10:17.600,wear
2017-05-27 15:10:17.600,2017-05-27 15:10:17.600,2017-05-27 15:10:30.400,wear
2017-05-27 15:10:30.400,2017-05-27 15:10:30.400,2017-05-27 15:10:43.200,wear
2017-05-27 15:10:43.200,2017-05-27 15:10:43.200,2017-05-27 15:10:56.000,wear
2017-05-27 15:10:56.000,2017-05-27 15:10:56.000,2017-05-27 15:11:08.800,wear
2017-05-27 15:11:08.800,2017-05-27 15:11:08.800,2017-05-27 15:11:21.600,wear
2017-05-27 15:11:21.600,2017-05-27 15:11:21.600,2017-05-27 15:11:34.400,wear
2017-05-27 15:11:34.400,2017-05-27 15:11:34.400,2017-05-27 15:11:47.200,wear
2017-05-27 15:11:47.200,2017-05-27 15:11:47.200,2017-05-27 15:12:00.000,wear
2017-05-27 15:12:00.000,2017-05-27 15:12:00.000,2017-05-27 15:12:12.800,wear
2017-05-27 15:12:12.800,2017-05-27 15:12:12.800,2017-05-27 15:12:25.600,wear
2017-05-27 15:12:25.600,2017-05-27 15:12:25.600,2017-05-27 15:12:38.400,wear
2017-05-27 15:12:38.400,2017-05-27 15:12:38.400,2017-05-27 15:12:51.200,wear
2017-05-27 15:12:51.200,2017-05-27 15:12:51.200,2017-05-27 15:13:04.000,wear
2017-05-27 15:13:04.000,2017-05-27 15:13:04.000,2017-05-27 15:13:16.800,wear
2017-05-27 15:13:16.800,2017-05-27 15:13:16.800,2017-05-27 15:13:29.600,wear
2017-05-27 15:13:29.600,2017-05-27 15:13:29.600,2017-05-27 15:13:42.400,wear
2017-05-27 15:13:42.400,2017-05-27 15:13:42.400,2017-05-27 15:13:55.200,wear
2017-05-27 15:13:55.200,2017-05-27 15:13:55.200,2017-05-27 15:14:08.000,wear
2017-05-27 15:14:08.000,2017-05-27 15:14:08.000,2017-05-27 15:14:20.800,wear
2017-05-27 15:14:20.800,2017-05-27 15:14:20.800,2017-05-27 15:14:33.600,wear
2017-05-27 15:14:33.600,2017-05-27 15:14:33.600,2017-05-27 15:14:46.400,wear
2017-05-27 15:14:46.400,2017-05-27 15:14:46.400,2017-05-27 15:14:59.200,wear
2017-05-27 15:14:59.200,2017-05-27 15:14:59.200,2017-05-27 15:15:12.000,wear
2017-05-27 15:15:12.000,2017-05-27 15:15:12.000,2017-05-27 15:15:24.800,wear
2017-05-27 15:15:24.800,2017-05-27 15:15:24.800,2017-05-27 15:15:37.600,wear
2017-05-27 15:15:37.600,2017-05-27 15:15:37.600,2017-05-27 15:15:50.400,wear
2017-05-27 15:15:50.400,2017-05-27 15:15:50.400,2017-05-27 15:16:03.200,wear
2017-05-27 15:16:03.200,2017-05-27 15:16:03.200,2017-05-27 15:16:16.000,wear
2017-05-27 15:16:16.000,2017-05-27 15:16:16.000,2017-05-27 15:16:28.800,wear
2017-05-27 15:16:28.800,2017-05-27 15:16:28.800,2017-05-27 15:16:41.600,wear
2017-05-27 15:16:41.600,2017-05-27 15:16:41.600,2017-05-27 15:16:54.400,wear
2017-05-27 15:16:54.400,2017-05-27 15:16:54.400,2017-05-27 15:17:07.200,wear
2017-05-27 15:17:07.200,2017-05-27 15:17:07.200,2017-05-27 15:17:20.000,wear
2017-05-27 15:17:20.000,2017-05-27 15:17:20.000,2017-05-27 15:17:32.800,wear
2017-05-27 15:17:32.800,2017-05-27 15:17:32.800,2017-05-27 15:17:45.600,wear
2017-05-27 15:17:45.600,2017-05-27 15:17:45.600,2017-05-27 15:17:58.400,wear
2017-05-27 15:17:58.400,2017-05-27 15:17:58.400,2017-05-27 15:18:11.200,wear
2017-05-27 15:18:11.200,2017-05-27 15:18:11.200,2017-05-27 15:18:24.000,wear
2017-05-27 15:18:24.000,2017-05-27 15:18:24.000,2017-05-27 15:18:36.800,wear
2017-05-27 15:18:36.800,2017-05-27 15:18:36.800,2017-05-27 15:18:49.600,wear
2017-05-27 15:18:49.600,2017-05-27 15:18:49.600,2017-05-27 15:19:02.400,wear
2017-05-27 15:19:02.400,2017-05-27 15:19:02.400,2017-05-27 15:19:15.200,wear
2017-05-27 15:19:15.200,2017-05-27 15:19:15.200,2017-05-27 15:19:28.000,wear
2017-05-27 15:19:28.000,2017-05-27 15:19:28.000,2017-05-27 15:19:40.800,wear
2017-05-27 15:19:40.800,2017-05-27 15:19:40.800,2017-05-27 15:19:53.600,wear
2017-05-27 15:19:53.600,2017-05-27 15:19:53.600,2017-05-27 15:20:06.400,wear
2017-05-27 15:20:06.400,2017-05-27 15:20:06.400,2017-05-27 15:20:19.200,wear
2017-05-27 15:20:19.200,2017-05-27 15:20:19.200,2017-05-27 15:20:32.000,wear
2017-05-27 15:20:32.000,2017-05-27 15:20:32.000,2017-05-27 15:20:44.800,wear
2017-05-27 15:20:44.800,2017-05-27 15:20:44.800,2017-05-27 15:20:57.600,wear
2017-05-27 15:20:57.600,2017-05-27 15:20:57.600,2017-05-27 15:21:10.400,wear
2017-05-27 15:21:10.400,2017-05-27 15:21:10.400,2017-05-27 15:21:23.200,wear
2017-05-27 15:21:23.200,2017-05-27 15:21:23.200,2017-05-27 15:21:36.000,wear
2017-05-27 15:21:36.000,2017-05-27 15:21:36.000,2017-05-27 15:21:48.800,wear
2017-05-27 15:21:48.800,2017-05-27 15:21:48.800,2017-05-27 15:22:01.600,wear
2017-05-27 15:22:01.600,2017-05-27 15:22:01.600,2017-05-27 15:22:14.400,wear
2017-05-27 15:22:14.400,2017-05-27 15:22:14.400,2017-05-27 15:22:27.200,wear
2017-05-27 15:22:27.200,2017-05-27 15:22:27.200,2017-05-27 15:22:40.000,wear
2017-05-27 15:22:40.000,2017-05-27 15:22:40.000,2017-05-27 15:22:52.800,wear
2017-05-27 15:22:52.800,2017-05-27 15:22:52.800,2017-05-27 15:23:05.600,wear
2017-05-27 15:23:05.600,2017-05-27 15:23:05.600,2017-05-27 15:23:18.400,wear
2017-05-27 15:23:18.400,2017-05-27 15:23:18.400,2017-05-27 15:23:31.200,wear
2017-05-27 15:23:31.200,2017-05-27 15:23:31.200,2017-05-27 15:23:44.000,wear
2017-05-27 15:23:44.000,2017-05-27 15:23:44.000,2017-05-27 15:23:56.800,wear
2017-05-27 15:23:56.800,2017-05-27 15:23:56.800,2017-05-27 15:24:09.600,wear
2017-05-27 15:24:09.600,2017-05-27 15:24:09.600,2017-05-27 15:24:22.400,wear
2017-05-27 15:24:22.400,2017-05-27 15:24:22.400,2017-05-27 15:24:35.200,wear
2017-05-27 15:24:35.200,2017-05-27 15:24:35.200,2017-05-27 15:24:48.000,wear
2017-05-27 15:24:48.000,2017-05-27 15:24:48.000,2017-05-27 15:25:00.800,wear
2017-05-27 15:25:00.800,2017-05-27 15:25:00.800,2017-05-27 15:25:13.600,wear
2017-05-27 15:25:13.600,2017-05-27 15:25:13.600,2017-05-27 15:25:26.400,wear
2017-05-27 15:25:26.400,2017-05-27 15:25:26.400,2017-05-27 15:25:39.200,wear
2017-05-27 15:25:39.200,2017-05-27 15:25:39.200,2017-05-27 15:25:52.000,wear
2017-05-27 15:25:52.000,2017-05-27 15:25:52.000,2017-05-27 15:26:04.800,wear
2017-05-27 15:26:04.800,2017-05-27 15:26:04.800,2017-05-27 15:26:17.600,wear
2017-05-27 15:26:17.600,2017-05-27 15:26:17.600,2017-05-27 15:26:30.400,wear
2017-05-27 15:26:30.400,2017-05-27 15:26:30.400,2017-05-27 15:26:43.200,wear
2017-05-27 15:26:43.200,2017-05-27 15:26:43.200,2017-05-27 15:26:56.000,wear
2017-05-27 15:26:56.000,2017-05-27 15:26:56.000,2017-05-27 15:27:08.800,wear
2017-05-27 15:27:08.800,2017-05-27 15:27:08.800,2017-05-27 15:27:21.600,wear
2017-05-27 15:27:21.600,2017-05-27 15:27:21.600,2017-05-27 15:27:34.400,wear
2017-05-27 15:27:34.400,2017-05-27 15:27:34.400,2017-05-27 15:27:47.200,wear
2017-05-27 15:27:47.200,2017-05-27 15:27:47.200,2017-05-27 15:28:00.000,wear
2017-05-27 15:28:00.000,2017-05-27 15:28:00.000,2017-05-27 15:28:12.800,wear
2017-05-27 15:28:12.800,2017-05-27 15:28:12.800,2017-05-27 15:28:25.600,wear
2017-05-27 15:28:25.600,2017-05-27 15:28:25.600,2017-05-27 15:28:38.400,wear
2017-05-27 15:28:38.400,2017-05-27 15:28:38.400,2017-05-27 15:28:51.200,wear
2017-05-27 15:28:51.200,2017-05-27 15:28:51.200,2017-05-27 15:29:04.000,wear
2017-05-27 15:29:04.000,2017-05-27 15:29:04.000,2017-05-27 15:29:16.800,wear
2017-05-27 15:29:16.800,2017-05-27 15:29:16.800,2017-05-27 15:29:29.600,wear
2017-05-27 15:29:29.600,2017-05-27 15:29:29.600,2017-05-27 15:29:42.400,wear
2017-05-27 15:29:42.400,2017-05-27 15:29:42.400,2017-05-27 15:29:55.200,wear
2017-05-27 15:29:55.200,2017-05-27 15:29:55.200,2017-05-27 15:30:08.000,wear
2017-05-27 15:30:08.000,2017-05-27 15:30:08.000,2017-05-27 15:30:20.800,wear
2017-05-27 15:30:20.800,2017-05-27 15:30:20.800,2017-05-27 15:30:33.600,wear
2017-05-27 15:30:33.600,2017-05-27 15:30:33.600,2017-05-27 15:30:46.400,wear
2017-05-27 15:30:46.400,2017-05-27 15:30:46.400,2017-05-27 15:30:59.200,wear
2017-05-27 15:30:59.200,2017-05-27 15:30:59.200,2017-05-27 15:31:12.000,wear
2017-05-27 15:31:12.000,2017-05-27 15:31:12.000,2017-05-27 15:31:24.800,wear
2017-05-27 15:31:24.800,2017-05-27 15:31:24.800,2017-05-27 15:31:37.600,wear
2017-05-27 15:31:37.600,2017-05-27 15:31:37.600,2017-05-27 15:31:50.400,wear
2017-05-27 15:31:50.400,2017-05-27 15:31:50.400,2017-05-27 15:32:03.200,wear
2017-05-27 15:32:03.200,2017-05-27 15:32:03.200,2017-05-27 15:32:16.000,wear
2017-05-27 15:32:16.000,2017-05-27 15:32:16.000,2017-05-27 15:32:28.800,wear
2017-05-27 15:32:28.800,2017-05-27 15:32:28.800,2017-05-27 15:32:41.600,wear
2017-05-27 15:32:41.600,2017-05-27 15:32:41.600,2017-05-27 15:32:54.400,wear
2017-05-27 15:32:54.400,2017-05-27 15:32:54.400,2017-05-27 15:33:07.200,wear
2017-05-27 15:33:07.200,2017-05-27 15:33:07.200,2017-05-27 15:33:20.000,wear
2017-05-27 15:33:20.000,2017-05-27 15:33:20.000,2017-05-27 15:33:32.800,wear
2017-05-27 15:33:32.800,2017-05-27 15:33:32.800,2017-05-27 15:33:45.600,wear
2017-05-27 15:33:45.600,2017-05-27 15:33:45.600,2017-05-27 15:33:58.400,wear
2017-05-27 15:33:58.400,2017-05-27 15:33:58.400,2017-05-27 15:34:11.200,wear
2017-05-27 15:34:11.200,2017-05-27 15:34:11.200,2017-05-27 15:34:24.000,wear
2017-05-27 15:34:24.000,2017-05-27 15:34:24.000,2017-05-27 15:34:36.800,wear
2017-05-27 15:34:36.800,2017-05-27 15:34:36.800,2017-05-27 15:34:49.600,wear
2017-05-27 15:34:49.600,2017-05-27 15:34:49.600,2017-05-27 15:35:02.400,wear
2017-05-27 15:35:02.400,2017-05-27 15:35:02.400,2017-05-27 15:35:15.200,wear
2017-05-27 15:35:15.200,2017-05-27 15:35:15.200,2017-05-27 15:35:28.000,wear
2017-05-27 15:35:28.000,2017-05-27 15:35:28.000,2017-05-27 15:35:40.800,wear
2017-05-27 15:35:40.800,2017-05-27 15:35:40.800,2017-05-27 15:35:53.600,wear
2017-05-27 15:35:53.600,2017-05-27 15:35:53.600,2017-05-27 15:36:06.400,wear
2017-05-27 15:36:06.400,2017-05-27 15:36:06.400,2017-05-27 15:36:19.200,wear
2017-05-27 15:36:19.200,2017-05-27 15:36:19.200,2017-05-27 15:36:32.000,wear
2017-05-27 15:36:32.000,2017-05-27 15:36:32.000,2017-05-27 15:36:44.800,wear
2017-05-27 15:36:44.800,2017-05-27 15:36:44.800,2017-05-27 15:36:57.600,wear
2017-05-27 15:36:57.600,2017-05-27 15:36:57.600,2017-05-27 15:37:10.400,wear
2017-05-27 15:37:10.400,2017-05-27 15:37:10.400,2017-05-27 15:37:23.200,wear
2017-05-27 15:37:23.200,2017-05-27 15:37:23.200,2017-05-27 15:37:36.000,wear
2017-05-27 15:37:36.000,2017-05-27 15:37:36.000,2017-05-27 15:37:48.800,wear
2017-05-27 15:37:48.800,2017-05-27 15:37:48.800,2017-05-27 15:38:01.600,wear
2017-05-27 15:38:01.600,2017-05-27 15:38:01.600,2017-05-27 15:38:14.400,wear
2017-05-27 15:38:14.400,2017-05-27 15:38:14.400,2017-05-27 15:38:27.200,wear
2017-05-27 15:38:27.200,2017-05-27 15:38:27.200,2017-05-27 15:38:40.000,wear
2017-05-27 15:38:40.000,2017-05-27 15:38:40.000,2017-05-27 15:38:52.800,wear
2017-05-27 15:38:52.800,2017-05-27 15:38:52.800,2017-05-27 15:39:05.600,wear
2017-05-27 15:39:05.600,2017-05-27 15:39:05.600,2017-05-27 15:39:18.400,wear
2017-05-27 15:39:18.400,2017-05-27 15:39:18.400,2017-05-27 15:39:31.200,wear
2017-05-27 15:39:31.200,2017-05-27 15:39:31.200,2017-05-27 15:39:44.000,wear
2017-05-27 15:39:44.000,2017-05-27 15:39:44.000,2017-05-27 15:39:56.800,wear
2017-05-27 15:39:56.800,2017-05-27 15:39:56.800,2017-05-27 15:40:09.600,wear
2017-05-27 15:40:09.600,2017-05-27 15:40:09.600,2017-05-27 15:40:22.400,wear
2017-05-27 15:40:22.400,2017-05-27 15:40:22.400,2017-05-27 15:40:35.200,wear
2017-05-27 15:40:35.200,2017-05-27 15:40:35.200,2017-05-27 15:40:48.000,wear
2017-05-27 15:40:48.000,2017-05-27 15:40:48.000,2017-05-27 15:41:00.800,wear
2017-05-27 15:41:00.800,2017-05-27 15:41:00.800,2017-05-27 15:41:13.600,wear
2017-05-27 15:41:13.600,2017-05-27 15:41:13.600,2017-05-27 15:41:26.400,wear
2017-05-27 15:41:26.400,2017-05-27 15:41:26.400,2017-05-27 15:41:39.200,wear
2017-05-27 15:41:39.200,2017-05-27 15:41:39.200,2017-05-27 15:41:52.000,wear
2017-05-27 15:41:52.000,2017-05-27 15:41:52.000,2017-05-27 15:42:04.800,wear
2017-05-27 15:42:04.800,2017-05-27 15:42:04.800,2017-05-27 15:42:17.600,wear
2017-05-27 15:42:17.600,2017-05-27 15:42:17.600,2017-05-27 15:42:30.400,wear
2017-05-27 15:42:30.400,2017-05-27 15:42:30.400,2017-05-27 15:42:43.200,wear
2017-05-27 15:42:43.200,2017-05-27 15:42:43.200,2017-05-27 15:42:56.000,wear
2017-05-27 15:42:56.000,2017-05-27 15:42:56.000,2017-05-27 15:43:08.800,wear
2017-05-27 15:43:08.800,2017-05-27 15:43:08.800,2017-05-27 15:43:21.600,wear
2017-05-27 15:43:21.600,2017-05-27 15:43:21.600,2017-05-27 15:43:34.400,wear
2017-05-27 15:43:34.400,2017-05-27 15:43:34.400,2017-05-27 15:43:47.200,wear
2017-05-27 15:43:47.200,2017-05-27 15:43:47.200,2017-05-27 15:44:00.000,wear
2017-05-27 15:44:00.000,2017-05-27 15:44:00.000,2017-05-27 15:44:12.800,wear
2017-05-27 15:44:12.800,2017-05-27 15:44:12.800,2017-05-27 15:44:25.600,wear
2017-05-27 15:44:25.600,2017-05-27 15:44:25.600,2017-05-27 15:44:38.400,wear
2017-05-27 15:44:38.400,2017-05-27 15:44:38.400,2017-05-27 15:44:51.200,wear
2017-05-27 15:44:51.200,2017-05-27 15:44:51.200,2017-05-27 15:45:04.000,wear
2017-05-27 15:45:04.000,2017-05-27 15:45:04.000,2017-05-27 15:45:16.800,wear
2017-05-27 15:45:16.800,2017-05-27 15:45:16.800,2017-05-27 15:45:29.600,wear
2017-05-27 15:45:29.600,2017-05-27 15:45:29.600,2017-05-27 15:45:42.400,wear
2017-05-27 15:45:42.400,2017-05-27 15:45:42.400,2017-05-27 15:45:55.200,wear
2017-05-27 15:45:55.200,2017-05-27 15:45:55.200,2017-05-27 15:46:08.000,wear
2017-05-27 15:46:08.000,2017-05-27 15:46:08.000,2017-05-27 15:46:20.800,wear
2017-05-27 15:46:20.800,2017-05-27 15:46:20.800,2017-05-27 15:46:33.600,wear
2017-05-27 15:46:33.600,2017-05-27 15:46:33.600,2017-05-27 15:46:46.400,wear
2017-05-27 15:46:46.400,2017-05-27 15:46:46.400,2017-05-27 15:46:59.200,wear
2017-05-27 15:46:59.200,2017-05-27 15:46:59.200,2017-05-27 15:47:12.000,wear
2017-05-27 15:47:12.000,2017-05-27 15:47:12.000,2017-05-27 15:47:24.800,wear
2017-05-27 15:47:24.800,2017-05-27 15:47:24.800,2017-05-27 15:47:37.600,wear
2017-05-27 15:47:37.600,2017-05-27 15:47:37.600,2017-05-27 15:47:50.400,wear
2017-05-27 15:47:50.400,2017-05-27 15:47:50.400,2017-05-27 15:48:03.200,wear
2017-05-27 15:48:03.200,2017-05-27 15:48:03.200,2017-05-27 15:48:16.000,wear
2017-05-27 15:48:16.000,2017-05-27 15:48:16.000,2017-05-27 15:48:28.800,wear
2017-05-27 15:48:28.800,2017-05-27 15:48:28.800,2017-05-27 15:48:41.600,wear
2017-05-27 15:48:41.600,2017-05-27 15:48:41.600,2017-05-27 15:48:54.400,wear
2017-05-27 15:48:54.400,2017-05-27 15:48:54.400,2017-05-27 15:49:07.200,wear
2017-05-27 15:49:07.200,2017-05-27 15:49:07.200,2017-05-27 15:49:20.000,wear
2017-05-27 15:49:20.000,2017-05-27 15:49:20.000,2017-05-27 15:49:32.800,wear
2017-05-27 15:49:32.800,2017-05-27 15:49:32.800,2017-05-27 15:49:45.600,wear
2017-05-27 15:49:45.600,2017-05-27 15:49:45.600,2017-05-27 15:49:58.400,wear
2017-05-27 15:49:58.400,2017-05-27 15:49:58.400,2017-05-27 15:50:11.200,wear
2017-05-27 15:50:11.200,2017-05-27 15:50:11.200,2017-05-27 15:50:24.000,wear
2017-05-27 15:50:24.000,2017-05-27 15:50:24.000,2017-05-27 15:50:36.800,wear
2017-05-27 15:50:36.800,2017-05-27 15:50:36.800,2017-05-27 15:50:49.600,wear
2017-05-27 15:50:49.600,2017-05-27 15:50:49.600,2017-05-27 15:51:02.400,wear
2017-05-27 15:51:02.400,2017-05-27 15:51:02.400,2017-05-27 15:51:15.200,wear
2017-05-27 15:51:15.200,2017-05-27 15:51:15.200,2017-05-27 15:51:28.000,wear
2017-05-27 15:51:28.000,2017-05-27 15:51:28.000,2017-05-27 15:51:40.800,wear
2017-05-27 15:51:40.800,2017-05-27 15:51:40.800,2017-05-27 15:51:53.600,wear
2017-05-27 15:51:53.600,2017-05-27 15:51:53.600,2017-05-27 15:52:06.400,wear
2017-05-27 15:52:06.400,2017-05-27 15:52:06.400,2017-05-27 15:52:19.200,wear
2017-05-27 15:52:19.200,2017-05-27 15:52:19.200,2017-05-27 15:52:32.000,wear
2017-05-27 15:52:32.000,2017-05-27 15:52:32.000,2017-05-27 15:52:44.800,wear
2017-05-27 15:52:44.800,2017-05-27 15:52:44.800,2017-05-27 15:52:57.600,wear
2017-05-27 15:52:57.600,2017-05-27 15:52:57.600,2017-05-27 15:53:10.400,wear
2017-05-27 15:53:10.400,2017-05-27 15:53:10.400,2017-05-27 15:53:23.200,wear
2017-05-27 15:53:23.200,2017-05-27 15:53:23.200,2017-05-27 15:53:36.000,wear
2017-05-27 15:53:36.000,2017-05-27 15:53:36.000,2017-05-27 15:53:48.800,wear
2017-05-27 15:53:48.800,2017-05-27 15:53:48.800,2017-05-27 15:54:01.600,wear
2017-05-27 15:54:01.600,2017-05-27 15:54:01.600,2017-05-27 15:54:14.400,wear
2017-05-27 15:54:14.400,2017-05-27 15:54:14.400,2017-05-27 15:54:27.200,wear
2017-05-27 15:54:27.200,2017-05-27 15:54:27.200,2017-05-27 15:54:40.000,wear
2017-05-27 15:54:40.000,2017-05-27 15:54:40.000,2017-05-27 15:54:52.800,wear
2017-05-27 15:54:52.800,2017-05-27 15:54:52.800,2017-05-27 15:55:05.600,wear
2017-05-27 15:55:05.600,2017-05-27 15:55:05.600,2017-05-27 15:55:18.400,wear
2017-05-27 15:55:18.400,2017-05-27 15:55:18.400,2017-05-27 15:55:31.200,wear
2017-05-27 15:55:31.200,2017-05-27 15:55:31.200,2017-05-27 15:55:44.000,wear
2017-05-27 15:55:44.000,2017-05-27 15:55:44.000,2017-05-27 15:55:56.800,wear
2017-05-27 15:55:56.800,2017-05-27 15:55:56.800,2017-05-27 15:56:09.600,wear
2017-05-27 15:56:09.600,2017-05-27 15:56:09.600,2017-05-27 15:56:22.400,wear
2017-05-27 15:56:22.400,2017-05-27 15:56:22.400,2017-05-27 15:56:35.200,wear
2017-05-27 15:56:35.200,2017-05-27 15:56:35.200,2017-05-27 15:56:48.000,wear
2017-05-27 15:56:48.000,2017-05-27 15:56:48.000,2017-05-27 15:57:00.800,wear
2017-05-27 15:57:00.800,2017-05-27 15:57:00.800,2017-05-27 15:57:13.600,wear
2017-05-27 15:57:13.600,2017-05-27 15:57:13.600,2017-05-27 15:57:26.400,wear
2017-05-27 15:57:26.400,2017-05-27 15:57:26.400,2017-05-27 15:57:39.200,wear
2017-05-27 15:57:39.200,2017-05-27 15:57:39.200,2017-05-27 15:57:52.000,wear
2017-05-27 15:57:52.000,2017-05-27 15:57:52.000,2017-05-27 15:58:04.800,wear
2017-05-27 15:58:04.800,2017-05-27 15:58:04.800,2017-05-27 15:58:17.600,wear
2017-05-27 15:58:17.600,2017-05-27 15:58:17.600,2017-05-27 15:58:30.400,wear
2017-05-27 15:58:30.400,2017-05-27 15:58:30.400,2017-05-27 15:58:43.200,wear
2017-05-27 15:58:43.200,2017-05-27 15:58:43.200,2017-05-27 15:58:56.000,wear
2017-05-27 15:58:56.000,2017-05-27 15:58:56.000,2017-05-27 15:59:08.800,wear
2017-05-27 15:59:08.800,2017-05-27 15:59:08.800,2017-05-27 15:59:21.600,wear
2017-05-27 15:59:21.600,2017-05-27 15:59:21.600,2017-05-27 15:59:34.400,wear
2017-05-27 15:59:34.400,2017-05-27 15:59:34.400,2017-05-27 15:59:47.200,wear
2017-05-27 15:59:47.200,2017-05-27 15:59:47.200,2017-05-27 15:59:59.999,wear
