HEADER_TIME_STAMP,START_TIME,STOP_TIME,LABEL_NAME
2017-05-27 20:00:00.000,2017-05-27 20:00:00.000,2017-05-27 20:00:12.800,wear
2017-05-27 20:00:12.800,2017-05-27 20:00:12.800,2017-05-27 20:00:25.600,wear
2017-05-27 20:00:25.600,2017-05-27 20:00:25.600,2017-05-27 20:00:38.400,wear
2017-05-27 20:00:38.400,2017-05-27 20:00:38.400,2017-05-27 20:00:51.200,wear
2017-05-27 20:00:51.200,2017-05-27 20:00:51.200,2017-05-27 20:01:04.000,wear
2017-05-27 20:01:04.000,2017-05-27 20:01:04.000,2017-05-27 20:01:16.800,wear
2017-05-27 20:01:16.800,2017-05-27 20:01:16.800,2017-05-27 20:01:29.600,wear
2017-05-27 20:01:29.600,2017-05-27 20:01:29.600,2017-05-27 20:01:42.400,wear
2017-05-27 20:01:42.400,2017-05-27 20:01:42.400,2017-05-27 20:01:55.200,wear
2017-05-27 20:01:55.200,2017-05-27 20:01:55.200,2017-05-27 20:02:08.000,wear
2017-05-27 20:02:08.000,2017-05-27 20:02:08.000,2017-05-27 20:02:20.800,wear
2017-05-27 20:02:20.800,2017-05-27 20:02:20.800,2017-05-27 20:02:33.600,wear
2017-05-27 20:02:33.600,2017-05-27 20:02:33.600,2017-05-27 20:02:46.400,wear
2017-05-27 20:02:46.400,2017-05-27 20:02:46.400,2017-05-27 20:02:59.200,wear
2017-05-27 20:02:59.200,2017-05-27 20:02:59.200,2017-05-27 20:03:12.000,wear
2017-05-27 20:03:12.000,2017-05-27 20:03:12.000,2017-05-27 20:03:24.800,wear
2017-05-27 20:03:24.800,2017-05-27 20:03:24.800,2017-05-27 20:03:37.600,wear
2017-05-27 20:03:37.600,2017-05-27 20:03:37.600,2017-05-27 20:03:50.400,wear
2017-05-27 20:03:50.400,2017-05-27 20:03:50.400,2017-05-27 20:04:03.200,wear
2017-05-27 20:04:03.200,2017-05-27 20:04:03.200,2017-05-27 20:04:16.000,wear
2017-05-27 20:04:16.000,2017-05-27 20:04:16.000,2017-05-27 20:04:28.800,wear
2017-05-27 20:04:28.800,2017-05-27 20:04:28.800,2017-05-27 20:04:41.600,wear
2017-05-27 20:04:41.600,2017-05-27 20:04:41.600,2017-05-27 20:04:54.400,wear
2017-05-27 20:04:54.400,2017-05-27 20:04:54.400,2017-05-27 20:05:07.200,wear
2017-05-27 20:05:07.200,2017-05-27 20:05:07.200,2017-05-27 20:05:20.000,wear
2017-05-27 20:05:20.000,2017-05-27 20:05:20.000,2017-05-27 20:05:32.800,wear
2017-05-27 20:05:32.800,2017-05-27 20:05:32.800,2017-05-27 20:05:45.600,wear
2017-05-27 20:05:45.600,2017-05-27 20:05:45.600,2017-05-27 20:05:58.400,wear
2017-05-27 20:05:58.400,2017-05-27 20:05:58.400,2017-05-27 20:06:11.200,wear
2017-05-27 20:06:11.200,2017-05-27 20:06:11.200,2017-05-27 20:06:24.000,wear
2017-05-27 20:06:24.000,2017-05-27 20:06:24.000,2017-05-27 20:06:36.800,wear
2017-05-27 20:06:36.800,2017-05-27 20:06:36.800,2017-05-27 20:06:49.600,wear
2017-05-27 20:06:49.600,2017-05-27 20:06:49.600,2017-05-27 20:07:02.400,wear
2017-05-27 20:07:02.400,2017-05-27 20:07:02.400,2017-05-27 20:07:15.200,wear
2017-05-27 20:07:15.200,2017-05-27 20:07:15.200,2017-05-27 20:07:28.000,wear
2017-05-27 20:07:28.000,2017-05-27 20:07:28.000,2017-05-27 20:07:40.800,wear
2017-05-27 20:07:40.800,2017-05-27 20:07:40.800,2017-05-27 20:07:53.600,wear
2017-05-27 20:07:53.600,2017-05-27 20:07:53.600,2017-05-27 20:08:06.400,wear
2017-05-27 20:08:06.400,2017-05-27 20:08:06.400,2017-05-27 20:08:19.200,wear
2017-05-27 20:08:19.200,2017-05-27 20:08:19.200,2017-05-27 20:08:32.000,wear
2017-05-27 20:08:32.000,2017-05-27 20:08:32.000,2017-05-27 20:08:44.800,wear
2017-05-27 20:08:44.800,2017-05-27 20:08:44.800,2017-05-27 20:08:57.600,wear
2017-05-27 20:08:57.600,2017-05-27 20:08:57.600,2017-05-27 20:09:10.400,wear
2017-05-27 20:09:10.400,2017-05-27 20:09:10.400,2017-05-27 20:09:23.200,wear
2017-05-27 20:09:23.200,2017-05-27 20:09:23.200,2017-05-27 20:09:36.000,wear
2017-05-27 20:09:36.000,2017-05-27 20:09:36.000,2017-05-27 20:09:48.800,wear
2017-05-27 20:09:48.800,2017-05-27 20:09:48.800,2017-05-27 20:10:01.600,wear
2017-05-27 20:10:01.600,2017-05-27 20:10:01.600,2017-05-27 20:10:14.400,wear
2017-05-27 20:10:14.400,2017-05-27 20:10:14.400,2017-05-27 20:10:27.200,wear
2017-05-27 20:10:27.200,2017-05-27 20:10:27.200,2017-05-27 20:10:40.000,wear
2017-05-27 20:10:40.000,2017-05-27 20:10:40.000,2017-05-27 20:10:52.800,wear
2017-05-27 20:10:52.800,2017-05-27 20:10:52.800,2017-05-27 20:11:05.600,wear
2017-05-27 20:11:05.600,2017-05-27 20:11:05.600,2017-05-27 20:11:18.400,wear
2017-05-27 20:11:18.400,2017-05-27 20:11:18.400,2017-05-27 20:11:31.200,wear
2017-05-27 20:11:31.200,2017-05-27 20:11:31.200,2017-05-27 20:11:44.000,wear
2017-05-27 20:11:44.000,2017-05-27 20:11:44.000,2017-05-27 20:11:56.800,wear
2017-05-27 20:11:56.800,2017-05-27 20:11:56.800,2017-05-27 20:12:09.600,wear
2017-05-27 20:12:09.600,2017-05-27 20:12:09.600,2017-05-27 20:12:22.400,wear
2017-05-27 20:12:22.400,2017-05-27 20:12:22.400,2017-05-27 20:12:35.200,wear
2017-05-27 20:12:35.200,2017-05-27 20:12:35.200,2017-05-27 20:12:48.000,wear
2017-05-27 20:12:48.000,2017-05-27 20:12:48.000,2017-05-27 20:13:00.800,wear
2017-05-27 20:13:00.800,2017-05-27 20:13:00.800,2017-05-27 20:13:13.600,wear
2017-05-27 20:13:13.600,2017-05-27 20:13:13.600,2017-05-27 20:13:26.400,wear
2017-05-27 20:13:26.400,2017-05-27 20:13:26.400,2017-05-27 20:13:39.200,wear
2017-05-27 20:13:39.200,2017-05-27 20:13:39.200,2017-05-27 20:13:52.000,wear
2017-05-27 20:13:52.000,2017-05-27 20:13:52.000,2017-05-27 20:14:04.800,wear
2017-05-27 20:14:04.800,2017-05-27 20:14:04.800,2017-05-27 20:14:17.600,wear
2017-05-27 20:14:17.600,2017-05-27 20:14:17.600,2017-05-27 20:14:30.400,wear
2017-05-27 20:14:30.400,2017-05-27 20:14:30.400,2017-05-27 20:14:43.200,wear
2017-05-27 20:14:43.200,2017-05-27 20:14:43.200,2017-05-27 20:14:56.000,wear
2017-05-27 20:14:56.000,2017-05-27 20:14:56.000,2017-05-27 20:15:08.800,wear
2017-05-27 20:15:08.800,2017-05-27 20:15:08.800,2017-05-27 20:15:21.600,wear
2017-05-27 20:15:21.600,2017-05-27 20:15:21.600,2017-05-27 20:15:34.400,wear
2017-05-27 20:15:34.400,2017-05-27 20:15:34.400,2017-05-27 20:15:47.200,wear
2017-05-27 20:15:47.200,2017-05-27 20:15:47.200,2017-05-27 20:16:00.000,wear
2017-05-27 20:16:00.000,2017-05-27 20:16:00.000,2017-05-27 20:16:12.800,wear
2017-05-27 20:16:12.800,2017-05-27 20:16:12.800,2017-05-27 20:16:25.600,wear
2017-05-27 20:16:25.600,2017-05-27 20:16:25.600,2017-05-27 20:16:38.400,wear
2017-05-27 20:16:38.400,2017-05-27 20:16:38.400,2017-05-27 20:16:51.200,wear
2017-05-27 20:16:51.200,2017-05-27 20:16:51.200,2017-05-27 20:17:04.000,wear
2017-05-27 20:17:04.000,2017-05-27 20:17:04.000,2017-05-27 20:17:16.800,wear
2017-05-27 20:17:16.800,2017-05-27 20:17:16.800,2017-05-27 20:17:29.600,wear
2017-05-27 20:17:29.600,2017-05-27 20:17:29.600,2017-05-27 20:17:42.400,wear
2017-05-27 20:17:42.400,2017-05-27 20:17:42.400,2017-05-27 20:17:55.200,wear
2017-05-27 20:17:55.200,2017-05-27 20:17:55.200,2017-05-27 20:18:08.000,wear
2017-05-27 20:18:08.000,2017-05-27 20:18:08.000,2017-05-27 20:18:20.800,wear
2017-05-27 20:18:20.800,2017-05-27 20:18:20.800,2017-05-27 20:18:33.600,wear
2017-05-27 20:18:33.600,2017-05-27 20:18:33.600,2017-05-27 20:18:46.400,wear
2017-05-27 20:18:46.400,2017-05-27 20:18:46.400,2017-05-27 20:18:59.200,wear
2017-05-27 20:18:59.200,2017-05-27 20:18:59.200,2017-05-27 20:19:12.000,wear
2017-05-27 20:19:12.000,2017-05-27 20:19:12.000,2017-05-27 20:19:24.800,wear
2017-05-27 20:19:24.800,2017-05-27 20:19:24.800,2017-05-27 20:19:37.600,wear
2017-05-27 20:19:37.600,2017-05-27 20:19:37.600,2017-05-27 20:19:50.400,wear
2017-05-27 20:19:50.400,2017-05-27 20:19:50.400,2017-05-27 20:20:03.200,wear
2017-05-27 20:20:03.200,2017-05-27 20:20:03.200,2017-05-27 20:20:16.000,wear
2017-05-27 20:20:16.000,2017-05-27 20:20:16.000,2017-05-27 20:20:28.800,wear
2017-05-27 20:20:28.800,2017-05-27 20:20:28.800,2017-05-27 20:20:41.600,wear
2017-05-27 20:20:41.600,2017-05-27 20:20:41.600,2017-05-27 20:20:54.400,wear
2017-05-27 20:20:54.400,2017-05-27 20:20:54.400,2017-05-27 20:21:07.200,wear
2017-05-27 20:21:07.200,2017-05-27 20:21:07.200,2017-05-27 20:21:20.000,wear
2017-05-27 20:21:20.000,2017-05-27 20:21:20.000,2017-05-27 20:21:32.800,wear
2017-05-27 20:21:32.800,2017-05-27 20:21:32.800,2017-05-27 20:21:45.600,wear
2017-05-27 20:21:45.600,2017-05-27 20:21:45.600,2017-05-27 20:21:58.400,wear
2017-05-27 20:21:58.400,2017-05-27 20:21:58.400,2017-05-27 20:22:11.200,wear
2017-05-27 20:22:11.200,2017-05-27 20:22:11.200,2017-05-27 20:22:24.000,wear
2017-05-27 20:22:24.000,2017-05-27 20:22:24.000,2017-05-27 20:22:36.800,wear
2017-05-27 20:22:36.800,2017-05-27 20:22:36.800,2017-05-27 20:22:49.600,wear
2017-05-27 20:22:49.600,2017-05-27 20:22:49.600,2017-05-27 20:23:02.400,wear
2017-05-27 20:23:02.400,2017-05-27 20:23:02.400,2017-05-27 20:23:15.200,wear
2017-05-27 20:23:15.200,2017-05-27 20:23:15.200,2017-05-27 20:23:28.000,wear
2017-05-27 20:23:28.000,2017-05-27 20:23:28.000,2017-05-27 20:23:40.800,wear
2017-05-27 20:23:40.800,2017-05-27 20:23:40.800,2017-05-27 20:23:53.600,wear
2017-05-27 20:23:53.600,2017-05-27 20:23:53.600,2017-05-27 20:24:06.400,wear
2017-05-27 20:24:06.400,2017-05-27 20:24:06.400,2017-05-27 20:24:19.200,wear
2017-05-27 20:24:19.200,2017-05-27 20:24:19.200,2017-05-27 20:24:32.000,wear
2017-05-27 20:24:32.000,2017-05-27 20:24:32.000,2017-05-27 20:24:44.800,wear
2017-05-27 20:24:44.800,2017-05-27 20:24:44.800,2017-05-27 20:24:57.600,wear
2017-05-27 20:24:57.600,2017-05-27 20:24:57.600,2017-05-27 20:25:10.400,wear
2017-05-27 20:25:10.400,2017-05-27 20:25:10.400,2017-05-27 20:25:23.200,wear
2017-05-27 20:25:23.200,2017-05-27 20:25:23.200,2017-05-27 20:25:36.000,wear
2017-05-27 20:25:36.000,2017-05-27 20:25:36.000,2017-05-27 20:25:48.800,wear
2017-05-27 20:25:48.800,2017-05-27 20:25:48.800,2017-05-27 20:26:01.600,wear
2017-05-27 20:26:01.600,2017-05-27 20:26:01.600,2017-05-27 20:26:14.400,wear
2017-05-27 20:26:14.400,2017-05-27 20:26:14.400,2017-05-27 20:26:27.200,wear
2017-05-27 20:26:27.200,2017-05-27 20:26:27.200,2017-05-27 20:26:40.000,wear
2017-05-27 20:26:40.000,2017-05-27 20:26:40.000,2017-05-27 20:26:52.800,wear
2017-05-27 20:26:52.800,2017-05-27 20:26:52.800,2017-05-27 20:27:05.600,wear
2017-05-27 20:27:05.600,2017-05-27 20:27:05.600,2017-05-27 20:27:18.400,wear
2017-05-27 20:27:18.400,2017-05-27 20:27:18.400,2017-05-27 20:27:31.200,wear
2017-05-27 20:27:31.200,2017-05-27 20:27:31.200,2017-05-27 20:27:44.000,wear
2017-05-27 20:27:44.000,2017-05-27 20:27:44.000,2017-05-27 20:27:56.800,wear
2017-05-27 20:27:56.800,2017-05-27 20:27:56.800,2017-05-27 20:28:09.600,wear
2017-05-27 20:28:09.600,2017-05-27 20:28:09.600,2017-05-27 20:28:22.400,wear
2017-05-27 20:28:22.400,2017-05-27 20:28:22.400,2017-05-27 20:28:35.200,wear
2017-05-27 20:28:35.200,2017-05-27 20:28:35.200,2017-05-27 20:28:48.000,wear
2017-05-27 20:28:48.000,2017-05-27 20:28:48.000,2017-05-27 20:29:00.800,wear
2017-05-27 20:29:00.800,2017-05-27 20:29:00.800,2017-05-27 20:29:13.600,wear
2017-05-27 20:29:13.600,2017-05-27 20:29:13.600,2017-05-27 20:29:26.400,wear
2017-05-27 20:29:26.400,2017-05-27 20:29:26.400,2017-05-27 20:29:39.200,wear
2017-05-27 20:29:39.200,2017-05-27 20:29:39.200,2017-05-27 20:29:52.000,wear
2017-05-27 20:29:52.000,2017-05-27 20:29:52.000,2017-05-27 20:30:04.800,wear
2017-05-27 20:30:04.800,2017-05-27 20:30:04.800,2017-05-27 20:30:17.600,wear
2017-05-27 20:30:17.600,2017-05-27 20:30:17.600,2017-05-27 20:30:30.400,wear
2017-05-27 20:30:30.400,2017-05-27 20:30:30.400,2017-05-27 20:30:43.200,wear
2017-05-27 20:30:43.200,2017-05-27 20:30:43.200,2017-05-27 20:30:56.000,wear
2017-05-27 20:30:56.000,2017-05-27 20:30:56.000,2017-05-27 20:31:08.800,wear
2017-05-27 20:31:08.800,2017-05-27 20:31:08.800,2017-05-27 20:31:21.600,wear
2017-05-27 20:31:21.600,2017-05-27 20:31:21.600,2017-05-27 20:31:34.400,wear
2017-05-27 20:31:34.400,2017-05-27 20:31:34.400,2017-05-27 20:31:47.200,wear
2017-05-27 20:31:47.200,2017-05-27 20:31:47.200,2017-05-27 20:32:00.000,wear
2017-05-27 20:32:00.000,2017-05-27 20:32:00.000,2017-05-27 20:32:12.800,wear
2017-05-27 20:32:12.800,2017-05-27 20:32:12.800,2017-05-27 20:32:25.600,wear
2017-05-27 20:32:25.600,2017-05-27 20:32:25.600,2017-05-27 20:32:38.400,wear
2017-05-27 20:32:38.400,2017-05-27 20:32:38.400,2017-05-27 20:32:51.200,wear
2017-05-27 20:32:51.200,2017-05-27 20:32:51.200,2017-05-27 20:33:04.000,wear
2017-05-27 20:33:04.000,2017-05-27 20:33:04.000,2017-05-27 20:33:16.800,wear
2017-05-27 20:33:16.800,2017-05-27 20:33:16.800,2017-05-27 20:33:29.600,wear
2017-05-27 20:33:29.600,2017-05-27 20:33:29.600,2017-05-27 20:33:42.400,wear
2017-05-27 20:33:42.400,2017-05-27 20:33:42.400,2017-05-27 20:33:55.200,wear
2017-05-27 20:33:55.200,2017-05-27 20:33:55.200,2017-05-27 20:34:08.000,wear
2017-05-27 20:34:08.000,2017-05-27 20:34:08.000,2017-05-27 20:34:20.800,wear
2017-05-27 20:34:20.800,2017-05-27 20:34:20.800,2017-05-27 20:34:33.600,wear
2017-05-27 20:34:33.600,2017-05-27 20:34:33.600,2017-05-27 20:34:46.400,wear
2017-05-27 20:34:46.400,2017-05-27 20:34:46.400,2017-05-27 20:34:59.200,wear
2017-05-27 20:34:59.200,2017-05-27 20:34:59.200,2017-05-27 20:35:12.000,wear
2017-05-27 20:35:12.000,2017-05-27 20:35:12.000,2017-05-27 20:35:24.800,wear
2017-05-27 20:35:24.800,2017-05-27 20:35:24.800,2017-05-27 20:35:37.600,wear
2017-05-27 20:35:37.600,2017-05-27 20:35:37.600,2017-05-27 20:35:50.400,wear
2017-05-27 20:35:50.400,2017-05-27 20:35:50.400,2017-05-27 20:36:03.200,wear
2017-05-27 20:36:03.200,2017-05-27 20:36:03.200,2017-05-27 20:36:16.000,wear
2017-05-27 20:36:16.000,2017-05-27 20:36:16.000,2017-05-27 20:36:28.800,wear
2017-05-27 20:36:28.800,2017-05-27 20:36:28.800,2017-05-27 20:36:41.600,wear
2017-05-27 20:36:41.600,2017-05-27 20:36:41.600,2017-05-27 20:36:54.400,wear
2017-05-27 20:36:54.400,2017-05-27 20:36:54.400,2017-05-27 20:37:07.200,wear
2017-05-27 20:37:07.200,2017-05-27 20:37:07.200,2017-05-27 20:37:20.000,wear
2017-05-27 20:37:20.000,2017-05-27 20:37:20.000,2017-05-27 20:37:32.800,wear
2017-05-27 20:37:32.800,2017-05-27 20:37:32.800,2017-05-27 20:37:45.600,wear
2017-05-27 20:37:45.600,2017-05-27 20:37:45.600,2017-05-27 20:37:58.400,wear
2017-05-27 20:37:58.400,2017-05-27 20:37:58.400,2017-05-27 20:38:11.200,wear
2017-05-27 20:38:11.200,2017-05-27 20:38:11.200,2017-05-27 20:38:24.000,wear
2017-05-27 20:38:24.000,2017-05-27 20:38:24.000,2017-05-27 20:38:36.800,wear
2017-05-27 20:38:36.800,2017-05-27 20:38:36.800,2017-05-27 20:38:49.600,wear
2017-05-27 20:38:49.600,2017-05-27 20:38:49.600,2017-05-27 20:39:02.400,wear
2017-05-27 20:39:02.400,2017-05-27 20:39:02.400,2017-05-27 20:39:15.200,wear
2017-05-27 20:39:15.200,2017-05-27 20:39:15.200,2017-05-27 20:39:28.000,wear
2017-05-27 20:39:28.000,2017-05-27 20:39:28.000,2017-05-27 20:39:40.800,wear
2017-05-27 20:39:40.800,2017-05-27 20:39:40.800,2017-05-27 20:39:53.600,wear
2017-05-27 20:39:53.600,2017-05-27 20:39:53.600,2017-05-27 20:40:06.400,wear
2017-05-27 20:40:06.400,2017-05-27 20:40:06.400,2017-05-27 20:40:19.200,wear
2017-05-27 20:40:19.200,2017-05-27 20:40:19.200,2017-05-27 20:40:32.000,wear
2017-05-27 20:40:32.000,2017-05-27 20:40:32.000,2017-05-27 20:40:44.800,wear
2017-05-27 20:40:44.800,2017-05-27 20:40:44.800,2017-05-27 20:40:57.600,wear
2017-05-27 20:40:57.600,2017-05-27 20:40:57.600,2017-05-27 20:41:10.400,wear
2017-05-27 20:41:10.400,2017-05-27 20:41:10.400,2017-05-27 20:41:23.200,wear
2017-05-27 20:41:23.200,2017-05-27 20:41:23.200,2017-05-27 20:41:36.000,wear
2017-05-27 20:41:36.000,2017-05-27 20:41:36.000,2017-05-27 20:41:48.800,wear
2017-05-27 20:41:48.800,2017-05-27 20:41:48.800,2017-05-27 20:42:01.600,wear
2017-05-27 20:42:01.600,2017-05-27 20:42:01.600,2017-05-27 20:42:14.400,wear
2017-05-27 20:42:14.400,2017-05-27 20:42:14.400,2017-05-27 20:42:27.200,wear
2017-05-27 20:42:27.200,2017-05-27 20:42:27.200,2017-05-27 20:42:40.000,wear
2017-05-27 20:42:40.000,2017-05-27 20:42:40.000,2017-05-27 20:42:52.800,wear
2017-05-27 20:42:52.800,2017-05-27 20:42:52.800,2017-05-27 20:43:05.600,wear
2017-05-27 20:43:05.600,2017-05-27 20:43:05.600,2017-05-27 20:43:18.400,wear
2017-05-27 20:43:18.400,2017-05-27 20:43:18.400,2017-05-27 20:43:31.200,wear
2017-05-27 20:43:31.200,2017-05-27 20:43:31.200,2017-05-27 20:43:44.000,wear
2017-05-27 20:43:44.000,2017-05-27 20:43:44.000,2017-05-27 20:43:56.800,wear
2017-05-27 20:43:56.800,2017-05-27 20:43:56.800,2017-05-27 20:44:09.600,wear
2017-05-27 20:44:09.600,2017-05-27 20:44:09.600,2017-05-27 20:44:22.400,wear
2017-05-27 20:44:22.400,2017-05-27 20:44:22.400,2017-05-27 20:44:35.200,wear
2017-05-27 20:44:35.200,2017-05-27 20:44:35.200,2017-05-27 20:44:48.000,wear
2017-05-27 20:44:48.000,2017-05-27 20:44:48.000,2017-05-27 20:45:00.800,wear
2017-05-27 20:45:00.800,2017-05-27 20:45:00.800,2017-05-27 20:45:13.600,wear
2017-05-27 20:45:13.600,2017-05-27 20:45:13.600,2017-05-27 20:45:26.400,wear
2017-05-27 20:45:26.400,2017-05-27 20:45:26.400,2017-05-27 20:45:39.200,wear
2017-05-27 20:45:39.200,2017-05-27 20:45:39.200,2017-05-27 20:45:52.000,wear
2017-05-27 20:45:52.000,2017-05-27 20:45:52.000,2017-05-27 20:46:04.800,wear
2017-05-27 20:46:04.800,2017-05-27 20:46:04.800,2017-05-27 20:46:17.600,wear
2017-05-27 20:46:17.600,2017-05-27 20:46:17.600,2017-05-27 20:46:30.400,wear
2017-05-27 20:46:30.400,2017-05-27 20:46:30.400,2017-05-27 20:46:43.200,wear
2017-05-27 20:46:43.200,2017-05-27 20:46:43.200,2017-05-27 20:46:56.000,wear
2017-05-27 20:46:56.000,2017-05-27 20:46:56.000,2017-05-27 20:47:08.800,wear
2017-05-27 20:47:08.800,2017-05-27 20:47:08.800,2017-05-27 20:47:21.600,wear
2017-05-27 20:47:21.600,2017-05-27 20:47:21.600,2017-05-27 20:47:34.400,wear
2017-05-27 20:47:34.400,2017-05-27 20:47:34.400,2017-05-27 20:47:47.200,wear
2017-05-27 20:47:47.200,2017-05-27 20:47:47.200,2017-05-27 20:48:00.000,wear
2017-05-27 20:48:00.000,2017-05-27 20:48:00.000,2017-05-27 20:48:12.800,wear
2017-05-27 20:48:12.800,2017-05-27 20:48:12.800,2017-05-27 20:48:25.600,wear
2017-05-27 20:48:25.600,2017-05-27 20:48:25.600,2017-05-27 20:48:38.400,wear
2017-05-27 20:48:38.400,2017-05-27 20:48:38.400,2017-05-27 20:48:51.200,wear
2017-05-27 20:48:51.200,2017-05-27 20:48:51.200,2017-05-27 20:49:04.000,wear
2017-05-27 20:49:04.000,2017-05-27 20:49:04.000,2017-05-27 20:49:16.800,wear
2017-05-27 20:49:16.800,2017-05-27 20:49:16.800,2017-05-27 20:49:29.600,wear
2017-05-27 20:49:29.600,2017-05-27 20:49:29.600,2017-05-27 20:49:42.400,wear
2017-05-27 20:49:42.400,2017-05-27 20:49:42.400,2017-05-27 20:49:55.200,wear
2017-05-27 20:49:55.200,2017-05-27 20:49:55.200,2017-05-27 20:50:08.000,wear
2017-05-27 20:50:08.000,2017-05-27 20:50:08.000,2017-05-27 20:50:20.800,wear
2017-05-27 20:50:20.800,2017-05-27 20:50:20.800,2017-05-27 20:50:33.600,wear
2017-05-27 20:50:33.600,2017-05-27 20:50:33.600,2017-05-27 20:50:46.400,wear
2017-05-27 20:50:46.400,2017-05-27 20:50:46.400,2017-05-27 20:50:59.200,wear
2017-05-27 20:50:59.200,2017-05-27 20:50:59.200,2017-05-27 20:51:12.000,wear
2017-05-27 20:51:12.000,2017-05-27 20:51:12.000,2017-05-27 20:51:24.800,wear
2017-05-27 20:51:24.800,2017-05-27 20:51:24.800,2017-05-27 20:51:37.600,wear
2017-05-27 20:51:37.600,2017-05-27 20:51:37.600,2017-05-27 20:51:50.400,wear
2017-05-27 20:51:50.400,2017-05-27 20:51:50.400,2017-05-27 20:52:03.200,wear
2017-05-27 20:52:03.200,2017-05-27 20:52:03.200,2017-05-27 20:52:16.000,wear
2017-05-27 20:52:16.000,2017-05-27 20:52:16.000,2017-05-27 20:52:28.800,wear
2017-05-27 20:52:28.800,2017-05-27 20:52:28.800,2017-05-27 20:52:41.600,wear
2017-05-27 20:52:41.600,2017-05-27 20:52:41.600,2017-05-27 20:52:54.400,wear
2017-05-27 20:52:54.400,2017-05-27 20:52:54.400,2017-05-27 20:53:07.200,wear
2017-05-27 20:53:07.200,2017-05-27 20:53:07.200,2017-05-27 20:53:20.000,wear
2017-05-27 20:53:20.000,2017-05-27 20:53:20.000,2017-05-27 20:53:32.800,wear
2017-05-27 20:53:32.800,2017-05-27 20:53:32.800,2017-05-27 20:53:45.600,wear
2017-05-27 20:53:45.600,2017-05-27 20:53:45.600,2017-05-27 20:53:58.400,wear
2017-05-27 20:53:58.400,2017-05-27 20:53:58.400,2017-05-27 20:54:11.200,wear
2017-05-27 20:54:11.200,2017-05-27 20:54:11.200,2017-05-27 20:54:24.000,wear
2017-05-27 20:54:24.000,2017-05-27 20:54:24.000,2017-05-27 20:54:36.800,wear
2017-05-27 20:54:36.800,2017-05-27 20:54:36.800,2017-05-27 20:54:49.600,wear
2017-05-27 20:54:49.600,2017-05-27 20:54:49.600,2017-05-27 20:55:02.400,wear
2017-05-27 20:55:02.400,2017-05-27 20:55:02.400,2017-05-27 20:55:15.200,wear
2017-05-27 20:55:15.200,2017-05-27 20:55:15.200,2017-05-27 20:55:28.000,wear
2017-05-27 20:55:28.000,2017-05-27 20:55:28.000,2017-05-27 20:55:40.800,wear
2017-05-27 20:55:40.800,2017-05-27 20:55:40.800,2017-05-27 20:55:53.600,wear
2017-05-27 20:55:53.600,2017-05-27 20:55:53.600,2017-05-27 20:56:06.400,wear
2017-05-27 20:56:06.400,2017-05-27 20:56:06.400,2017-05-27 20:56:19.200,wear
2017-05-27 20:56:19.200,2017-05-27 20:56:19.200,2017-05-27 20:56:32.000,wear
2017-05-27 20:56:32.000,2017-05-27 20:56:32.000,2017-05-27 20:56:44.800,wear
2017-05-27 20:56:44.800,2017-05-27 20:56:44.800,2017-05-27 20:56:57.600,wear
2017-05-27 20:56:57.600,2017-05-27 20:56:57.600,2017-05-27 20:57:10.400,wear
2017-05-27 20:57:10.400,2017-05-27 20:57:10.400,2017-05-27 20:57:23.200,wear
2017-05-27 20:57:23.200,2017-05-27 20:57:23.200,2017-05-27 20:57:36.000,wear
2017-05-27 20:57:36.000,2017-05-27 20:57:36.000,2017-05-27 20:57:48.800,wear
2017-05-27 20:57:48.800,2017-05-27 20:57:48.800,2017-05-27 20:58:01.600,wear
2017-05-27 20:58:01.600,2017-05-27 20:58:01.600,2017-05-27 20:58:14.400,wear
2017-05-27 20:58:14.400,2017-05-27 20:58:14.400,2017-05-27 20:58:27.200,wear
2017-05-27 20:58:27.200,2017-05-27 20:58:27.200,2017-05-27 20:58:40.000,wear
2017-05-27 20:58:40.000,2017-05-27 20:58:40.000,2017-05-27 20:58:52.800,wear
2017-05-27 20:58:52.800,2017-05-27 20:58:52.800,2017-05-27 20:59:05.600,wear
2017-05-27 20:59:05.600,2017-05-27 20:59:05.600,2017-05-27 20:59:18.400,wear
2017-05-27 20:59:18.400,2017-05-27 20:59:18.400,2017-05-27 20:59:31.200,wear
2017-05-27 20:59:31.200,2017-05-27 20:59:31.200,2017-05-27 20:59:44.000,wear
2017-05-27 20:59:44.000,2017-05-27 20:59:44.000,2017-05-27 20:59:56.800,wear
2017-05-27 20:59:56.800,2017-05-27 20:59:56.800,2017-05-27 20:59:59.999,wear
2017-05-27 20:59:56.800,2017-05-27 20:59:56.800,2017-05-27 20:59:59.999,wear
