HEADER_TIME_STAMP,START_TIME,STOP_TIME,LABEL_NAME
2017-06-06 19:00:00.000,2017-06-06 19:00:00.000,2017-06-06 19:17:59.999,Sedentary
2017-06-06 19:18:00.000,2017-06-06 19:18:00.000,2017-06-06 19:19:59.999,Ambulation
2017-06-06 19:20:00.000,2017-06-06 19:20:00.000,2017-06-06 19:24:59.999,Sedentary
2017-06-06 19:25:00.000,2017-06-06 19:25:00.000,2017-06-06 19:29:59.999,Ambulation
2017-06-06 19:30:00.000,2017-06-06 19:30:00.000,2017-06-06 19:59:59.999,Sedentary
