HEADER_TIME_STAMP,START_TIME,STOP_TIME,LABEL_NAME
2017-05-31 16:00:00.000,2017-05-31 16:00:00.000,2017-05-31 16:00:12.800,wear
2017-05-31 16:00:12.800,2017-05-31 16:00:12.800,2017-05-31 16:00:25.600,wear
2017-05-31 16:00:25.600,2017-05-31 16:00:25.600,2017-05-31 16:00:38.400,wear
2017-05-31 16:00:38.400,2017-05-31 16:00:38.400,2017-05-31 16:00:51.200,wear
2017-05-31 16:00:51.200,2017-05-31 16:00:51.200,2017-05-31 16:01:04.000,wear
2017-05-31 16:01:04.000,2017-05-31 16:01:04.000,2017-05-31 16:01:16.800,wear
2017-05-31 16:01:16.800,2017-05-31 16:01:16.800,2017-05-31 16:01:29.600,wear
2017-05-31 16:01:29.600,2017-05-31 16:01:29.600,2017-05-31 16:01:42.400,wear
2017-05-31 16:01:42.400,2017-05-31 16:01:42.400,2017-05-31 16:01:55.200,wear
2017-05-31 16:01:55.200,2017-05-31 16:01:55.200,2017-05-31 16:02:08.000,wear
2017-05-31 16:02:08.000,2017-05-31 16:02:08.000,2017-05-31 16:02:20.800,wear
2017-05-31 16:02:20.800,2017-05-31 16:02:20.800,2017-05-31 16:02:33.600,wear
2017-05-31 16:02:33.600,2017-05-31 16:02:33.600,2017-05-31 16:02:46.400,wear
2017-05-31 16:02:46.400,2017-05-31 16:02:46.400,2017-05-31 16:02:59.200,wear
2017-05-31 16:02:59.200,2017-05-31 16:02:59.200,2017-05-31 16:03:12.000,wear
2017-05-31 16:03:12.000,2017-05-31 16:03:12.000,2017-05-31 16:03:24.800,wear
2017-05-31 16:03:24.800,2017-05-31 16:03:24.800,2017-05-31 16:03:37.600,wear
2017-05-31 16:03:37.600,2017-05-31 16:03:37.600,2017-05-31 16:03:50.400,wear
2017-05-31 16:03:50.400,2017-05-31 16:03:50.400,2017-05-31 16:04:03.200,wear
2017-05-31 16:04:03.200,2017-05-31 16:04:03.200,2017-05-31 16:04:16.000,wear
2017-05-31 16:04:16.000,2017-05-31 16:04:16.000,2017-05-31 16:04:28.800,wear
2017-05-31 16:04:28.800,2017-05-31 16:04:28.800,2017-05-31 16:04:41.600,wear
2017-05-31 16:04:41.600,2017-05-31 16:04:41.600,2017-05-31 16:04:54.400,wear
2017-05-31 16:04:54.400,2017-05-31 16:04:54.400,2017-05-31 16:05:07.200,wear
2017-05-31 16:05:07.200,2017-05-31 16:05:07.200,2017-05-31 16:05:20.000,wear
2017-05-31 16:05:20.000,2017-05-31 16:05:20.000,2017-05-31 16:05:32.800,wear
2017-05-31 16:05:32.800,2017-05-31 16:05:32.800,2017-05-31 16:05:45.600,wear
2017-05-31 16:05:45.600,2017-05-31 16:05:45.600,2017-05-31 16:05:58.400,wear
2017-05-31 16:05:58.400,2017-05-31 16:05:58.400,2017-05-31 16:06:11.200,wear
2017-05-31 16:06:11.200,2017-05-31 16:06:11.200,2017-05-31 16:06:24.000,wear
2017-05-31 16:06:24.000,2017-05-31 16:06:24.000,2017-05-31 16:06:36.800,wear
2017-05-31 16:06:36.800,2017-05-31 16:06:36.800,2017-05-31 16:06:49.600,wear
2017-05-31 16:06:49.600,2017-05-31 16:06:49.600,2017-05-31 16:07:02.400,wear
2017-05-31 16:07:02.400,2017-05-31 16:07:02.400,2017-05-31 16:07:15.200,wear
2017-05-31 16:07:15.200,2017-05-31 16:07:15.200,2017-05-31 16:07:28.000,wear
2017-05-31 16:07:28.000,2017-05-31 16:07:28.000,2017-05-31 16:07:40.800,wear
2017-05-31 16:07:40.800,2017-05-31 16:07:40.800,2017-05-31 16:07:53.600,wear
2017-05-31 16:07:53.600,2017-05-31 16:07:53.600,2017-05-31 16:08:06.400,wear
2017-05-31 16:08:06.400,2017-05-31 16:08:06.400,2017-05-31 16:08:19.200,wear
2017-05-31 16:08:19.200,2017-05-31 16:08:19.200,2017-05-31 16:08:32.000,wear
2017-05-31 16:08:32.000,2017-05-31 16:08:32.000,2017-05-31 16:08:44.800,wear
2017-05-31 16:08:44.800,2017-05-31 16:08:44.800,2017-05-31 16:08:57.600,wear
2017-05-31 16:08:57.600,2017-05-31 16:08:57.600,2017-05-31 16:09:10.400,wear
2017-05-31 16:09:10.400,2017-05-31 16:09:10.400,2017-05-31 16:09:23.200,wear
2017-05-31 16:09:23.200,2017-05-31 16:09:23.200,2017-05-31 16:09:36.000,wear
2017-05-31 16:09:36.000,2017-05-31 16:09:36.000,2017-05-31 16:09:48.800,wear
2017-05-31 16:09:48.800,2017-05-31 16:09:48.800,2017-05-31 16:10:01.600,wear
2017-05-31 16:10:01.600,2017-05-31 16:10:01.600,2017-05-31 16:10:14.400,wear
2017-05-31 16:10:14.400,2017-05-31 16:10:14.400,2017-05-31 16:10:27.200,wear
2017-05-31 16:10:27.200,2017-05-31 16:10:27.200,2017-05-31 16:10:40.000,wear
2017-05-31 16:10:40.000,2017-05-31 16:10:40.000,2017-05-31 16:10:52.800,wear
2017-05-31 16:10:52.800,2017-05-31 16:10:52.800,2017-05-31 16:11:05.600,wear
2017-05-31 16:11:05.600,2017-05-31 16:11:05.600,2017-05-31 16:11:18.400,wear
2017-05-31 16:11:18.400,2017-05-31 16:11:18.400,2017-05-31 16:11:31.200,wear
2017-05-31 16:11:31.200,2017-05-31 16:11:31.200,2017-05-31 16:11:44.000,wear
2017-05-31 16:11:44.000,2017-05-31 16:11:44.000,2017-05-31 16:11:56.800,wear
2017-05-31 16:11:56.800,2017-05-31 16:11:56.800,2017-05-31 16:12:09.600,wear
2017-05-31 16:12:09.600,2017-05-31 16:12:09.600,2017-05-31 16:12:22.400,wear
2017-05-31 16:12:22.400,2017-05-31 16:12:22.400,2017-05-31 16:12:35.200,wear
2017-05-31 16:12:35.200,2017-05-31 16:12:35.200,2017-05-31 16:12:48.000,wear
2017-05-31 16:12:48.000,2017-05-31 16:12:48.000,2017-05-31 16:13:00.800,wear
2017-05-31 16:13:00.800,2017-05-31 16:13:00.800,2017-05-31 16:13:13.600,wear
2017-05-31 16:13:13.600,2017-05-31 16:13:13.600,2017-05-31 16:13:26.400,wear
2017-05-31 16:13:26.400,2017-05-31 16:13:26.400,2017-05-31 16:13:39.200,wear
2017-05-31 16:13:39.200,2017-05-31 16:13:39.200,2017-05-31 16:13:52.000,wear
2017-05-31 16:13:52.000,2017-05-31 16:13:52.000,2017-05-31 16:14:04.800,wear
2017-05-31 16:14:04.800,2017-05-31 16:14:04.800,2017-05-31 16:14:17.600,wear
2017-05-31 16:14:17.600,2017-05-31 16:14:17.600,2017-05-31 16:14:30.400,wear
2017-05-31 16:14:30.400,2017-05-31 16:14:30.400,2017-05-31 16:14:43.200,wear
2017-05-31 16:14:43.200,2017-05-31 16:14:43.200,2017-05-31 16:14:56.000,wear
2017-05-31 16:14:56.000,2017-05-31 16:14:56.000,2017-05-31 16:15:08.800,wear
2017-05-31 16:15:08.800,2017-05-31 16:15:08.800,2017-05-31 16:15:21.600,wear
2017-05-31 16:15:21.600,2017-05-31 16:15:21.600,2017-05-31 16:15:34.400,wear
2017-05-31 16:15:34.400,2017-05-31 16:15:34.400,2017-05-31 16:15:47.200,wear
2017-05-31 16:15:47.200,2017-05-31 16:15:47.200,2017-05-31 16:16:00.000,wear
2017-05-31 16:16:00.000,2017-05-31 16:16:00.000,2017-05-31 16:16:12.800,wear
2017-05-31 16:16:12.800,2017-05-31 16:16:12.800,2017-05-31 16:16:25.600,wear
2017-05-31 16:16:25.600,2017-05-31 16:16:25.600,2017-05-31 16:16:38.400,wear
2017-05-31 16:16:38.400,2017-05-31 16:16:38.400,2017-05-31 16:16:51.200,wear
2017-05-31 16:16:51.200,2017-05-31 16:16:51.200,2017-05-31 16:17:04.000,wear
2017-05-31 16:17:04.000,2017-05-31 16:17:04.000,2017-05-31 16:17:16.800,wear
2017-05-31 16:17:16.800,2017-05-31 16:17:16.800,2017-05-31 16:17:29.600,wear
2017-05-31 16:17:29.600,2017-05-31 16:17:29.600,2017-05-31 16:17:42.400,wear
2017-05-31 16:17:42.400,2017-05-31 16:17:42.400,2017-05-31 16:17:55.200,wear
2017-05-31 16:17:55.200,2017-05-31 16:17:55.200,2017-05-31 16:18:08.000,wear
2017-05-31 16:18:08.000,2017-05-31 16:18:08.000,2017-05-31 16:18:20.800,wear
2017-05-31 16:18:20.800,2017-05-31 16:18:20.800,2017-05-31 16:18:33.600,wear
2017-05-31 16:18:33.600,2017-05-31 16:18:33.600,2017-05-31 16:18:46.400,wear
2017-05-31 16:18:46.400,2017-05-31 16:18:46.400,2017-05-31 16:18:59.200,wear
2017-05-31 16:18:59.200,2017-05-31 16:18:59.200,2017-05-31 16:19:12.000,wear
2017-05-31 16:19:12.000,2017-05-31 16:19:12.000,2017-05-31 16:19:24.800,wear
2017-05-31 16:19:24.800,2017-05-31 16:19:24.800,2017-05-31 16:19:37.600,wear
2017-05-31 16:19:37.600,2017-05-31 16:19:37.600,2017-05-31 16:19:50.400,wear
2017-05-31 16:19:50.400,2017-05-31 16:19:50.400,2017-05-31 16:20:03.200,wear
2017-05-31 16:20:03.200,2017-05-31 16:20:03.200,2017-05-31 16:20:16.000,wear
2017-05-31 16:20:16.000,2017-05-31 16:20:16.000,2017-05-31 16:20:28.800,wear
2017-05-31 16:20:28.800,2017-05-31 16:20:28.800,2017-05-31 16:20:41.600,wear
2017-05-31 16:20:41.600,2017-05-31 16:20:41.600,2017-05-31 16:20:54.400,wear
2017-05-31 16:20:54.400,2017-05-31 16:20:54.400,2017-05-31 16:21:07.200,wear
2017-05-31 16:21:07.200,2017-05-31 16:21:07.200,2017-05-31 16:21:20.000,wear
2017-05-31 16:21:20.000,2017-05-31 16:21:20.000,2017-05-31 16:21:32.800,wear
2017-05-31 16:21:32.800,2017-05-31 16:21:32.800,2017-05-31 16:21:45.600,wear
2017-05-31 16:21:45.600,2017-05-31 16:21:45.600,2017-05-31 16:21:58.400,wear
2017-05-31 16:21:58.400,2017-05-31 16:21:58.400,2017-05-31 16:22:11.200,wear
2017-05-31 16:22:11.200,2017-05-31 16:22:11.200,2017-05-31 16:22:24.000,wear
2017-05-31 16:22:24.000,2017-05-31 16:22:24.000,2017-05-31 16:22:36.800,wear
2017-05-31 16:22:36.800,2017-05-31 16:22:36.800,2017-05-31 16:22:49.600,wear
2017-05-31 16:22:49.600,2017-05-31 16:22:49.600,2017-05-31 16:23:02.400,wear
2017-05-31 16:23:02.400,2017-05-31 16:23:02.400,2017-05-31 16:23:15.200,wear
2017-05-31 16:23:15.200,2017-05-31 16:23:15.200,2017-05-31 16:23:28.000,wear
2017-05-31 16:23:28.000,2017-05-31 16:23:28.000,2017-05-31 16:23:40.800,wear
2017-05-31 16:23:40.800,2017-05-31 16:23:40.800,2017-05-31 16:23:53.600,wear
2017-05-31 16:23:53.600,2017-05-31 16:23:53.600,2017-05-31 16:24:06.400,wear
2017-05-31 16:24:06.400,2017-05-31 16:24:06.400,2017-05-31 16:24:19.200,wear
2017-05-31 16:24:19.200,2017-05-31 16:24:19.200,2017-05-31 16:24:32.000,wear
2017-05-31 16:24:32.000,2017-05-31 16:24:32.000,2017-05-31 16:24:44.800,wear
2017-05-31 16:24:44.800,2017-05-31 16:24:44.800,2017-05-31 16:24:57.600,wear
2017-05-31 16:24:57.600,2017-05-31 16:24:57.600,2017-05-31 16:25:10.400,wear
2017-05-31 16:25:10.400,2017-05-31 16:25:10.400,2017-05-31 16:25:23.200,wear
2017-05-31 16:25:23.200,2017-05-31 16:25:23.200,2017-05-31 16:25:36.000,wear
2017-05-31 16:25:36.000,2017-05-31 16:25:36.000,2017-05-31 16:25:48.800,wear
2017-05-31 16:25:48.800,2017-05-31 16:25:48.800,2017-05-31 16:26:01.600,wear
2017-05-31 16:26:01.600,2017-05-31 16:26:01.600,2017-05-31 16:26:14.400,wear
2017-05-31 16:26:14.400,2017-05-31 16:26:14.400,2017-05-31 16:26:27.200,wear
2017-05-31 16:26:27.200,2017-05-31 16:26:27.200,2017-05-31 16:26:40.000,wear
2017-05-31 16:26:40.000,2017-05-31 16:26:40.000,2017-05-31 16:26:52.800,wear
2017-05-31 16:26:52.800,2017-05-31 16:26:52.800,2017-05-31 16:27:05.600,wear
2017-05-31 16:27:05.600,2017-05-31 16:27:05.600,2017-05-31 16:27:18.400,wear
2017-05-31 16:27:18.400,2017-05-31 16:27:18.400,2017-05-31 16:27:31.200,wear
2017-05-31 16:27:31.200,2017-05-31 16:27:31.200,2017-05-31 16:27:44.000,wear
2017-05-31 16:27:44.000,2017-05-31 16:27:44.000,2017-05-31 16:27:56.800,wear
2017-05-31 16:27:56.800,2017-05-31 16:27:56.800,2017-05-31 16:28:09.600,wear
2017-05-31 16:28:09.600,2017-05-31 16:28:09.600,2017-05-31 16:28:22.400,wear
2017-05-31 16:28:22.400,2017-05-31 16:28:22.400,2017-05-31 16:28:35.200,wear
2017-05-31 16:28:35.200,2017-05-31 16:28:35.200,2017-05-31 16:28:48.000,wear
2017-05-31 16:28:48.000,2017-05-31 16:28:48.000,2017-05-31 16:29:00.800,wear
2017-05-31 16:29:00.800,2017-05-31 16:29:00.800,2017-05-31 16:29:13.600,wear
2017-05-31 16:29:13.600,2017-05-31 16:29:13.600,2017-05-31 16:29:26.400,wear
2017-05-31 16:29:26.400,2017-05-31 16:29:26.400,2017-05-31 16:29:39.200,wear
2017-05-31 16:29:39.200,2017-05-31 16:29:39.200,2017-05-31 16:29:52.000,wear
2017-05-31 16:29:52.000,2017-05-31 16:29:52.000,2017-05-31 16:30:04.800,wear
2017-05-31 16:30:04.800,2017-05-31 16:30:04.800,2017-05-31 16:30:17.600,wear
2017-05-31 16:30:17.600,2017-05-31 16:30:17.600,2017-05-31 16:30:30.400,wear
2017-05-31 16:30:30.400,2017-05-31 16:30:30.400,2017-05-31 16:30:43.200,wear
2017-05-31 16:30:43.200,2017-05-31 16:30:43.200,2017-05-31 16:30:56.000,wear
2017-05-31 16:30:56.000,2017-05-31 16:30:56.000,2017-05-31 16:31:08.800,wear
2017-05-31 16:31:08.800,2017-05-31 16:31:08.800,2017-05-31 16:31:21.600,wear
2017-05-31 16:31:21.600,2017-05-31 16:31:21.600,2017-05-31 16:31:34.400,wear
2017-05-31 16:31:34.400,2017-05-31 16:31:34.400,2017-05-31 16:31:47.200,wear
2017-05-31 16:31:47.200,2017-05-31 16:31:47.200,2017-05-31 16:32:00.000,wear
2017-05-31 16:32:00.000,2017-05-31 16:32:00.000,2017-05-31 16:32:12.800,wear
2017-05-31 16:32:12.800,2017-05-31 16:32:12.800,2017-05-31 16:32:25.600,wear
2017-05-31 16:32:25.600,2017-05-31 16:32:25.600,2017-05-31 16:32:38.400,wear
2017-05-31 16:32:38.400,2017-05-31 16:32:38.400,2017-05-31 16:32:51.200,wear
2017-05-31 16:32:51.200,2017-05-31 16:32:51.200,2017-05-31 16:33:04.000,wear
2017-05-31 16:33:04.000,2017-05-31 16:33:04.000,2017-05-31 16:33:16.800,wear
2017-05-31 16:33:16.800,2017-05-31 16:33:16.800,2017-05-31 16:33:29.600,wear
2017-05-31 16:33:29.600,2017-05-31 16:33:29.600,2017-05-31 16:33:42.400,wear
2017-05-31 16:33:42.400,2017-05-31 16:33:42.400,2017-05-31 16:33:55.200,wear
2017-05-31 16:33:55.200,2017-05-31 16:33:55.200,2017-05-31 16:34:08.000,wear
2017-05-31 16:34:08.000,2017-05-31 16:34:08.000,2017-05-31 16:34:20.800,wear
2017-05-31 16:34:20.800,2017-05-31 16:34:20.800,2017-05-31 16:34:33.600,wear
2017-05-31 16:34:33.600,2017-05-31 16:34:33.600,2017-05-31 16:34:46.400,wear
2017-05-31 16:34:46.400,2017-05-31 16:34:46.400,2017-05-31 16:34:59.200,wear
2017-05-31 16:34:59.200,2017-05-31 16:34:59.200,2017-05-31 16:35:12.000,wear
2017-05-31 16:35:12.000,2017-05-31 16:35:12.000,2017-05-31 16:35:24.800,wear
2017-05-31 16:35:24.800,2017-05-31 16:35:24.800,2017-05-31 16:35:37.600,wear
2017-05-31 16:35:37.600,2017-05-31 16:35:37.600,2017-05-31 16:35:50.400,wear
2017-05-31 16:35:50.400,2017-05-31 16:35:50.400,2017-05-31 16:36:03.200,wear
2017-05-31 16:36:03.200,2017-05-31 16:36:03.200,2017-05-31 16:36:16.000,wear
2017-05-31 16:36:16.000,2017-05-31 16:36:16.000,2017-05-31 16:36:28.800,wear
2017-05-31 16:36:28.800,2017-05-31 16:36:28.800,2017-05-31 16:36:41.600,wear
2017-05-31 16:36:41.600,2017-05-31 16:36:41.600,2017-05-31 16:36:54.400,wear
2017-05-31 16:36:54.400,2017-05-31 16:36:54.400,2017-05-31 16:37:07.200,wear
2017-05-31 16:37:07.200,2017-05-31 16:37:07.200,2017-05-31 16:37:20.000,wear
2017-05-31 16:37:20.000,2017-05-31 16:37:20.000,2017-05-31 16:37:32.800,wear
2017-05-31 16:37:32.800,2017-05-31 16:37:32.800,2017-05-31 16:37:45.600,wear
2017-05-31 16:37:45.600,2017-05-31 16:37:45.600,2017-05-31 16:37:58.400,wear
2017-05-31 16:37:58.400,2017-05-31 16:37:58.400,2017-05-31 16:38:11.200,wear
2017-05-31 16:38:11.200,2017-05-31 16:38:11.200,2017-05-31 16:38:24.000,wear
2017-05-31 16:38:24.000,2017-05-31 16:38:24.000,2017-05-31 16:38:36.800,wear
2017-05-31 16:38:36.800,2017-05-31 16:38:36.800,2017-05-31 16:38:49.600,wear
2017-05-31 16:38:49.600,2017-05-31 16:38:49.600,2017-05-31 16:39:02.400,wear
2017-05-31 16:39:02.400,2017-05-31 16:39:02.400,2017-05-31 16:39:15.200,wear
2017-05-31 16:39:15.200,2017-05-31 16:39:15.200,2017-05-31 16:39:28.000,wear
2017-05-31 16:39:28.000,2017-05-31 16:39:28.000,2017-05-31 16:39:40.800,wear
2017-05-31 16:39:40.800,2017-05-31 16:39:40.800,2017-05-31 16:39:53.600,wear
2017-05-31 16:39:53.600,2017-05-31 16:39:53.600,2017-05-31 16:40:06.400,wear
2017-05-31 16:40:06.400,2017-05-31 16:40:06.400,2017-05-31 16:40:19.200,wear
2017-05-31 16:40:19.200,2017-05-31 16:40:19.200,2017-05-31 16:40:32.000,wear
2017-05-31 16:40:32.000,2017-05-31 16:40:32.000,2017-05-31 16:40:44.800,wear
2017-05-31 16:40:44.800,2017-05-31 16:40:44.800,2017-05-31 16:40:57.600,wear
2017-05-31 16:40:57.600,2017-05-31 16:40:57.600,2017-05-31 16:41:10.400,wear
2017-05-31 16:41:10.400,2017-05-31 16:41:10.400,2017-05-31 16:41:23.200,wear
2017-05-31 16:41:23.200,2017-05-31 16:41:23.200,2017-05-31 16:41:36.000,wear
2017-05-31 16:41:36.000,2017-05-31 16:41:36.000,2017-05-31 16:41:48.800,wear
2017-05-31 16:41:48.800,2017-05-31 16:41:48.800,2017-05-31 16:42:01.600,wear
2017-05-31 16:42:01.600,2017-05-31 16:42:01.600,2017-05-31 16:42:14.400,wear
2017-05-31 16:42:14.400,2017-05-31 16:42:14.400,2017-05-31 16:42:27.200,wear
2017-05-31 16:42:27.200,2017-05-31 16:42:27.200,2017-05-31 16:42:40.000,wear
2017-05-31 16:42:40.000,2017-05-31 16:42:40.000,2017-05-31 16:42:52.800,wear
2017-05-31 16:42:52.800,2017-05-31 16:42:52.800,2017-05-31 16:43:05.600,wear
2017-05-31 16:43:05.600,2017-05-31 16:43:05.600,2017-05-31 16:43:18.400,wear
2017-05-31 16:43:18.400,2017-05-31 16:43:18.400,2017-05-31 16:43:31.200,wear
2017-05-31 16:43:31.200,2017-05-31 16:43:31.200,2017-05-31 16:43:44.000,wear
2017-05-31 16:43:44.000,2017-05-31 16:43:44.000,2017-05-31 16:43:56.800,wear
2017-05-31 16:43:56.800,2017-05-31 16:43:56.800,2017-05-31 16:44:09.600,wear
2017-05-31 16:44:09.600,2017-05-31 16:44:09.600,2017-05-31 16:44:22.400,wear
2017-05-31 16:44:22.400,2017-05-31 16:44:22.400,2017-05-31 16:44:35.200,wear
2017-05-31 16:44:35.200,2017-05-31 16:44:35.200,2017-05-31 16:44:48.000,wear
2017-05-31 16:44:48.000,2017-05-31 16:44:48.000,2017-05-31 16:45:00.800,wear
2017-05-31 16:45:00.800,2017-05-31 16:45:00.800,2017-05-31 16:45:13.600,wear
2017-05-31 16:45:13.600,2017-05-31 16:45:13.600,2017-05-31 16:45:26.400,wear
2017-05-31 16:45:26.400,2017-05-31 16:45:26.400,2017-05-31 16:45:39.200,wear
2017-05-31 16:45:39.200,2017-05-31 16:45:39.200,2017-05-31 16:45:52.000,wear
2017-05-31 16:45:52.000,2017-05-31 16:45:52.000,2017-05-31 16:46:04.800,wear
2017-05-31 16:46:04.800,2017-05-31 16:46:04.800,2017-05-31 16:46:17.600,wear
2017-05-31 16:46:17.600,2017-05-31 16:46:17.600,2017-05-31 16:46:30.400,wear
2017-05-31 16:46:30.400,2017-05-31 16:46:30.400,2017-05-31 16:46:43.200,wear
2017-05-31 16:46:43.200,2017-05-31 16:46:43.200,2017-05-31 16:46:56.000,wear
2017-05-31 16:46:56.000,2017-05-31 16:46:56.000,2017-05-31 16:47:08.800,wear
2017-05-31 16:47:08.800,2017-05-31 16:47:08.800,2017-05-31 16:47:21.600,wear
2017-05-31 16:47:21.600,2017-05-31 16:47:21.600,2017-05-31 16:47:34.400,wear
2017-05-31 16:47:34.400,2017-05-31 16:47:34.400,2017-05-31 16:47:47.200,wear
2017-05-31 16:47:47.200,2017-05-31 16:47:47.200,2017-05-31 16:48:00.000,wear
2017-05-31 16:48:00.000,2017-05-31 16:48:00.000,2017-05-31 16:48:12.800,wear
2017-05-31 16:48:12.800,2017-05-31 16:48:12.800,2017-05-31 16:48:25.600,wear
2017-05-31 16:48:25.600,2017-05-31 16:48:25.600,2017-05-31 16:48:38.400,wear
2017-05-31 16:48:38.400,2017-05-31 16:48:38.400,2017-05-31 16:48:51.200,wear
2017-05-31 16:48:51.200,2017-05-31 16:48:51.200,2017-05-31 16:49:04.000,wear
2017-05-31 16:49:04.000,2017-05-31 16:49:04.000,2017-05-31 16:49:16.800,wear
2017-05-31 16:49:16.800,2017-05-31 16:49:16.800,2017-05-31 16:49:29.600,wear
2017-05-31 16:49:29.600,2017-05-31 16:49:29.600,2017-05-31 16:49:42.400,wear
2017-05-31 16:49:42.400,2017-05-31 16:49:42.400,2017-05-31 16:49:55.200,wear
2017-05-31 16:49:55.200,2017-05-31 16:49:55.200,2017-05-31 16:50:08.000,wear
2017-05-31 16:50:08.000,2017-05-31 16:50:08.000,2017-05-31 16:50:20.800,wear
2017-05-31 16:50:20.800,2017-05-31 16:50:20.800,2017-05-31 16:50:33.600,wear
2017-05-31 16:50:33.600,2017-05-31 16:50:33.600,2017-05-31 16:50:46.400,wear
2017-05-31 16:50:46.400,2017-05-31 16:50:46.400,2017-05-31 16:50:59.200,wear
2017-05-31 16:50:59.200,2017-05-31 16:50:59.200,2017-05-31 16:51:12.000,wear
2017-05-31 16:51:12.000,2017-05-31 16:51:12.000,2017-05-31 16:51:24.800,wear
2017-05-31 16:51:24.800,2017-05-31 16:51:24.800,2017-05-31 16:51:37.600,wear
2017-05-31 16:51:37.600,2017-05-31 16:51:37.600,2017-05-31 16:51:50.400,wear
2017-05-31 16:51:50.400,2017-05-31 16:51:50.400,2017-05-31 16:52:03.200,wear
2017-05-31 16:52:03.200,2017-05-31 16:52:03.200,2017-05-31 16:52:16.000,wear
2017-05-31 16:52:16.000,2017-05-31 16:52:16.000,2017-05-31 16:52:28.800,wear
2017-05-31 16:52:28.800,2017-05-31 16:52:28.800,2017-05-31 16:52:41.600,wear
2017-05-31 16:52:41.600,2017-05-31 16:52:41.600,2017-05-31 16:52:54.400,wear
2017-05-31 16:52:54.400,2017-05-31 16:52:54.400,2017-05-31 16:53:07.200,wear
2017-05-31 16:53:07.200,2017-05-31 16:53:07.200,2017-05-31 16:53:20.000,wear
2017-05-31 16:53:20.000,2017-05-31 16:53:20.000,2017-05-31 16:53:32.800,wear
2017-05-31 16:53:32.800,2017-05-31 16:53:32.800,2017-05-31 16:53:45.600,wear
2017-05-31 16:53:45.600,2017-05-31 16:53:45.600,2017-05-31 16:53:58.400,wear
2017-05-31 16:53:58.400,2017-05-31 16:53:58.400,2017-05-31 16:54:11.200,wear
2017-05-31 16:54:11.200,2017-05-31 16:54:11.200,2017-05-31 16:54:24.000,wear
2017-05-31 16:54:24.000,2017-05-31 16:54:24.000,2017-05-31 16:54:36.800,wear
2017-05-31 16:54:36.800,2017-05-31 16:54:36.800,2017-05-31 16:54:49.600,wear
2017-05-31 16:54:49.600,2017-05-31 16:54:49.600,2017-05-31 16:55:02.400,wear
2017-05-31 16:55:02.400,2017-05-31 16:55:02.400,2017-05-31 16:55:15.200,wear
2017-05-31 16:55:15.200,2017-05-31 16:55:15.200,2017-05-31 16:55:28.000,wear
2017-05-31 16:55:28.000,2017-05-31 16:55:28.000,2017-05-31 16:55:40.800,wear
2017-05-31 16:55:40.800,2017-05-31 16:55:40.800,2017-05-31 16:55:53.600,wear
2017-05-31 16:55:53.600,2017-05-31 16:55:53.600,2017-05-31 16:56:06.400,wear
2017-05-31 16:56:06.400,2017-05-31 16:56:06.400,2017-05-31 16:56:19.200,wear
2017-05-31 16:56:19.200,2017-05-31 16:56:19.200,2017-05-31 16:56:32.000,wear
2017-05-31 16:56:32.000,2017-05-31 16:56:32.000,2017-05-31 16:56:44.800,wear
2017-05-31 16:56:44.800,2017-05-31 16:56:44.800,2017-05-31 16:56:57.600,wear
2017-05-31 16:56:57.600,2017-05-31 16:56:57.600,2017-05-31 16:57:10.400,wear
2017-05-31 16:57:10.400,2017-05-31 16:57:10.400,2017-05-31 16:57:23.200,wear
2017-05-31 16:57:23.200,2017-05-31 16:57:23.200,2017-05-31 16:57:36.000,wear
2017-05-31 16:57:36.000,2017-05-31 16:57:36.000,2017-05-31 16:57:48.800,wear
2017-05-31 16:57:48.800,2017-05-31 16:57:48.800,2017-05-31 16:58:01.600,wear
2017-05-31 16:58:01.600,2017-05-31 16:58:01.600,2017-05-31 16:58:14.400,wear
2017-05-31 16:58:14.400,2017-05-31 16:58:14.400,2017-05-31 16:58:27.200,wear
2017-05-31 16:58:27.200,2017-05-31 16:58:27.200,2017-05-31 16:58:40.000,wear
2017-05-31 16:58:40.000,2017-05-31 16:58:40.000,2017-05-31 16:58:52.800,wear
2017-05-31 16:58:52.800,2017-05-31 16:58:52.800,2017-05-31 16:59:05.600,wear
2017-05-31 16:59:05.600,2017-05-31 16:59:05.600,2017-05-31 16:59:18.400,wear
2017-05-31 16:59:18.400,2017-05-31 16:59:18.400,2017-05-31 16:59:31.200,wear
2017-05-31 16:59:31.200,2017-05-31 16:59:31.200,2017-05-31 16:59:44.000,wear
2017-05-31 16:59:44.000,2017-05-31 16:59:44.000,2017-05-31 16:59:56.800,wear
2017-05-31 16:59:56.800,2017-05-31 16:59:56.800,2017-05-31 16:59:59.999,wear
2017-05-31 16:59:56.800,2017-05-31 16:59:56.800,2017-05-31 16:59:59.999,wear
