HEADER_TIME_STAMP,START_TIME,STOP_TIME,LABEL_NAME
2017-05-28 14:00:06.400,2017-05-28 14:00:06.400,2017-05-28 14:00:19.200,wear
2017-05-28 14:00:19.200,2017-05-28 14:00:19.200,2017-05-28 14:00:32.000,wear
2017-05-28 14:00:32.000,2017-05-28 14:00:32.000,2017-05-28 14:00:44.800,wear
2017-05-28 14:00:44.800,2017-05-28 14:00:44.800,2017-05-28 14:00:57.600,wear
2017-05-28 14:00:57.600,2017-05-28 14:00:57.600,2017-05-28 14:01:10.400,wear
2017-05-28 14:01:10.400,2017-05-28 14:01:10.400,2017-05-28 14:01:23.200,wear
2017-05-28 14:01:23.200,2017-05-28 14:01:23.200,2017-05-28 14:01:36.000,wear
2017-05-28 14:01:36.000,2017-05-28 14:01:36.000,2017-05-28 14:01:48.800,wear
2017-05-28 14:01:48.800,2017-05-28 14:01:48.800,2017-05-28 14:02:01.600,wear
2017-05-28 14:02:01.600,2017-05-28 14:02:01.600,2017-05-28 14:02:14.400,wear
2017-05-28 14:02:14.400,2017-05-28 14:02:14.400,2017-05-28 14:02:27.200,wear
2017-05-28 14:02:27.200,2017-05-28 14:02:27.200,2017-05-28 14:02:40.000,wear
2017-05-28 14:02:40.000,2017-05-28 14:02:40.000,2017-05-28 14:02:52.800,wear
2017-05-28 14:02:52.800,2017-05-28 14:02:52.800,2017-05-28 14:03:05.600,wear
2017-05-28 14:03:05.600,2017-05-28 14:03:05.600,2017-05-28 14:03:18.400,wear
2017-05-28 14:03:18.400,2017-05-28 14:03:18.400,2017-05-28 14:03:31.200,wear
2017-05-28 14:03:31.200,2017-05-28 14:03:31.200,2017-05-28 14:03:44.000,wear
2017-05-28 14:03:44.000,2017-05-28 14:03:44.000,2017-05-28 14:03:56.800,wear
2017-05-28 14:03:56.800,2017-05-28 14:03:56.800,2017-05-28 14:04:09.600,wear
2017-05-28 14:04:09.600,2017-05-28 14:04:09.600,2017-05-28 14:04:22.400,wear
2017-05-28 14:04:22.400,2017-05-28 14:04:22.400,2017-05-28 14:04:35.200,wear
2017-05-28 14:04:35.200,2017-05-28 14:04:35.200,2017-05-28 14:04:48.000,wear
2017-05-28 14:04:48.000,2017-05-28 14:04:48.000,2017-05-28 14:05:00.800,wear
2017-05-28 14:05:00.800,2017-05-28 14:05:00.800,2017-05-28 14:05:13.600,wear
2017-05-28 14:05:13.600,2017-05-28 14:05:13.600,2017-05-28 14:05:26.400,wear
2017-05-28 14:05:26.400,2017-05-28 14:05:26.400,2017-05-28 14:05:39.200,wear
2017-05-28 14:05:39.200,2017-05-28 14:05:39.200,2017-05-28 14:05:52.000,wear
2017-05-28 14:05:52.000,2017-05-28 14:05:52.000,2017-05-28 14:06:04.800,wear
2017-05-28 14:06:04.800,2017-05-28 14:06:04.800,2017-05-28 14:06:17.600,wear
2017-05-28 14:06:17.600,2017-05-28 14:06:17.600,2017-05-28 14:06:30.400,wear
2017-05-28 14:06:30.400,2017-05-28 14:06:30.400,2017-05-28 14:06:43.200,wear
2017-05-28 14:06:43.200,2017-05-28 14:06:43.200,2017-05-28 14:06:56.000,wear
2017-05-28 14:06:56.000,2017-05-28 14:06:56.000,2017-05-28 14:07:08.800,wear
2017-05-28 14:07:08.800,2017-05-28 14:07:08.800,2017-05-28 14:07:21.600,wear
2017-05-28 14:07:21.600,2017-05-28 14:07:21.600,2017-05-28 14:07:34.400,wear
2017-05-28 14:07:34.400,2017-05-28 14:07:34.400,2017-05-28 14:07:47.200,wear
2017-05-28 14:07:47.200,2017-05-28 14:07:47.200,2017-05-28 14:08:00.000,wear
2017-05-28 14:08:00.000,2017-05-28 14:08:00.000,2017-05-28 14:08:12.800,wear
2017-05-28 14:08:12.800,2017-05-28 14:08:12.800,2017-05-28 14:08:25.600,wear
2017-05-28 14:08:25.600,2017-05-28 14:08:25.600,2017-05-28 14:08:38.400,wear
2017-05-28 14:08:38.400,2017-05-28 14:08:38.400,2017-05-28 14:08:51.200,wear
2017-05-28 14:08:51.200,2017-05-28 14:08:51.200,2017-05-28 14:09:04.000,wear
2017-05-28 14:09:04.000,2017-05-28 14:09:04.000,2017-05-28 14:09:16.800,wear
2017-05-28 14:09:16.800,2017-05-28 14:09:16.800,2017-05-28 14:09:29.600,wear
2017-05-28 14:09:29.600,2017-05-28 14:09:29.600,2017-05-28 14:09:42.400,wear
2017-05-28 14:09:42.400,2017-05-28 14:09:42.400,2017-05-28 14:09:55.200,wear
2017-05-28 14:09:55.200,2017-05-28 14:09:55.200,2017-05-28 14:10:08.000,wear
2017-05-28 14:10:08.000,2017-05-28 14:10:08.000,2017-05-28 14:10:20.800,wear
2017-05-28 14:10:20.800,2017-05-28 14:10:20.800,2017-05-28 14:10:33.600,wear
2017-05-28 14:10:33.600,2017-05-28 14:10:33.600,2017-05-28 14:10:46.400,wear
2017-05-28 14:10:46.400,2017-05-28 14:10:46.400,2017-05-28 14:10:59.200,wear
2017-05-28 14:10:59.200,2017-05-28 14:10:59.200,2017-05-28 14:11:12.000,wear
2017-05-28 14:11:12.000,2017-05-28 14:11:12.000,2017-05-28 14:11:24.800,wear
2017-05-28 14:11:24.800,2017-05-28 14:11:24.800,2017-05-28 14:11:37.600,wear
2017-05-28 14:11:37.600,2017-05-28 14:11:37.600,2017-05-28 14:11:50.400,wear
2017-05-28 14:11:50.400,2017-05-28 14:11:50.400,2017-05-28 14:12:03.200,wear
2017-05-28 14:12:03.200,2017-05-28 14:12:03.200,2017-05-28 14:12:16.000,wear
2017-05-28 14:12:16.000,2017-05-28 14:12:16.000,2017-05-28 14:12:28.800,wear
2017-05-28 14:12:28.800,2017-05-28 14:12:28.800,2017-05-28 14:12:41.600,wear
2017-05-28 14:12:41.600,2017-05-28 14:12:41.600,2017-05-28 14:12:54.400,wear
2017-05-28 14:12:54.400,2017-05-28 14:12:54.400,2017-05-28 14:13:07.200,wear
2017-05-28 14:13:07.200,2017-05-28 14:13:07.200,2017-05-28 14:13:20.000,wear
2017-05-28 14:13:20.000,2017-05-28 14:13:20.000,2017-05-28 14:13:32.800,wear
2017-05-28 14:13:32.800,2017-05-28 14:13:32.800,2017-05-28 14:13:45.600,wear
2017-05-28 14:13:45.600,2017-05-28 14:13:45.600,2017-05-28 14:13:58.400,wear
2017-05-28 14:13:58.400,2017-05-28 14:13:58.400,2017-05-28 14:14:11.200,wear
2017-05-28 14:14:11.200,2017-05-28 14:14:11.200,2017-05-28 14:14:24.000,wear
2017-05-28 14:14:24.000,2017-05-28 14:14:24.000,2017-05-28 14:14:36.800,wear
2017-05-28 14:14:36.800,2017-05-28 14:14:36.800,2017-05-28 14:14:49.600,wear
2017-05-28 14:14:49.600,2017-05-28 14:14:49.600,2017-05-28 14:15:02.400,wear
2017-05-28 14:15:02.400,2017-05-28 14:15:02.400,2017-05-28 14:15:15.200,wear
2017-05-28 14:15:15.200,2017-05-28 14:15:15.200,2017-05-28 14:15:28.000,wear
2017-05-28 14:15:28.000,2017-05-28 14:15:28.000,2017-05-28 14:15:40.800,wear
2017-05-28 14:15:40.800,2017-05-28 14:15:40.800,2017-05-28 14:15:53.600,wear
2017-05-28 14:15:53.600,2017-05-28 14:15:53.600,2017-05-28 14:16:06.400,wear
2017-05-28 14:16:06.400,2017-05-28 14:16:06.400,2017-05-28 14:16:19.200,wear
2017-05-28 14:16:19.200,2017-05-28 14:16:19.200,2017-05-28 14:16:32.000,wear
2017-05-28 14:16:32.000,2017-05-28 14:16:32.000,2017-05-28 14:16:44.800,wear
2017-05-28 14:16:44.800,2017-05-28 14:16:44.800,2017-05-28 14:16:57.600,wear
2017-05-28 14:16:57.600,2017-05-28 14:16:57.600,2017-05-28 14:17:10.400,wear
2017-05-28 14:17:10.400,2017-05-28 14:17:10.400,2017-05-28 14:17:23.200,wear
2017-05-28 14:17:23.200,2017-05-28 14:17:23.200,2017-05-28 14:17:36.000,wear
2017-05-28 14:17:36.000,2017-05-28 14:17:36.000,2017-05-28 14:17:48.800,wear
2017-05-28 14:17:48.800,2017-05-28 14:17:48.800,2017-05-28 14:18:01.600,wear
2017-05-28 14:18:01.600,2017-05-28 14:18:01.600,2017-05-28 14:18:14.400,wear
2017-05-28 14:18:14.400,2017-05-28 14:18:14.400,2017-05-28 14:18:27.200,wear
2017-05-28 14:18:27.200,2017-05-28 14:18:27.200,2017-05-28 14:18:40.000,wear
2017-05-28 14:18:40.000,2017-05-28 14:18:40.000,2017-05-28 14:18:52.800,wear
2017-05-28 14:18:52.800,2017-05-28 14:18:52.800,2017-05-28 14:19:05.600,wear
2017-05-28 14:19:05.600,2017-05-28 14:19:05.600,2017-05-28 14:19:18.400,wear
2017-05-28 14:19:18.400,2017-05-28 14:19:18.400,2017-05-28 14:19:31.200,wear
2017-05-28 14:19:31.200,2017-05-28 14:19:31.200,2017-05-28 14:19:44.000,wear
2017-05-28 14:19:44.000,2017-05-28 14:19:44.000,2017-05-28 14:19:56.800,wear
2017-05-28 14:19:56.800,2017-05-28 14:19:56.800,2017-05-28 14:20:09.600,wear
2017-05-28 14:20:09.600,2017-05-28 14:20:09.600,2017-05-28 14:20:22.400,wear
2017-05-28 14:20:22.400,2017-05-28 14:20:22.400,2017-05-28 14:20:35.200,wear
2017-05-28 14:20:35.200,2017-05-28 14:20:35.200,2017-05-28 14:20:48.000,wear
2017-05-28 14:20:48.000,2017-05-28 14:20:48.000,2017-05-28 14:21:00.800,wear
2017-05-28 14:21:00.800,2017-05-28 14:21:00.800,2017-05-28 14:21:13.600,wear
2017-05-28 14:21:13.600,2017-05-28 14:21:13.600,2017-05-28 14:21:26.400,wear
2017-05-28 14:21:26.400,2017-05-28 14:21:26.400,2017-05-28 14:21:39.200,wear
2017-05-28 14:21:39.200,2017-05-28 14:21:39.200,2017-05-28 14:21:52.000,wear
2017-05-28 14:21:52.000,2017-05-28 14:21:52.000,2017-05-28 14:22:04.800,wear
2017-05-28 14:22:04.800,2017-05-28 14:22:04.800,2017-05-28 14:22:17.600,wear
2017-05-28 14:22:17.600,2017-05-28 14:22:17.600,2017-05-28 14:22:30.400,wear
2017-05-28 14:22:30.400,2017-05-28 14:22:30.400,2017-05-28 14:22:43.200,wear
2017-05-28 14:22:43.200,2017-05-28 14:22:43.200,2017-05-28 14:22:56.000,wear
2017-05-28 14:22:56.000,2017-05-28 14:22:56.000,2017-05-28 14:23:08.800,wear
2017-05-28 14:23:08.800,2017-05-28 14:23:08.800,2017-05-28 14:23:21.600,wear
2017-05-28 14:23:21.600,2017-05-28 14:23:21.600,2017-05-28 14:23:34.400,wear
2017-05-28 14:23:34.400,2017-05-28 14:23:34.400,2017-05-28 14:23:47.200,wear
2017-05-28 14:23:47.200,2017-05-28 14:23:47.200,2017-05-28 14:24:00.000,wear
2017-05-28 14:24:00.000,2017-05-28 14:24:00.000,2017-05-28 14:24:12.800,wear
2017-05-28 14:24:12.800,2017-05-28 14:24:12.800,2017-05-28 14:24:25.600,wear
2017-05-28 14:24:25.600,2017-05-28 14:24:25.600,2017-05-28 14:24:38.400,wear
2017-05-28 14:24:38.400,2017-05-28 14:24:38.400,2017-05-28 14:24:51.200,wear
2017-05-28 14:24:51.200,2017-05-28 14:24:51.200,2017-05-28 14:25:04.000,wear
2017-05-28 14:25:04.000,2017-05-28 14:25:04.000,2017-05-28 14:25:16.800,wear
2017-05-28 14:25:16.800,2017-05-28 14:25:16.800,2017-05-28 14:25:29.600,wear
2017-05-28 14:25:29.600,2017-05-28 14:25:29.600,2017-05-28 14:25:42.400,wear
2017-05-28 14:25:42.400,2017-05-28 14:25:42.400,2017-05-28 14:25:55.200,wear
2017-05-28 14:25:55.200,2017-05-28 14:25:55.200,2017-05-28 14:26:08.000,wear
2017-05-28 14:26:08.000,2017-05-28 14:26:08.000,2017-05-28 14:26:20.800,wear
2017-05-28 14:26:20.800,2017-05-28 14:26:20.800,2017-05-28 14:26:33.600,wear
2017-05-28 14:26:33.600,2017-05-28 14:26:33.600,2017-05-28 14:26:46.400,wear
2017-05-28 14:26:46.400,2017-05-28 14:26:46.400,2017-05-28 14:26:59.200,wear
2017-05-28 14:26:59.200,2017-05-28 14:26:59.200,2017-05-28 14:27:12.000,wear
2017-05-28 14:27:12.000,2017-05-28 14:27:12.000,2017-05-28 14:27:24.800,wear
2017-05-28 14:27:24.800,2017-05-28 14:27:24.800,2017-05-28 14:27:37.600,wear
2017-05-28 14:27:37.600,2017-05-28 14:27:37.600,2017-05-28 14:27:50.400,wear
2017-05-28 14:27:50.400,2017-05-28 14:27:50.400,2017-05-28 14:28:03.200,wear
2017-05-28 14:28:03.200,2017-05-28 14:28:03.200,2017-05-28 14:28:16.000,wear
2017-05-28 14:28:16.000,2017-05-28 14:28:16.000,2017-05-28 14:28:28.800,wear
2017-05-28 14:28:28.800,2017-05-28 14:28:28.800,2017-05-28 14:28:41.600,wear
2017-05-28 14:28:41.600,2017-05-28 14:28:41.600,2017-05-28 14:28:54.400,wear
2017-05-28 14:28:54.400,2017-05-28 14:28:54.400,2017-05-28 14:29:07.200,wear
2017-05-28 14:29:07.200,2017-05-28 14:29:07.200,2017-05-28 14:29:20.000,wear
2017-05-28 14:29:20.000,2017-05-28 14:29:20.000,2017-05-28 14:29:32.800,wear
2017-05-28 14:29:32.800,2017-05-28 14:29:32.800,2017-05-28 14:29:45.600,wear
2017-05-28 14:29:45.600,2017-05-28 14:29:45.600,2017-05-28 14:29:58.400,wear
2017-05-28 14:29:58.400,2017-05-28 14:29:58.400,2017-05-28 14:30:11.200,wear
2017-05-28 14:30:11.200,2017-05-28 14:30:11.200,2017-05-28 14:30:24.000,wear
2017-05-28 14:30:24.000,2017-05-28 14:30:24.000,2017-05-28 14:30:36.800,wear
2017-05-28 14:30:36.800,2017-05-28 14:30:36.800,2017-05-28 14:30:49.600,wear
2017-05-28 14:30:49.600,2017-05-28 14:30:49.600,2017-05-28 14:31:02.400,wear
2017-05-28 14:31:02.400,2017-05-28 14:31:02.400,2017-05-28 14:31:15.200,wear
2017-05-28 14:31:15.200,2017-05-28 14:31:15.200,2017-05-28 14:31:28.000,wear
2017-05-28 14:31:28.000,2017-05-28 14:31:28.000,2017-05-28 14:31:40.800,wear
2017-05-28 14:31:40.800,2017-05-28 14:31:40.800,2017-05-28 14:31:53.600,wear
2017-05-28 14:31:53.600,2017-05-28 14:31:53.600,2017-05-28 14:32:06.400,wear
2017-05-28 14:32:06.400,2017-05-28 14:32:06.400,2017-05-28 14:32:19.200,wear
2017-05-28 14:32:19.200,2017-05-28 14:32:19.200,2017-05-28 14:32:32.000,wear
2017-05-28 14:32:32.000,2017-05-28 14:32:32.000,2017-05-28 14:32:44.800,wear
2017-05-28 14:32:44.800,2017-05-28 14:32:44.800,2017-05-28 14:32:57.600,wear
2017-05-28 14:32:57.600,2017-05-28 14:32:57.600,2017-05-28 14:33:10.400,wear
2017-05-28 14:33:10.400,2017-05-28 14:33:10.400,2017-05-28 14:33:23.200,wear
2017-05-28 14:33:23.200,2017-05-28 14:33:23.200,2017-05-28 14:33:36.000,wear
2017-05-28 14:33:36.000,2017-05-28 14:33:36.000,2017-05-28 14:33:48.800,wear
2017-05-28 14:33:48.800,2017-05-28 14:33:48.800,2017-05-28 14:34:01.600,wear
2017-05-28 14:34:01.600,2017-05-28 14:34:01.600,2017-05-28 14:34:14.400,wear
2017-05-28 14:34:14.400,2017-05-28 14:34:14.400,2017-05-28 14:34:27.200,wear
2017-05-28 14:34:27.200,2017-05-28 14:34:27.200,2017-05-28 14:34:40.000,wear
2017-05-28 14:34:40.000,2017-05-28 14:34:40.000,2017-05-28 14:34:52.800,wear
2017-05-28 14:34:52.800,2017-05-28 14:34:52.800,2017-05-28 14:35:05.600,wear
2017-05-28 14:35:05.600,2017-05-28 14:35:05.600,2017-05-28 14:35:18.400,wear
2017-05-28 14:35:18.400,2017-05-28 14:35:18.400,2017-05-28 14:35:31.200,wear
2017-05-28 14:35:31.200,2017-05-28 14:35:31.200,2017-05-28 14:35:44.000,wear
2017-05-28 14:35:44.000,2017-05-28 14:35:44.000,2017-05-28 14:35:56.800,wear
2017-05-28 14:35:56.800,2017-05-28 14:35:56.800,2017-05-28 14:36:09.600,wear
2017-05-28 14:36:09.600,2017-05-28 14:36:09.600,2017-05-28 14:36:22.400,wear
2017-05-28 14:36:22.400,2017-05-28 14:36:22.400,2017-05-28 14:36:35.200,wear
2017-05-28 14:36:35.200,2017-05-28 14:36:35.200,2017-05-28 14:36:48.000,wear
2017-05-28 14:36:48.000,2017-05-28 14:36:48.000,2017-05-28 14:37:00.800,wear
2017-05-28 14:37:00.800,2017-05-28 14:37:00.800,2017-05-28 14:37:13.600,wear
2017-05-28 14:37:13.600,2017-05-28 14:37:13.600,2017-05-28 14:37:26.400,wear
2017-05-28 14:37:26.400,2017-05-28 14:37:26.400,2017-05-28 14:37:39.200,wear
2017-05-28 14:37:39.200,2017-05-28 14:37:39.200,2017-05-28 14:37:52.000,wear
2017-05-28 14:37:52.000,2017-05-28 14:37:52.000,2017-05-28 14:38:04.800,wear
2017-05-28 14:38:04.800,2017-05-28 14:38:04.800,2017-05-28 14:38:17.600,wear
2017-05-28 14:38:17.600,2017-05-28 14:38:17.600,2017-05-28 14:38:30.400,wear
2017-05-28 14:38:30.400,2017-05-28 14:38:30.400,2017-05-28 14:38:43.200,wear
2017-05-28 14:38:43.200,2017-05-28 14:38:43.200,2017-05-28 14:38:56.000,wear
2017-05-28 14:38:56.000,2017-05-28 14:38:56.000,2017-05-28 14:39:08.800,wear
2017-05-28 14:39:08.800,2017-05-28 14:39:08.800,2017-05-28 14:39:21.600,wear
2017-05-28 14:39:21.600,2017-05-28 14:39:21.600,2017-05-28 14:39:34.400,wear
2017-05-28 14:39:34.400,2017-05-28 14:39:34.400,2017-05-28 14:39:47.200,wear
2017-05-28 14:39:47.200,2017-05-28 14:39:47.200,2017-05-28 14:40:00.000,wear
2017-05-28 14:40:00.000,2017-05-28 14:40:00.000,2017-05-28 14:40:12.800,wear
2017-05-28 14:40:12.800,2017-05-28 14:40:12.800,2017-05-28 14:40:25.600,wear
2017-05-28 14:40:25.600,2017-05-28 14:40:25.600,2017-05-28 14:40:38.400,wear
2017-05-28 14:40:38.400,2017-05-28 14:40:38.400,2017-05-28 14:40:51.200,wear
2017-05-28 14:40:51.200,2017-05-28 14:40:51.200,2017-05-28 14:41:04.000,wear
2017-05-28 14:41:04.000,2017-05-28 14:41:04.000,2017-05-28 14:41:16.800,wear
2017-05-28 14:41:16.800,2017-05-28 14:41:16.800,2017-05-28 14:41:29.600,wear
2017-05-28 14:41:29.600,2017-05-28 14:41:29.600,2017-05-28 14:41:42.400,wear
2017-05-28 14:41:42.400,2017-05-28 14:41:42.400,2017-05-28 14:41:55.200,wear
2017-05-28 14:41:55.200,2017-05-28 14:41:55.200,2017-05-28 14:42:08.000,wear
2017-05-28 14:42:08.000,2017-05-28 14:42:08.000,2017-05-28 14:42:20.800,wear
2017-05-28 14:42:20.800,2017-05-28 14:42:20.800,2017-05-28 14:42:33.600,wear
2017-05-28 14:42:33.600,2017-05-28 14:42:33.600,2017-05-28 14:42:46.400,wear
2017-05-28 14:42:46.400,2017-05-28 14:42:46.400,2017-05-28 14:42:59.200,wear
2017-05-28 14:42:59.200,2017-05-28 14:42:59.200,2017-05-28 14:43:12.000,wear
2017-05-28 14:43:12.000,2017-05-28 14:43:12.000,2017-05-28 14:43:24.800,wear
2017-05-28 14:43:24.800,2017-05-28 14:43:24.800,2017-05-28 14:43:37.600,wear
2017-05-28 14:43:37.600,2017-05-28 14:43:37.600,2017-05-28 14:43:50.400,wear
2017-05-28 14:43:50.400,2017-05-28 14:43:50.400,2017-05-28 14:44:03.200,wear
2017-05-28 14:44:03.200,2017-05-28 14:44:03.200,2017-05-28 14:44:16.000,wear
2017-05-28 14:44:16.000,2017-05-28 14:44:16.000,2017-05-28 14:44:28.800,wear
2017-05-28 14:44:28.800,2017-05-28 14:44:28.800,2017-05-28 14:44:41.600,wear
2017-05-28 14:44:41.600,2017-05-28 14:44:41.600,2017-05-28 14:44:54.400,wear
2017-05-28 14:44:54.400,2017-05-28 14:44:54.400,2017-05-28 14:45:07.200,wear
2017-05-28 14:45:07.200,2017-05-28 14:45:07.200,2017-05-28 14:45:20.000,wear
2017-05-28 14:45:20.000,2017-05-28 14:45:20.000,2017-05-28 14:45:32.800,wear
2017-05-28 14:45:32.800,2017-05-28 14:45:32.800,2017-05-28 14:45:45.600,wear
2017-05-28 14:45:45.600,2017-05-28 14:45:45.600,2017-05-28 14:45:58.400,wear
2017-05-28 14:45:58.400,2017-05-28 14:45:58.400,2017-05-28 14:46:11.200,wear
2017-05-28 14:46:11.200,2017-05-28 14:46:11.200,2017-05-28 14:46:24.000,wear
2017-05-28 14:46:24.000,2017-05-28 14:46:24.000,2017-05-28 14:46:36.800,wear
2017-05-28 14:46:36.800,2017-05-28 14:46:36.800,2017-05-28 14:46:49.600,wear
2017-05-28 14:46:49.600,2017-05-28 14:46:49.600,2017-05-28 14:47:02.400,wear
2017-05-28 14:47:02.400,2017-05-28 14:47:02.400,2017-05-28 14:47:15.200,wear
2017-05-28 14:47:15.200,2017-05-28 14:47:15.200,2017-05-28 14:47:28.000,wear
2017-05-28 14:47:28.000,2017-05-28 14:47:28.000,2017-05-28 14:47:40.800,wear
2017-05-28 14:47:40.800,2017-05-28 14:47:40.800,2017-05-28 14:47:53.600,wear
2017-05-28 14:47:53.600,2017-05-28 14:47:53.600,2017-05-28 14:48:06.400,wear
2017-05-28 14:48:06.400,2017-05-28 14:48:06.400,2017-05-28 14:48:19.200,wear
2017-05-28 14:48:19.200,2017-05-28 14:48:19.200,2017-05-28 14:48:32.000,wear
2017-05-28 14:48:32.000,2017-05-28 14:48:32.000,2017-05-28 14:48:44.800,wear
2017-05-28 14:48:44.800,2017-05-28 14:48:44.800,2017-05-28 14:48:57.600,wear
2017-05-28 14:48:57.600,2017-05-28 14:48:57.600,2017-05-28 14:49:10.400,wear
2017-05-28 14:49:10.400,2017-05-28 14:49:10.400,2017-05-28 14:49:23.200,wear
2017-05-28 14:49:23.200,2017-05-28 14:49:23.200,2017-05-28 14:49:36.000,wear
2017-05-28 14:49:36.000,2017-05-28 14:49:36.000,2017-05-28 14:49:48.800,wear
2017-05-28 14:49:48.800,2017-05-28 14:49:48.800,2017-05-28 14:50:01.600,wear
2017-05-28 14:50:01.600,2017-05-28 14:50:01.600,2017-05-28 14:50:14.400,wear
2017-05-28 14:50:14.400,2017-05-28 14:50:14.400,2017-05-28 14:50:27.200,wear
2017-05-28 14:50:27.200,2017-05-28 14:50:27.200,2017-05-28 14:50:40.000,wear
2017-05-28 14:50:40.000,2017-05-28 14:50:40.000,2017-05-28 14:50:52.800,wear
2017-05-28 14:50:52.800,2017-05-28 14:50:52.800,2017-05-28 14:51:05.600,wear
2017-05-28 14:51:05.600,2017-05-28 14:51:05.600,2017-05-28 14:51:18.400,wear
2017-05-28 14:51:18.400,2017-05-28 14:51:18.400,2017-05-28 14:51:31.200,wear
2017-05-28 14:51:31.200,2017-05-28 14:51:31.200,2017-05-28 14:51:44.000,wear
2017-05-28 14:51:44.000,2017-05-28 14:51:44.000,2017-05-28 14:51:56.800,wear
2017-05-28 14:51:56.800,2017-05-28 14:51:56.800,2017-05-28 14:52:09.600,wear
2017-05-28 14:52:09.600,2017-05-28 14:52:09.600,2017-05-28 14:52:22.400,wear
2017-05-28 14:52:22.400,2017-05-28 14:52:22.400,2017-05-28 14:52:35.200,wear
2017-05-28 14:52:35.200,2017-05-28 14:52:35.200,2017-05-28 14:52:48.000,wear
2017-05-28 14:52:48.000,2017-05-28 14:52:48.000,2017-05-28 14:53:00.800,wear
2017-05-28 14:53:00.800,2017-05-28 14:53:00.800,2017-05-28 14:53:13.600,wear
2017-05-28 14:53:13.600,2017-05-28 14:53:13.600,2017-05-28 14:53:26.400,wear
2017-05-28 14:53:26.400,2017-05-28 14:53:26.400,2017-05-28 14:53:39.200,wear
2017-05-28 14:53:39.200,2017-05-28 14:53:39.200,2017-05-28 14:53:52.000,wear
2017-05-28 14:53:52.000,2017-05-28 14:53:52.000,2017-05-28 14:54:04.800,wear
2017-05-28 14:54:04.800,2017-05-28 14:54:04.800,2017-05-28 14:54:17.600,wear
2017-05-28 14:54:17.600,2017-05-28 14:54:17.600,2017-05-28 14:54:30.400,wear
2017-05-28 14:54:30.400,2017-05-28 14:54:30.400,2017-05-28 14:54:43.200,wear
2017-05-28 14:54:43.200,2017-05-28 14:54:43.200,2017-05-28 14:54:56.000,wear
2017-05-28 14:54:56.000,2017-05-28 14:54:56.000,2017-05-28 14:55:08.800,wear
2017-05-28 14:55:08.800,2017-05-28 14:55:08.800,2017-05-28 14:55:21.600,wear
2017-05-28 14:55:21.600,2017-05-28 14:55:21.600,2017-05-28 14:55:34.400,wear
2017-05-28 14:55:34.400,2017-05-28 14:55:34.400,2017-05-28 14:55:47.200,wear
2017-05-28 14:55:47.200,2017-05-28 14:55:47.200,2017-05-28 14:56:00.000,wear
2017-05-28 14:56:00.000,2017-05-28 14:56:00.000,2017-05-28 14:56:12.800,wear
2017-05-28 14:56:12.800,2017-05-28 14:56:12.800,2017-05-28 14:56:25.600,wear
2017-05-28 14:56:25.600,2017-05-28 14:56:25.600,2017-05-28 14:56:38.400,wear
2017-05-28 14:56:38.400,2017-05-28 14:56:38.400,2017-05-28 14:56:51.200,wear
2017-05-28 14:56:51.200,2017-05-28 14:56:51.200,2017-05-28 14:57:04.000,wear
2017-05-28 14:57:04.000,2017-05-28 14:57:04.000,2017-05-28 14:57:16.800,wear
2017-05-28 14:57:16.800,2017-05-28 14:57:16.800,2017-05-28 14:57:29.600,wear
2017-05-28 14:57:29.600,2017-05-28 14:57:29.600,2017-05-28 14:57:42.400,wear
2017-05-28 14:57:42.400,2017-05-28 14:57:42.400,2017-05-28 14:57:55.200,wear
2017-05-28 14:57:55.200,2017-05-28 14:57:55.200,2017-05-28 14:58:08.000,wear
2017-05-28 14:58:08.000,2017-05-28 14:58:08.000,2017-05-28 14:58:20.800,wear
2017-05-28 14:58:20.800,2017-05-28 14:58:20.800,2017-05-28 14:58:33.600,wear
2017-05-28 14:58:33.600,2017-05-28 14:58:33.600,2017-05-28 14:58:46.400,wear
2017-05-28 14:58:46.400,2017-05-28 14:58:46.400,2017-05-28 14:58:59.200,wear
2017-05-28 14:58:59.200,2017-05-28 14:58:59.200,2017-05-28 14:59:12.000,wear
2017-05-28 14:59:12.000,2017-05-28 14:59:12.000,2017-05-28 14:59:24.800,wear
2017-05-28 14:59:24.800,2017-05-28 14:59:24.800,2017-05-28 14:59:37.600,wear
2017-05-28 14:59:37.600,2017-05-28 14:59:37.600,2017-05-28 14:59:50.400,wear
2017-05-28 14:59:50.400,2017-05-28 14:59:50.400,2017-05-28 14:59:59.999,wear
2017-05-28 14:59:50.400,2017-05-28 14:59:50.400,2017-05-28 14:59:59.999,wear
