HEADER_TIME_STAMP,START_TIME,STOP_TIME,LABEL_PROBABILITY
2017-05-27 04:00:00.000,2017-05-27 04:00:00.000,2017-05-27 04:01:04.000,0.697
2017-05-27 04:01:04.000,2017-05-27 04:01:04.000,2017-05-27 04:02:08.000,0.592
2017-05-27 04:02:08.000,2017-05-27 04:02:08.000,2017-05-27 04:03:12.000,0.697
2017-05-27 04:03:12.000,2017-05-27 04:03:12.000,2017-05-27 04:04:16.000,0.697
2017-05-27 04:04:16.000,2017-05-27 04:04:16.000,2017-05-27 04:05:20.000,0.697
2017-05-27 04:05:20.000,2017-05-27 04:05:20.000,2017-05-27 04:06:24.000,0.592
2017-05-27 04:06:24.000,2017-05-27 04:06:24.000,2017-05-27 04:07:28.000,0.697
2017-05-27 04:07:28.000,2017-05-27 04:07:28.000,2017-05-27 04:08:32.000,0.697
2017-05-27 04:08:32.000,2017-05-27 04:08:32.000,2017-05-27 04:09:36.000,0.697
2017-05-27 04:09:36.000,2017-05-27 04:09:36.000,2017-05-27 04:10:40.000,0.697
2017-05-27 04:10:40.000,2017-05-27 04:10:40.000,2017-05-27 04:11:44.000,0.697
2017-05-27 04:11:44.000,2017-05-27 04:11:44.000,2017-05-27 04:12:48.000,0.697
2017-05-27 04:12:48.000,2017-05-27 04:12:48.000,2017-05-27 04:13:52.000,0.697
2017-05-27 04:13:52.000,2017-05-27 04:13:52.000,2017-05-27 04:14:56.000,0.697
2017-05-27 04:14:56.000,2017-05-27 04:14:56.000,2017-05-27 04:16:00.000,0.697
2017-05-27 04:16:00.000,2017-05-27 04:16:00.000,2017-05-27 04:17:04.000,0.697
2017-05-27 04:17:04.000,2017-05-27 04:17:04.000,2017-05-27 04:18:08.000,0.697
2017-05-27 04:18:08.000,2017-05-27 04:18:08.000,2017-05-27 04:19:12.000,0.697
2017-05-27 04:19:12.000,2017-05-27 04:19:12.000,2017-05-27 04:20:16.000,0.697
2017-05-27 04:20:16.000,2017-05-27 04:20:16.000,2017-05-27 04:21:20.000,0.697
2017-05-27 04:21:20.000,2017-05-27 04:21:20.000,2017-05-27 04:22:24.000,0.592
2017-05-27 04:22:24.000,2017-05-27 04:22:24.000,2017-05-27 04:23:28.000,0.697
2017-05-27 04:23:28.000,2017-05-27 04:23:28.000,2017-05-27 04:24:32.000,0.697
2017-05-27 04:24:32.000,2017-05-27 04:24:32.000,2017-05-27 04:25:36.000,0.697
2017-05-27 04:25:36.000,2017-05-27 04:25:36.000,2017-05-27 04:26:40.000,0.697
2017-05-27 04:26:40.000,2017-05-27 04:26:40.000,2017-05-27 04:27:44.000,0.697
2017-05-27 04:27:44.000,2017-05-27 04:27:44.000,2017-05-27 04:28:48.000,0.697
2017-05-27 04:28:48.000,2017-05-27 04:28:48.000,2017-05-27 04:29:52.000,0.592
2017-05-27 04:29:52.000,2017-05-27 04:29:52.000,2017-05-27 04:30:56.000,0.592
2017-05-27 04:30:56.000,2017-05-27 04:30:56.000,2017-05-27 04:32:00.000,0.697
2017-05-27 04:32:00.000,2017-05-27 04:32:00.000,2017-05-27 04:33:04.000,0.697
2017-05-27 04:33:04.000,2017-05-27 04:33:04.000,2017-05-27 04:34:08.000,0.592
2017-05-27 04:34:08.000,2017-05-27 04:34:08.000,2017-05-27 04:35:12.000,0.697
2017-05-27 04:35:12.000,2017-05-27 04:35:12.000,2017-05-27 04:36:16.000,0.697
2017-05-27 04:36:16.000,2017-05-27 04:36:16.000,2017-05-27 04:37:20.000,0.697
2017-05-27 04:37:20.000,2017-05-27 04:37:20.000,2017-05-27 04:38:24.000,0.592
2017-05-27 04:38:24.000,2017-05-27 04:38:24.000,2017-05-27 04:39:28.000,0.697
2017-05-27 04:39:28.000,2017-05-27 04:39:28.000,2017-05-27 04:40:32.000,0.697
2017-05-27 04:40:32.000,2017-05-27 04:40:32.000,2017-05-27 04:41:36.000,0.697
2017-05-27 04:41:36.000,2017-05-27 04:41:36.000,2017-05-27 04:42:40.000,0.697
2017-05-27 04:42:40.000,2017-05-27 04:42:40.000,2017-05-27 04:43:44.000,0.697
2017-05-27 04:43:44.000,2017-05-27 04:43:44.000,2017-05-27 04:44:48.000,0.592
2017-05-27 04:44:48.000,2017-05-27 04:44:48.000,2017-05-27 04:45:52.000,0.697
2017-05-27 04:45:52.000,2017-05-27 04:45:52.000,2017-05-27 04:46:56.000,0.697
2017-05-27 04:46:56.000,2017-05-27 04:46:56.000,2017-05-27 04:48:00.000,0.697
2017-05-27 04:48:00.000,2017-05-27 04:48:00.000,2017-05-27 04:49:04.000,0.697
2017-05-27 04:49:04.000,2017-05-27 04:49:04.000,2017-05-27 04:50:08.000,0.697
2017-05-27 04:50:08.000,2017-05-27 04:50:08.000,2017-05-27 04:51:12.000,0.697
2017-05-27 04:51:12.000,2017-05-27 04:51:12.000,2017-05-27 04:52:16.000,0.697
2017-05-27 04:52:16.000,2017-05-27 04:52:16.000,2017-05-27 04:53:20.000,0.693
2017-05-27 04:53:20.000,2017-05-27 04:53:20.000,2017-05-27 04:54:24.000,0.697
2017-05-27 04:54:24.000,2017-05-27 04:54:24.000,2017-05-27 04:55:28.000,0.697
2017-05-27 04:55:28.000,2017-05-27 04:55:28.000,2017-05-27 04:56:32.000,0.697
2017-05-27 04:56:32.000,2017-05-27 04:56:32.000,2017-05-27 04:57:36.000,0.697
2017-05-27 04:57:36.000,2017-05-27 04:57:36.000,2017-05-27 04:58:40.000,0.697
2017-05-27 04:58:40.000,2017-05-27 04:58:40.000,2017-05-27 04:59:44.000,0.592
2017-05-27 04:59:44.000,2017-05-27 04:59:44.000,2017-05-27 04:59:59.999,0.697
