HEADER_TIME_STAMP,START_TIME,STOP_TIME,LABEL_PREDICTED
2017-05-27 09:00:48.000,2017-05-27 09:00:48.000,2017-05-27 09:01:52.000,wear
2017-05-27 09:01:52.000,2017-05-27 09:01:52.000,2017-05-27 09:02:56.000,wear
2017-05-27 09:02:56.000,2017-05-27 09:02:56.000,2017-05-27 09:04:00.000,wear
2017-05-27 09:04:00.000,2017-05-27 09:04:00.000,2017-05-27 09:05:04.000,wear
2017-05-27 09:05:04.000,2017-05-27 09:05:04.000,2017-05-27 09:06:08.000,wear
2017-05-27 09:06:08.000,2017-05-27 09:06:08.000,2017-05-27 09:07:12.000,wear
2017-05-27 09:07:12.000,2017-05-27 09:07:12.000,2017-05-27 09:08:16.000,wear
2017-05-27 09:08:16.000,2017-05-27 09:08:16.000,2017-05-27 09:09:20.000,wear
2017-05-27 09:09:20.000,2017-05-27 09:09:20.000,2017-05-27 09:10:24.000,wear
2017-05-27 09:10:24.000,2017-05-27 09:10:24.000,2017-05-27 09:11:28.000,wear
2017-05-27 09:11:28.000,2017-05-27 09:11:28.000,2017-05-27 09:12:32.000,wear
2017-05-27 09:12:32.000,2017-05-27 09:12:32.000,2017-05-27 09:13:36.000,wear
2017-05-27 09:13:36.000,2017-05-27 09:13:36.000,2017-05-27 09:14:40.000,wear
2017-05-27 09:14:40.000,2017-05-27 09:14:40.000,2017-05-27 09:15:44.000,wear
2017-05-27 09:15:44.000,2017-05-27 09:15:44.000,2017-05-27 09:16:48.000,wear
2017-05-27 09:16:48.000,2017-05-27 09:16:48.000,2017-05-27 09:17:52.000,nonwear
2017-05-27 09:17:52.000,2017-05-27 09:17:52.000,2017-05-27 09:18:56.000,wear
2017-05-27 09:18:56.000,2017-05-27 09:18:56.000,2017-05-27 09:20:00.000,wear
2017-05-27 09:20:00.000,2017-05-27 09:20:00.000,2017-05-27 09:21:04.000,wear
2017-05-27 09:21:04.000,2017-05-27 09:21:04.000,2017-05-27 09:22:08.000,wear
2017-05-27 09:22:08.000,2017-05-27 09:22:08.000,2017-05-27 09:23:12.000,wear
2017-05-27 09:23:12.000,2017-05-27 09:23:12.000,2017-05-27 09:24:16.000,wear
2017-05-27 09:24:16.000,2017-05-27 09:24:16.000,2017-05-27 09:25:20.000,wear
2017-05-27 09:25:20.000,2017-05-27 09:25:20.000,2017-05-27 09:26:24.000,wear
2017-05-27 09:26:24.000,2017-05-27 09:26:24.000,2017-05-27 09:27:28.000,wear
2017-05-27 09:27:28.000,2017-05-27 09:27:28.000,2017-05-27 09:28:32.000,wear
2017-05-27 09:28:32.000,2017-05-27 09:28:32.000,2017-05-27 09:29:36.000,wear
2017-05-27 09:29:36.000,2017-05-27 09:29:36.000,2017-05-27 09:30:40.000,wear
2017-05-27 09:30:40.000,2017-05-27 09:30:40.000,2017-05-27 09:31:44.000,wear
2017-05-27 09:31:44.000,2017-05-27 09:31:44.000,2017-05-27 09:32:48.000,wear
2017-05-27 09:32:48.000,2017-05-27 09:32:48.000,2017-05-27 09:33:52.000,wear
2017-05-27 09:33:52.000,2017-05-27 09:33:52.000,2017-05-27 09:34:56.000,wear
2017-05-27 09:34:56.000,2017-05-27 09:34:56.000,2017-05-27 09:36:00.000,wear
2017-05-27 09:36:00.000,2017-05-27 09:36:00.000,2017-05-27 09:37:04.000,wear
2017-05-27 09:37:04.000,2017-05-27 09:37:04.000,2017-05-27 09:38:08.000,wear
2017-05-27 09:38:08.000,2017-05-27 09:38:08.000,2017-05-27 09:39:12.000,wear
2017-05-27 09:39:12.000,2017-05-27 09:39:12.000,2017-05-27 09:40:16.000,wear
2017-05-27 09:40:16.000,2017-05-27 09:40:16.000,2017-05-27 09:41:20.000,wear
2017-05-27 09:41:20.000,2017-05-27 09:41:20.000,2017-05-27 09:42:24.000,wear
2017-05-27 09:42:24.000,2017-05-27 09:42:24.000,2017-05-27 09:43:28.000,wear
2017-05-27 09:43:28.000,2017-05-27 09:43:28.000,2017-05-27 09:44:32.000,wear
2017-05-27 09:44:32.000,2017-05-27 09:44:32.000,2017-05-27 09:45:36.000,wear
2017-05-27 09:45:36.000,2017-05-27 09:45:36.000,2017-05-27 09:46:40.000,wear
2017-05-27 09:46:40.000,2017-05-27 09:46:40.000,2017-05-27 09:47:44.000,wear
2017-05-27 09:47:44.000,2017-05-27 09:47:44.000,2017-05-27 09:48:48.000,wear
2017-05-27 09:48:48.000,2017-05-27 09:48:48.000,2017-05-27 09:49:52.000,wear
2017-05-27 09:49:52.000,2017-05-27 09:49:52.000,2017-05-27 09:50:56.000,wear
2017-05-27 09:50:56.000,2017-05-27 09:50:56.000,2017-05-27 09:52:00.000,wear
2017-05-27 09:52:00.000,2017-05-27 09:52:00.000,2017-05-27 09:53:04.000,wear
2017-05-27 09:53:04.000,2017-05-27 09:53:04.000,2017-05-27 09:54:08.000,wear
2017-05-27 09:54:08.000,2017-05-27 09:54:08.000,2017-05-27 09:55:12.000,wear
2017-05-27 09:55:12.000,2017-05-27 09:55:12.000,2017-05-27 09:56:16.000,wear
2017-05-27 09:56:16.000,2017-05-27 09:56:16.000,2017-05-27 09:57:20.000,wear
2017-05-27 09:57:20.000,2017-05-27 09:57:20.000,2017-05-27 09:58:24.000,wear
2017-05-27 09:58:24.000,2017-05-27 09:58:24.000,2017-05-27 09:59:28.000,wear
2017-05-27 09:59:28.000,2017-05-27 09:59:28.000,2017-05-27 09:59:59.999,wear
