HEADER_TIME_STAMP,START_TIME,STOP_TIME,LABEL_PROBABILITY
2017-05-31 20:00:00.000,2017-05-31 20:00:00.000,2017-05-31 20:01:04.000,0.936
2017-05-31 20:01:04.000,2017-05-31 20:01:04.000,2017-05-31 20:02:08.000,0.891
2017-05-31 20:02:08.000,2017-05-31 20:02:08.000,2017-05-31 20:03:12.000,0.766
2017-05-31 20:03:12.000,2017-05-31 20:03:12.000,2017-05-31 20:04:16.000,0.666
2017-05-31 20:04:16.000,2017-05-31 20:04:16.000,2017-05-31 20:05:20.000,0.764
2017-05-31 20:05:20.000,2017-05-31 20:05:20.000,2017-05-31 20:06:24.000,0.813
2017-05-31 20:06:24.000,2017-05-31 20:06:24.000,2017-05-31 20:07:28.000,0.93
2017-05-31 20:07:28.000,2017-05-31 20:07:28.000,2017-05-31 20:08:32.000,0.833
2017-05-31 20:08:32.000,2017-05-31 20:08:32.000,2017-05-31 20:09:36.000,0.985
2017-05-31 20:09:36.000,2017-05-31 20:09:36.000,2017-05-31 20:10:40.000,0.833
2017-05-31 20:10:40.000,2017-05-31 20:10:40.000,2017-05-31 20:11:44.000,0.997
2017-05-31 20:11:44.000,2017-05-31 20:11:44.000,2017-05-31 20:12:48.000,0.994
2017-05-31 20:12:48.000,2017-05-31 20:12:48.000,2017-05-31 20:13:52.000,0.989
2017-05-31 20:13:52.000,2017-05-31 20:13:52.000,2017-05-31 20:14:56.000,0.997
2017-05-31 20:14:56.000,2017-05-31 20:14:56.000,2017-05-31 20:16:00.000,0.964
2017-05-31 20:16:00.000,2017-05-31 20:16:00.000,2017-05-31 20:17:04.000,0.989
2017-05-31 20:17:04.000,2017-05-31 20:17:04.000,2017-05-31 20:18:08.000,0.998
2017-05-31 20:18:08.000,2017-05-31 20:18:08.000,2017-05-31 20:19:12.000,0.998
2017-05-31 20:19:12.000,2017-05-31 20:19:12.000,2017-05-31 20:20:16.000,0.995
2017-05-31 20:20:16.000,2017-05-31 20:20:16.000,2017-05-31 20:21:20.000,0.926
2017-05-31 20:21:20.000,2017-05-31 20:21:20.000,2017-05-31 20:22:24.000,0.998
2017-05-31 20:22:24.000,2017-05-31 20:22:24.000,2017-05-31 20:23:28.000,0.988
2017-05-31 20:23:28.000,2017-05-31 20:23:28.000,2017-05-31 20:24:32.000,0.913
2017-05-31 20:24:32.000,2017-05-31 20:24:32.000,2017-05-31 20:25:36.000,0.605
2017-05-31 20:25:36.000,2017-05-31 20:25:36.000,2017-05-31 20:26:40.000,0.803
2017-05-31 20:26:40.000,2017-05-31 20:26:40.000,2017-05-31 20:27:44.000,0.623
2017-05-31 20:27:44.000,2017-05-31 20:27:44.000,2017-05-31 20:28:48.000,0.513
2017-05-31 20:28:48.000,2017-05-31 20:28:48.000,2017-05-31 20:29:52.000,0.652
2017-05-31 20:29:52.000,2017-05-31 20:29:52.000,2017-05-31 20:30:56.000,0.568
2017-05-31 20:30:56.000,2017-05-31 20:30:56.000,2017-05-31 20:32:00.000,0.623
2017-05-31 20:32:00.000,2017-05-31 20:32:00.000,2017-05-31 20:33:04.000,0.702
2017-05-31 20:33:04.000,2017-05-31 20:33:04.000,2017-05-31 20:34:08.000,0.568
2017-05-31 20:34:08.000,2017-05-31 20:34:08.000,2017-05-31 20:35:12.000,0.568
2017-05-31 20:35:12.000,2017-05-31 20:35:12.000,2017-05-31 20:36:16.000,0.563
2017-05-31 20:36:16.000,2017-05-31 20:36:16.000,2017-05-31 20:37:20.000,0.563
2017-05-31 20:37:20.000,2017-05-31 20:37:20.000,2017-05-31 20:38:24.000,0.856
2017-05-31 20:38:24.000,2017-05-31 20:38:24.000,2017-05-31 20:39:28.000,0.894
2017-05-31 20:39:28.000,2017-05-31 20:39:28.000,2017-05-31 20:40:32.000,0.599
2017-05-31 20:40:32.000,2017-05-31 20:40:32.000,2017-05-31 20:41:36.000,0.717
2017-05-31 20:41:36.000,2017-05-31 20:41:36.000,2017-05-31 20:42:40.000,0.873
2017-05-31 20:42:40.000,2017-05-31 20:42:40.000,2017-05-31 20:43:44.000,0.527
2017-05-31 20:43:44.000,2017-05-31 20:43:44.000,2017-05-31 20:44:48.000,0.732
2017-05-31 20:44:48.000,2017-05-31 20:44:48.000,2017-05-31 20:45:52.000,0.636
2017-05-31 20:45:52.000,2017-05-31 20:45:52.000,2017-05-31 20:46:56.000,0.636
2017-05-31 20:46:56.000,2017-05-31 20:46:56.000,2017-05-31 20:48:00.000,0.736
2017-05-31 20:48:00.000,2017-05-31 20:48:00.000,2017-05-31 20:49:04.000,0.661
2017-05-31 20:49:04.000,2017-05-31 20:49:04.000,2017-05-31 20:50:08.000,0.661
2017-05-31 20:50:08.000,2017-05-31 20:50:08.000,2017-05-31 20:51:12.000,0.994
2017-05-31 20:51:12.000,2017-05-31 20:51:12.000,2017-05-31 20:52:16.000,0.994
2017-05-31 20:52:16.000,2017-05-31 20:52:16.000,2017-05-31 20:53:20.000,0.994
2017-05-31 20:53:20.000,2017-05-31 20:53:20.000,2017-05-31 20:54:24.000,0.981
2017-05-31 20:54:24.000,2017-05-31 20:54:24.000,2017-05-31 20:55:28.000,0.811
2017-05-31 20:55:28.000,2017-05-31 20:55:28.000,2017-05-31 20:56:32.000,0.969
2017-05-31 20:56:32.000,2017-05-31 20:56:32.000,2017-05-31 20:57:36.000,0.99
2017-05-31 20:57:36.000,2017-05-31 20:57:36.000,2017-05-31 20:58:40.000,0.998
2017-05-31 20:58:40.000,2017-05-31 20:58:40.000,2017-05-31 20:59:44.000,0.998
2017-05-31 20:59:44.000,2017-05-31 20:59:44.000,2017-05-31 20:59:59.999,0.969
