HEADER_TIME_STAMP,START_TIME,STOP_TIME,LABEL_NAME
2017-05-27 22:00:06.400,2017-05-27 22:00:06.400,2017-05-27 22:00:19.200,wear
2017-05-27 22:00:19.200,2017-05-27 22:00:19.200,2017-05-27 22:00:32.000,wear
2017-05-27 22:00:32.000,2017-05-27 22:00:32.000,2017-05-27 22:00:44.800,wear
2017-05-27 22:00:44.800,2017-05-27 22:00:44.800,2017-05-27 22:00:57.600,wear
2017-05-27 22:00:57.600,2017-05-27 22:00:57.600,2017-05-27 22:01:10.400,wear
2017-05-27 22:01:10.400,2017-05-27 22:01:10.400,2017-05-27 22:01:23.200,wear
2017-05-27 22:01:23.200,2017-05-27 22:01:23.200,2017-05-27 22:01:36.000,wear
2017-05-27 22:01:36.000,2017-05-27 22:01:36.000,2017-05-27 22:01:48.800,wear
2017-05-27 22:01:48.800,2017-05-27 22:01:48.800,2017-05-27 22:02:01.600,wear
2017-05-27 22:02:01.600,2017-05-27 22:02:01.600,2017-05-27 22:02:14.400,wear
2017-05-27 22:02:14.400,2017-05-27 22:02:14.400,2017-05-27 22:02:27.200,wear
2017-05-27 22:02:27.200,2017-05-27 22:02:27.200,2017-05-27 22:02:40.000,wear
2017-05-27 22:02:40.000,2017-05-27 22:02:40.000,2017-05-27 22:02:52.800,wear
2017-05-27 22:02:52.800,2017-05-27 22:02:52.800,2017-05-27 22:03:05.600,wear
2017-05-27 22:03:05.600,2017-05-27 22:03:05.600,2017-05-27 22:03:18.400,wear
2017-05-27 22:03:18.400,2017-05-27 22:03:18.400,2017-05-27 22:03:31.200,wear
2017-05-27 22:03:31.200,2017-05-27 22:03:31.200,2017-05-27 22:03:44.000,wear
2017-05-27 22:03:44.000,2017-05-27 22:03:44.000,2017-05-27 22:03:56.800,wear
2017-05-27 22:03:56.800,2017-05-27 22:03:56.800,2017-05-27 22:04:09.600,wear
2017-05-27 22:04:09.600,2017-05-27 22:04:09.600,2017-05-27 22:04:22.400,wear
2017-05-27 22:04:22.400,2017-05-27 22:04:22.400,2017-05-27 22:04:35.200,wear
2017-05-27 22:04:35.200,2017-05-27 22:04:35.200,2017-05-27 22:04:48.000,wear
2017-05-27 22:04:48.000,2017-05-27 22:04:48.000,2017-05-27 22:05:00.800,wear
2017-05-27 22:05:00.800,2017-05-27 22:05:00.800,2017-05-27 22:05:13.600,wear
2017-05-27 22:05:13.600,2017-05-27 22:05:13.600,2017-05-27 22:05:26.400,wear
2017-05-27 22:05:26.400,2017-05-27 22:05:26.400,2017-05-27 22:05:39.200,wear
2017-05-27 22:05:39.200,2017-05-27 22:05:39.200,2017-05-27 22:05:52.000,wear
2017-05-27 22:05:52.000,2017-05-27 22:05:52.000,2017-05-27 22:06:04.800,wear
2017-05-27 22:06:04.800,2017-05-27 22:06:04.800,2017-05-27 22:06:17.600,wear
2017-05-27 22:06:17.600,2017-05-27 22:06:17.600,2017-05-27 22:06:30.400,wear
2017-05-27 22:06:30.400,2017-05-27 22:06:30.400,2017-05-27 22:06:43.200,wear
2017-05-27 22:06:43.200,2017-05-27 22:06:43.200,2017-05-27 22:06:56.000,wear
2017-05-27 22:06:56.000,2017-05-27 22:06:56.000,2017-05-27 22:07:08.800,wear
2017-05-27 22:07:08.800,2017-05-27 22:07:08.800,2017-05-27 22:07:21.600,wear
2017-05-27 22:07:21.600,2017-05-27 22:07:21.600,2017-05-27 22:07:34.400,wear
2017-05-27 22:07:34.400,2017-05-27 22:07:34.400,2017-05-27 22:07:47.200,wear
2017-05-27 22:07:47.200,2017-05-27 22:07:47.200,2017-05-27 22:08:00.000,wear
2017-05-27 22:08:00.000,2017-05-27 22:08:00.000,2017-05-27 22:08:12.800,wear
2017-05-27 22:08:12.800,2017-05-27 22:08:12.800,2017-05-27 22:08:25.600,wear
2017-05-27 22:08:25.600,2017-05-27 22:08:25.600,2017-05-27 22:08:38.400,wear
2017-05-27 22:08:38.400,2017-05-27 22:08:38.400,2017-05-27 22:08:51.200,wear
2017-05-27 22:08:51.200,2017-05-27 22:08:51.200,2017-05-27 22:09:04.000,wear
2017-05-27 22:09:04.000,2017-05-27 22:09:04.000,2017-05-27 22:09:16.800,wear
2017-05-27 22:09:16.800,2017-05-27 22:09:16.800,2017-05-27 22:09:29.600,wear
2017-05-27 22:09:29.600,2017-05-27 22:09:29.600,2017-05-27 22:09:42.400,wear
2017-05-27 22:09:42.400,2017-05-27 22:09:42.400,2017-05-27 22:09:55.200,wear
2017-05-27 22:09:55.200,2017-05-27 22:09:55.200,2017-05-27 22:10:08.000,wear
2017-05-27 22:10:08.000,2017-05-27 22:10:08.000,2017-05-27 22:10:20.800,wear
2017-05-27 22:10:20.800,2017-05-27 22:10:20.800,2017-05-27 22:10:33.600,wear
2017-05-27 22:10:33.600,2017-05-27 22:10:33.600,2017-05-27 22:10:46.400,wear
2017-05-27 22:10:46.400,2017-05-27 22:10:46.400,2017-05-27 22:10:59.200,wear
2017-05-27 22:10:59.200,2017-05-27 22:10:59.200,2017-05-27 22:11:12.000,wear
2017-05-27 22:11:12.000,2017-05-27 22:11:12.000,2017-05-27 22:11:24.800,wear
2017-05-27 22:11:24.800,2017-05-27 22:11:24.800,2017-05-27 22:11:37.600,wear
2017-05-27 22:11:37.600,2017-05-27 22:11:37.600,2017-05-27 22:11:50.400,wear
2017-05-27 22:11:50.400,2017-05-27 22:11:50.400,2017-05-27 22:12:03.200,wear
2017-05-27 22:12:03.200,2017-05-27 22:12:03.200,2017-05-27 22:12:16.000,wear
2017-05-27 22:12:16.000,2017-05-27 22:12:16.000,2017-05-27 22:12:28.800,wear
2017-05-27 22:12:28.800,2017-05-27 22:12:28.800,2017-05-27 22:12:41.600,wear
2017-05-27 22:12:41.600,2017-05-27 22:12:41.600,2017-05-27 22:12:54.400,wear
2017-05-27 22:12:54.400,2017-05-27 22:12:54.400,2017-05-27 22:13:07.200,wear
2017-05-27 22:13:07.200,2017-05-27 22:13:07.200,2017-05-27 22:13:20.000,wear
2017-05-27 22:13:20.000,2017-05-27 22:13:20.000,2017-05-27 22:13:32.800,wear
2017-05-27 22:13:32.800,2017-05-27 22:13:32.800,2017-05-27 22:13:45.600,wear
2017-05-27 22:13:45.600,2017-05-27 22:13:45.600,2017-05-27 22:13:58.400,wear
2017-05-27 22:13:58.400,2017-05-27 22:13:58.400,2017-05-27 22:14:11.200,wear
2017-05-27 22:14:11.200,2017-05-27 22:14:11.200,2017-05-27 22:14:24.000,wear
2017-05-27 22:14:24.000,2017-05-27 22:14:24.000,2017-05-27 22:14:36.800,wear
2017-05-27 22:14:36.800,2017-05-27 22:14:36.800,2017-05-27 22:14:49.600,wear
2017-05-27 22:14:49.600,2017-05-27 22:14:49.600,2017-05-27 22:15:02.400,wear
2017-05-27 22:15:02.400,2017-05-27 22:15:02.400,2017-05-27 22:15:15.200,wear
2017-05-27 22:15:15.200,2017-05-27 22:15:15.200,2017-05-27 22:15:28.000,wear
2017-05-27 22:15:28.000,2017-05-27 22:15:28.000,2017-05-27 22:15:40.800,wear
2017-05-27 22:15:40.800,2017-05-27 22:15:40.800,2017-05-27 22:15:53.600,wear
2017-05-27 22:15:53.600,2017-05-27 22:15:53.600,2017-05-27 22:16:06.400,wear
2017-05-27 22:16:06.400,2017-05-27 22:16:06.400,2017-05-27 22:16:19.200,wear
2017-05-27 22:16:19.200,2017-05-27 22:16:19.200,2017-05-27 22:16:32.000,wear
2017-05-27 22:16:32.000,2017-05-27 22:16:32.000,2017-05-27 22:16:44.800,wear
2017-05-27 22:16:44.800,2017-05-27 22:16:44.800,2017-05-27 22:16:57.600,wear
2017-05-27 22:16:57.600,2017-05-27 22:16:57.600,2017-05-27 22:17:10.400,wear
2017-05-27 22:17:10.400,2017-05-27 22:17:10.400,2017-05-27 22:17:23.200,wear
2017-05-27 22:17:23.200,2017-05-27 22:17:23.200,2017-05-27 22:17:36.000,wear
2017-05-27 22:17:36.000,2017-05-27 22:17:36.000,2017-05-27 22:17:48.800,wear
2017-05-27 22:17:48.800,2017-05-27 22:17:48.800,2017-05-27 22:18:01.600,wear
2017-05-27 22:18:01.600,2017-05-27 22:18:01.600,2017-05-27 22:18:14.400,wear
2017-05-27 22:18:14.400,2017-05-27 22:18:14.400,2017-05-27 22:18:27.200,wear
2017-05-27 22:18:27.200,2017-05-27 22:18:27.200,2017-05-27 22:18:40.000,wear
2017-05-27 22:18:40.000,2017-05-27 22:18:40.000,2017-05-27 22:18:52.800,wear
2017-05-27 22:18:52.800,2017-05-27 22:18:52.800,2017-05-27 22:19:05.600,wear
2017-05-27 22:19:05.600,2017-05-27 22:19:05.600,2017-05-27 22:19:18.400,wear
2017-05-27 22:19:18.400,2017-05-27 22:19:18.400,2017-05-27 22:19:31.200,wear
2017-05-27 22:19:31.200,2017-05-27 22:19:31.200,2017-05-27 22:19:44.000,wear
2017-05-27 22:19:44.000,2017-05-27 22:19:44.000,2017-05-27 22:19:56.800,wear
2017-05-27 22:19:56.800,2017-05-27 22:19:56.800,2017-05-27 22:20:09.600,wear
2017-05-27 22:20:09.600,2017-05-27 22:20:09.600,2017-05-27 22:20:22.400,wear
2017-05-27 22:20:22.400,2017-05-27 22:20:22.400,2017-05-27 22:20:35.200,wear
2017-05-27 22:20:35.200,2017-05-27 22:20:35.200,2017-05-27 22:20:48.000,wear
2017-05-27 22:20:48.000,2017-05-27 22:20:48.000,2017-05-27 22:21:00.800,wear
2017-05-27 22:21:00.800,2017-05-27 22:21:00.800,2017-05-27 22:21:13.600,wear
2017-05-27 22:21:13.600,2017-05-27 22:21:13.600,2017-05-27 22:21:26.400,wear
2017-05-27 22:21:26.400,2017-05-27 22:21:26.400,2017-05-27 22:21:39.200,wear
2017-05-27 22:21:39.200,2017-05-27 22:21:39.200,2017-05-27 22:21:52.000,wear
2017-05-27 22:21:52.000,2017-05-27 22:21:52.000,2017-05-27 22:22:04.800,wear
2017-05-27 22:22:04.800,2017-05-27 22:22:04.800,2017-05-27 22:22:17.600,wear
2017-05-27 22:22:17.600,2017-05-27 22:22:17.600,2017-05-27 22:22:30.400,wear
2017-05-27 22:22:30.400,2017-05-27 22:22:30.400,2017-05-27 22:22:43.200,wear
2017-05-27 22:22:43.200,2017-05-27 22:22:43.200,2017-05-27 22:22:56.000,wear
2017-05-27 22:22:56.000,2017-05-27 22:22:56.000,2017-05-27 22:23:08.800,wear
2017-05-27 22:23:08.800,2017-05-27 22:23:08.800,2017-05-27 22:23:21.600,wear
2017-05-27 22:23:21.600,2017-05-27 22:23:21.600,2017-05-27 22:23:34.400,wear
2017-05-27 22:23:34.400,2017-05-27 22:23:34.400,2017-05-27 22:23:47.200,wear
2017-05-27 22:23:47.200,2017-05-27 22:23:47.200,2017-05-27 22:24:00.000,wear
2017-05-27 22:24:00.000,2017-05-27 22:24:00.000,2017-05-27 22:24:12.800,wear
2017-05-27 22:24:12.800,2017-05-27 22:24:12.800,2017-05-27 22:24:25.600,wear
2017-05-27 22:24:25.600,2017-05-27 22:24:25.600,2017-05-27 22:24:38.400,wear
2017-05-27 22:24:38.400,2017-05-27 22:24:38.400,2017-05-27 22:24:51.200,wear
2017-05-27 22:24:51.200,2017-05-27 22:24:51.200,2017-05-27 22:25:04.000,wear
2017-05-27 22:25:04.000,2017-05-27 22:25:04.000,2017-05-27 22:25:16.800,wear
2017-05-27 22:25:16.800,2017-05-27 22:25:16.800,2017-05-27 22:25:29.600,wear
2017-05-27 22:25:29.600,2017-05-27 22:25:29.600,2017-05-27 22:25:42.400,wear
2017-05-27 22:25:42.400,2017-05-27 22:25:42.400,2017-05-27 22:25:55.200,wear
2017-05-27 22:25:55.200,2017-05-27 22:25:55.200,2017-05-27 22:26:08.000,wear
2017-05-27 22:26:08.000,2017-05-27 22:26:08.000,2017-05-27 22:26:20.800,wear
2017-05-27 22:26:20.800,2017-05-27 22:26:20.800,2017-05-27 22:26:33.600,wear
2017-05-27 22:26:33.600,2017-05-27 22:26:33.600,2017-05-27 22:26:46.400,wear
2017-05-27 22:26:46.400,2017-05-27 22:26:46.400,2017-05-27 22:26:59.200,wear
2017-05-27 22:26:59.200,2017-05-27 22:26:59.200,2017-05-27 22:27:12.000,wear
2017-05-27 22:27:12.000,2017-05-27 22:27:12.000,2017-05-27 22:27:24.800,wear
2017-05-27 22:27:24.800,2017-05-27 22:27:24.800,2017-05-27 22:27:37.600,wear
2017-05-27 22:27:37.600,2017-05-27 22:27:37.600,2017-05-27 22:27:50.400,wear
2017-05-27 22:27:50.400,2017-05-27 22:27:50.400,2017-05-27 22:28:03.200,wear
2017-05-27 22:28:03.200,2017-05-27 22:28:03.200,2017-05-27 22:28:16.000,wear
2017-05-27 22:28:16.000,2017-05-27 22:28:16.000,2017-05-27 22:28:28.800,wear
2017-05-27 22:28:28.800,2017-05-27 22:28:28.800,2017-05-27 22:28:41.600,wear
2017-05-27 22:28:41.600,2017-05-27 22:28:41.600,2017-05-27 22:28:54.400,wear
2017-05-27 22:28:54.400,2017-05-27 22:28:54.400,2017-05-27 22:29:07.200,wear
2017-05-27 22:29:07.200,2017-05-27 22:29:07.200,2017-05-27 22:29:20.000,wear
2017-05-27 22:29:20.000,2017-05-27 22:29:20.000,2017-05-27 22:29:32.800,wear
2017-05-27 22:29:32.800,2017-05-27 22:29:32.800,2017-05-27 22:29:45.600,wear
2017-05-27 22:29:45.600,2017-05-27 22:29:45.600,2017-05-27 22:29:58.400,wear
2017-05-27 22:29:58.400,2017-05-27 22:29:58.400,2017-05-27 22:30:11.200,wear
2017-05-27 22:30:11.200,2017-05-27 22:30:11.200,2017-05-27 22:30:24.000,wear
2017-05-27 22:30:24.000,2017-05-27 22:30:24.000,2017-05-27 22:30:36.800,wear
2017-05-27 22:30:36.800,2017-05-27 22:30:36.800,2017-05-27 22:30:49.600,wear
2017-05-27 22:30:49.600,2017-05-27 22:30:49.600,2017-05-27 22:31:02.400,wear
2017-05-27 22:31:02.400,2017-05-27 22:31:02.400,2017-05-27 22:31:15.200,wear
2017-05-27 22:31:15.200,2017-05-27 22:31:15.200,2017-05-27 22:31:28.000,wear
2017-05-27 22:31:28.000,2017-05-27 22:31:28.000,2017-05-27 22:31:40.800,wear
2017-05-27 22:31:40.800,2017-05-27 22:31:40.800,2017-05-27 22:31:53.600,wear
2017-05-27 22:31:53.600,2017-05-27 22:31:53.600,2017-05-27 22:32:06.400,wear
2017-05-27 22:32:06.400,2017-05-27 22:32:06.400,2017-05-27 22:32:19.200,wear
2017-05-27 22:32:19.200,2017-05-27 22:32:19.200,2017-05-27 22:32:32.000,wear
2017-05-27 22:32:32.000,2017-05-27 22:32:32.000,2017-05-27 22:32:44.800,wear
2017-05-27 22:32:44.800,2017-05-27 22:32:44.800,2017-05-27 22:32:57.600,wear
2017-05-27 22:32:57.600,2017-05-27 22:32:57.600,2017-05-27 22:33:10.400,wear
2017-05-27 22:33:10.400,2017-05-27 22:33:10.400,2017-05-27 22:33:23.200,wear
2017-05-27 22:33:23.200,2017-05-27 22:33:23.200,2017-05-27 22:33:36.000,wear
2017-05-27 22:33:36.000,2017-05-27 22:33:36.000,2017-05-27 22:33:48.800,wear
2017-05-27 22:33:48.800,2017-05-27 22:33:48.800,2017-05-27 22:34:01.600,wear
2017-05-27 22:34:01.600,2017-05-27 22:34:01.600,2017-05-27 22:34:14.400,wear
2017-05-27 22:34:14.400,2017-05-27 22:34:14.400,2017-05-27 22:34:27.200,wear
2017-05-27 22:34:27.200,2017-05-27 22:34:27.200,2017-05-27 22:34:40.000,wear
2017-05-27 22:34:40.000,2017-05-27 22:34:40.000,2017-05-27 22:34:52.800,wear
2017-05-27 22:34:52.800,2017-05-27 22:34:52.800,2017-05-27 22:35:05.600,wear
2017-05-27 22:35:05.600,2017-05-27 22:35:05.600,2017-05-27 22:35:18.400,wear
2017-05-27 22:35:18.400,2017-05-27 22:35:18.400,2017-05-27 22:35:31.200,wear
2017-05-27 22:35:31.200,2017-05-27 22:35:31.200,2017-05-27 22:35:44.000,wear
2017-05-27 22:35:44.000,2017-05-27 22:35:44.000,2017-05-27 22:35:56.800,wear
2017-05-27 22:35:56.800,2017-05-27 22:35:56.800,2017-05-27 22:36:09.600,wear
2017-05-27 22:36:09.600,2017-05-27 22:36:09.600,2017-05-27 22:36:22.400,wear
2017-05-27 22:36:22.400,2017-05-27 22:36:22.400,2017-05-27 22:36:35.200,wear
2017-05-27 22:36:35.200,2017-05-27 22:36:35.200,2017-05-27 22:36:48.000,wear
2017-05-27 22:36:48.000,2017-05-27 22:36:48.000,2017-05-27 22:37:00.800,wear
2017-05-27 22:37:00.800,2017-05-27 22:37:00.800,2017-05-27 22:37:13.600,wear
2017-05-27 22:37:13.600,2017-05-27 22:37:13.600,2017-05-27 22:37:26.400,wear
2017-05-27 22:37:26.400,2017-05-27 22:37:26.400,2017-05-27 22:37:39.200,wear
2017-05-27 22:37:39.200,2017-05-27 22:37:39.200,2017-05-27 22:37:52.000,wear
2017-05-27 22:37:52.000,2017-05-27 22:37:52.000,2017-05-27 22:38:04.800,wear
2017-05-27 22:38:04.800,2017-05-27 22:38:04.800,2017-05-27 22:38:17.600,wear
2017-05-27 22:38:17.600,2017-05-27 22:38:17.600,2017-05-27 22:38:30.400,wear
2017-05-27 22:38:30.400,2017-05-27 22:38:30.400,2017-05-27 22:38:43.200,wear
2017-05-27 22:38:43.200,2017-05-27 22:38:43.200,2017-05-27 22:38:56.000,wear
2017-05-27 22:38:56.000,2017-05-27 22:38:56.000,2017-05-27 22:39:08.800,wear
2017-05-27 22:39:08.800,2017-05-27 22:39:08.800,2017-05-27 22:39:21.600,wear
2017-05-27 22:39:21.600,2017-05-27 22:39:21.600,2017-05-27 22:39:34.400,wear
2017-05-27 22:39:34.400,2017-05-27 22:39:34.400,2017-05-27 22:39:47.200,wear
2017-05-27 22:39:47.200,2017-05-27 22:39:47.200,2017-05-27 22:40:00.000,wear
2017-05-27 22:40:00.000,2017-05-27 22:40:00.000,2017-05-27 22:40:12.800,wear
2017-05-27 22:40:12.800,2017-05-27 22:40:12.800,2017-05-27 22:40:25.600,wear
2017-05-27 22:40:25.600,2017-05-27 22:40:25.600,2017-05-27 22:40:38.400,wear
2017-05-27 22:40:38.400,2017-05-27 22:40:38.400,2017-05-27 22:40:51.200,wear
2017-05-27 22:40:51.200,2017-05-27 22:40:51.200,2017-05-27 22:41:04.000,wear
2017-05-27 22:41:04.000,2017-05-27 22:41:04.000,2017-05-27 22:41:16.800,wear
2017-05-27 22:41:16.800,2017-05-27 22:41:16.800,2017-05-27 22:41:29.600,wear
2017-05-27 22:41:29.600,2017-05-27 22:41:29.600,2017-05-27 22:41:42.400,wear
2017-05-27 22:41:42.400,2017-05-27 22:41:42.400,2017-05-27 22:41:55.200,wear
2017-05-27 22:41:55.200,2017-05-27 22:41:55.200,2017-05-27 22:42:08.000,wear
2017-05-27 22:42:08.000,2017-05-27 22:42:08.000,2017-05-27 22:42:20.800,wear
2017-05-27 22:42:20.800,2017-05-27 22:42:20.800,2017-05-27 22:42:33.600,wear
2017-05-27 22:42:33.600,2017-05-27 22:42:33.600,2017-05-27 22:42:46.400,wear
2017-05-27 22:42:46.400,2017-05-27 22:42:46.400,2017-05-27 22:42:59.200,wear
2017-05-27 22:42:59.200,2017-05-27 22:42:59.200,2017-05-27 22:43:12.000,wear
2017-05-27 22:43:12.000,2017-05-27 22:43:12.000,2017-05-27 22:43:24.800,wear
2017-05-27 22:43:24.800,2017-05-27 22:43:24.800,2017-05-27 22:43:37.600,wear
2017-05-27 22:43:37.600,2017-05-27 22:43:37.600,2017-05-27 22:43:50.400,wear
2017-05-27 22:43:50.400,2017-05-27 22:43:50.400,2017-05-27 22:44:03.200,wear
2017-05-27 22:44:03.200,2017-05-27 22:44:03.200,2017-05-27 22:44:16.000,wear
2017-05-27 22:44:16.000,2017-05-27 22:44:16.000,2017-05-27 22:44:28.800,wear
2017-05-27 22:44:28.800,2017-05-27 22:44:28.800,2017-05-27 22:44:41.600,wear
2017-05-27 22:44:41.600,2017-05-27 22:44:41.600,2017-05-27 22:44:54.400,wear
2017-05-27 22:44:54.400,2017-05-27 22:44:54.400,2017-05-27 22:45:07.200,wear
2017-05-27 22:45:07.200,2017-05-27 22:45:07.200,2017-05-27 22:45:20.000,wear
2017-05-27 22:45:20.000,2017-05-27 22:45:20.000,2017-05-27 22:45:32.800,wear
2017-05-27 22:45:32.800,2017-05-27 22:45:32.800,2017-05-27 22:45:45.600,wear
2017-05-27 22:45:45.600,2017-05-27 22:45:45.600,2017-05-27 22:45:58.400,wear
2017-05-27 22:45:58.400,2017-05-27 22:45:58.400,2017-05-27 22:46:11.200,wear
2017-05-27 22:46:11.200,2017-05-27 22:46:11.200,2017-05-27 22:46:24.000,wear
2017-05-27 22:46:24.000,2017-05-27 22:46:24.000,2017-05-27 22:46:36.800,wear
2017-05-27 22:46:36.800,2017-05-27 22:46:36.800,2017-05-27 22:46:49.600,wear
2017-05-27 22:46:49.600,2017-05-27 22:46:49.600,2017-05-27 22:47:02.400,wear
2017-05-27 22:47:02.400,2017-05-27 22:47:02.400,2017-05-27 22:47:15.200,wear
2017-05-27 22:47:15.200,2017-05-27 22:47:15.200,2017-05-27 22:47:28.000,wear
2017-05-27 22:47:28.000,2017-05-27 22:47:28.000,2017-05-27 22:47:40.800,wear
2017-05-27 22:47:40.800,2017-05-27 22:47:40.800,2017-05-27 22:47:53.600,wear
2017-05-27 22:47:53.600,2017-05-27 22:47:53.600,2017-05-27 22:48:06.400,wear
2017-05-27 22:48:06.400,2017-05-27 22:48:06.400,2017-05-27 22:48:19.200,wear
2017-05-27 22:48:19.200,2017-05-27 22:48:19.200,2017-05-27 22:48:32.000,wear
2017-05-27 22:48:32.000,2017-05-27 22:48:32.000,2017-05-27 22:48:44.800,wear
2017-05-27 22:48:44.800,2017-05-27 22:48:44.800,2017-05-27 22:48:57.600,wear
2017-05-27 22:48:57.600,2017-05-27 22:48:57.600,2017-05-27 22:49:10.400,wear
2017-05-27 22:49:10.400,2017-05-27 22:49:10.400,2017-05-27 22:49:23.200,wear
2017-05-27 22:49:23.200,2017-05-27 22:49:23.200,2017-05-27 22:49:36.000,wear
2017-05-27 22:49:36.000,2017-05-27 22:49:36.000,2017-05-27 22:49:48.800,wear
2017-05-27 22:49:48.800,2017-05-27 22:49:48.800,2017-05-27 22:50:01.600,wear
2017-05-27 22:50:01.600,2017-05-27 22:50:01.600,2017-05-27 22:50:14.400,wear
2017-05-27 22:50:14.400,2017-05-27 22:50:14.400,2017-05-27 22:50:27.200,wear
2017-05-27 22:50:27.200,2017-05-27 22:50:27.200,2017-05-27 22:50:40.000,wear
2017-05-27 22:50:40.000,2017-05-27 22:50:40.000,2017-05-27 22:50:52.800,wear
2017-05-27 22:50:52.800,2017-05-27 22:50:52.800,2017-05-27 22:51:05.600,wear
2017-05-27 22:51:05.600,2017-05-27 22:51:05.600,2017-05-27 22:51:18.400,wear
2017-05-27 22:51:18.400,2017-05-27 22:51:18.400,2017-05-27 22:51:31.200,wear
2017-05-27 22:51:31.200,2017-05-27 22:51:31.200,2017-05-27 22:51:44.000,wear
2017-05-27 22:51:44.000,2017-05-27 22:51:44.000,2017-05-27 22:51:56.800,wear
2017-05-27 22:51:56.800,2017-05-27 22:51:56.800,2017-05-27 22:52:09.600,wear
2017-05-27 22:52:09.600,2017-05-27 22:52:09.600,2017-05-27 22:52:22.400,wear
2017-05-27 22:52:22.400,2017-05-27 22:52:22.400,2017-05-27 22:52:35.200,wear
2017-05-27 22:52:35.200,2017-05-27 22:52:35.200,2017-05-27 22:52:48.000,wear
2017-05-27 22:52:48.000,2017-05-27 22:52:48.000,2017-05-27 22:53:00.800,wear
2017-05-27 22:53:00.800,2017-05-27 22:53:00.800,2017-05-27 22:53:13.600,wear
2017-05-27 22:53:13.600,2017-05-27 22:53:13.600,2017-05-27 22:53:26.400,wear
2017-05-27 22:53:26.400,2017-05-27 22:53:26.400,2017-05-27 22:53:39.200,wear
2017-05-27 22:53:39.200,2017-05-27 22:53:39.200,2017-05-27 22:53:52.000,wear
2017-05-27 22:53:52.000,2017-05-27 22:53:52.000,2017-05-27 22:54:04.800,wear
2017-05-27 22:54:04.800,2017-05-27 22:54:04.800,2017-05-27 22:54:17.600,wear
2017-05-27 22:54:17.600,2017-05-27 22:54:17.600,2017-05-27 22:54:30.400,wear
2017-05-27 22:54:30.400,2017-05-27 22:54:30.400,2017-05-27 22:54:43.200,wear
2017-05-27 22:54:43.200,2017-05-27 22:54:43.200,2017-05-27 22:54:56.000,wear
2017-05-27 22:54:56.000,2017-05-27 22:54:56.000,2017-05-27 22:55:08.800,wear
2017-05-27 22:55:08.800,2017-05-27 22:55:08.800,2017-05-27 22:55:21.600,wear
2017-05-27 22:55:21.600,2017-05-27 22:55:21.600,2017-05-27 22:55:34.400,wear
2017-05-27 22:55:34.400,2017-05-27 22:55:34.400,2017-05-27 22:55:47.200,wear
2017-05-27 22:55:47.200,2017-05-27 22:55:47.200,2017-05-27 22:56:00.000,wear
2017-05-27 22:56:00.000,2017-05-27 22:56:00.000,2017-05-27 22:56:12.800,wear
2017-05-27 22:56:12.800,2017-05-27 22:56:12.800,2017-05-27 22:56:25.600,wear
2017-05-27 22:56:25.600,2017-05-27 22:56:25.600,2017-05-27 22:56:38.400,wear
2017-05-27 22:56:38.400,2017-05-27 22:56:38.400,2017-05-27 22:56:51.200,wear
2017-05-27 22:56:51.200,2017-05-27 22:56:51.200,2017-05-27 22:57:04.000,wear
2017-05-27 22:57:04.000,2017-05-27 22:57:04.000,2017-05-27 22:57:16.800,wear
2017-05-27 22:57:16.800,2017-05-27 22:57:16.800,2017-05-27 22:57:29.600,wear
2017-05-27 22:57:29.600,2017-05-27 22:57:29.600,2017-05-27 22:57:42.400,wear
2017-05-27 22:57:42.400,2017-05-27 22:57:42.400,2017-05-27 22:57:55.200,wear
2017-05-27 22:57:55.200,2017-05-27 22:57:55.200,2017-05-27 22:58:08.000,wear
2017-05-27 22:58:08.000,2017-05-27 22:58:08.000,2017-05-27 22:58:20.800,wear
2017-05-27 22:58:20.800,2017-05-27 22:58:20.800,2017-05-27 22:58:33.600,wear
2017-05-27 22:58:33.600,2017-05-27 22:58:33.600,2017-05-27 22:58:46.400,wear
2017-05-27 22:58:46.400,2017-05-27 22:58:46.400,2017-05-27 22:58:59.200,wear
2017-05-27 22:58:59.200,2017-05-27 22:58:59.200,2017-05-27 22:59:12.000,wear
2017-05-27 22:59:12.000,2017-05-27 22:59:12.000,2017-05-27 22:59:24.800,wear
2017-05-27 22:59:24.800,2017-05-27 22:59:24.800,2017-05-27 22:59:37.600,wear
2017-05-27 22:59:37.600,2017-05-27 22:59:37.600,2017-05-27 22:59:50.400,wear
2017-05-27 22:59:50.400,2017-05-27 22:59:50.400,2017-05-27 22:59:59.999,wear
2017-05-27 22:59:50.400,2017-05-27 22:59:50.400,2017-05-27 22:59:59.999,wear
