HEADER_TIME_STAMP,START_TIME,STOP_TIME,LABEL_NAME
2017-05-27 17:00:09.600,2017-05-27 17:00:09.600,2017-05-27 17:00:22.400,wear
2017-05-27 17:00:22.400,2017-05-27 17:00:22.400,2017-05-27 17:00:35.200,wear
2017-05-27 17:00:35.200,2017-05-27 17:00:35.200,2017-05-27 17:00:48.000,wear
2017-05-27 17:00:48.000,2017-05-27 17:00:48.000,2017-05-27 17:01:00.800,wear
2017-05-27 17:01:00.800,2017-05-27 17:01:00.800,2017-05-27 17:01:13.600,wear
2017-05-27 17:01:13.600,2017-05-27 17:01:13.600,2017-05-27 17:01:26.400,wear
2017-05-27 17:01:26.400,2017-05-27 17:01:26.400,2017-05-27 17:01:39.200,wear
2017-05-27 17:01:39.200,2017-05-27 17:01:39.200,2017-05-27 17:01:52.000,wear
2017-05-27 17:01:52.000,2017-05-27 17:01:52.000,2017-05-27 17:02:04.800,wear
2017-05-27 17:02:04.800,2017-05-27 17:02:04.800,2017-05-27 17:02:17.600,wear
2017-05-27 17:02:17.600,2017-05-27 17:02:17.600,2017-05-27 17:02:30.400,wear
2017-05-27 17:02:30.400,2017-05-27 17:02:30.400,2017-05-27 17:02:43.200,wear
2017-05-27 17:02:43.200,2017-05-27 17:02:43.200,2017-05-27 17:02:56.000,wear
2017-05-27 17:02:56.000,2017-05-27 17:02:56.000,2017-05-27 17:03:08.800,wear
2017-05-27 17:03:08.800,2017-05-27 17:03:08.800,2017-05-27 17:03:21.600,wear
2017-05-27 17:03:21.600,2017-05-27 17:03:21.600,2017-05-27 17:03:34.400,wear
2017-05-27 17:03:34.400,2017-05-27 17:03:34.400,2017-05-27 17:03:47.200,wear
2017-05-27 17:03:47.200,2017-05-27 17:03:47.200,2017-05-27 17:04:00.000,wear
2017-05-27 17:04:00.000,2017-05-27 17:04:00.000,2017-05-27 17:04:12.800,wear
2017-05-27 17:04:12.800,2017-05-27 17:04:12.800,2017-05-27 17:04:25.600,wear
2017-05-27 17:04:25.600,2017-05-27 17:04:25.600,2017-05-27 17:04:38.400,wear
2017-05-27 17:04:38.400,2017-05-27 17:04:38.400,2017-05-27 17:04:51.200,wear
2017-05-27 17:04:51.200,2017-05-27 17:04:51.200,2017-05-27 17:05:04.000,wear
2017-05-27 17:05:04.000,2017-05-27 17:05:04.000,2017-05-27 17:05:16.800,wear
2017-05-27 17:05:16.800,2017-05-27 17:05:16.800,2017-05-27 17:05:29.600,wear
2017-05-27 17:05:29.600,2017-05-27 17:05:29.600,2017-05-27 17:05:42.400,wear
2017-05-27 17:05:42.400,2017-05-27 17:05:42.400,2017-05-27 17:05:55.200,wear
2017-05-27 17:05:55.200,2017-05-27 17:05:55.200,2017-05-27 17:06:08.000,wear
2017-05-27 17:06:08.000,2017-05-27 17:06:08.000,2017-05-27 17:06:20.800,wear
2017-05-27 17:06:20.800,2017-05-27 17:06:20.800,2017-05-27 17:06:33.600,wear
2017-05-27 17:06:33.600,2017-05-27 17:06:33.600,2017-05-27 17:06:46.400,wear
2017-05-27 17:06:46.400,2017-05-27 17:06:46.400,2017-05-27 17:06:59.200,wear
2017-05-27 17:06:59.200,2017-05-27 17:06:59.200,2017-05-27 17:07:12.000,wear
2017-05-27 17:07:12.000,2017-05-27 17:07:12.000,2017-05-27 17:07:24.800,wear
2017-05-27 17:07:24.800,2017-05-27 17:07:24.800,2017-05-27 17:07:37.600,wear
2017-05-27 17:07:37.600,2017-05-27 17:07:37.600,2017-05-27 17:07:50.400,wear
2017-05-27 17:07:50.400,2017-05-27 17:07:50.400,2017-05-27 17:08:03.200,wear
2017-05-27 17:08:03.200,2017-05-27 17:08:03.200,2017-05-27 17:08:16.000,wear
2017-05-27 17:08:16.000,2017-05-27 17:08:16.000,2017-05-27 17:08:28.800,wear
2017-05-27 17:08:28.800,2017-05-27 17:08:28.800,2017-05-27 17:08:41.600,wear
2017-05-27 17:08:41.600,2017-05-27 17:08:41.600,2017-05-27 17:08:54.400,wear
2017-05-27 17:08:54.400,2017-05-27 17:08:54.400,2017-05-27 17:09:07.200,wear
2017-05-27 17:09:07.200,2017-05-27 17:09:07.200,2017-05-27 17:09:20.000,wear
2017-05-27 17:09:20.000,2017-05-27 17:09:20.000,2017-05-27 17:09:32.800,wear
2017-05-27 17:09:32.800,2017-05-27 17:09:32.800,2017-05-27 17:09:45.600,wear
2017-05-27 17:09:45.600,2017-05-27 17:09:45.600,2017-05-27 17:09:58.400,wear
2017-05-27 17:09:58.400,2017-05-27 17:09:58.400,2017-05-27 17:10:11.200,wear
2017-05-27 17:10:11.200,2017-05-27 17:10:11.200,2017-05-27 17:10:24.000,wear
2017-05-27 17:10:24.000,2017-05-27 17:10:24.000,2017-05-27 17:10:36.800,wear
2017-05-27 17:10:36.800,2017-05-27 17:10:36.800,2017-05-27 17:10:49.600,wear
2017-05-27 17:10:49.600,2017-05-27 17:10:49.600,2017-05-27 17:11:02.400,wear
2017-05-27 17:11:02.400,2017-05-27 17:11:02.400,2017-05-27 17:11:15.200,wear
2017-05-27 17:11:15.200,2017-05-27 17:11:15.200,2017-05-27 17:11:28.000,wear
2017-05-27 17:11:28.000,2017-05-27 17:11:28.000,2017-05-27 17:11:40.800,wear
2017-05-27 17:11:40.800,2017-05-27 17:11:40.800,2017-05-27 17:11:53.600,wear
2017-05-27 17:11:53.600,2017-05-27 17:11:53.600,2017-05-27 17:12:06.400,wear
2017-05-27 17:12:06.400,2017-05-27 17:12:06.400,2017-05-27 17:12:19.200,wear
2017-05-27 17:12:19.200,2017-05-27 17:12:19.200,2017-05-27 17:12:32.000,wear
2017-05-27 17:12:32.000,2017-05-27 17:12:32.000,2017-05-27 17:12:44.800,wear
2017-05-27 17:12:44.800,2017-05-27 17:12:44.800,2017-05-27 17:12:57.600,wear
2017-05-27 17:12:57.600,2017-05-27 17:12:57.600,2017-05-27 17:13:10.400,wear
2017-05-27 17:13:10.400,2017-05-27 17:13:10.400,2017-05-27 17:13:23.200,wear
2017-05-27 17:13:23.200,2017-05-27 17:13:23.200,2017-05-27 17:13:36.000,wear
2017-05-27 17:13:36.000,2017-05-27 17:13:36.000,2017-05-27 17:13:48.800,wear
2017-05-27 17:13:48.800,2017-05-27 17:13:48.800,2017-05-27 17:14:01.600,wear
2017-05-27 17:14:01.600,2017-05-27 17:14:01.600,2017-05-27 17:14:14.400,wear
2017-05-27 17:14:14.400,2017-05-27 17:14:14.400,2017-05-27 17:14:27.200,wear
2017-05-27 17:14:27.200,2017-05-27 17:14:27.200,2017-05-27 17:14:40.000,wear
2017-05-27 17:14:40.000,2017-05-27 17:14:40.000,2017-05-27 17:14:52.800,wear
2017-05-27 17:14:52.800,2017-05-27 17:14:52.800,2017-05-27 17:15:05.600,wear
2017-05-27 17:15:05.600,2017-05-27 17:15:05.600,2017-05-27 17:15:18.400,wear
2017-05-27 17:15:18.400,2017-05-27 17:15:18.400,2017-05-27 17:15:31.200,wear
2017-05-27 17:15:31.200,2017-05-27 17:15:31.200,2017-05-27 17:15:44.000,wear
2017-05-27 17:15:44.000,2017-05-27 17:15:44.000,2017-05-27 17:15:56.800,wear
2017-05-27 17:15:56.800,2017-05-27 17:15:56.800,2017-05-27 17:16:09.600,wear
2017-05-27 17:16:09.600,2017-05-27 17:16:09.600,2017-05-27 17:16:22.400,wear
2017-05-27 17:16:22.400,2017-05-27 17:16:22.400,2017-05-27 17:16:35.200,wear
2017-05-27 17:16:35.200,2017-05-27 17:16:35.200,2017-05-27 17:16:48.000,wear
2017-05-27 17:16:48.000,2017-05-27 17:16:48.000,2017-05-27 17:17:00.800,wear
2017-05-27 17:17:00.800,2017-05-27 17:17:00.800,2017-05-27 17:17:13.600,wear
2017-05-27 17:17:13.600,2017-05-27 17:17:13.600,2017-05-27 17:17:26.400,wear
2017-05-27 17:17:26.400,2017-05-27 17:17:26.400,2017-05-27 17:17:39.200,wear
2017-05-27 17:17:39.200,2017-05-27 17:17:39.200,2017-05-27 17:17:52.000,wear
2017-05-27 17:17:52.000,2017-05-27 17:17:52.000,2017-05-27 17:18:04.800,wear
2017-05-27 17:18:04.800,2017-05-27 17:18:04.800,2017-05-27 17:18:17.600,wear
2017-05-27 17:18:17.600,2017-05-27 17:18:17.600,2017-05-27 17:18:30.400,wear
2017-05-27 17:18:30.400,2017-05-27 17:18:30.400,2017-05-27 17:18:43.200,wear
2017-05-27 17:18:43.200,2017-05-27 17:18:43.200,2017-05-27 17:18:56.000,wear
2017-05-27 17:18:56.000,2017-05-27 17:18:56.000,2017-05-27 17:19:08.800,wear
2017-05-27 17:19:08.800,2017-05-27 17:19:08.800,2017-05-27 17:19:21.600,wear
2017-05-27 17:19:21.600,2017-05-27 17:19:21.600,2017-05-27 17:19:34.400,wear
2017-05-27 17:19:34.400,2017-05-27 17:19:34.400,2017-05-27 17:19:47.200,wear
2017-05-27 17:19:47.200,2017-05-27 17:19:47.200,2017-05-27 17:20:00.000,wear
2017-05-27 17:20:00.000,2017-05-27 17:20:00.000,2017-05-27 17:20:12.800,wear
2017-05-27 17:20:12.800,2017-05-27 17:20:12.800,2017-05-27 17:20:25.600,wear
2017-05-27 17:20:25.600,2017-05-27 17:20:25.600,2017-05-27 17:20:38.400,wear
2017-05-27 17:20:38.400,2017-05-27 17:20:38.400,2017-05-27 17:20:51.200,wear
2017-05-27 17:20:51.200,2017-05-27 17:20:51.200,2017-05-27 17:21:04.000,wear
2017-05-27 17:21:04.000,2017-05-27 17:21:04.000,2017-05-27 17:21:16.800,wear
2017-05-27 17:21:16.800,2017-05-27 17:21:16.800,2017-05-27 17:21:29.600,wear
2017-05-27 17:21:29.600,2017-05-27 17:21:29.600,2017-05-27 17:21:42.400,wear
2017-05-27 17:21:42.400,2017-05-27 17:21:42.400,2017-05-27 17:21:55.200,wear
2017-05-27 17:21:55.200,2017-05-27 17:21:55.200,2017-05-27 17:22:08.000,wear
2017-05-27 17:22:08.000,2017-05-27 17:22:08.000,2017-05-27 17:22:20.800,wear
2017-05-27 17:22:20.800,2017-05-27 17:22:20.800,2017-05-27 17:22:33.600,wear
2017-05-27 17:22:33.600,2017-05-27 17:22:33.600,2017-05-27 17:22:46.400,wear
2017-05-27 17:22:46.400,2017-05-27 17:22:46.400,2017-05-27 17:22:59.200,wear
2017-05-27 17:22:59.200,2017-05-27 17:22:59.200,2017-05-27 17:23:12.000,wear
2017-05-27 17:23:12.000,2017-05-27 17:23:12.000,2017-05-27 17:23:24.800,wear
2017-05-27 17:23:24.800,2017-05-27 17:23:24.800,2017-05-27 17:23:37.600,wear
2017-05-27 17:23:37.600,2017-05-27 17:23:37.600,2017-05-27 17:23:50.400,wear
2017-05-27 17:23:50.400,2017-05-27 17:23:50.400,2017-05-27 17:24:03.200,wear
2017-05-27 17:24:03.200,2017-05-27 17:24:03.200,2017-05-27 17:24:16.000,wear
2017-05-27 17:24:16.000,2017-05-27 17:24:16.000,2017-05-27 17:24:28.800,wear
2017-05-27 17:24:28.800,2017-05-27 17:24:28.800,2017-05-27 17:24:41.600,wear
2017-05-27 17:24:41.600,2017-05-27 17:24:41.600,2017-05-27 17:24:54.400,wear
2017-05-27 17:24:54.400,2017-05-27 17:24:54.400,2017-05-27 17:25:07.200,wear
2017-05-27 17:25:07.200,2017-05-27 17:25:07.200,2017-05-27 17:25:20.000,wear
2017-05-27 17:25:20.000,2017-05-27 17:25:20.000,2017-05-27 17:25:32.800,wear
2017-05-27 17:25:32.800,2017-05-27 17:25:32.800,2017-05-27 17:25:45.600,wear
2017-05-27 17:25:45.600,2017-05-27 17:25:45.600,2017-05-27 17:25:58.400,wear
2017-05-27 17:25:58.400,2017-05-27 17:25:58.400,2017-05-27 17:26:11.200,wear
2017-05-27 17:26:11.200,2017-05-27 17:26:11.200,2017-05-27 17:26:24.000,wear
2017-05-27 17:26:24.000,2017-05-27 17:26:24.000,2017-05-27 17:26:36.800,wear
2017-05-27 17:26:36.800,2017-05-27 17:26:36.800,2017-05-27 17:26:49.600,wear
2017-05-27 17:26:49.600,2017-05-27 17:26:49.600,2017-05-27 17:27:02.400,wear
2017-05-27 17:27:02.400,2017-05-27 17:27:02.400,2017-05-27 17:27:15.200,wear
2017-05-27 17:27:15.200,2017-05-27 17:27:15.200,2017-05-27 17:27:28.000,wear
2017-05-27 17:27:28.000,2017-05-27 17:27:28.000,2017-05-27 17:27:40.800,wear
2017-05-27 17:27:40.800,2017-05-27 17:27:40.800,2017-05-27 17:27:53.600,wear
2017-05-27 17:27:53.600,2017-05-27 17:27:53.600,2017-05-27 17:28:06.400,wear
2017-05-27 17:28:06.400,2017-05-27 17:28:06.400,2017-05-27 17:28:19.200,wear
2017-05-27 17:28:19.200,2017-05-27 17:28:19.200,2017-05-27 17:28:32.000,wear
2017-05-27 17:28:32.000,2017-05-27 17:28:32.000,2017-05-27 17:28:44.800,wear
2017-05-27 17:28:44.800,2017-05-27 17:28:44.800,2017-05-27 17:28:57.600,wear
2017-05-27 17:28:57.600,2017-05-27 17:28:57.600,2017-05-27 17:29:10.400,wear
2017-05-27 17:29:10.400,2017-05-27 17:29:10.400,2017-05-27 17:29:23.200,wear
2017-05-27 17:29:23.200,2017-05-27 17:29:23.200,2017-05-27 17:29:36.000,wear
2017-05-27 17:29:36.000,2017-05-27 17:29:36.000,2017-05-27 17:29:48.800,wear
2017-05-27 17:29:48.800,2017-05-27 17:29:48.800,2017-05-27 17:30:01.600,wear
2017-05-27 17:30:01.600,2017-05-27 17:30:01.600,2017-05-27 17:30:14.400,wear
2017-05-27 17:30:14.400,2017-05-27 17:30:14.400,2017-05-27 17:30:27.200,wear
2017-05-27 17:30:27.200,2017-05-27 17:30:27.200,2017-05-27 17:30:40.000,wear
2017-05-27 17:30:40.000,2017-05-27 17:30:40.000,2017-05-27 17:30:52.800,wear
2017-05-27 17:30:52.800,2017-05-27 17:30:52.800,2017-05-27 17:31:05.600,wear
2017-05-27 17:31:05.600,2017-05-27 17:31:05.600,2017-05-27 17:31:18.400,wear
2017-05-27 17:31:18.400,2017-05-27 17:31:18.400,2017-05-27 17:31:31.200,wear
2017-05-27 17:31:31.200,2017-05-27 17:31:31.200,2017-05-27 17:31:44.000,wear
2017-05-27 17:31:44.000,2017-05-27 17:31:44.000,2017-05-27 17:31:56.800,wear
2017-05-27 17:31:56.800,2017-05-27 17:31:56.800,2017-05-27 17:32:09.600,wear
2017-05-27 17:32:09.600,2017-05-27 17:32:09.600,2017-05-27 17:32:22.400,wear
2017-05-27 17:32:22.400,2017-05-27 17:32:22.400,2017-05-27 17:32:35.200,wear
2017-05-27 17:32:35.200,2017-05-27 17:32:35.200,2017-05-27 17:32:48.000,wear
2017-05-27 17:32:48.000,2017-05-27 17:32:48.000,2017-05-27 17:33:00.800,wear
2017-05-27 17:33:00.800,2017-05-27 17:33:00.800,2017-05-27 17:33:13.600,wear
2017-05-27 17:33:13.600,2017-05-27 17:33:13.600,2017-05-27 17:33:26.400,wear
2017-05-27 17:33:26.400,2017-05-27 17:33:26.400,2017-05-27 17:33:39.200,wear
2017-05-27 17:33:39.200,2017-05-27 17:33:39.200,2017-05-27 17:33:52.000,wear
2017-05-27 17:33:52.000,2017-05-27 17:33:52.000,2017-05-27 17:34:04.800,wear
2017-05-27 17:34:04.800,2017-05-27 17:34:04.800,2017-05-27 17:34:17.600,wear
2017-05-27 17:34:17.600,2017-05-27 17:34:17.600,2017-05-27 17:34:30.400,wear
2017-05-27 17:34:30.400,2017-05-27 17:34:30.400,2017-05-27 17:34:43.200,wear
2017-05-27 17:34:43.200,2017-05-27 17:34:43.200,2017-05-27 17:34:56.000,wear
2017-05-27 17:34:56.000,2017-05-27 17:34:56.000,2017-05-27 17:35:08.800,wear
2017-05-27 17:35:08.800,2017-05-27 17:35:08.800,2017-05-27 17:35:21.600,wear
2017-05-27 17:35:21.600,2017-05-27 17:35:21.600,2017-05-27 17:35:34.400,wear
2017-05-27 17:35:34.400,2017-05-27 17:35:34.400,2017-05-27 17:35:47.200,wear
2017-05-27 17:35:47.200,2017-05-27 17:35:47.200,2017-05-27 17:36:00.000,wear
2017-05-27 17:36:00.000,2017-05-27 17:36:00.000,2017-05-27 17:36:12.800,wear
2017-05-27 17:36:12.800,2017-05-27 17:36:12.800,2017-05-27 17:36:25.600,wear
2017-05-27 17:36:25.600,2017-05-27 17:36:25.600,2017-05-27 17:36:38.400,wear
2017-05-27 17:36:38.400,2017-05-27 17:36:38.400,2017-05-27 17:36:51.200,wear
2017-05-27 17:36:51.200,2017-05-27 17:36:51.200,2017-05-27 17:37:04.000,wear
2017-05-27 17:37:04.000,2017-05-27 17:37:04.000,2017-05-27 17:37:16.800,wear
2017-05-27 17:37:16.800,2017-05-27 17:37:16.800,2017-05-27 17:37:29.600,wear
2017-05-27 17:37:29.600,2017-05-27 17:37:29.600,2017-05-27 17:37:42.400,wear
2017-05-27 17:37:42.400,2017-05-27 17:37:42.400,2017-05-27 17:37:55.200,wear
2017-05-27 17:37:55.200,2017-05-27 17:37:55.200,2017-05-27 17:38:08.000,wear
2017-05-27 17:38:08.000,2017-05-27 17:38:08.000,2017-05-27 17:38:20.800,wear
2017-05-27 17:38:20.800,2017-05-27 17:38:20.800,2017-05-27 17:38:33.600,wear
2017-05-27 17:38:33.600,2017-05-27 17:38:33.600,2017-05-27 17:38:46.400,wear
2017-05-27 17:38:46.400,2017-05-27 17:38:46.400,2017-05-27 17:38:59.200,wear
2017-05-27 17:38:59.200,2017-05-27 17:38:59.200,2017-05-27 17:39:12.000,wear
2017-05-27 17:39:12.000,2017-05-27 17:39:12.000,2017-05-27 17:39:24.800,wear
2017-05-27 17:39:24.800,2017-05-27 17:39:24.800,2017-05-27 17:39:37.600,wear
2017-05-27 17:39:37.600,2017-05-27 17:39:37.600,2017-05-27 17:39:50.400,wear
2017-05-27 17:39:50.400,2017-05-27 17:39:50.400,2017-05-27 17:40:03.200,wear
2017-05-27 17:40:03.200,2017-05-27 17:40:03.200,2017-05-27 17:40:16.000,wear
2017-05-27 17:40:16.000,2017-05-27 17:40:16.000,2017-05-27 17:40:28.800,wear
2017-05-27 17:40:28.800,2017-05-27 17:40:28.800,2017-05-27 17:40:41.600,wear
2017-05-27 17:40:41.600,2017-05-27 17:40:41.600,2017-05-27 17:40:54.400,wear
2017-05-27 17:40:54.400,2017-05-27 17:40:54.400,2017-05-27 17:41:07.200,wear
2017-05-27 17:41:07.200,2017-05-27 17:41:07.200,2017-05-27 17:41:20.000,wear
2017-05-27 17:41:20.000,2017-05-27 17:41:20.000,2017-05-27 17:41:32.800,wear
2017-05-27 17:41:32.800,2017-05-27 17:41:32.800,2017-05-27 17:41:45.600,wear
2017-05-27 17:41:45.600,2017-05-27 17:41:45.600,2017-05-27 17:41:58.400,wear
2017-05-27 17:41:58.400,2017-05-27 17:41:58.400,2017-05-27 17:42:11.200,wear
2017-05-27 17:42:11.200,2017-05-27 17:42:11.200,2017-05-27 17:42:24.000,wear
2017-05-27 17:42:24.000,2017-05-27 17:42:24.000,2017-05-27 17:42:36.800,wear
2017-05-27 17:42:36.800,2017-05-27 17:42:36.800,2017-05-27 17:42:49.600,wear
2017-05-27 17:42:49.600,2017-05-27 17:42:49.600,2017-05-27 17:43:02.400,wear
2017-05-27 17:43:02.400,2017-05-27 17:43:02.400,2017-05-27 17:43:15.200,wear
2017-05-27 17:43:15.200,2017-05-27 17:43:15.200,2017-05-27 17:43:28.000,wear
2017-05-27 17:43:28.000,2017-05-27 17:43:28.000,2017-05-27 17:43:40.800,wear
2017-05-27 17:43:40.800,2017-05-27 17:43:40.800,2017-05-27 17:43:53.600,wear
2017-05-27 17:43:53.600,2017-05-27 17:43:53.600,2017-05-27 17:44:06.400,wear
2017-05-27 17:44:06.400,2017-05-27 17:44:06.400,2017-05-27 17:44:19.200,wear
2017-05-27 17:44:19.200,2017-05-27 17:44:19.200,2017-05-27 17:44:32.000,wear
2017-05-27 17:44:32.000,2017-05-27 17:44:32.000,2017-05-27 17:44:44.800,wear
2017-05-27 17:44:44.800,2017-05-27 17:44:44.800,2017-05-27 17:44:57.600,wear
2017-05-27 17:44:57.600,2017-05-27 17:44:57.600,2017-05-27 17:45:10.400,wear
2017-05-27 17:45:10.400,2017-05-27 17:45:10.400,2017-05-27 17:45:23.200,wear
2017-05-27 17:45:23.200,2017-05-27 17:45:23.200,2017-05-27 17:45:36.000,wear
2017-05-27 17:45:36.000,2017-05-27 17:45:36.000,2017-05-27 17:45:48.800,wear
2017-05-27 17:45:48.800,2017-05-27 17:45:48.800,2017-05-27 17:46:01.600,wear
2017-05-27 17:46:01.600,2017-05-27 17:46:01.600,2017-05-27 17:46:14.400,wear
2017-05-27 17:46:14.400,2017-05-27 17:46:14.400,2017-05-27 17:46:27.200,wear
2017-05-27 17:46:27.200,2017-05-27 17:46:27.200,2017-05-27 17:46:40.000,wear
2017-05-27 17:46:40.000,2017-05-27 17:46:40.000,2017-05-27 17:46:52.800,wear
2017-05-27 17:46:52.800,2017-05-27 17:46:52.800,2017-05-27 17:47:05.600,wear
2017-05-27 17:47:05.600,2017-05-27 17:47:05.600,2017-05-27 17:47:18.400,wear
2017-05-27 17:47:18.400,2017-05-27 17:47:18.400,2017-05-27 17:47:31.200,wear
2017-05-27 17:47:31.200,2017-05-27 17:47:31.200,2017-05-27 17:47:44.000,wear
2017-05-27 17:47:44.000,2017-05-27 17:47:44.000,2017-05-27 17:47:56.800,wear
2017-05-27 17:47:56.800,2017-05-27 17:47:56.800,2017-05-27 17:48:09.600,wear
2017-05-27 17:48:09.600,2017-05-27 17:48:09.600,2017-05-27 17:48:22.400,wear
2017-05-27 17:48:22.400,2017-05-27 17:48:22.400,2017-05-27 17:48:35.200,wear
2017-05-27 17:48:35.200,2017-05-27 17:48:35.200,2017-05-27 17:48:48.000,wear
2017-05-27 17:48:48.000,2017-05-27 17:48:48.000,2017-05-27 17:49:00.800,wear
2017-05-27 17:49:00.800,2017-05-27 17:49:00.800,2017-05-27 17:49:13.600,wear
2017-05-27 17:49:13.600,2017-05-27 17:49:13.600,2017-05-27 17:49:26.400,wear
2017-05-27 17:49:26.400,2017-05-27 17:49:26.400,2017-05-27 17:49:39.200,wear
2017-05-27 17:49:39.200,2017-05-27 17:49:39.200,2017-05-27 17:49:52.000,wear
2017-05-27 17:49:52.000,2017-05-27 17:49:52.000,2017-05-27 17:50:04.800,wear
2017-05-27 17:50:04.800,2017-05-27 17:50:04.800,2017-05-27 17:50:17.600,wear
2017-05-27 17:50:17.600,2017-05-27 17:50:17.600,2017-05-27 17:50:30.400,wear
2017-05-27 17:50:30.400,2017-05-27 17:50:30.400,2017-05-27 17:50:43.200,wear
2017-05-27 17:50:43.200,2017-05-27 17:50:43.200,2017-05-27 17:50:56.000,wear
2017-05-27 17:50:56.000,2017-05-27 17:50:56.000,2017-05-27 17:51:08.800,wear
2017-05-27 17:51:08.800,2017-05-27 17:51:08.800,2017-05-27 17:51:21.600,wear
2017-05-27 17:51:21.600,2017-05-27 17:51:21.600,2017-05-27 17:51:34.400,wear
2017-05-27 17:51:34.400,2017-05-27 17:51:34.400,2017-05-27 17:51:47.200,wear
2017-05-27 17:51:47.200,2017-05-27 17:51:47.200,2017-05-27 17:52:00.000,wear
2017-05-27 17:52:00.000,2017-05-27 17:52:00.000,2017-05-27 17:52:12.800,wear
2017-05-27 17:52:12.800,2017-05-27 17:52:12.800,2017-05-27 17:52:25.600,wear
2017-05-27 17:52:25.600,2017-05-27 17:52:25.600,2017-05-27 17:52:38.400,wear
2017-05-27 17:52:38.400,2017-05-27 17:52:38.400,2017-05-27 17:52:51.200,wear
2017-05-27 17:52:51.200,2017-05-27 17:52:51.200,2017-05-27 17:53:04.000,wear
2017-05-27 17:53:04.000,2017-05-27 17:53:04.000,2017-05-27 17:53:16.800,wear
2017-05-27 17:53:16.800,2017-05-27 17:53:16.800,2017-05-27 17:53:29.600,wear
2017-05-27 17:53:29.600,2017-05-27 17:53:29.600,2017-05-27 17:53:42.400,wear
2017-05-27 17:53:42.400,2017-05-27 17:53:42.400,2017-05-27 17:53:55.200,wear
2017-05-27 17:53:55.200,2017-05-27 17:53:55.200,2017-05-27 17:54:08.000,wear
2017-05-27 17:54:08.000,2017-05-27 17:54:08.000,2017-05-27 17:54:20.800,wear
2017-05-27 17:54:20.800,2017-05-27 17:54:20.800,2017-05-27 17:54:33.600,wear
2017-05-27 17:54:33.600,2017-05-27 17:54:33.600,2017-05-27 17:54:46.400,wear
2017-05-27 17:54:46.400,2017-05-27 17:54:46.400,2017-05-27 17:54:59.200,wear
2017-05-27 17:54:59.200,2017-05-27 17:54:59.200,2017-05-27 17:55:12.000,wear
2017-05-27 17:55:12.000,2017-05-27 17:55:12.000,2017-05-27 17:55:24.800,wear
2017-05-27 17:55:24.800,2017-05-27 17:55:24.800,2017-05-27 17:55:37.600,wear
2017-05-27 17:55:37.600,2017-05-27 17:55:37.600,2017-05-27 17:55:50.400,wear
2017-05-27 17:55:50.400,2017-05-27 17:55:50.400,2017-05-27 17:56:03.200,wear
2017-05-27 17:56:03.200,2017-05-27 17:56:03.200,2017-05-27 17:56:16.000,wear
2017-05-27 17:56:16.000,2017-05-27 17:56:16.000,2017-05-27 17:56:28.800,wear
2017-05-27 17:56:28.800,2017-05-27 17:56:28.800,2017-05-27 17:56:41.600,wear
2017-05-27 17:56:41.600,2017-05-27 17:56:41.600,2017-05-27 17:56:54.400,wear
2017-05-27 17:56:54.400,2017-05-27 17:56:54.400,2017-05-27 17:57:07.200,wear
2017-05-27 17:57:07.200,2017-05-27 17:57:07.200,2017-05-27 17:57:20.000,wear
2017-05-27 17:57:20.000,2017-05-27 17:57:20.000,2017-05-27 17:57:32.800,wear
2017-05-27 17:57:32.800,2017-05-27 17:57:32.800,2017-05-27 17:57:45.600,wear
2017-05-27 17:57:45.600,2017-05-27 17:57:45.600,2017-05-27 17:57:58.400,wear
2017-05-27 17:57:58.400,2017-05-27 17:57:58.400,2017-05-27 17:58:11.200,wear
2017-05-27 17:58:11.200,2017-05-27 17:58:11.200,2017-05-27 17:58:24.000,wear
2017-05-27 17:58:24.000,2017-05-27 17:58:24.000,2017-05-27 17:58:36.800,wear
2017-05-27 17:58:36.800,2017-05-27 17:58:36.800,2017-05-27 17:58:49.600,wear
2017-05-27 17:58:49.600,2017-05-27 17:58:49.600,2017-05-27 17:59:02.400,wear
2017-05-27 17:59:02.400,2017-05-27 17:59:02.400,2017-05-27 17:59:15.200,wear
2017-05-27 17:59:15.200,2017-05-27 17:59:15.200,2017-05-27 17:59:28.000,wear
2017-05-27 17:59:28.000,2017-05-27 17:59:28.000,2017-05-27 17:59:40.800,wear
2017-05-27 17:59:40.800,2017-05-27 17:59:40.800,2017-05-27 17:59:53.600,wear
2017-05-27 17:59:53.600,2017-05-27 17:59:53.600,2017-05-27 17:59:59.999,wear
2017-05-27 17:59:53.600,2017-05-27 17:59:53.600,2017-05-27 17:59:59.999,wear
