HEADER_TIME_STAMP,START_TIME,STOP_TIME,LABEL_PROBABILITY
2017-05-26 12:26:40.000,2017-05-26 12:26:40.000,2017-05-26 12:27:44.000,0.9955
2017-05-26 12:27:44.000,2017-05-26 12:27:44.000,2017-05-26 12:28:48.000,1.0
2017-05-26 12:28:48.000,2017-05-26 12:28:48.000,2017-05-26 12:29:52.000,0.999
2017-05-26 12:29:52.000,2017-05-26 12:29:52.000,2017-05-26 12:30:56.000,0.999
2017-05-26 12:30:56.000,2017-05-26 12:30:56.000,2017-05-26 12:32:00.000,0.997
2017-05-26 12:32:00.000,2017-05-26 12:32:00.000,2017-05-26 12:33:04.000,0.999
2017-05-26 12:33:04.000,2017-05-26 12:33:04.000,2017-05-26 12:34:08.000,0.856
2017-05-26 12:34:08.000,2017-05-26 12:34:08.000,2017-05-26 12:35:12.000,0.918
2017-05-26 12:35:12.000,2017-05-26 12:35:12.000,2017-05-26 12:36:16.000,0.875
2017-05-26 12:36:16.000,2017-05-26 12:36:16.000,2017-05-26 12:37:20.000,0.929
2017-05-26 12:37:20.000,2017-05-26 12:37:20.000,2017-05-26 12:38:24.000,0.981
2017-05-26 12:38:24.000,2017-05-26 12:38:24.000,2017-05-26 12:39:28.000,0.981
2017-05-26 12:39:28.000,2017-05-26 12:39:28.000,2017-05-26 12:40:32.000,0.98
2017-05-26 12:40:32.000,2017-05-26 12:40:32.000,2017-05-26 12:41:36.000,0.963
2017-05-26 12:41:36.000,2017-05-26 12:41:36.000,2017-05-26 12:42:40.000,0.784
2017-05-26 12:42:40.000,2017-05-26 12:42:40.000,2017-05-26 12:43:44.000,0.982
2017-05-26 12:43:44.000,2017-05-26 12:43:44.000,2017-05-26 12:44:48.000,0.914
2017-05-26 12:44:48.000,2017-05-26 12:44:48.000,2017-05-26 12:45:52.000,0.914
2017-05-26 12:45:52.000,2017-05-26 12:45:52.000,2017-05-26 12:46:56.000,0.917
2017-05-26 12:46:56.000,2017-05-26 12:46:56.000,2017-05-26 12:48:00.000,0.83
2017-05-26 12:48:00.000,2017-05-26 12:48:00.000,2017-05-26 12:49:04.000,0.982
2017-05-26 12:49:04.000,2017-05-26 12:49:04.000,2017-05-26 12:50:08.000,0.96
2017-05-26 12:50:08.000,2017-05-26 12:50:08.000,2017-05-26 12:51:12.000,0.996
2017-05-26 12:51:12.000,2017-05-26 12:51:12.000,2017-05-26 12:52:16.000,0.924
2017-05-26 12:52:16.000,2017-05-26 12:52:16.000,2017-05-26 12:53:20.000,0.765
2017-05-26 12:53:20.000,2017-05-26 12:53:20.000,2017-05-26 12:54:24.000,0.967
2017-05-26 12:54:24.000,2017-05-26 12:54:24.000,2017-05-26 12:55:28.000,0.722
2017-05-26 12:55:28.000,2017-05-26 12:55:28.000,2017-05-26 12:56:32.000,0.692
2017-05-26 12:56:32.000,2017-05-26 12:56:32.000,2017-05-26 12:57:36.000,0.992
2017-05-26 12:57:36.000,2017-05-26 12:57:36.000,2017-05-26 12:58:40.000,0.871
2017-05-26 12:58:40.000,2017-05-26 12:58:40.000,2017-05-26 12:59:44.000,0.806
2017-05-26 12:59:44.000,2017-05-26 12:59:44.000,2017-05-26 12:59:59.999,0.971
