HEADER_TIME_STAMP,START_TIME,STOP_TIME,LABEL_PREDICTED
2017-05-26 21:00:48.000,2017-05-26 21:00:48.000,2017-05-26 21:01:52.000,wear
2017-05-26 21:01:52.000,2017-05-26 21:01:52.000,2017-05-26 21:02:56.000,wear
2017-05-26 21:02:56.000,2017-05-26 21:02:56.000,2017-05-26 21:04:00.000,wear
2017-05-26 21:04:00.000,2017-05-26 21:04:00.000,2017-05-26 21:05:04.000,wear
2017-05-26 21:05:04.000,2017-05-26 21:05:04.000,2017-05-26 21:06:08.000,wear
2017-05-26 21:06:08.000,2017-05-26 21:06:08.000,2017-05-26 21:07:12.000,wear
2017-05-26 21:07:12.000,2017-05-26 21:07:12.000,2017-05-26 21:08:16.000,wear
2017-05-26 21:08:16.000,2017-05-26 21:08:16.000,2017-05-26 21:09:20.000,wear
2017-05-26 21:09:20.000,2017-05-26 21:09:20.000,2017-05-26 21:10:24.000,wear
2017-05-26 21:10:24.000,2017-05-26 21:10:24.000,2017-05-26 21:11:28.000,wear
2017-05-26 21:11:28.000,2017-05-26 21:11:28.000,2017-05-26 21:12:32.000,wear
2017-05-26 21:12:32.000,2017-05-26 21:12:32.000,2017-05-26 21:13:36.000,wear
2017-05-26 21:13:36.000,2017-05-26 21:13:36.000,2017-05-26 21:14:40.000,wear
2017-05-26 21:14:40.000,2017-05-26 21:14:40.000,2017-05-26 21:15:44.000,wear
2017-05-26 21:15:44.000,2017-05-26 21:15:44.000,2017-05-26 21:16:48.000,wear
2017-05-26 21:16:48.000,2017-05-26 21:16:48.000,2017-05-26 21:17:52.000,wear
2017-05-26 21:17:52.000,2017-05-26 21:17:52.000,2017-05-26 21:18:56.000,wear
2017-05-26 21:18:56.000,2017-05-26 21:18:56.000,2017-05-26 21:20:00.000,wear
2017-05-26 21:20:00.000,2017-05-26 21:20:00.000,2017-05-26 21:21:04.000,wear
2017-05-26 21:21:04.000,2017-05-26 21:21:04.000,2017-05-26 21:22:08.000,nonwear
2017-05-26 21:22:08.000,2017-05-26 21:22:08.000,2017-05-26 21:23:12.000,nonwear
2017-05-26 21:23:12.000,2017-05-26 21:23:12.000,2017-05-26 21:24:16.000,wear
2017-05-26 21:24:16.000,2017-05-26 21:24:16.000,2017-05-26 21:25:20.000,wear
2017-05-26 21:25:20.000,2017-05-26 21:25:20.000,2017-05-26 21:26:24.000,wear
2017-05-26 21:26:24.000,2017-05-26 21:26:24.000,2017-05-26 21:27:28.000,wear
2017-05-26 21:27:28.000,2017-05-26 21:27:28.000,2017-05-26 21:28:32.000,wear
2017-05-26 21:28:32.000,2017-05-26 21:28:32.000,2017-05-26 21:29:36.000,wear
2017-05-26 21:29:36.000,2017-05-26 21:29:36.000,2017-05-26 21:30:40.000,wear
2017-05-26 21:30:40.000,2017-05-26 21:30:40.000,2017-05-26 21:31:44.000,wear
2017-05-26 21:31:44.000,2017-05-26 21:31:44.000,2017-05-26 21:32:48.000,wear
2017-05-26 21:32:48.000,2017-05-26 21:32:48.000,2017-05-26 21:33:52.000,wear
2017-05-26 21:33:52.000,2017-05-26 21:33:52.000,2017-05-26 21:34:56.000,wear
2017-05-26 21:34:56.000,2017-05-26 21:34:56.000,2017-05-26 21:36:00.000,wear
2017-05-26 21:36:00.000,2017-05-26 21:36:00.000,2017-05-26 21:37:04.000,wear
2017-05-26 21:37:04.000,2017-05-26 21:37:04.000,2017-05-26 21:38:08.000,wear
2017-05-26 21:38:08.000,2017-05-26 21:38:08.000,2017-05-26 21:39:12.000,wear
2017-05-26 21:39:12.000,2017-05-26 21:39:12.000,2017-05-26 21:40:16.000,wear
2017-05-26 21:40:16.000,2017-05-26 21:40:16.000,2017-05-26 21:41:20.000,wear
2017-05-26 21:41:20.000,2017-05-26 21:41:20.000,2017-05-26 21:42:24.000,wear
2017-05-26 21:42:24.000,2017-05-26 21:42:24.000,2017-05-26 21:43:28.000,wear
2017-05-26 21:43:28.000,2017-05-26 21:43:28.000,2017-05-26 21:44:32.000,wear
2017-05-26 21:44:32.000,2017-05-26 21:44:32.000,2017-05-26 21:45:36.000,wear
2017-05-26 21:45:36.000,2017-05-26 21:45:36.000,2017-05-26 21:46:40.000,wear
2017-05-26 21:46:40.000,2017-05-26 21:46:40.000,2017-05-26 21:47:44.000,wear
2017-05-26 21:47:44.000,2017-05-26 21:47:44.000,2017-05-26 21:48:48.000,wear
2017-05-26 21:48:48.000,2017-05-26 21:48:48.000,2017-05-26 21:49:52.000,wear
2017-05-26 21:49:52.000,2017-05-26 21:49:52.000,2017-05-26 21:50:56.000,wear
2017-05-26 21:50:56.000,2017-05-26 21:50:56.000,2017-05-26 21:52:00.000,wear
2017-05-26 21:52:00.000,2017-05-26 21:52:00.000,2017-05-26 21:53:04.000,wear
2017-05-26 21:53:04.000,2017-05-26 21:53:04.000,2017-05-26 21:54:08.000,wear
2017-05-26 21:54:08.000,2017-05-26 21:54:08.000,2017-05-26 21:55:12.000,wear
2017-05-26 21:55:12.000,2017-05-26 21:55:12.000,2017-05-26 21:56:16.000,wear
2017-05-26 21:56:16.000,2017-05-26 21:56:16.000,2017-05-26 21:57:20.000,wear
2017-05-26 21:57:20.000,2017-05-26 21:57:20.000,2017-05-26 21:58:24.000,wear
2017-05-26 21:58:24.000,2017-05-26 21:58:24.000,2017-05-26 21:59:28.000,wear
2017-05-26 21:59:28.000,2017-05-26 21:59:28.000,2017-05-26 21:59:59.999,wear
