HEADER_TIME_STAMP,START_TIME,STOP_TIME,LABEL_NAME
2017-05-28 13:00:09.600,2017-05-28 13:00:09.600,2017-05-28 13:00:22.400,wear
2017-05-28 13:00:22.400,2017-05-28 13:00:22.400,2017-05-28 13:00:35.200,wear
2017-05-28 13:00:35.200,2017-05-28 13:00:35.200,2017-05-28 13:00:48.000,wear
2017-05-28 13:00:48.000,2017-05-28 13:00:48.000,2017-05-28 13:01:00.800,wear
2017-05-28 13:01:00.800,2017-05-28 13:01:00.800,2017-05-28 13:01:13.600,wear
2017-05-28 13:01:13.600,2017-05-28 13:01:13.600,2017-05-28 13:01:26.400,wear
2017-05-28 13:01:26.400,2017-05-28 13:01:26.400,2017-05-28 13:01:39.200,wear
2017-05-28 13:01:39.200,2017-05-28 13:01:39.200,2017-05-28 13:01:52.000,wear
2017-05-28 13:01:52.000,2017-05-28 13:01:52.000,2017-05-28 13:02:04.800,wear
2017-05-28 13:02:04.800,2017-05-28 13:02:04.800,2017-05-28 13:02:17.600,wear
2017-05-28 13:02:17.600,2017-05-28 13:02:17.600,2017-05-28 13:02:30.400,wear
2017-05-28 13:02:30.400,2017-05-28 13:02:30.400,2017-05-28 13:02:43.200,wear
2017-05-28 13:02:43.200,2017-05-28 13:02:43.200,2017-05-28 13:02:56.000,wear
2017-05-28 13:02:56.000,2017-05-28 13:02:56.000,2017-05-28 13:03:08.800,wear
2017-05-28 13:03:08.800,2017-05-28 13:03:08.800,2017-05-28 13:03:21.600,wear
2017-05-28 13:03:21.600,2017-05-28 13:03:21.600,2017-05-28 13:03:34.400,wear
2017-05-28 13:03:34.400,2017-05-28 13:03:34.400,2017-05-28 13:03:47.200,wear
2017-05-28 13:03:47.200,2017-05-28 13:03:47.200,2017-05-28 13:04:00.000,wear
2017-05-28 13:04:00.000,2017-05-28 13:04:00.000,2017-05-28 13:04:12.800,wear
2017-05-28 13:04:12.800,2017-05-28 13:04:12.800,2017-05-28 13:04:25.600,wear
2017-05-28 13:04:25.600,2017-05-28 13:04:25.600,2017-05-28 13:04:38.400,wear
2017-05-28 13:04:38.400,2017-05-28 13:04:38.400,2017-05-28 13:04:51.200,wear
2017-05-28 13:04:51.200,2017-05-28 13:04:51.200,2017-05-28 13:05:04.000,wear
2017-05-28 13:05:04.000,2017-05-28 13:05:04.000,2017-05-28 13:05:16.800,wear
2017-05-28 13:05:16.800,2017-05-28 13:05:16.800,2017-05-28 13:05:29.600,wear
2017-05-28 13:05:29.600,2017-05-28 13:05:29.600,2017-05-28 13:05:42.400,wear
2017-05-28 13:05:42.400,2017-05-28 13:05:42.400,2017-05-28 13:05:55.200,wear
2017-05-28 13:05:55.200,2017-05-28 13:05:55.200,2017-05-28 13:06:08.000,wear
2017-05-28 13:06:08.000,2017-05-28 13:06:08.000,2017-05-28 13:06:20.800,wear
2017-05-28 13:06:20.800,2017-05-28 13:06:20.800,2017-05-28 13:06:33.600,wear
2017-05-28 13:06:33.600,2017-05-28 13:06:33.600,2017-05-28 13:06:46.400,wear
2017-05-28 13:06:46.400,2017-05-28 13:06:46.400,2017-05-28 13:06:59.200,wear
2017-05-28 13:06:59.200,2017-05-28 13:06:59.200,2017-05-28 13:07:12.000,wear
2017-05-28 13:07:12.000,2017-05-28 13:07:12.000,2017-05-28 13:07:24.800,wear
2017-05-28 13:07:24.800,2017-05-28 13:07:24.800,2017-05-28 13:07:37.600,wear
2017-05-28 13:07:37.600,2017-05-28 13:07:37.600,2017-05-28 13:07:50.400,wear
2017-05-28 13:07:50.400,2017-05-28 13:07:50.400,2017-05-28 13:08:03.200,wear
2017-05-28 13:08:03.200,2017-05-28 13:08:03.200,2017-05-28 13:08:16.000,wear
2017-05-28 13:08:16.000,2017-05-28 13:08:16.000,2017-05-28 13:08:28.800,wear
2017-05-28 13:08:28.800,2017-05-28 13:08:28.800,2017-05-28 13:08:41.600,wear
2017-05-28 13:08:41.600,2017-05-28 13:08:41.600,2017-05-28 13:08:54.400,wear
2017-05-28 13:08:54.400,2017-05-28 13:08:54.400,2017-05-28 13:09:07.200,wear
2017-05-28 13:09:07.200,2017-05-28 13:09:07.200,2017-05-28 13:09:20.000,wear
2017-05-28 13:09:20.000,2017-05-28 13:09:20.000,2017-05-28 13:09:32.800,wear
2017-05-28 13:09:32.800,2017-05-28 13:09:32.800,2017-05-28 13:09:45.600,wear
2017-05-28 13:09:45.600,2017-05-28 13:09:45.600,2017-05-28 13:09:58.400,wear
2017-05-28 13:09:58.400,2017-05-28 13:09:58.400,2017-05-28 13:10:11.200,wear
2017-05-28 13:10:11.200,2017-05-28 13:10:11.200,2017-05-28 13:10:24.000,wear
2017-05-28 13:10:24.000,2017-05-28 13:10:24.000,2017-05-28 13:10:36.800,wear
2017-05-28 13:10:36.800,2017-05-28 13:10:36.800,2017-05-28 13:10:49.600,wear
2017-05-28 13:10:49.600,2017-05-28 13:10:49.600,2017-05-28 13:11:02.400,wear
2017-05-28 13:11:02.400,2017-05-28 13:11:02.400,2017-05-28 13:11:15.200,wear
2017-05-28 13:11:15.200,2017-05-28 13:11:15.200,2017-05-28 13:11:28.000,wear
2017-05-28 13:11:28.000,2017-05-28 13:11:28.000,2017-05-28 13:11:40.800,wear
2017-05-28 13:11:40.800,2017-05-28 13:11:40.800,2017-05-28 13:11:53.600,wear
2017-05-28 13:11:53.600,2017-05-28 13:11:53.600,2017-05-28 13:12:06.400,wear
2017-05-28 13:12:06.400,2017-05-28 13:12:06.400,2017-05-28 13:12:19.200,wear
2017-05-28 13:12:19.200,2017-05-28 13:12:19.200,2017-05-28 13:12:32.000,wear
2017-05-28 13:12:32.000,2017-05-28 13:12:32.000,2017-05-28 13:12:44.800,wear
2017-05-28 13:12:44.800,2017-05-28 13:12:44.800,2017-05-28 13:12:57.600,wear
2017-05-28 13:12:57.600,2017-05-28 13:12:57.600,2017-05-28 13:13:10.400,wear
2017-05-28 13:13:10.400,2017-05-28 13:13:10.400,2017-05-28 13:13:23.200,wear
2017-05-28 13:13:23.200,2017-05-28 13:13:23.200,2017-05-28 13:13:36.000,wear
2017-05-28 13:13:36.000,2017-05-28 13:13:36.000,2017-05-28 13:13:48.800,wear
2017-05-28 13:13:48.800,2017-05-28 13:13:48.800,2017-05-28 13:14:01.600,wear
2017-05-28 13:14:01.600,2017-05-28 13:14:01.600,2017-05-28 13:14:14.400,wear
2017-05-28 13:14:14.400,2017-05-28 13:14:14.400,2017-05-28 13:14:27.200,wear
2017-05-28 13:14:27.200,2017-05-28 13:14:27.200,2017-05-28 13:14:40.000,wear
2017-05-28 13:14:40.000,2017-05-28 13:14:40.000,2017-05-28 13:14:52.800,wear
2017-05-28 13:14:52.800,2017-05-28 13:14:52.800,2017-05-28 13:15:05.600,wear
2017-05-28 13:15:05.600,2017-05-28 13:15:05.600,2017-05-28 13:15:18.400,wear
2017-05-28 13:15:18.400,2017-05-28 13:15:18.400,2017-05-28 13:15:31.200,wear
2017-05-28 13:15:31.200,2017-05-28 13:15:31.200,2017-05-28 13:15:44.000,wear
2017-05-28 13:15:44.000,2017-05-28 13:15:44.000,2017-05-28 13:15:56.800,wear
2017-05-28 13:15:56.800,2017-05-28 13:15:56.800,2017-05-28 13:16:09.600,wear
2017-05-28 13:16:09.600,2017-05-28 13:16:09.600,2017-05-28 13:16:22.400,wear
2017-05-28 13:16:22.400,2017-05-28 13:16:22.400,2017-05-28 13:16:35.200,wear
2017-05-28 13:16:35.200,2017-05-28 13:16:35.200,2017-05-28 13:16:48.000,wear
2017-05-28 13:16:48.000,2017-05-28 13:16:48.000,2017-05-28 13:17:00.800,wear
2017-05-28 13:17:00.800,2017-05-28 13:17:00.800,2017-05-28 13:17:13.600,wear
2017-05-28 13:17:13.600,2017-05-28 13:17:13.600,2017-05-28 13:17:26.400,wear
2017-05-28 13:17:26.400,2017-05-28 13:17:26.400,2017-05-28 13:17:39.200,wear
2017-05-28 13:17:39.200,2017-05-28 13:17:39.200,2017-05-28 13:17:52.000,wear
2017-05-28 13:17:52.000,2017-05-28 13:17:52.000,2017-05-28 13:18:04.800,wear
2017-05-28 13:18:04.800,2017-05-28 13:18:04.800,2017-05-28 13:18:17.600,wear
2017-05-28 13:18:17.600,2017-05-28 13:18:17.600,2017-05-28 13:18:30.400,wear
2017-05-28 13:18:30.400,2017-05-28 13:18:30.400,2017-05-28 13:18:43.200,wear
2017-05-28 13:18:43.200,2017-05-28 13:18:43.200,2017-05-28 13:18:56.000,wear
2017-05-28 13:18:56.000,2017-05-28 13:18:56.000,2017-05-28 13:19:08.800,wear
2017-05-28 13:19:08.800,2017-05-28 13:19:08.800,2017-05-28 13:19:21.600,wear
2017-05-28 13:19:21.600,2017-05-28 13:19:21.600,2017-05-28 13:19:34.400,wear
2017-05-28 13:19:34.400,2017-05-28 13:19:34.400,2017-05-28 13:19:47.200,wear
2017-05-28 13:19:47.200,2017-05-28 13:19:47.200,2017-05-28 13:20:00.000,wear
2017-05-28 13:20:00.000,2017-05-28 13:20:00.000,2017-05-28 13:20:12.800,wear
2017-05-28 13:20:12.800,2017-05-28 13:20:12.800,2017-05-28 13:20:25.600,wear
2017-05-28 13:20:25.600,2017-05-28 13:20:25.600,2017-05-28 13:20:38.400,wear
2017-05-28 13:20:38.400,2017-05-28 13:20:38.400,2017-05-28 13:20:51.200,wear
2017-05-28 13:20:51.200,2017-05-28 13:20:51.200,2017-05-28 13:21:04.000,wear
2017-05-28 13:21:04.000,2017-05-28 13:21:04.000,2017-05-28 13:21:16.800,wear
2017-05-28 13:21:16.800,2017-05-28 13:21:16.800,2017-05-28 13:21:29.600,wear
2017-05-28 13:21:29.600,2017-05-28 13:21:29.600,2017-05-28 13:21:42.400,wear
2017-05-28 13:21:42.400,2017-05-28 13:21:42.400,2017-05-28 13:21:55.200,wear
2017-05-28 13:21:55.200,2017-05-28 13:21:55.200,2017-05-28 13:22:08.000,wear
2017-05-28 13:22:08.000,2017-05-28 13:22:08.000,2017-05-28 13:22:20.800,wear
2017-05-28 13:22:20.800,2017-05-28 13:22:20.800,2017-05-28 13:22:33.600,wear
2017-05-28 13:22:33.600,2017-05-28 13:22:33.600,2017-05-28 13:22:46.400,wear
2017-05-28 13:22:46.400,2017-05-28 13:22:46.400,2017-05-28 13:22:59.200,wear
2017-05-28 13:22:59.200,2017-05-28 13:22:59.200,2017-05-28 13:23:12.000,wear
2017-05-28 13:23:12.000,2017-05-28 13:23:12.000,2017-05-28 13:23:24.800,wear
2017-05-28 13:23:24.800,2017-05-28 13:23:24.800,2017-05-28 13:23:37.600,wear
2017-05-28 13:23:37.600,2017-05-28 13:23:37.600,2017-05-28 13:23:50.400,wear
2017-05-28 13:23:50.400,2017-05-28 13:23:50.400,2017-05-28 13:24:03.200,wear
2017-05-28 13:24:03.200,2017-05-28 13:24:03.200,2017-05-28 13:24:16.000,wear
2017-05-28 13:24:16.000,2017-05-28 13:24:16.000,2017-05-28 13:24:28.800,wear
2017-05-28 13:24:28.800,2017-05-28 13:24:28.800,2017-05-28 13:24:41.600,wear
2017-05-28 13:24:41.600,2017-05-28 13:24:41.600,2017-05-28 13:24:54.400,wear
2017-05-28 13:24:54.400,2017-05-28 13:24:54.400,2017-05-28 13:25:07.200,wear
2017-05-28 13:25:07.200,2017-05-28 13:25:07.200,2017-05-28 13:25:20.000,wear
2017-05-28 13:25:20.000,2017-05-28 13:25:20.000,2017-05-28 13:25:32.800,wear
2017-05-28 13:25:32.800,2017-05-28 13:25:32.800,2017-05-28 13:25:45.600,wear
2017-05-28 13:25:45.600,2017-05-28 13:25:45.600,2017-05-28 13:25:58.400,wear
2017-05-28 13:25:58.400,2017-05-28 13:25:58.400,2017-05-28 13:26:11.200,wear
2017-05-28 13:26:11.200,2017-05-28 13:26:11.200,2017-05-28 13:26:24.000,wear
2017-05-28 13:26:24.000,2017-05-28 13:26:24.000,2017-05-28 13:26:36.800,wear
2017-05-28 13:26:36.800,2017-05-28 13:26:36.800,2017-05-28 13:26:49.600,wear
2017-05-28 13:26:49.600,2017-05-28 13:26:49.600,2017-05-28 13:27:02.400,wear
2017-05-28 13:27:02.400,2017-05-28 13:27:02.400,2017-05-28 13:27:15.200,wear
2017-05-28 13:27:15.200,2017-05-28 13:27:15.200,2017-05-28 13:27:28.000,wear
2017-05-28 13:27:28.000,2017-05-28 13:27:28.000,2017-05-28 13:27:40.800,wear
2017-05-28 13:27:40.800,2017-05-28 13:27:40.800,2017-05-28 13:27:53.600,wear
2017-05-28 13:27:53.600,2017-05-28 13:27:53.600,2017-05-28 13:28:06.400,wear
2017-05-28 13:28:06.400,2017-05-28 13:28:06.400,2017-05-28 13:28:19.200,wear
2017-05-28 13:28:19.200,2017-05-28 13:28:19.200,2017-05-28 13:28:32.000,wear
2017-05-28 13:28:32.000,2017-05-28 13:28:32.000,2017-05-28 13:28:44.800,wear
2017-05-28 13:28:44.800,2017-05-28 13:28:44.800,2017-05-28 13:28:57.600,wear
2017-05-28 13:28:57.600,2017-05-28 13:28:57.600,2017-05-28 13:29:10.400,wear
2017-05-28 13:29:10.400,2017-05-28 13:29:10.400,2017-05-28 13:29:23.200,wear
2017-05-28 13:29:23.200,2017-05-28 13:29:23.200,2017-05-28 13:29:36.000,wear
2017-05-28 13:29:36.000,2017-05-28 13:29:36.000,2017-05-28 13:29:48.800,wear
2017-05-28 13:29:48.800,2017-05-28 13:29:48.800,2017-05-28 13:30:01.600,wear
2017-05-28 13:30:01.600,2017-05-28 13:30:01.600,2017-05-28 13:30:14.400,wear
2017-05-28 13:30:14.400,2017-05-28 13:30:14.400,2017-05-28 13:30:27.200,wear
2017-05-28 13:30:27.200,2017-05-28 13:30:27.200,2017-05-28 13:30:40.000,wear
2017-05-28 13:30:40.000,2017-05-28 13:30:40.000,2017-05-28 13:30:52.800,wear
2017-05-28 13:30:52.800,2017-05-28 13:30:52.800,2017-05-28 13:31:05.600,wear
2017-05-28 13:31:05.600,2017-05-28 13:31:05.600,2017-05-28 13:31:18.400,wear
2017-05-28 13:31:18.400,2017-05-28 13:31:18.400,2017-05-28 13:31:31.200,wear
2017-05-28 13:31:31.200,2017-05-28 13:31:31.200,2017-05-28 13:31:44.000,wear
2017-05-28 13:31:44.000,2017-05-28 13:31:44.000,2017-05-28 13:31:56.800,wear
2017-05-28 13:31:56.800,2017-05-28 13:31:56.800,2017-05-28 13:32:09.600,wear
2017-05-28 13:32:09.600,2017-05-28 13:32:09.600,2017-05-28 13:32:22.400,wear
2017-05-28 13:32:22.400,2017-05-28 13:32:22.400,2017-05-28 13:32:35.200,wear
2017-05-28 13:32:35.200,2017-05-28 13:32:35.200,2017-05-28 13:32:48.000,wear
2017-05-28 13:32:48.000,2017-05-28 13:32:48.000,2017-05-28 13:33:00.800,wear
2017-05-28 13:33:00.800,2017-05-28 13:33:00.800,2017-05-28 13:33:13.600,wear
2017-05-28 13:33:13.600,2017-05-28 13:33:13.600,2017-05-28 13:33:26.400,wear
2017-05-28 13:33:26.400,2017-05-28 13:33:26.400,2017-05-28 13:33:39.200,wear
2017-05-28 13:33:39.200,2017-05-28 13:33:39.200,2017-05-28 13:33:52.000,wear
2017-05-28 13:33:52.000,2017-05-28 13:33:52.000,2017-05-28 13:34:04.800,wear
2017-05-28 13:34:04.800,2017-05-28 13:34:04.800,2017-05-28 13:34:17.600,wear
2017-05-28 13:34:17.600,2017-05-28 13:34:17.600,2017-05-28 13:34:30.400,wear
2017-05-28 13:34:30.400,2017-05-28 13:34:30.400,2017-05-28 13:34:43.200,wear
2017-05-28 13:34:43.200,2017-05-28 13:34:43.200,2017-05-28 13:34:56.000,wear
2017-05-28 13:34:56.000,2017-05-28 13:34:56.000,2017-05-28 13:35:08.800,wear
2017-05-28 13:35:08.800,2017-05-28 13:35:08.800,2017-05-28 13:35:21.600,wear
2017-05-28 13:35:21.600,2017-05-28 13:35:21.600,2017-05-28 13:35:34.400,wear
2017-05-28 13:35:34.400,2017-05-28 13:35:34.400,2017-05-28 13:35:47.200,wear
2017-05-28 13:35:47.200,2017-05-28 13:35:47.200,2017-05-28 13:36:00.000,wear
2017-05-28 13:36:00.000,2017-05-28 13:36:00.000,2017-05-28 13:36:12.800,wear
2017-05-28 13:36:12.800,2017-05-28 13:36:12.800,2017-05-28 13:36:25.600,wear
2017-05-28 13:36:25.600,2017-05-28 13:36:25.600,2017-05-28 13:36:38.400,wear
2017-05-28 13:36:38.400,2017-05-28 13:36:38.400,2017-05-28 13:36:51.200,wear
2017-05-28 13:36:51.200,2017-05-28 13:36:51.200,2017-05-28 13:37:04.000,wear
2017-05-28 13:37:04.000,2017-05-28 13:37:04.000,2017-05-28 13:37:16.800,wear
2017-05-28 13:37:16.800,2017-05-28 13:37:16.800,2017-05-28 13:37:29.600,wear
2017-05-28 13:37:29.600,2017-05-28 13:37:29.600,2017-05-28 13:37:42.400,wear
2017-05-28 13:37:42.400,2017-05-28 13:37:42.400,2017-05-28 13:37:55.200,wear
2017-05-28 13:37:55.200,2017-05-28 13:37:55.200,2017-05-28 13:38:08.000,wear
2017-05-28 13:38:08.000,2017-05-28 13:38:08.000,2017-05-28 13:38:20.800,wear
2017-05-28 13:38:20.800,2017-05-28 13:38:20.800,2017-05-28 13:38:33.600,wear
2017-05-28 13:38:33.600,2017-05-28 13:38:33.600,2017-05-28 13:38:46.400,wear
2017-05-28 13:38:46.400,2017-05-28 13:38:46.400,2017-05-28 13:38:59.200,wear
2017-05-28 13:38:59.200,2017-05-28 13:38:59.200,2017-05-28 13:39:12.000,wear
2017-05-28 13:39:12.000,2017-05-28 13:39:12.000,2017-05-28 13:39:24.800,wear
2017-05-28 13:39:24.800,2017-05-28 13:39:24.800,2017-05-28 13:39:37.600,wear
2017-05-28 13:39:37.600,2017-05-28 13:39:37.600,2017-05-28 13:39:50.400,wear
2017-05-28 13:39:50.400,2017-05-28 13:39:50.400,2017-05-28 13:40:03.200,wear
2017-05-28 13:40:03.200,2017-05-28 13:40:03.200,2017-05-28 13:40:16.000,wear
2017-05-28 13:40:16.000,2017-05-28 13:40:16.000,2017-05-28 13:40:28.800,wear
2017-05-28 13:40:28.800,2017-05-28 13:40:28.800,2017-05-28 13:40:41.600,wear
2017-05-28 13:40:41.600,2017-05-28 13:40:41.600,2017-05-28 13:40:54.400,wear
2017-05-28 13:40:54.400,2017-05-28 13:40:54.400,2017-05-28 13:41:07.200,wear
2017-05-28 13:41:07.200,2017-05-28 13:41:07.200,2017-05-28 13:41:20.000,wear
2017-05-28 13:41:20.000,2017-05-28 13:41:20.000,2017-05-28 13:41:32.800,wear
2017-05-28 13:41:32.800,2017-05-28 13:41:32.800,2017-05-28 13:41:45.600,wear
2017-05-28 13:41:45.600,2017-05-28 13:41:45.600,2017-05-28 13:41:58.400,wear
2017-05-28 13:41:58.400,2017-05-28 13:41:58.400,2017-05-28 13:42:11.200,wear
2017-05-28 13:42:11.200,2017-05-28 13:42:11.200,2017-05-28 13:42:24.000,wear
2017-05-28 13:42:24.000,2017-05-28 13:42:24.000,2017-05-28 13:42:36.800,wear
2017-05-28 13:42:36.800,2017-05-28 13:42:36.800,2017-05-28 13:42:49.600,wear
2017-05-28 13:42:49.600,2017-05-28 13:42:49.600,2017-05-28 13:43:02.400,wear
2017-05-28 13:43:02.400,2017-05-28 13:43:02.400,2017-05-28 13:43:15.200,wear
2017-05-28 13:43:15.200,2017-05-28 13:43:15.200,2017-05-28 13:43:28.000,wear
2017-05-28 13:43:28.000,2017-05-28 13:43:28.000,2017-05-28 13:43:40.800,wear
2017-05-28 13:43:40.800,2017-05-28 13:43:40.800,2017-05-28 13:43:53.600,wear
2017-05-28 13:43:53.600,2017-05-28 13:43:53.600,2017-05-28 13:44:06.400,wear
2017-05-28 13:44:06.400,2017-05-28 13:44:06.400,2017-05-28 13:44:19.200,wear
2017-05-28 13:44:19.200,2017-05-28 13:44:19.200,2017-05-28 13:44:32.000,wear
2017-05-28 13:44:32.000,2017-05-28 13:44:32.000,2017-05-28 13:44:44.800,wear
2017-05-28 13:44:44.800,2017-05-28 13:44:44.800,2017-05-28 13:44:57.600,wear
2017-05-28 13:44:57.600,2017-05-28 13:44:57.600,2017-05-28 13:45:10.400,wear
2017-05-28 13:45:10.400,2017-05-28 13:45:10.400,2017-05-28 13:45:23.200,wear
2017-05-28 13:45:23.200,2017-05-28 13:45:23.200,2017-05-28 13:45:36.000,wear
2017-05-28 13:45:36.000,2017-05-28 13:45:36.000,2017-05-28 13:45:48.800,wear
2017-05-28 13:45:48.800,2017-05-28 13:45:48.800,2017-05-28 13:46:01.600,wear
2017-05-28 13:46:01.600,2017-05-28 13:46:01.600,2017-05-28 13:46:14.400,wear
2017-05-28 13:46:14.400,2017-05-28 13:46:14.400,2017-05-28 13:46:27.200,wear
2017-05-28 13:46:27.200,2017-05-28 13:46:27.200,2017-05-28 13:46:40.000,wear
2017-05-28 13:46:40.000,2017-05-28 13:46:40.000,2017-05-28 13:46:52.800,wear
2017-05-28 13:46:52.800,2017-05-28 13:46:52.800,2017-05-28 13:47:05.600,wear
2017-05-28 13:47:05.600,2017-05-28 13:47:05.600,2017-05-28 13:47:18.400,wear
2017-05-28 13:47:18.400,2017-05-28 13:47:18.400,2017-05-28 13:47:31.200,wear
2017-05-28 13:47:31.200,2017-05-28 13:47:31.200,2017-05-28 13:47:44.000,wear
2017-05-28 13:47:44.000,2017-05-28 13:47:44.000,2017-05-28 13:47:56.800,wear
2017-05-28 13:47:56.800,2017-05-28 13:47:56.800,2017-05-28 13:48:09.600,wear
2017-05-28 13:48:09.600,2017-05-28 13:48:09.600,2017-05-28 13:48:22.400,wear
2017-05-28 13:48:22.400,2017-05-28 13:48:22.400,2017-05-28 13:48:35.200,wear
2017-05-28 13:48:35.200,2017-05-28 13:48:35.200,2017-05-28 13:48:48.000,wear
2017-05-28 13:48:48.000,2017-05-28 13:48:48.000,2017-05-28 13:49:00.800,wear
2017-05-28 13:49:00.800,2017-05-28 13:49:00.800,2017-05-28 13:49:13.600,wear
2017-05-28 13:49:13.600,2017-05-28 13:49:13.600,2017-05-28 13:49:26.400,wear
2017-05-28 13:49:26.400,2017-05-28 13:49:26.400,2017-05-28 13:49:39.200,wear
2017-05-28 13:49:39.200,2017-05-28 13:49:39.200,2017-05-28 13:49:52.000,wear
2017-05-28 13:49:52.000,2017-05-28 13:49:52.000,2017-05-28 13:50:04.800,wear
2017-05-28 13:50:04.800,2017-05-28 13:50:04.800,2017-05-28 13:50:17.600,wear
2017-05-28 13:50:17.600,2017-05-28 13:50:17.600,2017-05-28 13:50:30.400,wear
2017-05-28 13:50:30.400,2017-05-28 13:50:30.400,2017-05-28 13:50:43.200,wear
2017-05-28 13:50:43.200,2017-05-28 13:50:43.200,2017-05-28 13:50:56.000,wear
2017-05-28 13:50:56.000,2017-05-28 13:50:56.000,2017-05-28 13:51:08.800,wear
2017-05-28 13:51:08.800,2017-05-28 13:51:08.800,2017-05-28 13:51:21.600,wear
2017-05-28 13:51:21.600,2017-05-28 13:51:21.600,2017-05-28 13:51:34.400,wear
2017-05-28 13:51:34.400,2017-05-28 13:51:34.400,2017-05-28 13:51:47.200,wear
2017-05-28 13:51:47.200,2017-05-28 13:51:47.200,2017-05-28 13:52:00.000,wear
2017-05-28 13:52:00.000,2017-05-28 13:52:00.000,2017-05-28 13:52:12.800,wear
2017-05-28 13:52:12.800,2017-05-28 13:52:12.800,2017-05-28 13:52:25.600,wear
2017-05-28 13:52:25.600,2017-05-28 13:52:25.600,2017-05-28 13:52:38.400,wear
2017-05-28 13:52:38.400,2017-05-28 13:52:38.400,2017-05-28 13:52:51.200,wear
2017-05-28 13:52:51.200,2017-05-28 13:52:51.200,2017-05-28 13:53:04.000,wear
2017-05-28 13:53:04.000,2017-05-28 13:53:04.000,2017-05-28 13:53:16.800,wear
2017-05-28 13:53:16.800,2017-05-28 13:53:16.800,2017-05-28 13:53:29.600,wear
2017-05-28 13:53:29.600,2017-05-28 13:53:29.600,2017-05-28 13:53:42.400,wear
2017-05-28 13:53:42.400,2017-05-28 13:53:42.400,2017-05-28 13:53:55.200,wear
2017-05-28 13:53:55.200,2017-05-28 13:53:55.200,2017-05-28 13:54:08.000,wear
2017-05-28 13:54:08.000,2017-05-28 13:54:08.000,2017-05-28 13:54:20.800,wear
2017-05-28 13:54:20.800,2017-05-28 13:54:20.800,2017-05-28 13:54:33.600,wear
2017-05-28 13:54:33.600,2017-05-28 13:54:33.600,2017-05-28 13:54:46.400,wear
2017-05-28 13:54:46.400,2017-05-28 13:54:46.400,2017-05-28 13:54:59.200,wear
2017-05-28 13:54:59.200,2017-05-28 13:54:59.200,2017-05-28 13:55:12.000,wear
2017-05-28 13:55:12.000,2017-05-28 13:55:12.000,2017-05-28 13:55:24.800,wear
2017-05-28 13:55:24.800,2017-05-28 13:55:24.800,2017-05-28 13:55:37.600,wear
2017-05-28 13:55:37.600,2017-05-28 13:55:37.600,2017-05-28 13:55:50.400,wear
2017-05-28 13:55:50.400,2017-05-28 13:55:50.400,2017-05-28 13:56:03.200,wear
2017-05-28 13:56:03.200,2017-05-28 13:56:03.200,2017-05-28 13:56:16.000,wear
2017-05-28 13:56:16.000,2017-05-28 13:56:16.000,2017-05-28 13:56:28.800,wear
2017-05-28 13:56:28.800,2017-05-28 13:56:28.800,2017-05-28 13:56:41.600,wear
2017-05-28 13:56:41.600,2017-05-28 13:56:41.600,2017-05-28 13:56:54.400,wear
2017-05-28 13:56:54.400,2017-05-28 13:56:54.400,2017-05-28 13:57:07.200,wear
2017-05-28 13:57:07.200,2017-05-28 13:57:07.200,2017-05-28 13:57:20.000,wear
2017-05-28 13:57:20.000,2017-05-28 13:57:20.000,2017-05-28 13:57:32.800,wear
2017-05-28 13:57:32.800,2017-05-28 13:57:32.800,2017-05-28 13:57:45.600,wear
2017-05-28 13:57:45.600,2017-05-28 13:57:45.600,2017-05-28 13:57:58.400,wear
2017-05-28 13:57:58.400,2017-05-28 13:57:58.400,2017-05-28 13:58:11.200,wear
2017-05-28 13:58:11.200,2017-05-28 13:58:11.200,2017-05-28 13:58:24.000,wear
2017-05-28 13:58:24.000,2017-05-28 13:58:24.000,2017-05-28 13:58:36.800,wear
2017-05-28 13:58:36.800,2017-05-28 13:58:36.800,2017-05-28 13:58:49.600,wear
2017-05-28 13:58:49.600,2017-05-28 13:58:49.600,2017-05-28 13:59:02.400,wear
2017-05-28 13:59:02.400,2017-05-28 13:59:02.400,2017-05-28 13:59:15.200,wear
2017-05-28 13:59:15.200,2017-05-28 13:59:15.200,2017-05-28 13:59:28.000,wear
2017-05-28 13:59:28.000,2017-05-28 13:59:28.000,2017-05-28 13:59:40.800,wear
2017-05-28 13:59:40.800,2017-05-28 13:59:40.800,2017-05-28 13:59:53.600,wear
2017-05-28 13:59:53.600,2017-05-28 13:59:53.600,2017-05-28 13:59:59.999,wear
2017-05-28 13:59:53.600,2017-05-28 13:59:53.600,2017-05-28 13:59:59.999,wear
