HEADER_TIME_STAMP,START_TIME,STOP_TIME,LABEL_PREDICTED
2017-05-28 13:00:48.000,2017-05-28 13:00:48.000,2017-05-28 13:01:52.000,wear
2017-05-28 13:01:52.000,2017-05-28 13:01:52.000,2017-05-28 13:02:56.000,wear
2017-05-28 13:02:56.000,2017-05-28 13:02:56.000,2017-05-28 13:04:00.000,wear
2017-05-28 13:04:00.000,2017-05-28 13:04:00.000,2017-05-28 13:05:04.000,wear
2017-05-28 13:05:04.000,2017-05-28 13:05:04.000,2017-05-28 13:06:08.000,wear
2017-05-28 13:06:08.000,2017-05-28 13:06:08.000,2017-05-28 13:07:12.000,wear
2017-05-28 13:07:12.000,2017-05-28 13:07:12.000,2017-05-28 13:08:16.000,wear
2017-05-28 13:08:16.000,2017-05-28 13:08:16.000,2017-05-28 13:09:20.000,wear
2017-05-28 13:09:20.000,2017-05-28 13:09:20.000,2017-05-28 13:10:24.000,wear
2017-05-28 13:10:24.000,2017-05-28 13:10:24.000,2017-05-28 13:11:28.000,wear
2017-05-28 13:11:28.000,2017-05-28 13:11:28.000,2017-05-28 13:12:32.000,wear
2017-05-28 13:12:32.000,2017-05-28 13:12:32.000,2017-05-28 13:13:36.000,wear
2017-05-28 13:13:36.000,2017-05-28 13:13:36.000,2017-05-28 13:14:40.000,wear
2017-05-28 13:14:40.000,2017-05-28 13:14:40.000,2017-05-28 13:15:44.000,wear
2017-05-28 13:15:44.000,2017-05-28 13:15:44.000,2017-05-28 13:16:48.000,wear
2017-05-28 13:16:48.000,2017-05-28 13:16:48.000,2017-05-28 13:17:52.000,wear
2017-05-28 13:17:52.000,2017-05-28 13:17:52.000,2017-05-28 13:18:56.000,wear
2017-05-28 13:18:56.000,2017-05-28 13:18:56.000,2017-05-28 13:20:00.000,wear
2017-05-28 13:20:00.000,2017-05-28 13:20:00.000,2017-05-28 13:21:04.000,wear
2017-05-28 13:21:04.000,2017-05-28 13:21:04.000,2017-05-28 13:22:08.000,wear
2017-05-28 13:22:08.000,2017-05-28 13:22:08.000,2017-05-28 13:23:12.000,wear
2017-05-28 13:23:12.000,2017-05-28 13:23:12.000,2017-05-28 13:24:16.000,wear
2017-05-28 13:24:16.000,2017-05-28 13:24:16.000,2017-05-28 13:25:20.000,wear
2017-05-28 13:25:20.000,2017-05-28 13:25:20.000,2017-05-28 13:26:24.000,wear
2017-05-28 13:26:24.000,2017-05-28 13:26:24.000,2017-05-28 13:27:28.000,wear
2017-05-28 13:27:28.000,2017-05-28 13:27:28.000,2017-05-28 13:28:32.000,wear
2017-05-28 13:28:32.000,2017-05-28 13:28:32.000,2017-05-28 13:29:36.000,wear
2017-05-28 13:29:36.000,2017-05-28 13:29:36.000,2017-05-28 13:30:40.000,wear
2017-05-28 13:30:40.000,2017-05-28 13:30:40.000,2017-05-28 13:31:44.000,wear
2017-05-28 13:31:44.000,2017-05-28 13:31:44.000,2017-05-28 13:32:48.000,wear
2017-05-28 13:32:48.000,2017-05-28 13:32:48.000,2017-05-28 13:33:52.000,wear
2017-05-28 13:33:52.000,2017-05-28 13:33:52.000,2017-05-28 13:34:56.000,wear
2017-05-28 13:34:56.000,2017-05-28 13:34:56.000,2017-05-28 13:36:00.000,wear
2017-05-28 13:36:00.000,2017-05-28 13:36:00.000,2017-05-28 13:37:04.000,wear
2017-05-28 13:37:04.000,2017-05-28 13:37:04.000,2017-05-28 13:38:08.000,wear
2017-05-28 13:38:08.000,2017-05-28 13:38:08.000,2017-05-28 13:39:12.000,wear
2017-05-28 13:39:12.000,2017-05-28 13:39:12.000,2017-05-28 13:40:16.000,wear
2017-05-28 13:40:16.000,2017-05-28 13:40:16.000,2017-05-28 13:41:20.000,wear
2017-05-28 13:41:20.000,2017-05-28 13:41:20.000,2017-05-28 13:42:24.000,wear
2017-05-28 13:42:24.000,2017-05-28 13:42:24.000,2017-05-28 13:43:28.000,wear
2017-05-28 13:43:28.000,2017-05-28 13:43:28.000,2017-05-28 13:44:32.000,wear
2017-05-28 13:44:32.000,2017-05-28 13:44:32.000,2017-05-28 13:45:36.000,wear
2017-05-28 13:45:36.000,2017-05-28 13:45:36.000,2017-05-28 13:46:40.000,wear
2017-05-28 13:46:40.000,2017-05-28 13:46:40.000,2017-05-28 13:47:44.000,wear
2017-05-28 13:47:44.000,2017-05-28 13:47:44.000,2017-05-28 13:48:48.000,wear
2017-05-28 13:48:48.000,2017-05-28 13:48:48.000,2017-05-28 13:49:52.000,wear
2017-05-28 13:49:52.000,2017-05-28 13:49:52.000,2017-05-28 13:50:56.000,wear
2017-05-28 13:50:56.000,2017-05-28 13:50:56.000,2017-05-28 13:52:00.000,wear
2017-05-28 13:52:00.000,2017-05-28 13:52:00.000,2017-05-28 13:53:04.000,wear
2017-05-28 13:53:04.000,2017-05-28 13:53:04.000,2017-05-28 13:54:08.000,wear
2017-05-28 13:54:08.000,2017-05-28 13:54:08.000,2017-05-28 13:55:12.000,wear
2017-05-28 13:55:12.000,2017-05-28 13:55:12.000,2017-05-28 13:56:16.000,wear
2017-05-28 13:56:16.000,2017-05-28 13:56:16.000,2017-05-28 13:57:20.000,wear
2017-05-28 13:57:20.000,2017-05-28 13:57:20.000,2017-05-28 13:58:24.000,wear
2017-05-28 13:58:24.000,2017-05-28 13:58:24.000,2017-05-28 13:59:28.000,wear
2017-05-28 13:59:28.000,2017-05-28 13:59:28.000,2017-05-28 13:59:59.999,wear
