HEADER_TIME_STAMP,START_TIME,STOP_TIME,LABEL_NAME
2017-06-06 14:00:00.000,2017-06-06 14:00:00.000,2017-06-06 14:10:59.999,Other
2017-06-06 14:11:00.000,2017-06-06 14:11:00.000,2017-06-06 14:12:59.999,Ambulation
2017-06-06 14:13:00.000,2017-06-06 14:13:00.000,2017-06-06 14:55:59.999,Sedentary
2017-06-06 14:56:00.000,2017-06-06 14:56:00.000,2017-06-06 14:59:59.999,Ambulation
