HEADER_TIME_STAMP,START_TIME,STOP_TIME,LABEL_PROBABILITY
2017-05-31 02:00:32.000,2017-05-31 02:00:32.000,2017-05-31 02:01:36.000,0.691
2017-05-31 02:01:36.000,2017-05-31 02:01:36.000,2017-05-31 02:02:40.000,0.721
2017-05-31 02:02:40.000,2017-05-31 02:02:40.000,2017-05-31 02:03:44.000,0.76
2017-05-31 02:03:44.000,2017-05-31 02:03:44.000,2017-05-31 02:04:48.000,0.821
2017-05-31 02:04:48.000,2017-05-31 02:04:48.000,2017-05-31 02:05:52.000,0.821
2017-05-31 02:05:52.000,2017-05-31 02:05:52.000,2017-05-31 02:06:56.000,0.821
2017-05-31 02:06:56.000,2017-05-31 02:06:56.000,2017-05-31 02:08:00.000,0.821
2017-05-31 02:08:00.000,2017-05-31 02:08:00.000,2017-05-31 02:09:04.000,0.754
2017-05-31 02:09:04.000,2017-05-31 02:09:04.000,2017-05-31 02:10:08.000,0.785
2017-05-31 02:10:08.000,2017-05-31 02:10:08.000,2017-05-31 02:11:12.000,0.763
2017-05-31 02:11:12.000,2017-05-31 02:11:12.000,2017-05-31 02:12:16.000,0.726
2017-05-31 02:12:16.000,2017-05-31 02:12:16.000,2017-05-31 02:13:20.000,0.726
2017-05-31 02:13:20.000,2017-05-31 02:13:20.000,2017-05-31 02:14:24.000,0.71
2017-05-31 02:14:24.000,2017-05-31 02:14:24.000,2017-05-31 02:15:28.000,0.641
2017-05-31 02:15:28.000,2017-05-31 02:15:28.000,2017-05-31 02:16:32.000,0.708
2017-05-31 02:16:32.000,2017-05-31 02:16:32.000,2017-05-31 02:17:36.000,0.697
2017-05-31 02:17:36.000,2017-05-31 02:17:36.000,2017-05-31 02:18:40.000,0.843
2017-05-31 02:18:40.000,2017-05-31 02:18:40.000,2017-05-31 02:19:44.000,0.843
2017-05-31 02:19:44.000,2017-05-31 02:19:44.000,2017-05-31 02:20:48.000,0.883
2017-05-31 02:20:48.000,2017-05-31 02:20:48.000,2017-05-31 02:21:52.000,0.953
2017-05-31 02:21:52.000,2017-05-31 02:21:52.000,2017-05-31 02:22:56.000,0.895
2017-05-31 02:22:56.000,2017-05-31 02:22:56.000,2017-05-31 02:24:00.000,0.768
2017-05-31 02:24:00.000,2017-05-31 02:24:00.000,2017-05-31 02:25:04.000,0.902
2017-05-31 02:25:04.000,2017-05-31 02:25:04.000,2017-05-31 02:26:08.000,0.926
2017-05-31 02:26:08.000,2017-05-31 02:26:08.000,2017-05-31 02:27:12.000,0.947
2017-05-31 02:27:12.000,2017-05-31 02:27:12.000,2017-05-31 02:28:16.000,0.947
2017-05-31 02:28:16.000,2017-05-31 02:28:16.000,2017-05-31 02:29:20.000,0.947
2017-05-31 02:29:20.000,2017-05-31 02:29:20.000,2017-05-31 02:30:24.000,0.947
2017-05-31 02:30:24.000,2017-05-31 02:30:24.000,2017-05-31 02:31:28.000,0.944
2017-05-31 02:31:28.000,2017-05-31 02:31:28.000,2017-05-31 02:32:32.000,0.938
2017-05-31 02:32:32.000,2017-05-31 02:32:32.000,2017-05-31 02:33:36.000,0.926
2017-05-31 02:33:36.000,2017-05-31 02:33:36.000,2017-05-31 02:34:40.000,0.938
2017-05-31 02:34:40.000,2017-05-31 02:34:40.000,2017-05-31 02:35:44.000,0.926
2017-05-31 02:35:44.000,2017-05-31 02:35:44.000,2017-05-31 02:36:48.000,0.944
2017-05-31 02:36:48.000,2017-05-31 02:36:48.000,2017-05-31 02:37:52.000,0.944
2017-05-31 02:37:52.000,2017-05-31 02:37:52.000,2017-05-31 02:38:56.000,0.947
2017-05-31 02:38:56.000,2017-05-31 02:38:56.000,2017-05-31 02:40:00.000,0.938
2017-05-31 02:40:00.000,2017-05-31 02:40:00.000,2017-05-31 02:41:04.000,0.938
2017-05-31 02:41:04.000,2017-05-31 02:41:04.000,2017-05-31 02:42:08.000,0.947
2017-05-31 02:42:08.000,2017-05-31 02:42:08.000,2017-05-31 02:43:12.000,0.938
2017-05-31 02:43:12.000,2017-05-31 02:43:12.000,2017-05-31 02:44:16.000,0.938
2017-05-31 02:44:16.000,2017-05-31 02:44:16.000,2017-05-31 02:45:20.000,0.947
2017-05-31 02:45:20.000,2017-05-31 02:45:20.000,2017-05-31 02:46:24.000,0.947
2017-05-31 02:46:24.000,2017-05-31 02:46:24.000,2017-05-31 02:47:28.000,0.947
2017-05-31 02:47:28.000,2017-05-31 02:47:28.000,2017-05-31 02:48:32.000,0.949
2017-05-31 02:48:32.000,2017-05-31 02:48:32.000,2017-05-31 02:49:36.000,0.947
2017-05-31 02:49:36.000,2017-05-31 02:49:36.000,2017-05-31 02:50:40.000,0.765
2017-05-31 02:50:40.000,2017-05-31 02:50:40.000,2017-05-31 02:51:44.000,0.671
2017-05-31 02:51:44.000,2017-05-31 02:51:44.000,2017-05-31 02:52:48.000,0.671
2017-05-31 02:52:48.000,2017-05-31 02:52:48.000,2017-05-31 02:53:52.000,0.745
2017-05-31 02:53:52.000,2017-05-31 02:53:52.000,2017-05-31 02:54:56.000,0.745
2017-05-31 02:54:56.000,2017-05-31 02:54:56.000,2017-05-31 02:56:00.000,0.672
2017-05-31 02:56:00.000,2017-05-31 02:56:00.000,2017-05-31 02:57:04.000,0.672
2017-05-31 02:57:04.000,2017-05-31 02:57:04.000,2017-05-31 02:58:08.000,0.672
2017-05-31 02:58:08.000,2017-05-31 02:58:08.000,2017-05-31 02:59:12.000,0.745
2017-05-31 02:59:12.000,2017-05-31 02:59:12.000,2017-05-31 02:59:59.999,0.767
