HEADER_TIME_STAMP,START_TIME,STOP_TIME,LABEL_NAME
2017-05-29 00:00:00.000,2017-05-29 00:00:00.000,2017-05-29 00:00:12.800,wear
2017-05-29 00:00:12.800,2017-05-29 00:00:12.800,2017-05-29 00:00:25.600,wear
2017-05-29 00:00:25.600,2017-05-29 00:00:25.600,2017-05-29 00:00:38.400,wear
2017-05-29 00:00:38.400,2017-05-29 00:00:38.400,2017-05-29 00:00:51.200,wear
2017-05-29 00:00:51.200,2017-05-29 00:00:51.200,2017-05-29 00:01:04.000,wear
2017-05-29 00:01:04.000,2017-05-29 00:01:04.000,2017-05-29 00:01:16.800,wear
2017-05-29 00:01:16.800,2017-05-29 00:01:16.800,2017-05-29 00:01:29.600,wear
2017-05-29 00:01:29.600,2017-05-29 00:01:29.600,2017-05-29 00:01:42.400,wear
2017-05-29 00:01:42.400,2017-05-29 00:01:42.400,2017-05-29 00:01:55.200,wear
2017-05-29 00:01:55.200,2017-05-29 00:01:55.200,2017-05-29 00:02:08.000,wear
2017-05-29 00:02:08.000,2017-05-29 00:02:08.000,2017-05-29 00:02:20.800,wear
2017-05-29 00:02:20.800,2017-05-29 00:02:20.800,2017-05-29 00:02:33.600,wear
2017-05-29 00:02:33.600,2017-05-29 00:02:33.600,2017-05-29 00:02:46.400,wear
2017-05-29 00:02:46.400,2017-05-29 00:02:46.400,2017-05-29 00:02:59.200,wear
2017-05-29 00:02:59.200,2017-05-29 00:02:59.200,2017-05-29 00:03:12.000,wear
2017-05-29 00:03:12.000,2017-05-29 00:03:12.000,2017-05-29 00:03:24.800,wear
2017-05-29 00:03:24.800,2017-05-29 00:03:24.800,2017-05-29 00:03:37.600,wear
2017-05-29 00:03:37.600,2017-05-29 00:03:37.600,2017-05-29 00:03:50.400,wear
2017-05-29 00:03:50.400,2017-05-29 00:03:50.400,2017-05-29 00:04:03.200,wear
2017-05-29 00:04:03.200,2017-05-29 00:04:03.200,2017-05-29 00:04:16.000,wear
2017-05-29 00:04:16.000,2017-05-29 00:04:16.000,2017-05-29 00:04:28.800,wear
2017-05-29 00:04:28.800,2017-05-29 00:04:28.800,2017-05-29 00:04:41.600,wear
2017-05-29 00:04:41.600,2017-05-29 00:04:41.600,2017-05-29 00:04:54.400,wear
2017-05-29 00:04:54.400,2017-05-29 00:04:54.400,2017-05-29 00:05:07.200,wear
2017-05-29 00:05:07.200,2017-05-29 00:05:07.200,2017-05-29 00:05:20.000,wear
2017-05-29 00:05:20.000,2017-05-29 00:05:20.000,2017-05-29 00:05:32.800,wear
2017-05-29 00:05:32.800,2017-05-29 00:05:32.800,2017-05-29 00:05:45.600,wear
2017-05-29 00:05:45.600,2017-05-29 00:05:45.600,2017-05-29 00:05:58.400,wear
2017-05-29 00:05:58.400,2017-05-29 00:05:58.400,2017-05-29 00:06:11.200,wear
2017-05-29 00:06:11.200,2017-05-29 00:06:11.200,2017-05-29 00:06:24.000,wear
2017-05-29 00:06:24.000,2017-05-29 00:06:24.000,2017-05-29 00:06:36.800,wear
2017-05-29 00:06:36.800,2017-05-29 00:06:36.800,2017-05-29 00:06:49.600,wear
2017-05-29 00:06:49.600,2017-05-29 00:06:49.600,2017-05-29 00:07:02.400,wear
2017-05-29 00:07:02.400,2017-05-29 00:07:02.400,2017-05-29 00:07:15.200,wear
2017-05-29 00:07:15.200,2017-05-29 00:07:15.200,2017-05-29 00:07:28.000,wear
2017-05-29 00:07:28.000,2017-05-29 00:07:28.000,2017-05-29 00:07:40.800,wear
2017-05-29 00:07:40.800,2017-05-29 00:07:40.800,2017-05-29 00:07:53.600,wear
2017-05-29 00:07:53.600,2017-05-29 00:07:53.600,2017-05-29 00:08:06.400,wear
2017-05-29 00:08:06.400,2017-05-29 00:08:06.400,2017-05-29 00:08:19.200,wear
2017-05-29 00:08:19.200,2017-05-29 00:08:19.200,2017-05-29 00:08:32.000,wear
2017-05-29 00:08:32.000,2017-05-29 00:08:32.000,2017-05-29 00:08:44.800,wear
2017-05-29 00:08:44.800,2017-05-29 00:08:44.800,2017-05-29 00:08:57.600,sleep
2017-05-29 00:08:57.600,2017-05-29 00:08:57.600,2017-05-29 00:09:10.400,sleep
2017-05-29 00:09:10.400,2017-05-29 00:09:10.400,2017-05-29 00:09:23.200,sleep
2017-05-29 00:09:23.200,2017-05-29 00:09:23.200,2017-05-29 00:09:36.000,sleep
2017-05-29 00:09:36.000,2017-05-29 00:09:36.000,2017-05-29 00:09:48.800,sleep
2017-05-29 00:09:48.800,2017-05-29 00:09:48.800,2017-05-29 00:10:01.600,sleep
2017-05-29 00:10:01.600,2017-05-29 00:10:01.600,2017-05-29 00:10:14.400,sleep
2017-05-29 00:10:14.400,2017-05-29 00:10:14.400,2017-05-29 00:10:27.200,sleep
2017-05-29 00:10:27.200,2017-05-29 00:10:27.200,2017-05-29 00:10:40.000,sleep
2017-05-29 00:10:40.000,2017-05-29 00:10:40.000,2017-05-29 00:10:52.800,sleep
2017-05-29 00:10:52.800,2017-05-29 00:10:52.800,2017-05-29 00:11:05.600,sleep
2017-05-29 00:11:05.600,2017-05-29 00:11:05.600,2017-05-29 00:11:18.400,sleep
2017-05-29 00:11:18.400,2017-05-29 00:11:18.400,2017-05-29 00:11:31.200,sleep
2017-05-29 00:11:31.200,2017-05-29 00:11:31.200,2017-05-29 00:11:44.000,sleep
2017-05-29 00:11:44.000,2017-05-29 00:11:44.000,2017-05-29 00:11:56.800,sleep
2017-05-29 00:11:56.800,2017-05-29 00:11:56.800,2017-05-29 00:12:09.600,sleep
2017-05-29 00:12:09.600,2017-05-29 00:12:09.600,2017-05-29 00:12:22.400,sleep
2017-05-29 00:12:22.400,2017-05-29 00:12:22.400,2017-05-29 00:12:35.200,sleep
2017-05-29 00:12:35.200,2017-05-29 00:12:35.200,2017-05-29 00:12:48.000,sleep
2017-05-29 00:12:48.000,2017-05-29 00:12:48.000,2017-05-29 00:13:00.800,sleep
2017-05-29 00:13:00.800,2017-05-29 00:13:00.800,2017-05-29 00:13:13.600,sleep
2017-05-29 00:13:13.600,2017-05-29 00:13:13.600,2017-05-29 00:13:26.400,sleep
2017-05-29 00:13:26.400,2017-05-29 00:13:26.400,2017-05-29 00:13:39.200,sleep
2017-05-29 00:13:39.200,2017-05-29 00:13:39.200,2017-05-29 00:13:52.000,sleep
2017-05-29 00:13:52.000,2017-05-29 00:13:52.000,2017-05-29 00:14:04.800,sleep
2017-05-29 00:14:04.800,2017-05-29 00:14:04.800,2017-05-29 00:14:17.600,sleep
2017-05-29 00:14:17.600,2017-05-29 00:14:17.600,2017-05-29 00:14:30.400,sleep
2017-05-29 00:14:30.400,2017-05-29 00:14:30.400,2017-05-29 00:14:43.200,sleep
2017-05-29 00:14:43.200,2017-05-29 00:14:43.200,2017-05-29 00:14:56.000,sleep
2017-05-29 00:14:56.000,2017-05-29 00:14:56.000,2017-05-29 00:15:08.800,sleep
2017-05-29 00:15:08.800,2017-05-29 00:15:08.800,2017-05-29 00:15:21.600,sleep
2017-05-29 00:15:21.600,2017-05-29 00:15:21.600,2017-05-29 00:15:34.400,sleep
2017-05-29 00:15:34.400,2017-05-29 00:15:34.400,2017-05-29 00:15:47.200,sleep
2017-05-29 00:15:47.200,2017-05-29 00:15:47.200,2017-05-29 00:16:00.000,sleep
2017-05-29 00:16:00.000,2017-05-29 00:16:00.000,2017-05-29 00:16:12.800,sleep
2017-05-29 00:16:12.800,2017-05-29 00:16:12.800,2017-05-29 00:16:25.600,sleep
2017-05-29 00:16:25.600,2017-05-29 00:16:25.600,2017-05-29 00:16:38.400,sleep
2017-05-29 00:16:38.400,2017-05-29 00:16:38.400,2017-05-29 00:16:51.200,sleep
2017-05-29 00:16:51.200,2017-05-29 00:16:51.200,2017-05-29 00:17:04.000,sleep
2017-05-29 00:17:04.000,2017-05-29 00:17:04.000,2017-05-29 00:17:16.800,sleep
2017-05-29 00:17:16.800,2017-05-29 00:17:16.800,2017-05-29 00:17:29.600,sleep
2017-05-29 00:17:29.600,2017-05-29 00:17:29.600,2017-05-29 00:17:42.400,sleep
2017-05-29 00:17:42.400,2017-05-29 00:17:42.400,2017-05-29 00:17:55.200,sleep
2017-05-29 00:17:55.200,2017-05-29 00:17:55.200,2017-05-29 00:18:08.000,sleep
2017-05-29 00:18:08.000,2017-05-29 00:18:08.000,2017-05-29 00:18:20.800,sleep
2017-05-29 00:18:20.800,2017-05-29 00:18:20.800,2017-05-29 00:18:33.600,sleep
2017-05-29 00:18:33.600,2017-05-29 00:18:33.600,2017-05-29 00:18:46.400,sleep
2017-05-29 00:18:46.400,2017-05-29 00:18:46.400,2017-05-29 00:18:59.200,sleep
2017-05-29 00:18:59.200,2017-05-29 00:18:59.200,2017-05-29 00:19:12.000,sleep
2017-05-29 00:19:12.000,2017-05-29 00:19:12.000,2017-05-29 00:19:24.800,sleep
2017-05-29 00:19:24.800,2017-05-29 00:19:24.800,2017-05-29 00:19:37.600,sleep
2017-05-29 00:19:37.600,2017-05-29 00:19:37.600,2017-05-29 00:19:50.400,sleep
2017-05-29 00:19:50.400,2017-05-29 00:19:50.400,2017-05-29 00:20:03.200,sleep
2017-05-29 00:20:03.200,2017-05-29 00:20:03.200,2017-05-29 00:20:16.000,sleep
2017-05-29 00:20:16.000,2017-05-29 00:20:16.000,2017-05-29 00:20:28.800,sleep
2017-05-29 00:20:28.800,2017-05-29 00:20:28.800,2017-05-29 00:20:41.600,sleep
2017-05-29 00:20:41.600,2017-05-29 00:20:41.600,2017-05-29 00:20:54.400,sleep
2017-05-29 00:20:54.400,2017-05-29 00:20:54.400,2017-05-29 00:21:07.200,sleep
2017-05-29 00:21:07.200,2017-05-29 00:21:07.200,2017-05-29 00:21:20.000,sleep
2017-05-29 00:21:20.000,2017-05-29 00:21:20.000,2017-05-29 00:21:32.800,sleep
2017-05-29 00:21:32.800,2017-05-29 00:21:32.800,2017-05-29 00:21:45.600,sleep
2017-05-29 00:21:45.600,2017-05-29 00:21:45.600,2017-05-29 00:21:58.400,sleep
2017-05-29 00:21:58.400,2017-05-29 00:21:58.400,2017-05-29 00:22:11.200,sleep
2017-05-29 00:22:11.200,2017-05-29 00:22:11.200,2017-05-29 00:22:24.000,sleep
2017-05-29 00:22:24.000,2017-05-29 00:22:24.000,2017-05-29 00:22:36.800,sleep
2017-05-29 00:22:36.800,2017-05-29 00:22:36.800,2017-05-29 00:22:49.600,sleep
2017-05-29 00:22:49.600,2017-05-29 00:22:49.600,2017-05-29 00:23:02.400,sleep
2017-05-29 00:23:02.400,2017-05-29 00:23:02.400,2017-05-29 00:23:15.200,sleep
2017-05-29 00:23:15.200,2017-05-29 00:23:15.200,2017-05-29 00:23:28.000,sleep
2017-05-29 00:23:28.000,2017-05-29 00:23:28.000,2017-05-29 00:23:40.800,sleep
2017-05-29 00:23:40.800,2017-05-29 00:23:40.800,2017-05-29 00:23:53.600,sleep
2017-05-29 00:23:53.600,2017-05-29 00:23:53.600,2017-05-29 00:24:06.400,sleep
2017-05-29 00:24:06.400,2017-05-29 00:24:06.400,2017-05-29 00:24:19.200,sleep
2017-05-29 00:24:19.200,2017-05-29 00:24:19.200,2017-05-29 00:24:32.000,sleep
2017-05-29 00:24:32.000,2017-05-29 00:24:32.000,2017-05-29 00:24:44.800,sleep
2017-05-29 00:24:44.800,2017-05-29 00:24:44.800,2017-05-29 00:24:57.600,sleep
2017-05-29 00:24:57.600,2017-05-29 00:24:57.600,2017-05-29 00:25:10.400,sleep
2017-05-29 00:25:10.400,2017-05-29 00:25:10.400,2017-05-29 00:25:23.200,sleep
2017-05-29 00:25:23.200,2017-05-29 00:25:23.200,2017-05-29 00:25:36.000,sleep
2017-05-29 00:25:36.000,2017-05-29 00:25:36.000,2017-05-29 00:25:48.800,sleep
2017-05-29 00:25:48.800,2017-05-29 00:25:48.800,2017-05-29 00:26:01.600,sleep
2017-05-29 00:26:01.600,2017-05-29 00:26:01.600,2017-05-29 00:26:14.400,sleep
2017-05-29 00:26:14.400,2017-05-29 00:26:14.400,2017-05-29 00:26:27.200,sleep
2017-05-29 00:26:27.200,2017-05-29 00:26:27.200,2017-05-29 00:26:40.000,sleep
2017-05-29 00:26:40.000,2017-05-29 00:26:40.000,2017-05-29 00:26:52.800,sleep
2017-05-29 00:26:52.800,2017-05-29 00:26:52.800,2017-05-29 00:27:05.600,sleep
2017-05-29 00:27:05.600,2017-05-29 00:27:05.600,2017-05-29 00:27:18.400,sleep
2017-05-29 00:27:18.400,2017-05-29 00:27:18.400,2017-05-29 00:27:31.200,sleep
2017-05-29 00:27:31.200,2017-05-29 00:27:31.200,2017-05-29 00:27:44.000,sleep
2017-05-29 00:27:44.000,2017-05-29 00:27:44.000,2017-05-29 00:27:56.800,sleep
2017-05-29 00:27:56.800,2017-05-29 00:27:56.800,2017-05-29 00:28:09.600,sleep
2017-05-29 00:28:09.600,2017-05-29 00:28:09.600,2017-05-29 00:28:22.400,sleep
2017-05-29 00:28:22.400,2017-05-29 00:28:22.400,2017-05-29 00:28:35.200,sleep
2017-05-29 00:28:35.200,2017-05-29 00:28:35.200,2017-05-29 00:28:48.000,sleep
2017-05-29 00:28:48.000,2017-05-29 00:28:48.000,2017-05-29 00:29:00.800,sleep
2017-05-29 00:29:00.800,2017-05-29 00:29:00.800,2017-05-29 00:29:13.600,sleep
2017-05-29 00:29:13.600,2017-05-29 00:29:13.600,2017-05-29 00:29:26.400,sleep
2017-05-29 00:29:26.400,2017-05-29 00:29:26.400,2017-05-29 00:29:39.200,sleep
2017-05-29 00:29:39.200,2017-05-29 00:29:39.200,2017-05-29 00:29:52.000,sleep
2017-05-29 00:29:52.000,2017-05-29 00:29:52.000,2017-05-29 00:30:04.800,sleep
2017-05-29 00:30:04.800,2017-05-29 00:30:04.800,2017-05-29 00:30:17.600,sleep
2017-05-29 00:30:17.600,2017-05-29 00:30:17.600,2017-05-29 00:30:30.400,sleep
2017-05-29 00:30:30.400,2017-05-29 00:30:30.400,2017-05-29 00:30:43.200,sleep
2017-05-29 00:30:43.200,2017-05-29 00:30:43.200,2017-05-29 00:30:56.000,sleep
2017-05-29 00:30:56.000,2017-05-29 00:30:56.000,2017-05-29 00:31:08.800,sleep
2017-05-29 00:31:08.800,2017-05-29 00:31:08.800,2017-05-29 00:31:21.600,sleep
2017-05-29 00:31:21.600,2017-05-29 00:31:21.600,2017-05-29 00:31:34.400,sleep
2017-05-29 00:31:34.400,2017-05-29 00:31:34.400,2017-05-29 00:31:47.200,sleep
2017-05-29 00:31:47.200,2017-05-29 00:31:47.200,2017-05-29 00:32:00.000,sleep
2017-05-29 00:32:00.000,2017-05-29 00:32:00.000,2017-05-29 00:32:12.800,sleep
2017-05-29 00:32:12.800,2017-05-29 00:32:12.800,2017-05-29 00:32:25.600,sleep
2017-05-29 00:32:25.600,2017-05-29 00:32:25.600,2017-05-29 00:32:38.400,sleep
2017-05-29 00:32:38.400,2017-05-29 00:32:38.400,2017-05-29 00:32:51.200,sleep
2017-05-29 00:32:51.200,2017-05-29 00:32:51.200,2017-05-29 00:33:04.000,sleep
2017-05-29 00:33:04.000,2017-05-29 00:33:04.000,2017-05-29 00:33:16.800,sleep
2017-05-29 00:33:16.800,2017-05-29 00:33:16.800,2017-05-29 00:33:29.600,sleep
2017-05-29 00:33:29.600,2017-05-29 00:33:29.600,2017-05-29 00:33:42.400,sleep
2017-05-29 00:33:42.400,2017-05-29 00:33:42.400,2017-05-29 00:33:55.200,sleep
2017-05-29 00:33:55.200,2017-05-29 00:33:55.200,2017-05-29 00:34:08.000,sleep
2017-05-29 00:34:08.000,2017-05-29 00:34:08.000,2017-05-29 00:34:20.800,sleep
2017-05-29 00:34:20.800,2017-05-29 00:34:20.800,2017-05-29 00:34:33.600,sleep
2017-05-29 00:34:33.600,2017-05-29 00:34:33.600,2017-05-29 00:34:46.400,sleep
2017-05-29 00:34:46.400,2017-05-29 00:34:46.400,2017-05-29 00:34:59.200,sleep
2017-05-29 00:34:59.200,2017-05-29 00:34:59.200,2017-05-29 00:35:12.000,sleep
2017-05-29 00:35:12.000,2017-05-29 00:35:12.000,2017-05-29 00:35:24.800,sleep
2017-05-29 00:35:24.800,2017-05-29 00:35:24.800,2017-05-29 00:35:37.600,sleep
2017-05-29 00:35:37.600,2017-05-29 00:35:37.600,2017-05-29 00:35:50.400,sleep
2017-05-29 00:35:50.400,2017-05-29 00:35:50.400,2017-05-29 00:36:03.200,sleep
2017-05-29 00:36:03.200,2017-05-29 00:36:03.200,2017-05-29 00:36:16.000,sleep
2017-05-29 00:36:16.000,2017-05-29 00:36:16.000,2017-05-29 00:36:28.800,sleep
2017-05-29 00:36:28.800,2017-05-29 00:36:28.800,2017-05-29 00:36:41.600,sleep
2017-05-29 00:36:41.600,2017-05-29 00:36:41.600,2017-05-29 00:36:54.400,sleep
2017-05-29 00:36:54.400,2017-05-29 00:36:54.400,2017-05-29 00:37:07.200,sleep
2017-05-29 00:37:07.200,2017-05-29 00:37:07.200,2017-05-29 00:37:20.000,sleep
2017-05-29 00:37:20.000,2017-05-29 00:37:20.000,2017-05-29 00:37:32.800,sleep
2017-05-29 00:37:32.800,2017-05-29 00:37:32.800,2017-05-29 00:37:45.600,sleep
2017-05-29 00:37:45.600,2017-05-29 00:37:45.600,2017-05-29 00:37:58.400,sleep
2017-05-29 00:37:58.400,2017-05-29 00:37:58.400,2017-05-29 00:38:11.200,sleep
2017-05-29 00:38:11.200,2017-05-29 00:38:11.200,2017-05-29 00:38:24.000,sleep
2017-05-29 00:38:24.000,2017-05-29 00:38:24.000,2017-05-29 00:38:36.800,sleep
2017-05-29 00:38:36.800,2017-05-29 00:38:36.800,2017-05-29 00:38:49.600,sleep
2017-05-29 00:38:49.600,2017-05-29 00:38:49.600,2017-05-29 00:39:02.400,sleep
2017-05-29 00:39:02.400,2017-05-29 00:39:02.400,2017-05-29 00:39:15.200,sleep
2017-05-29 00:39:15.200,2017-05-29 00:39:15.200,2017-05-29 00:39:28.000,sleep
2017-05-29 00:39:28.000,2017-05-29 00:39:28.000,2017-05-29 00:39:40.800,sleep
2017-05-29 00:39:40.800,2017-05-29 00:39:40.800,2017-05-29 00:39:53.600,sleep
2017-05-29 00:39:53.600,2017-05-29 00:39:53.600,2017-05-29 00:40:06.400,sleep
2017-05-29 00:40:06.400,2017-05-29 00:40:06.400,2017-05-29 00:40:19.200,sleep
2017-05-29 00:40:19.200,2017-05-29 00:40:19.200,2017-05-29 00:40:32.000,sleep
2017-05-29 00:40:32.000,2017-05-29 00:40:32.000,2017-05-29 00:40:44.800,sleep
2017-05-29 00:40:44.800,2017-05-29 00:40:44.800,2017-05-29 00:40:57.600,sleep
2017-05-29 00:40:57.600,2017-05-29 00:40:57.600,2017-05-29 00:41:10.400,sleep
2017-05-29 00:41:10.400,2017-05-29 00:41:10.400,2017-05-29 00:41:23.200,sleep
2017-05-29 00:41:23.200,2017-05-29 00:41:23.200,2017-05-29 00:41:36.000,sleep
2017-05-29 00:41:36.000,2017-05-29 00:41:36.000,2017-05-29 00:41:48.800,sleep
2017-05-29 00:41:48.800,2017-05-29 00:41:48.800,2017-05-29 00:42:01.600,sleep
2017-05-29 00:42:01.600,2017-05-29 00:42:01.600,2017-05-29 00:42:14.400,sleep
2017-05-29 00:42:14.400,2017-05-29 00:42:14.400,2017-05-29 00:42:27.200,sleep
2017-05-29 00:42:27.200,2017-05-29 00:42:27.200,2017-05-29 00:42:40.000,sleep
2017-05-29 00:42:40.000,2017-05-29 00:42:40.000,2017-05-29 00:42:52.800,sleep
2017-05-29 00:42:52.800,2017-05-29 00:42:52.800,2017-05-29 00:43:05.600,sleep
2017-05-29 00:43:05.600,2017-05-29 00:43:05.600,2017-05-29 00:43:18.400,sleep
2017-05-29 00:43:18.400,2017-05-29 00:43:18.400,2017-05-29 00:43:31.200,sleep
2017-05-29 00:43:31.200,2017-05-29 00:43:31.200,2017-05-29 00:43:44.000,sleep
2017-05-29 00:43:44.000,2017-05-29 00:43:44.000,2017-05-29 00:43:56.800,sleep
2017-05-29 00:43:56.800,2017-05-29 00:43:56.800,2017-05-29 00:44:09.600,sleep
2017-05-29 00:44:09.600,2017-05-29 00:44:09.600,2017-05-29 00:44:22.400,sleep
2017-05-29 00:44:22.400,2017-05-29 00:44:22.400,2017-05-29 00:44:35.200,sleep
2017-05-29 00:44:35.200,2017-05-29 00:44:35.200,2017-05-29 00:44:48.000,sleep
2017-05-29 00:44:48.000,2017-05-29 00:44:48.000,2017-05-29 00:45:00.800,sleep
2017-05-29 00:45:00.800,2017-05-29 00:45:00.800,2017-05-29 00:45:13.600,sleep
2017-05-29 00:45:13.600,2017-05-29 00:45:13.600,2017-05-29 00:45:26.400,sleep
2017-05-29 00:45:26.400,2017-05-29 00:45:26.400,2017-05-29 00:45:39.200,sleep
2017-05-29 00:45:39.200,2017-05-29 00:45:39.200,2017-05-29 00:45:52.000,sleep
2017-05-29 00:45:52.000,2017-05-29 00:45:52.000,2017-05-29 00:46:04.800,sleep
2017-05-29 00:46:04.800,2017-05-29 00:46:04.800,2017-05-29 00:46:17.600,sleep
2017-05-29 00:46:17.600,2017-05-29 00:46:17.600,2017-05-29 00:46:30.400,sleep
2017-05-29 00:46:30.400,2017-05-29 00:46:30.400,2017-05-29 00:46:43.200,sleep
2017-05-29 00:46:43.200,2017-05-29 00:46:43.200,2017-05-29 00:46:56.000,sleep
2017-05-29 00:46:56.000,2017-05-29 00:46:56.000,2017-05-29 00:47:08.800,sleep
2017-05-29 00:47:08.800,2017-05-29 00:47:08.800,2017-05-29 00:47:21.600,sleep
2017-05-29 00:47:21.600,2017-05-29 00:47:21.600,2017-05-29 00:47:34.400,sleep
2017-05-29 00:47:34.400,2017-05-29 00:47:34.400,2017-05-29 00:47:47.200,sleep
2017-05-29 00:47:47.200,2017-05-29 00:47:47.200,2017-05-29 00:48:00.000,sleep
2017-05-29 00:48:00.000,2017-05-29 00:48:00.000,2017-05-29 00:48:12.800,sleep
2017-05-29 00:48:12.800,2017-05-29 00:48:12.800,2017-05-29 00:48:25.600,sleep
2017-05-29 00:48:25.600,2017-05-29 00:48:25.600,2017-05-29 00:48:38.400,sleep
2017-05-29 00:48:38.400,2017-05-29 00:48:38.400,2017-05-29 00:48:51.200,sleep
2017-05-29 00:48:51.200,2017-05-29 00:48:51.200,2017-05-29 00:49:04.000,sleep
2017-05-29 00:49:04.000,2017-05-29 00:49:04.000,2017-05-29 00:49:16.800,sleep
2017-05-29 00:49:16.800,2017-05-29 00:49:16.800,2017-05-29 00:49:29.600,sleep
2017-05-29 00:49:29.600,2017-05-29 00:49:29.600,2017-05-29 00:49:42.400,sleep
2017-05-29 00:49:42.400,2017-05-29 00:49:42.400,2017-05-29 00:49:55.200,sleep
2017-05-29 00:49:55.200,2017-05-29 00:49:55.200,2017-05-29 00:50:08.000,sleep
2017-05-29 00:50:08.000,2017-05-29 00:50:08.000,2017-05-29 00:50:20.800,sleep
2017-05-29 00:50:20.800,2017-05-29 00:50:20.800,2017-05-29 00:50:33.600,sleep
2017-05-29 00:50:33.600,2017-05-29 00:50:33.600,2017-05-29 00:50:46.400,sleep
2017-05-29 00:50:46.400,2017-05-29 00:50:46.400,2017-05-29 00:50:59.200,sleep
2017-05-29 00:50:59.200,2017-05-29 00:50:59.200,2017-05-29 00:51:12.000,sleep
2017-05-29 00:51:12.000,2017-05-29 00:51:12.000,2017-05-29 00:51:24.800,sleep
2017-05-29 00:51:24.800,2017-05-29 00:51:24.800,2017-05-29 00:51:37.600,sleep
2017-05-29 00:51:37.600,2017-05-29 00:51:37.600,2017-05-29 00:51:50.400,sleep
2017-05-29 00:51:50.400,2017-05-29 00:51:50.400,2017-05-29 00:52:03.200,sleep
2017-05-29 00:52:03.200,2017-05-29 00:52:03.200,2017-05-29 00:52:16.000,sleep
2017-05-29 00:52:16.000,2017-05-29 00:52:16.000,2017-05-29 00:52:28.800,sleep
2017-05-29 00:52:28.800,2017-05-29 00:52:28.800,2017-05-29 00:52:41.600,sleep
2017-05-29 00:52:41.600,2017-05-29 00:52:41.600,2017-05-29 00:52:54.400,sleep
2017-05-29 00:52:54.400,2017-05-29 00:52:54.400,2017-05-29 00:53:07.200,sleep
2017-05-29 00:53:07.200,2017-05-29 00:53:07.200,2017-05-29 00:53:20.000,sleep
2017-05-29 00:53:20.000,2017-05-29 00:53:20.000,2017-05-29 00:53:32.800,sleep
2017-05-29 00:53:32.800,2017-05-29 00:53:32.800,2017-05-29 00:53:45.600,sleep
2017-05-29 00:53:45.600,2017-05-29 00:53:45.600,2017-05-29 00:53:58.400,sleep
2017-05-29 00:53:58.400,2017-05-29 00:53:58.400,2017-05-29 00:54:11.200,sleep
2017-05-29 00:54:11.200,2017-05-29 00:54:11.200,2017-05-29 00:54:24.000,sleep
2017-05-29 00:54:24.000,2017-05-29 00:54:24.000,2017-05-29 00:54:36.800,sleep
2017-05-29 00:54:36.800,2017-05-29 00:54:36.800,2017-05-29 00:54:49.600,sleep
2017-05-29 00:54:49.600,2017-05-29 00:54:49.600,2017-05-29 00:55:02.400,sleep
2017-05-29 00:55:02.400,2017-05-29 00:55:02.400,2017-05-29 00:55:15.200,sleep
2017-05-29 00:55:15.200,2017-05-29 00:55:15.200,2017-05-29 00:55:28.000,sleep
2017-05-29 00:55:28.000,2017-05-29 00:55:28.000,2017-05-29 00:55:40.800,sleep
2017-05-29 00:55:40.800,2017-05-29 00:55:40.800,2017-05-29 00:55:53.600,sleep
2017-05-29 00:55:53.600,2017-05-29 00:55:53.600,2017-05-29 00:56:06.400,sleep
2017-05-29 00:56:06.400,2017-05-29 00:56:06.400,2017-05-29 00:56:19.200,sleep
2017-05-29 00:56:19.200,2017-05-29 00:56:19.200,2017-05-29 00:56:32.000,sleep
2017-05-29 00:56:32.000,2017-05-29 00:56:32.000,2017-05-29 00:56:44.800,sleep
2017-05-29 00:56:44.800,2017-05-29 00:56:44.800,2017-05-29 00:56:57.600,sleep
2017-05-29 00:56:57.600,2017-05-29 00:56:57.600,2017-05-29 00:57:10.400,sleep
2017-05-29 00:57:10.400,2017-05-29 00:57:10.400,2017-05-29 00:57:23.200,sleep
2017-05-29 00:57:23.200,2017-05-29 00:57:23.200,2017-05-29 00:57:36.000,sleep
2017-05-29 00:57:36.000,2017-05-29 00:57:36.000,2017-05-29 00:57:48.800,sleep
2017-05-29 00:57:48.800,2017-05-29 00:57:48.800,2017-05-29 00:58:01.600,sleep
2017-05-29 00:58:01.600,2017-05-29 00:58:01.600,2017-05-29 00:58:14.400,sleep
2017-05-29 00:58:14.400,2017-05-29 00:58:14.400,2017-05-29 00:58:27.200,sleep
2017-05-29 00:58:27.200,2017-05-29 00:58:27.200,2017-05-29 00:58:40.000,sleep
2017-05-29 00:58:40.000,2017-05-29 00:58:40.000,2017-05-29 00:58:52.800,sleep
2017-05-29 00:58:52.800,2017-05-29 00:58:52.800,2017-05-29 00:59:05.600,sleep
2017-05-29 00:59:05.600,2017-05-29 00:59:05.600,2017-05-29 00:59:18.400,sleep
2017-05-29 00:59:18.400,2017-05-29 00:59:18.400,2017-05-29 00:59:31.200,sleep
2017-05-29 00:59:31.200,2017-05-29 00:59:31.200,2017-05-29 00:59:44.000,sleep
2017-05-29 00:59:44.000,2017-05-29 00:59:44.000,2017-05-29 00:59:56.800,sleep
2017-05-29 00:59:56.800,2017-05-29 00:59:56.800,2017-05-29 00:59:59.999,sleep
2017-05-29 00:59:56.800,2017-05-29 00:59:56.800,2017-05-29 00:59:59.999,sleep
