HEADER_TIME_STAMP,START_TIME,STOP_TIME,LABEL_PROBABILITY
2017-05-29 00:00:00.000,2017-05-29 00:00:00.000,2017-05-29 00:01:04.000,0.99
2017-05-29 00:01:04.000,2017-05-29 00:01:04.000,2017-05-29 00:02:08.000,0.973
2017-05-29 00:02:08.000,2017-05-29 00:02:08.000,2017-05-29 00:03:12.000,0.999
2017-05-29 00:03:12.000,2017-05-29 00:03:12.000,2017-05-29 00:04:16.000,0.991
2017-05-29 00:04:16.000,2017-05-29 00:04:16.000,2017-05-29 00:05:20.000,0.999
2017-05-29 00:05:20.000,2017-05-29 00:05:20.000,2017-05-29 00:06:24.000,0.808
2017-05-29 00:06:24.000,2017-05-29 00:06:24.000,2017-05-29 00:07:28.000,0.886
2017-05-29 00:07:28.000,2017-05-29 00:07:28.000,2017-05-29 00:08:32.000,0.913
2017-05-29 00:08:32.000,2017-05-29 00:08:32.000,2017-05-29 00:09:36.000,0.989
2017-05-29 00:09:36.000,2017-05-29 00:09:36.000,2017-05-29 00:10:40.000,0.97
2017-05-29 00:10:40.000,2017-05-29 00:10:40.000,2017-05-29 00:11:44.000,0.995
2017-05-29 00:11:44.000,2017-05-29 00:11:44.000,2017-05-29 00:12:48.000,0.91
2017-05-29 00:12:48.000,2017-05-29 00:12:48.000,2017-05-29 00:13:52.000,0.821
2017-05-29 00:13:52.000,2017-05-29 00:13:52.000,2017-05-29 00:14:56.000,0.833
2017-05-29 00:14:56.000,2017-05-29 00:14:56.000,2017-05-29 00:16:00.000,0.76
2017-05-29 00:16:00.000,2017-05-29 00:16:00.000,2017-05-29 00:17:04.000,0.76
2017-05-29 00:17:04.000,2017-05-29 00:17:04.000,2017-05-29 00:18:08.000,0.504
2017-05-29 00:18:08.000,2017-05-29 00:18:08.000,2017-05-29 00:19:12.000,0.504
2017-05-29 00:19:12.000,2017-05-29 00:19:12.000,2017-05-29 00:20:16.000,0.618
2017-05-29 00:20:16.000,2017-05-29 00:20:16.000,2017-05-29 00:21:20.000,0.504
2017-05-29 00:21:20.000,2017-05-29 00:21:20.000,2017-05-29 00:22:24.000,0.618
2017-05-29 00:22:24.000,2017-05-29 00:22:24.000,2017-05-29 00:23:28.000,0.727
2017-05-29 00:23:28.000,2017-05-29 00:23:28.000,2017-05-29 00:24:32.000,0.618
2017-05-29 00:24:32.000,2017-05-29 00:24:32.000,2017-05-29 00:25:36.000,0.625
2017-05-29 00:25:36.000,2017-05-29 00:25:36.000,2017-05-29 00:26:40.000,0.742
2017-05-29 00:26:40.000,2017-05-29 00:26:40.000,2017-05-29 00:27:44.000,0.742
2017-05-29 00:27:44.000,2017-05-29 00:27:44.000,2017-05-29 00:28:48.000,0.742
2017-05-29 00:28:48.000,2017-05-29 00:28:48.000,2017-05-29 00:29:52.000,0.742
2017-05-29 00:29:52.000,2017-05-29 00:29:52.000,2017-05-29 00:30:56.000,0.742
2017-05-29 00:30:56.000,2017-05-29 00:30:56.000,2017-05-29 00:32:00.000,0.742
2017-05-29 00:32:00.000,2017-05-29 00:32:00.000,2017-05-29 00:33:04.000,0.742
2017-05-29 00:33:04.000,2017-05-29 00:33:04.000,2017-05-29 00:34:08.000,0.742
2017-05-29 00:34:08.000,2017-05-29 00:34:08.000,2017-05-29 00:35:12.000,0.742
2017-05-29 00:35:12.000,2017-05-29 00:35:12.000,2017-05-29 00:36:16.000,0.742
2017-05-29 00:36:16.000,2017-05-29 00:36:16.000,2017-05-29 00:37:20.000,0.742
2017-05-29 00:37:20.000,2017-05-29 00:37:20.000,2017-05-29 00:38:24.000,0.742
2017-05-29 00:38:24.000,2017-05-29 00:38:24.000,2017-05-29 00:39:28.000,0.742
2017-05-29 00:39:28.000,2017-05-29 00:39:28.000,2017-05-29 00:40:32.000,0.742
2017-05-29 00:40:32.000,2017-05-29 00:40:32.000,2017-05-29 00:41:36.000,0.618
2017-05-29 00:41:36.000,2017-05-29 00:41:36.000,2017-05-29 00:42:40.000,0.742
2017-05-29 00:42:40.000,2017-05-29 00:42:40.000,2017-05-29 00:43:44.000,0.742
2017-05-29 00:43:44.000,2017-05-29 00:43:44.000,2017-05-29 00:44:48.000,0.742
2017-05-29 00:44:48.000,2017-05-29 00:44:48.000,2017-05-29 00:45:52.000,0.742
2017-05-29 00:45:52.000,2017-05-29 00:45:52.000,2017-05-29 00:46:56.000,0.742
2017-05-29 00:46:56.000,2017-05-29 00:46:56.000,2017-05-29 00:48:00.000,0.742
2017-05-29 00:48:00.000,2017-05-29 00:48:00.000,2017-05-29 00:49:04.000,0.742
2017-05-29 00:49:04.000,2017-05-29 00:49:04.000,2017-05-29 00:50:08.000,0.742
2017-05-29 00:50:08.000,2017-05-29 00:50:08.000,2017-05-29 00:51:12.000,0.742
2017-05-29 00:51:12.000,2017-05-29 00:51:12.000,2017-05-29 00:52:16.000,0.742
2017-05-29 00:52:16.000,2017-05-29 00:52:16.000,2017-05-29 00:53:20.000,0.515
2017-05-29 00:53:20.000,2017-05-29 00:53:20.000,2017-05-29 00:54:24.000,0.742
2017-05-29 00:54:24.000,2017-05-29 00:54:24.000,2017-05-29 00:55:28.000,0.742
2017-05-29 00:55:28.000,2017-05-29 00:55:28.000,2017-05-29 00:56:32.000,0.742
2017-05-29 00:56:32.000,2017-05-29 00:56:32.000,2017-05-29 00:57:36.000,0.515
2017-05-29 00:57:36.000,2017-05-29 00:57:36.000,2017-05-29 00:58:40.000,0.515
2017-05-29 00:58:40.000,2017-05-29 00:58:40.000,2017-05-29 00:59:44.000,0.515
2017-05-29 00:59:44.000,2017-05-29 00:59:44.000,2017-05-29 00:59:59.999,0.57
