HEADER_TIME_STAMP,START_TIME,STOP_TIME,LABEL_PREDICTED
2017-05-27 14:00:32.000,2017-05-27 14:00:32.000,2017-05-27 14:01:36.000,wear
2017-05-27 14:01:36.000,2017-05-27 14:01:36.000,2017-05-27 14:02:40.000,wear
2017-05-27 14:02:40.000,2017-05-27 14:02:40.000,2017-05-27 14:03:44.000,wear
2017-05-27 14:03:44.000,2017-05-27 14:03:44.000,2017-05-27 14:04:48.000,wear
2017-05-27 14:04:48.000,2017-05-27 14:04:48.000,2017-05-27 14:05:52.000,wear
2017-05-27 14:05:52.000,2017-05-27 14:05:52.000,2017-05-27 14:06:56.000,wear
2017-05-27 14:06:56.000,2017-05-27 14:06:56.000,2017-05-27 14:08:00.000,wear
2017-05-27 14:08:00.000,2017-05-27 14:08:00.000,2017-05-27 14:09:04.000,wear
2017-05-27 14:09:04.000,2017-05-27 14:09:04.000,2017-05-27 14:10:08.000,wear
2017-05-27 14:10:08.000,2017-05-27 14:10:08.000,2017-05-27 14:11:12.000,wear
2017-05-27 14:11:12.000,2017-05-27 14:11:12.000,2017-05-27 14:12:16.000,wear
2017-05-27 14:12:16.000,2017-05-27 14:12:16.000,2017-05-27 14:13:20.000,wear
2017-05-27 14:13:20.000,2017-05-27 14:13:20.000,2017-05-27 14:14:24.000,wear
2017-05-27 14:14:24.000,2017-05-27 14:14:24.000,2017-05-27 14:15:28.000,wear
2017-05-27 14:15:28.000,2017-05-27 14:15:28.000,2017-05-27 14:16:32.000,wear
2017-05-27 14:16:32.000,2017-05-27 14:16:32.000,2017-05-27 14:17:36.000,wear
2017-05-27 14:17:36.000,2017-05-27 14:17:36.000,2017-05-27 14:18:40.000,wear
2017-05-27 14:18:40.000,2017-05-27 14:18:40.000,2017-05-27 14:19:44.000,wear
2017-05-27 14:19:44.000,2017-05-27 14:19:44.000,2017-05-27 14:20:48.000,wear
2017-05-27 14:20:48.000,2017-05-27 14:20:48.000,2017-05-27 14:21:52.000,wear
2017-05-27 14:21:52.000,2017-05-27 14:21:52.000,2017-05-27 14:22:56.000,wear
2017-05-27 14:22:56.000,2017-05-27 14:22:56.000,2017-05-27 14:24:00.000,wear
2017-05-27 14:24:00.000,2017-05-27 14:24:00.000,2017-05-27 14:25:04.000,wear
2017-05-27 14:25:04.000,2017-05-27 14:25:04.000,2017-05-27 14:26:08.000,wear
2017-05-27 14:26:08.000,2017-05-27 14:26:08.000,2017-05-27 14:27:12.000,wear
2017-05-27 14:27:12.000,2017-05-27 14:27:12.000,2017-05-27 14:28:16.000,wear
2017-05-27 14:28:16.000,2017-05-27 14:28:16.000,2017-05-27 14:29:20.000,wear
2017-05-27 14:29:20.000,2017-05-27 14:29:20.000,2017-05-27 14:30:24.000,wear
2017-05-27 14:30:24.000,2017-05-27 14:30:24.000,2017-05-27 14:31:28.000,wear
2017-05-27 14:31:28.000,2017-05-27 14:31:28.000,2017-05-27 14:32:32.000,wear
2017-05-27 14:32:32.000,2017-05-27 14:32:32.000,2017-05-27 14:33:36.000,wear
2017-05-27 14:33:36.000,2017-05-27 14:33:36.000,2017-05-27 14:34:40.000,wear
2017-05-27 14:34:40.000,2017-05-27 14:34:40.000,2017-05-27 14:35:44.000,wear
2017-05-27 14:35:44.000,2017-05-27 14:35:44.000,2017-05-27 14:36:48.000,wear
2017-05-27 14:36:48.000,2017-05-27 14:36:48.000,2017-05-27 14:37:52.000,wear
2017-05-27 14:37:52.000,2017-05-27 14:37:52.000,2017-05-27 14:38:56.000,wear
2017-05-27 14:38:56.000,2017-05-27 14:38:56.000,2017-05-27 14:40:00.000,wear
2017-05-27 14:40:00.000,2017-05-27 14:40:00.000,2017-05-27 14:41:04.000,wear
2017-05-27 14:41:04.000,2017-05-27 14:41:04.000,2017-05-27 14:42:08.000,wear
2017-05-27 14:42:08.000,2017-05-27 14:42:08.000,2017-05-27 14:43:12.000,wear
2017-05-27 14:43:12.000,2017-05-27 14:43:12.000,2017-05-27 14:44:16.000,wear
2017-05-27 14:44:16.000,2017-05-27 14:44:16.000,2017-05-27 14:45:20.000,wear
2017-05-27 14:45:20.000,2017-05-27 14:45:20.000,2017-05-27 14:46:24.000,wear
2017-05-27 14:46:24.000,2017-05-27 14:46:24.000,2017-05-27 14:47:28.000,wear
2017-05-27 14:47:28.000,2017-05-27 14:47:28.000,2017-05-27 14:48:32.000,wear
2017-05-27 14:48:32.000,2017-05-27 14:48:32.000,2017-05-27 14:49:36.000,wear
2017-05-27 14:49:36.000,2017-05-27 14:49:36.000,2017-05-27 14:50:40.000,wear
2017-05-27 14:50:40.000,2017-05-27 14:50:40.000,2017-05-27 14:51:44.000,wear
2017-05-27 14:51:44.000,2017-05-27 14:51:44.000,2017-05-27 14:52:48.000,wear
2017-05-27 14:52:48.000,2017-05-27 14:52:48.000,2017-05-27 14:53:52.000,wear
2017-05-27 14:53:52.000,2017-05-27 14:53:52.000,2017-05-27 14:54:56.000,wear
2017-05-27 14:54:56.000,2017-05-27 14:54:56.000,2017-05-27 14:56:00.000,wear
2017-05-27 14:56:00.000,2017-05-27 14:56:00.000,2017-05-27 14:57:04.000,wear
2017-05-27 14:57:04.000,2017-05-27 14:57:04.000,2017-05-27 14:58:08.000,wear
2017-05-27 14:58:08.000,2017-05-27 14:58:08.000,2017-05-27 14:59:12.000,wear
2017-05-27 14:59:12.000,2017-05-27 14:59:12.000,2017-05-27 14:59:59.999,wear
