HEADER_TIME_STAMP,START_TIME,STOP_TIME,LABEL_PROBABILITY
2017-05-30 21:00:48.000,2017-05-30 21:00:48.000,2017-05-30 21:01:52.000,0.733
2017-05-30 21:01:52.000,2017-05-30 21:01:52.000,2017-05-30 21:02:56.000,0.642
2017-05-30 21:02:56.000,2017-05-30 21:02:56.000,2017-05-30 21:04:00.000,0.834
2017-05-30 21:04:00.000,2017-05-30 21:04:00.000,2017-05-30 21:05:04.000,0.909
2017-05-30 21:05:04.000,2017-05-30 21:05:04.000,2017-05-30 21:06:08.000,0.939
2017-05-30 21:06:08.000,2017-05-30 21:06:08.000,2017-05-30 21:07:12.000,0.904
2017-05-30 21:07:12.000,2017-05-30 21:07:12.000,2017-05-30 21:08:16.000,0.751
2017-05-30 21:08:16.000,2017-05-30 21:08:16.000,2017-05-30 21:09:20.000,0.936
2017-05-30 21:09:20.000,2017-05-30 21:09:20.000,2017-05-30 21:10:24.000,0.873
2017-05-30 21:10:24.000,2017-05-30 21:10:24.000,2017-05-30 21:11:28.000,0.982
2017-05-30 21:11:28.000,2017-05-30 21:11:28.000,2017-05-30 21:12:32.000,0.867
2017-05-30 21:12:32.000,2017-05-30 21:12:32.000,2017-05-30 21:13:36.000,0.849
2017-05-30 21:13:36.000,2017-05-30 21:13:36.000,2017-05-30 21:14:40.000,0.989
2017-05-30 21:14:40.000,2017-05-30 21:14:40.000,2017-05-30 21:15:44.000,0.97
2017-05-30 21:15:44.000,2017-05-30 21:15:44.000,2017-05-30 21:16:48.000,0.997
2017-05-30 21:16:48.000,2017-05-30 21:16:48.000,2017-05-30 21:17:52.000,0.992
2017-05-30 21:17:52.000,2017-05-30 21:17:52.000,2017-05-30 21:18:56.000,0.993
2017-05-30 21:18:56.000,2017-05-30 21:18:56.000,2017-05-30 21:20:00.000,0.998
2017-05-30 21:20:00.000,2017-05-30 21:20:00.000,2017-05-30 21:21:04.000,0.996
2017-05-30 21:21:04.000,2017-05-30 21:21:04.000,2017-05-30 21:22:08.000,0.993
2017-05-30 21:22:08.000,2017-05-30 21:22:08.000,2017-05-30 21:23:12.000,0.974
2017-05-30 21:23:12.000,2017-05-30 21:23:12.000,2017-05-30 21:24:16.000,0.952
2017-05-30 21:24:16.000,2017-05-30 21:24:16.000,2017-05-30 21:25:20.000,0.972
2017-05-30 21:25:20.000,2017-05-30 21:25:20.000,2017-05-30 21:26:24.000,0.983
2017-05-30 21:26:24.000,2017-05-30 21:26:24.000,2017-05-30 21:27:28.000,0.985
2017-05-30 21:27:28.000,2017-05-30 21:27:28.000,2017-05-30 21:28:32.000,0.953
2017-05-30 21:28:32.000,2017-05-30 21:28:32.000,2017-05-30 21:29:36.000,0.995
2017-05-30 21:29:36.000,2017-05-30 21:29:36.000,2017-05-30 21:30:40.000,0.965
2017-05-30 21:30:40.000,2017-05-30 21:30:40.000,2017-05-30 21:31:44.000,0.928
2017-05-30 21:31:44.000,2017-05-30 21:31:44.000,2017-05-30 21:32:48.000,0.969
2017-05-30 21:32:48.000,2017-05-30 21:32:48.000,2017-05-30 21:33:52.000,0.99
2017-05-30 21:33:52.000,2017-05-30 21:33:52.000,2017-05-30 21:34:56.000,0.99
2017-05-30 21:34:56.000,2017-05-30 21:34:56.000,2017-05-30 21:36:00.000,0.979
2017-05-30 21:36:00.000,2017-05-30 21:36:00.000,2017-05-30 21:37:04.000,0.89
2017-05-30 21:37:04.000,2017-05-30 21:37:04.000,2017-05-30 21:38:08.000,0.946
2017-05-30 21:38:08.000,2017-05-30 21:38:08.000,2017-05-30 21:39:12.000,0.936
2017-05-30 21:39:12.000,2017-05-30 21:39:12.000,2017-05-30 21:40:16.000,0.849
2017-05-30 21:40:16.000,2017-05-30 21:40:16.000,2017-05-30 21:41:20.000,0.883
2017-05-30 21:41:20.000,2017-05-30 21:41:20.000,2017-05-30 21:42:24.000,0.819
2017-05-30 21:42:24.000,2017-05-30 21:42:24.000,2017-05-30 21:43:28.000,0.783
2017-05-30 21:43:28.000,2017-05-30 21:43:28.000,2017-05-30 21:44:32.000,0.568
2017-05-30 21:44:32.000,2017-05-30 21:44:32.000,2017-05-30 21:45:36.000,0.73
2017-05-30 21:45:36.000,2017-05-30 21:45:36.000,2017-05-30 21:46:40.000,0.887
2017-05-30 21:46:40.000,2017-05-30 21:46:40.000,2017-05-30 21:47:44.000,0.959
2017-05-30 21:47:44.000,2017-05-30 21:47:44.000,2017-05-30 21:48:48.000,0.992
2017-05-30 21:48:48.000,2017-05-30 21:48:48.000,2017-05-30 21:49:52.000,0.972
2017-05-30 21:49:52.000,2017-05-30 21:49:52.000,2017-05-30 21:50:56.000,0.98
2017-05-30 21:50:56.000,2017-05-30 21:50:56.000,2017-05-30 21:52:00.000,0.974
2017-05-30 21:52:00.000,2017-05-30 21:52:00.000,2017-05-30 21:53:04.000,0.995
2017-05-30 21:53:04.000,2017-05-30 21:53:04.000,2017-05-30 21:54:08.000,0.97
2017-05-30 21:54:08.000,2017-05-30 21:54:08.000,2017-05-30 21:55:12.000,0.845
2017-05-30 21:55:12.000,2017-05-30 21:55:12.000,2017-05-30 21:56:16.000,0.877
2017-05-30 21:56:16.000,2017-05-30 21:56:16.000,2017-05-30 21:57:20.000,0.676
2017-05-30 21:57:20.000,2017-05-30 21:57:20.000,2017-05-30 21:58:24.000,0.692
2017-05-30 21:58:24.000,2017-05-30 21:58:24.000,2017-05-30 21:59:28.000,0.958
2017-05-30 21:59:28.000,2017-05-30 21:59:28.000,2017-05-30 21:59:59.999,0.981
