HEADER_TIME_STAMP,START_TIME,STOP_TIME,LABEL_PREDICTED
2017-05-28 23:00:16.000,2017-05-28 23:00:16.000,2017-05-28 23:01:20.000,wear
2017-05-28 23:01:20.000,2017-05-28 23:01:20.000,2017-05-28 23:02:24.000,wear
2017-05-28 23:02:24.000,2017-05-28 23:02:24.000,2017-05-28 23:03:28.000,wear
2017-05-28 23:03:28.000,2017-05-28 23:03:28.000,2017-05-28 23:04:32.000,wear
2017-05-28 23:04:32.000,2017-05-28 23:04:32.000,2017-05-28 23:05:36.000,wear
2017-05-28 23:05:36.000,2017-05-28 23:05:36.000,2017-05-28 23:06:40.000,nonwear
2017-05-28 23:06:40.000,2017-05-28 23:06:40.000,2017-05-28 23:07:44.000,wear
2017-05-28 23:07:44.000,2017-05-28 23:07:44.000,2017-05-28 23:08:48.000,wear
2017-05-28 23:08:48.000,2017-05-28 23:08:48.000,2017-05-28 23:09:52.000,wear
2017-05-28 23:09:52.000,2017-05-28 23:09:52.000,2017-05-28 23:10:56.000,wear
2017-05-28 23:10:56.000,2017-05-28 23:10:56.000,2017-05-28 23:12:00.000,wear
2017-05-28 23:12:00.000,2017-05-28 23:12:00.000,2017-05-28 23:13:04.000,nonwear
2017-05-28 23:13:04.000,2017-05-28 23:13:04.000,2017-05-28 23:14:08.000,nonwear
2017-05-28 23:14:08.000,2017-05-28 23:14:08.000,2017-05-28 23:15:12.000,wear
2017-05-28 23:15:12.000,2017-05-28 23:15:12.000,2017-05-28 23:16:16.000,wear
2017-05-28 23:16:16.000,2017-05-28 23:16:16.000,2017-05-28 23:17:20.000,wear
2017-05-28 23:17:20.000,2017-05-28 23:17:20.000,2017-05-28 23:18:24.000,wear
2017-05-28 23:18:24.000,2017-05-28 23:18:24.000,2017-05-28 23:19:28.000,wear
2017-05-28 23:19:28.000,2017-05-28 23:19:28.000,2017-05-28 23:20:32.000,wear
2017-05-28 23:20:32.000,2017-05-28 23:20:32.000,2017-05-28 23:21:36.000,wear
2017-05-28 23:21:36.000,2017-05-28 23:21:36.000,2017-05-28 23:22:40.000,wear
2017-05-28 23:22:40.000,2017-05-28 23:22:40.000,2017-05-28 23:23:44.000,wear
2017-05-28 23:23:44.000,2017-05-28 23:23:44.000,2017-05-28 23:24:48.000,wear
2017-05-28 23:24:48.000,2017-05-28 23:24:48.000,2017-05-28 23:25:52.000,wear
2017-05-28 23:25:52.000,2017-05-28 23:25:52.000,2017-05-28 23:26:56.000,wear
2017-05-28 23:26:56.000,2017-05-28 23:26:56.000,2017-05-28 23:28:00.000,wear
2017-05-28 23:28:00.000,2017-05-28 23:28:00.000,2017-05-28 23:29:04.000,wear
2017-05-28 23:29:04.000,2017-05-28 23:29:04.000,2017-05-28 23:30:08.000,wear
2017-05-28 23:30:08.000,2017-05-28 23:30:08.000,2017-05-28 23:31:12.000,wear
2017-05-28 23:31:12.000,2017-05-28 23:31:12.000,2017-05-28 23:32:16.000,wear
2017-05-28 23:32:16.000,2017-05-28 23:32:16.000,2017-05-28 23:33:20.000,wear
2017-05-28 23:33:20.000,2017-05-28 23:33:20.000,2017-05-28 23:34:24.000,wear
2017-05-28 23:34:24.000,2017-05-28 23:34:24.000,2017-05-28 23:35:28.000,wear
2017-05-28 23:35:28.000,2017-05-28 23:35:28.000,2017-05-28 23:36:32.000,wear
2017-05-28 23:36:32.000,2017-05-28 23:36:32.000,2017-05-28 23:37:36.000,wear
2017-05-28 23:37:36.000,2017-05-28 23:37:36.000,2017-05-28 23:38:40.000,wear
2017-05-28 23:38:40.000,2017-05-28 23:38:40.000,2017-05-28 23:39:44.000,wear
2017-05-28 23:39:44.000,2017-05-28 23:39:44.000,2017-05-28 23:40:48.000,wear
2017-05-28 23:40:48.000,2017-05-28 23:40:48.000,2017-05-28 23:41:52.000,wear
2017-05-28 23:41:52.000,2017-05-28 23:41:52.000,2017-05-28 23:42:56.000,wear
2017-05-28 23:42:56.000,2017-05-28 23:42:56.000,2017-05-28 23:44:00.000,wear
2017-05-28 23:44:00.000,2017-05-28 23:44:00.000,2017-05-28 23:45:04.000,wear
2017-05-28 23:45:04.000,2017-05-28 23:45:04.000,2017-05-28 23:46:08.000,wear
2017-05-28 23:46:08.000,2017-05-28 23:46:08.000,2017-05-28 23:47:12.000,wear
2017-05-28 23:47:12.000,2017-05-28 23:47:12.000,2017-05-28 23:48:16.000,wear
2017-05-28 23:48:16.000,2017-05-28 23:48:16.000,2017-05-28 23:49:20.000,wear
2017-05-28 23:49:20.000,2017-05-28 23:49:20.000,2017-05-28 23:50:24.000,wear
2017-05-28 23:50:24.000,2017-05-28 23:50:24.000,2017-05-28 23:51:28.000,nonwear
2017-05-28 23:51:28.000,2017-05-28 23:51:28.000,2017-05-28 23:52:32.000,nonwear
2017-05-28 23:52:32.000,2017-05-28 23:52:32.000,2017-05-28 23:53:36.000,wear
2017-05-28 23:53:36.000,2017-05-28 23:53:36.000,2017-05-28 23:54:40.000,wear
2017-05-28 23:54:40.000,2017-05-28 23:54:40.000,2017-05-28 23:55:44.000,wear
2017-05-28 23:55:44.000,2017-05-28 23:55:44.000,2017-05-28 23:56:48.000,wear
2017-05-28 23:56:48.000,2017-05-28 23:56:48.000,2017-05-28 23:57:52.000,wear
2017-05-28 23:57:52.000,2017-05-28 23:57:52.000,2017-05-28 23:58:56.000,wear
2017-05-28 23:58:56.000,2017-05-28 23:58:56.000,2017-05-28 23:59:59.999,wear
