3600.494,0.320,0.818,0.433
3601.494,0.320,0.817,0.434
3602.494,0.321,0.818,0.433
3603.494,0.321,0.819,0.432
3604.494,0.321,0.818,0.433
3605.494,0.321,0.817,0.435
3606.494,0.321,0.817,0.435
3607.494,0.321,0.818,0.433
3608.494,0.322,0.819,0.432
3609.494,0.320,0.818,0.434
3610.494,0.323,0.818,0.435
3611.494,0.322,0.818,0.434
3612.494,0.321,0.819,0.433
3613.494,0.322,0.819,0.432
3614.494,0.321,0.817,0.434
3615.494,0.321,0.818,0.435
3616.494,0.322,0.819,0.433
3617.494,0.321,0.819,0.432
3618.494,0.321,0.819,0.433
3619.494,0.321,0.819,0.434
3620.494,0.321,0.818,0.434
3621.494,0.321,0.820,0.433
3622.494,0.321,0.819,0.432
3623.494,0.320,0.819,0.433
3624.494,0.321,0.818,0.433
3625.494,0.321,0.819,0.433
3626.494,0.321,0.819,0.432
3627.494,0.321,0.819,0.432
3628.494,0.321,0.821,0.433
3629.494,0.321,0.820,0.434
3630.494,0.321,0.820,0.433
3631.494,0.322,0.821,0.432
3632.494,0.321,0.822,0.432
3633.494,0.321,0.820,0.433
3634.494,0.321,0.819,0.434
3635.494,0.321,0.818,0.433
3636.494,0.322,0.819,0.433
3637.494,0.320,0.820,0.433
3638.494,0.321,0.819,0.432
3639.494,0.321,0.819,0.433
3640.494,0.321,0.819,0.434
3641.494,0.321,0.818,0.433
3642.494,0.321,0.820,0.432
3643.494,0.321,0.819,0.433
3644.494,0.321,0.819,0.433
3645.494,0.320,0.819,0.433
3646.494,0.321,0.820,0.432
3647.494,0.321,0.820,0.431
3648.494,0.320,0.818,0.433
3649.494,0.321,0.820,0.434
3650.494,0.321,0.818,0.433
3651.494,0.321,0.819,0.432
3652.494,0.321,0.819,0.432
3653.494,0.320,0.818,0.434
3654.494,0.322,0.818,0.433
3655.494,0.321,0.819,0.432
3656.494,0.321,0.819,0.432
3657.494,0.322,0.818,0.433
3658.494,0.322,0.819,0.434
3659.494,0.322,0.819,0.433
3660.494,0.321,0.819,0.432
3661.494,0.322,0.818,0.434
3662.494,0.321,0.818,0.434
3663.494,0.322,0.819,0.433
3664.494,0.321,0.820,0.432
3665.494,0.322,0.820,0.432
3666.494,0.321,0.818,0.434
3667.494,0.321,0.819,0.434
3668.494,0.321,0.820,0.433
3669.494,0.321,0.819,0.432
3670.494,0.320,0.820,0.432
3671.494,0.322,0.819,0.432
3672.494,0.322,0.819,0.433
3673.494,0.320,0.819,0.432
3674.494,0.321,0.820,0.431
3675.494,0.321,0.819,0.432
3676.494,0.321,0.819,0.433
3677.494,0.321,0.819,0.434
3678.494,0.321,0.819,0.433
3679.494,0.321,0.819,0.432
3680.494,0.321,0.819,0.432
3681.494,0.321,0.818,0.434
3682.494,0.320,0.818,0.434
3683.494,0.322,0.819,0.433
3684.494,0.322,0.820,0.432
3685.494,0.322,0.820,0.432
3686.494,0.321,0.819,0.434
3687.494,0.321,0.818,0.433
3688.494,0.322,0.819,0.432
3689.494,0.321,0.820,0.432
3690.494,0.321,0.819,0.433
3691.494,0.321,0.818,0.433
3692.494,0.322,0.819,0.433
3693.494,0.321,0.820,0.432
3694.494,0.320,0.819,0.432
3695.494,0.321,0.819,0.433
3696.494,0.321,0.819,0.433
3697.494,0.320,0.820,0.432
3698.494,0.321,0.819,0.432
3699.494,0.321,0.819,0.433
3700.494,0.321,0.818,0.434
3701.494,0.321,0.819,0.433
3702.494,0.321,0.818,0.433
3703.494,0.321,0.820,0.432
3704.494,0.321,0.818,0.433
3705.494,0.321,0.817,0.433
3706.494,0.322,0.818,0.433
3707.494,0.323,0.820,0.432
3708.494,0.322,0.820,0.433
3709.494,0.322,0.819,0.434
3710.494,0.321,0.819,0.433
3711.494,0.321,0.821,0.432
3712.494,0.322,0.820,0.433
3713.494,0.322,0.819,0.433
3714.494,0.322,0.819,0.434
3715.494,0.323,0.819,0.432
3716.494,0.321,0.818,0.432
3717.494,0.322,0.819,0.433
3718.494,0.322,0.818,0.433
3719.494,0.322,0.819,0.433
3720.494,0.321,0.819,0.432
3721.494,0.322,0.820,0.432
3722.494,0.321,0.819,0.433
3723.494,0.323,0.819,0.433
3724.494,0.322,0.820,0.432
3725.494,0.322,0.819,0.432
3726.494,0.321,0.819,0.433
3727.494,0.321,0.818,0.434
3728.494,0.322,0.819,0.432
3729.494,0.320,0.819,0.432
3730.494,0.321,0.820,0.432
3731.494,0.322,0.819,0.433
3732.494,0.321,0.819,0.433
3733.494,0.322,0.819,0.433
3734.494,0.320,0.819,0.432
3735.494,0.320,0.820,0.432
3736.494,0.321,0.818,0.433
3737.494,0.321,0.819,0.433
3738.494,0.320,0.819,0.432
3739.494,0.320,0.819,0.432
3740.494,0.320,0.819,0.433
3741.494,0.320,0.819,0.433
3742.494,0.320,0.820,0.432
3743.494,0.319,0.821,0.432
3744.494,0.318,0.819,0.433
3745.494,0.319,0.819,0.433
3746.494,0.319,0.819,0.432
3747.494,0.319,0.820,0.432
3748.494,0.320,0.819,0.432
3749.494,0.320,0.818,0.433
3750.494,0.320,0.819,0.432
3751.494,0.320,0.820,0.432
3752.494,0.321,0.820,0.432
3753.494,0.321,0.818,0.432
3754.494,0.321,0.819,0.433
3755.494,0.322,0.820,0.432
3756.494,0.321,0.819,0.431
3757.494,0.322,0.819,0.432
3758.494,0.321,0.818,0.433
3759.494,0.322,0.820,0.432
3760.494,0.321,0.819,0.431
3761.494,0.321,0.819,0.432
3762.494,0.321,0.819,0.433
3763.494,0.321,0.819,0.432
3764.494,0.320,0.819,0.431
3765.494,0.320,0.820,0.431
3766.494,0.321,0.819,0.432
3767.494,0.322,0.819,0.432
3768.494,0.321,0.819,0.431
3769.494,0.321,0.820,0.431
3770.494,0.321,0.820,0.432
3771.494,0.320,0.820,0.433
3772.494,0.321,0.821,0.431
3773.494,0.320,0.820,0.432
3774.494,0.320,0.819,0.433
3775.494,0.320,0.820,0.432
3776.494,0.320,0.819,0.432
3777.494,0.320,0.820,0.432
3778.494,0.320,0.819,0.433
3779.494,0.320,0.818,0.433
3780.494,0.320,0.819,0.432
3781.494,0.321,0.821,0.432
3782.494,0.320,0.820,0.431
3783.494,0.320,0.819,0.433
3784.494,0.321,0.820,0.433
3785.494,0.320,0.820,0.432
3786.494,0.320,0.820,0.431
3787.494,0.321,0.821,0.432
3788.494,0.321,0.819,0.433
3789.494,0.320,0.820,0.432
3790.494,0.321,0.821,0.432
3791.494,0.321,0.821,0.431
3792.494,0.320,0.819,0.432
3793.494,0.321,0.818,0.433
3794.494,0.320,0.819,0.432
3795.494,0.321,0.821,0.431
3796.494,0.321,0.821,0.432
3797.494,0.320,0.819,0.432
3798.494,0.321,0.818,0.433
3799.494,0.321,0.820,0.432
3800.494,0.320,0.819,0.432
3801.494,0.321,0.819,0.432
3802.494,0.321,0.818,0.433
3803.494,0.322,0.819,0.432
3804.494,0.322,0.820,0.432
3805.494,0.322,0.820,0.432
3806.494,0.323,0.820,0.433
3807.494,0.322,0.820,0.433
3808.494,0.322,0.820,0.432
3809.494,0.322,0.820,0.432
3810.494,0.321,0.819,0.433
3811.494,0.321,0.819,0.432
3812.494,0.320,0.819,0.432
3813.494,0.321,0.820,0.431
3814.494,0.321,0.820,0.431
3815.494,0.321,0.819,0.432
3816.494,0.321,0.819,0.432
3817.494,0.321,0.820,0.431
3818.494,0.321,0.819,0.432
3819.494,0.321,0.820,0.432
3820.494,0.321,0.819,0.432
3821.494,0.321,0.820,0.431
3822.494,0.322,0.820,0.432
3823.494,0.321,0.819,0.432
3824.494,0.321,0.820,0.432
3825.494,0.321,0.820,0.431
3826.494,0.321,0.820,0.431
3827.494,0.320,0.819,0.431
3828.494,0.320,0.819,0.432
3829.494,0.321,0.820,0.432
3830.494,0.321,0.820,0.431
3831.494,0.321,0.820,0.431
3832.494,0.321,0.820,0.432
3833.494,0.320,0.820,0.431
3834.494,0.321,0.821,0.431
3835.494,0.321,0.819,0.432
3836.494,0.321,0.819,0.432
3837.494,0.321,0.820,0.432
3838.494,0.320,0.821,0.432
3839.494,0.319,0.820,0.431
3840.494,0.321,0.820,0.432
3841.494,0.321,0.820,0.432
3842.494,0.321,0.821,0.431
3843.494,0.320,0.821,0.431
3844.494,0.320,0.820,0.432
3845.494,0.320,0.819,0.433
3846.494,0.320,0.819,0.432
3847.494,0.321,0.820,0.432
3848.494,0.321,0.820,0.431
3849.494,0.320,0.819,0.432
3850.494,0.320,0.819,0.432
3851.494,0.321,0.819,0.432
3852.494,0.321,0.821,0.432
3853.494,0.321,0.819,0.431
3854.494,0.320,0.820,0.433
3855.494,0.321,0.819,0.432
3856.494,0.322,0.820,0.432
3857.494,0.321,0.820,0.432
3858.494,0.321,0.820,0.433
3859.494,0.320,0.820,0.433
3860.494,0.321,0.821,0.433
3861.494,0.321,0.820,0.433
3862.494,0.322,0.819,0.434
3863.494,0.321,0.820,0.433
3864.494,0.321,0.820,0.432
3865.494,0.321,0.821,0.430
3866.494,0.321,0.821,0.431
3867.494,0.321,0.820,0.432
3868.494,0.321,0.819,0.432
3869.494,0.321,0.821,0.431
3870.494,0.320,0.821,0.431
3871.494,0.321,0.820,0.433
3872.494,0.321,0.819,0.432
3873.494,0.321,0.820,0.431
3874.494,0.320,0.821,0.431
3875.494,0.321,0.819,0.431
3876.494,0.320,0.819,0.432
3877.494,0.321,0.820,0.432
3878.494,0.321,0.820,0.431
3879.494,0.321,0.821,0.431
3880.494,0.319,0.820,0.433
3881.494,0.321,0.820,0.432
3882.494,0.320,0.820,0.431
3883.494,0.320,0.822,0.431
3884.494,0.321,0.820,0.432
3885.494,0.321,0.819,0.433
3886.494,0.321,0.820,0.432
3887.494,0.321,0.821,0.431
3888.494,0.320,0.821,0.432
3889.494,0.320,0.821,0.432
3890.494,0.320,0.819,0.433
3891.494,0.321,0.820,0.431
3892.494,0.320,0.821,0.431
3893.494,0.320,0.819,0.432
3894.494,0.320,0.820,0.433
3895.494,0.321,0.820,0.432
3896.494,0.320,0.820,0.431
3897.494,0.320,0.820,0.432
3898.494,0.322,0.819,0.432
3899.494,0.320,0.819,0.433
3900.494,0.322,0.819,0.432
3901.494,0.320,0.820,0.431
3902.494,0.321,0.820,0.431
3903.494,0.321,0.820,0.432
3904.494,0.322,0.820,0.432
3905.494,0.320,0.820,0.431
3906.494,0.321,0.820,0.431
3907.494,0.321,0.820,0.432
3908.494,0.320,0.818,0.432
3909.494,0.321,0.819,0.431
3910.494,0.321,0.819,0.431
3911.494,0.321,0.820,0.432
3912.494,0.321,0.820,0.431
3913.494,0.321,0.820,0.430
3914.494,0.321,0.821,0.430
3915.494,0.321,0.820,0.430
3916.494,0.321,0.820,0.432
3917.494,0.321,0.819,0.431
3918.494,0.321,0.821,0.431
3919.494,0.321,0.821,0.430
3920.494,0.321,0.821,0.432
3921.494,0.320,0.820,0.431
3922.494,0.320,0.819,0.431
3923.494,0.320,0.820,0.431
3924.494,0.321,0.820,0.430
3925.494,0.320,0.820,0.431
3926.494,0.321,0.820,0.432
3927.494,0.321,0.820,0.431
3928.494,0.320,0.821,0.431
3929.494,0.321,0.820,0.431
3930.494,0.320,0.819,0.432
3931.494,0.320,0.820,0.431
3932.494,0.321,0.821,0.431
3933.494,0.320,0.821,0.431
3934.494,0.320,0.820,0.432
3935.494,0.320,0.820,0.431
3936.494,0.320,0.820,0.431
3937.494,0.320,0.820,0.431
3938.494,0.320,0.820,0.432
3939.494,0.321,0.820,0.432
3940.494,0.320,0.820,0.431
3941.494,0.320,0.821,0.430
3942.494,0.321,0.820,0.431
3943.494,0.321,0.818,0.433
3944.494,0.321,0.819,0.431
3945.494,0.321,0.820,0.430
3946.494,0.321,0.820,0.431
3947.494,0.321,0.819,0.432
3948.494,0.320,0.819,0.432
3949.494,0.321,0.820,0.431
3950.494,0.322,0.821,0.431
3951.494,0.321,0.819,0.432
3952.494,0.321,0.820,0.432
3953.494,0.320,0.819,0.432
3954.494,0.321,0.820,0.431
3955.494,0.320,0.820,0.431
3956.494,0.321,0.819,0.432
3957.494,0.321,0.820,0.432
3958.494,0.321,0.821,0.431
3959.494,0.321,0.821,0.430
3960.494,0.321,0.820,0.431
3961.494,0.321,0.819,0.432
3962.494,0.321,0.819,0.431
3963.494,0.321,0.820,0.430
3964.494,0.320,0.821,0.430
3965.494,0.321,0.821,0.431
3966.494,0.321,0.820,0.431
3967.494,0.321,0.821,0.431
3968.494,0.320,0.820,0.430
3969.494,0.320,0.820,0.432
3970.494,0.320,0.820,0.432
3971.494,0.320,0.820,0.431
3972.494,0.321,0.820,0.430
3973.494,0.321,0.821,0.431
3974.494,0.320,0.820,0.432
3975.494,0.320,0.820,0.432
3976.494,0.320,0.821,0.431
3977.494,0.321,0.821,0.430
3978.494,0.320,0.820,0.432
3979.494,0.321,0.820,0.432
3980.494,0.321,0.821,0.431
3981.494,0.320,0.821,0.431
3982.494,0.320,0.820,0.430
3983.494,0.320,0.819,0.431
3984.494,0.319,0.820,0.432
3985.494,0.321,0.821,0.431
3986.494,0.320,0.821,0.431
3987.494,0.321,0.821,0.431
3988.494,0.320,0.820,0.432
3989.494,0.321,0.820,0.431
3990.494,0.320,0.821,0.431
3991.494,0.321,0.821,0.431
3992.494,0.320,0.820,0.431
3993.494,0.320,0.819,0.432
3994.494,0.320,0.821,0.431
3995.494,0.319,0.820,0.430
3996.494,0.320,0.819,0.431
3997.494,0.320,0.819,0.432
3998.494,0.321,0.821,0.431
3999.494,0.321,0.821,0.430
4000.494,0.321,0.820,0.432
4001.494,0.321,0.820,0.431
4002.494,0.320,0.820,0.431
4003.494,0.321,0.821,0.430
4004.494,0.321,0.821,0.431
4005.494,0.321,0.820,0.432
4006.494,0.321,0.820,0.432
4007.494,0.321,0.820,0.430
4008.494,0.320,0.820,0.431
4009.494,0.321,0.820,0.431
4010.494,0.320,0.819,0.431
4011.494,0.320,0.820,0.431
4012.494,0.320,0.821,0.429
4013.494,0.321,0.821,0.430
4014.494,0.321,0.821,0.431
4015.494,0.320,0.819,0.431
4016.494,0.320,0.822,0.431
4017.494,0.320,0.822,0.431
4018.494,0.320,0.820,0.431
4019.494,0.320,0.820,0.431
4020.494,0.320,0.820,0.432
4021.494,0.321,0.820,0.430
4022.494,0.320,0.821,0.430
4023.494,0.320,0.821,0.431
4024.494,0.320,0.820,0.431
4025.494,0.320,0.820,0.431
4026.494,0.320,0.820,0.431
4027.494,0.320,0.821,0.431
4028.494,0.320,0.819,0.431
4029.494,0.321,0.821,0.431
4030.494,0.320,0.821,0.430
4031.494,0.319,0.821,0.430
4032.494,0.320,0.822,0.431
4033.494,0.320,0.821,0.431
4034.494,0.320,0.820,0.430
4035.494,0.319,0.821,0.430
4036.494,0.320,0.820,0.431
4037.494,0.320,0.821,0.432
4038.494,0.320,0.820,0.431
4039.494,0.321,0.820,0.430
4040.494,0.320,0.820,0.431
4041.494,0.320,0.819,0.432
4042.494,0.320,0.819,0.432
4043.494,0.320,0.821,0.431
4044.494,0.320,0.821,0.431
4045.494,0.320,0.820,0.431
4046.494,0.321,0.819,0.432
4047.494,0.321,0.821,0.431
4048.494,0.321,0.820,0.430
4049.494,0.320,0.820,0.431
4050.494,0.320,0.819,0.431
4051.494,0.320,0.820,0.432
4052.494,0.320,0.821,0.430
4053.494,0.320,0.821,0.430
4054.494,0.321,0.820,0.431
4055.494,0.320,0.821,0.432
4056.494,0.320,0.821,0.431
4057.494,0.320,0.820,0.430
4058.494,0.320,0.822,0.430
4059.494,0.320,0.820,0.431
4060.494,0.321,0.820,0.430
4061.494,0.321,0.822,0.429
4062.494,0.320,0.821,0.430
4063.494,0.320,0.819,0.431
4064.494,0.320,0.820,0.431
4065.494,0.321,0.821,0.431
4066.494,0.321,0.820,0.430
4067.494,0.320,0.820,0.431
4068.494,0.320,0.821,0.431
4069.494,0.321,0.822,0.431
4070.494,0.320,0.821,0.430
4071.494,0.320,0.821,0.430
4072.494,0.320,0.820,0.431
4073.494,0.320,0.820,0.431
4074.494,0.320,0.821,0.431
4075.494,0.320,0.821,0.430
4076.494,0.320,0.821,0.431
4077.494,0.320,0.820,0.431
4078.494,0.320,0.821,0.431
4079.494,0.321,0.821,0.430
4080.494,0.320,0.820,0.431
4081.494,0.320,0.819,0.431
4082.494,0.320,0.821,0.430
4083.494,0.320,0.821,0.431
4084.494,0.321,0.822,0.430
4085.494,0.320,0.821,0.431
4086.494,0.321,0.820,0.431
4087.494,0.319,0.821,0.430
4088.494,0.319,0.821,0.430
4089.494,0.320,0.820,0.432
4090.494,0.320,0.819,0.431
4091.494,0.320,0.821,0.431
4092.494,0.320,0.821,0.430
4093.494,0.320,0.820,0.431
4094.494,0.321,0.820,0.431
4095.494,0.321,0.821,0.432
4096.494,0.322,0.820,0.431
4097.494,0.320,0.819,0.430
4098.494,0.321,0.820,0.432
4099.494,0.320,0.819,0.431
4100.494,0.321,0.820,0.430
4101.494,0.321,0.821,0.430
4102.494,0.321,0.820,0.431
4103.494,0.320,0.820,0.432
4104.494,0.320,0.820,0.431
4105.494,0.321,0.820,0.430
4106.494,0.321,0.821,0.430
4107.494,0.321,0.821,0.431
4108.494,0.320,0.819,0.431
4109.494,0.320,0.820,0.430
4110.494,0.320,0.821,0.430
4111.494,0.321,0.821,0.431
4112.494,0.321,0.821,0.431
4113.494,0.320,0.821,0.430
4114.494,0.320,0.820,0.431
4115.494,0.320,0.820,0.430
4116.494,0.320,0.820,0.431
4117.494,0.320,0.820,0.431
4118.494,0.320,0.820,0.430
4119.494,0.320,0.821,0.430
4120.494,0.321,0.819,0.431
4121.494,0.320,0.819,0.431
4122.494,0.321,0.821,0.431
4123.494,0.319,0.821,0.430
4124.494,0.320,0.820,0.431
4125.494,0.321,0.821,0.430
4126.494,0.321,0.822,0.431
4127.494,0.320,0.821,0.431
4128.494,0.320,0.821,0.431
4129.494,0.320,0.821,0.431
4130.494,0.320,0.821,0.430
4131.494,0.320,0.821,0.430
4132.494,0.319,0.820,0.431
4133.494,0.319,0.821,0.431
4134.494,0.319,0.820,0.430
4135.494,0.319,0.821,0.430
4136.494,0.320,0.820,0.431
4137.494,0.319,0.820,0.432
4138.494,0.320,0.820,0.430
4139.494,0.321,0.821,0.430
4140.494,0.320,0.820,0.430
4141.494,0.320,0.819,0.431
4142.494,0.320,0.819,0.430
4143.494,0.320,0.822,0.430
4144.494,0.321,0.820,0.431
4145.494,0.321,0.819,0.432
4146.494,0.321,0.820,0.431
4147.494,0.321,0.821,0.431
4148.494,0.320,0.821,0.430
4149.494,0.320,0.820,0.431
4150.494,0.320,0.819,0.431
4151.494,0.320,0.821,0.431
4152.494,0.320,0.820,0.430
4153.494,0.321,0.820,0.430
4154.494,0.320,0.821,0.431
4155.494,0.320,0.821,0.430
4156.494,0.320,0.820,0.429
4157.494,0.321,0.820,0.429
4158.494,0.319,0.820,0.430
4159.494,0.321,0.820,0.430
4160.494,0.321,0.821,0.430
4161.494,0.320,0.821,0.430
4162.494,0.321,0.820,0.430
4163.494,0.320,0.821,0.431
4164.494,0.320,0.820,0.431
4165.494,0.320,0.820,0.430
4166.494,0.321,0.822,0.430
4167.494,0.320,0.820,0.431
4168.494,0.320,0.821,0.430
4169.494,0.321,0.822,0.430
4170.494,0.321,0.821,0.430
4171.494,0.320,0.820,0.431
4172.494,0.320,0.820,0.431
4173.494,0.320,0.821,0.431
4174.494,0.320,0.822,0.431
4175.494,0.320,0.822,0.431
4176.494,0.321,0.821,0.431
4177.494,0.320,0.822,0.430
4178.494,0.320,0.822,0.430
4179.494,0.320,0.822,0.430
4180.494,0.320,0.820,0.431
4181.494,0.321,0.821,0.430
4182.494,0.320,0.822,0.430
4183.494,0.320,0.821,0.430
4184.494,0.320,0.821,0.431
4185.494,0.320,0.821,0.430
4186.494,0.319,0.821,0.430
4187.494,0.320,0.822,0.430
4188.494,0.320,0.821,0.431
4189.494,0.320,0.819,0.431
4190.494,0.320,0.820,0.431
4191.494,0.321,0.821,0.430
4192.494,0.320,0.821,0.430
4193.494,0.320,0.821,0.431
4194.494,0.321,0.821,0.430
4195.494,0.321,0.822,0.430
4196.494,0.320,0.821,0.431
4197.494,0.320,0.820,0.431
4198.494,0.321,0.820,0.430
4199.494,0.320,0.822,0.430
4200.494,0.320,0.821,0.431
4201.494,0.319,0.820,0.431
4202.494,0.320,0.820,0.431
4203.494,0.319,0.820,0.431
4204.494,0.320,0.821,0.429
4205.494,0.320,0.821,0.429
4206.494,0.319,0.820,0.430
4207.494,0.321,0.821,0.430
4208.494,0.320,0.820,0.429
4209.494,0.321,0.822,0.429
4210.494,0.320,0.821,0.430
4211.494,0.320,0.821,0.431
4212.494,0.320,0.821,0.430
4213.494,0.321,0.821,0.430
4214.494,0.320,0.820,0.431
4215.494,0.320,0.820,0.431
4216.494,0.319,0.821,0.430
4217.494,0.321,0.821,0.429
4218.494,0.319,0.821,0.430
4219.494,0.320,0.822,0.430
4220.494,0.320,0.821,0.431
4221.494,0.319,0.822,0.430
4222.494,0.321,0.822,0.430
4223.494,0.320,0.820,0.430
4224.494,0.320,0.821,0.431
4225.494,0.320,0.821,0.430
4226.494,0.320,0.821,0.430
4227.494,0.320,0.822,0.430
4228.494,0.320,0.821,0.430
4229.494,0.320,0.822,0.430
4230.494,0.319,0.822,0.430
4231.494,0.320,0.822,0.430
4232.494,0.320,0.821,0.430
4233.494,0.319,0.821,0.431
4234.494,0.320,0.821,0.431
4235.494,0.320,0.822,0.430
4236.494,0.319,0.822,0.429
4237.494,0.320,0.819,0.430
4238.494,0.319,0.820,0.431
4239.494,0.320,0.821,0.430
4240.494,0.320,0.821,0.430
4241.494,0.319,0.821,0.431
4242.494,0.320,0.821,0.431
4243.494,0.320,0.820,0.431
4244.494,0.320,0.821,0.430
4245.494,0.320,0.821,0.429
4246.494,0.322,0.821,0.430
4247.494,0.320,0.820,0.431
4248.494,0.319,0.821,0.431
4249.494,0.319,0.822,0.429
4250.494,0.321,0.820,0.431
4251.494,0.320,0.821,0.431
4252.494,0.320,0.821,0.430
4253.494,0.320,0.822,0.430
4254.494,0.320,0.822,0.430
4255.494,0.321,0.820,0.430
4256.494,0.321,0.821,0.430
4257.494,0.320,0.822,0.430
4258.494,0.320,0.821,0.429
4259.494,0.320,0.821,0.430
4260.494,0.320,0.819,0.430
4261.494,0.320,0.821,0.430
4262.494,0.320,0.822,0.429
4263.494,0.320,0.822,0.430
4264.494,0.320,0.820,0.431
4265.494,0.320,0.821,0.430
4266.494,0.320,0.821,0.429
4267.494,0.320,0.821,0.430
4268.494,0.320,0.821,0.430
4269.494,0.319,0.822,0.430
4270.494,0.320,0.823,0.430
4271.494,0.319,0.822,0.429
4272.494,0.320,0.820,0.430
4273.494,0.319,0.821,0.430
4274.494,0.320,0.822,0.430
4275.494,0.319,0.821,0.429
4276.494,0.320,0.822,0.429
4277.494,0.319,0.821,0.430
4278.494,0.320,0.821,0.430
4279.494,0.319,0.821,0.430
4280.494,0.320,0.822,0.430
4281.494,0.320,0.821,0.430
4282.494,0.319,0.820,0.430
4283.494,0.319,0.821,0.430
4284.494,0.321,0.822,0.430
4285.494,0.319,0.821,0.430
4286.494,0.320,0.821,0.431
4287.494,0.320,0.821,0.430
4288.494,0.319,0.821,0.430
4289.494,0.319,0.820,0.430
4290.494,0.320,0.821,0.431
4291.494,0.321,0.821,0.431
4292.494,0.320,0.821,0.430
4293.494,0.321,0.822,0.429
4294.494,0.319,0.821,0.430
4295.494,0.321,0.820,0.430
4296.494,0.321,0.820,0.431
4297.494,0.320,0.821,0.430
4298.494,0.320,0.822,0.430
4299.494,0.320,0.821,0.430
4300.494,0.320,0.820,0.430
4301.494,0.321,0.821,0.430
4302.494,0.320,0.822,0.429
4303.494,0.320,0.822,0.430
4304.494,0.320,0.820,0.430
4305.494,0.320,0.820,0.430
4306.494,0.320,0.822,0.429
4307.494,0.320,0.822,0.429
4308.494,0.320,0.822,0.430
4309.494,0.320,0.821,0.430
4310.494,0.321,0.821,0.430
4311.494,0.320,0.822,0.429
4312.494,0.320,0.821,0.430
4313.494,0.320,0.821,0.431
4314.494,0.319,0.821,0.430
4315.494,0.320,0.821,0.430
4316.494,0.320,0.822,0.430
4317.494,0.319,0.820,0.430
4318.494,0.319,0.821,0.431
4319.494,0.320,0.822,0.430
4320.494,0.320,0.823,0.430
4321.494,0.320,0.822,0.431
4322.494,0.321,0.821,0.430
4323.494,0.320,0.821,0.430
4324.494,0.319,0.823,0.430
4325.494,0.319,0.821,0.430
4326.494,0.320,0.821,0.430
4327.494,0.320,0.821,0.430
4328.494,0.320,0.822,0.430
4329.494,0.320,0.823,0.430
4330.494,0.320,0.823,0.430
4331.494,0.320,0.821,0.431
4332.494,0.319,0.820,0.431
4333.494,0.320,0.822,0.430
4334.494,0.319,0.822,0.430
4335.494,0.320,0.822,0.431
4336.494,0.320,0.820,0.431
4337.494,0.320,0.821,0.430
4338.494,0.320,0.822,0.430
4339.494,0.320,0.821,0.429
4340.494,0.320,0.821,0.431
4341.494,0.320,0.822,0.430
4342.494,0.320,0.822,0.430
4343.494,0.319,0.822,0.429
4344.494,0.319,0.822,0.431
4345.494,0.320,0.821,0.430
4346.494,0.320,0.822,0.430
4347.494,0.320,0.822,0.429
4348.494,0.319,0.822,0.429
4349.494,0.320,0.821,0.430
4350.494,0.320,0.821,0.430
4351.494,0.319,0.822,0.429
4352.494,0.319,0.821,0.429
4353.494,0.321,0.820,0.429
4354.494,0.319,0.820,0.430
4355.494,0.319,0.822,0.429
4356.494,0.321,0.823,0.428
4357.494,0.319,0.822,0.429
4358.494,0.320,0.821,0.430
4359.494,0.320,0.822,0.429
4360.494,0.320,0.821,0.429
4361.494,0.319,0.822,0.430
4362.494,0.320,0.822,0.430
4363.494,0.320,0.822,0.430
4364.494,0.320,0.822,0.430
4365.494,0.320,0.822,0.429
4366.494,0.321,0.822,0.431
4367.494,0.320,0.822,0.430
4368.494,0.319,0.821,0.430
4369.494,0.319,0.822,0.430
4370.494,0.320,0.821,0.430
4371.494,0.319,0.821,0.430
4372.494,0.319,0.821,0.430
4373.494,0.319,0.822,0.430
4374.494,0.320,0.822,0.429
4375.494,0.319,0.821,0.430
4376.494,0.319,0.821,0.430
4377.494,0.321,0.821,0.430
4378.494,0.320,0.821,0.429
4379.494,0.319,0.820,0.430
4380.494,0.320,0.820,0.430
4381.494,0.318,0.820,0.430
4382.494,0.320,0.821,0.430
4383.494,0.320,0.820,0.429
4384.494,0.321,0.822,0.430
4385.494,0.319,0.820,0.430
4386.494,0.319,0.820,0.430
4387.494,0.320,0.821,0.429
4388.494,0.320,0.821,0.429
4389.494,0.320,0.821,0.430
4390.494,0.320,0.819,0.430
4391.494,0.320,0.820,0.430
4392.494,0.319,0.821,0.430
4393.494,0.320,0.822,0.430
4394.494,0.320,0.821,0.429
4395.494,0.320,0.821,0.430
4396.494,0.319,0.821,0.430
4397.494,0.320,0.822,0.430
4398.494,0.320,0.823,0.429
4399.494,0.320,0.822,0.429
4400.494,0.319,0.821,0.430
4401.494,0.319,0.822,0.429
4402.494,0.320,0.822,0.429
4403.494,0.320,0.823,0.429
4404.494,0.321,0.822,0.430
4405.494,0.320,0.822,0.430
4406.494,0.320,0.824,0.429
4407.494,0.320,0.824,0.429
4408.494,0.320,0.822,0.430
4409.494,0.319,0.823,0.430
4410.494,0.320,0.823,0.429
4411.494,0.320,0.823,0.430
4412.494,0.320,0.823,0.430
4413.494,0.319,0.820,0.431
4414.494,0.319,0.822,0.430
4415.494,0.320,0.822,0.430
4416.494,0.320,0.822,0.429
4417.494,0.319,0.822,0.431
4418.494,0.319,0.821,0.430
4419.494,0.319,0.820,0.429
4420.494,0.320,0.823,0.429
4421.494,0.319,0.822,0.429
4422.494,0.319,0.821,0.430
4423.494,0.320,0.821,0.430
4424.494,0.319,0.822,0.429
4425.494,0.319,0.823,0.429
4426.494,0.319,0.821,0.430
4427.494,0.320,0.821,0.430
4428.494,0.319,0.822,0.430
4429.494,0.320,0.822,0.429
4430.494,0.319,0.820,0.430
4431.494,0.320,0.821,0.430
4432.494,0.319,0.822,0.430
4433.494,0.319,0.821,0.429
4434.494,0.319,0.822,0.429
4435.494,0.321,0.821,0.430
4436.494,0.321,0.822,0.430
4437.494,0.320,0.823,0.430
4438.494,0.319,0.822,0.430
4439.494,0.320,0.822,0.430
4440.494,0.320,0.821,0.430
4441.494,0.319,0.822,0.430
4442.494,0.319,0.822,0.429
4443.494,0.319,0.822,0.430
4444.494,0.319,0.822,0.431
4445.494,0.320,0.821,0.431
4446.494,0.319,0.823,0.429
4447.494,0.319,0.823,0.428
4448.494,0.319,0.823,0.429
4449.494,0.319,0.821,0.430
4450.494,0.320,0.822,0.429
4451.494,0.319,0.822,0.429
4452.494,0.319,0.822,0.428
4453.494,0.319,0.822,0.429
4454.494,0.319,0.821,0.430
4455.494,0.320,0.822,0.430
4456.494,0.320,0.821,0.430
4457.494,0.319,0.821,0.429
4458.494,0.319,0.820,0.430
4459.494,0.320,0.821,0.430
4460.494,0.318,0.822,0.430
4461.494,0.320,0.822,0.429
4462.494,0.319,0.822,0.429
4463.494,0.319,0.820,0.430
4464.494,0.318,0.821,0.430
4465.494,0.320,0.823,0.429
4466.494,0.319,0.821,0.429
4467.494,0.319,0.822,0.431
4468.494,0.319,0.822,0.430
4469.494,0.320,0.822,0.430
4470.494,0.320,0.822,0.430
4471.494,0.320,0.821,0.430
4472.494,0.320,0.821,0.430
4473.494,0.319,0.821,0.429
4474.494,0.319,0.822,0.429
4475.494,0.319,0.822,0.430
4476.494,0.320,0.821,0.430
4477.494,0.320,0.821,0.429
4478.494,0.319,0.822,0.429
4479.494,0.319,0.821,0.430
4480.494,0.319,0.821,0.430
4481.494,0.319,0.821,0.430
4482.494,0.320,0.822,0.429
4483.494,0.319,0.821,0.430
4484.494,0.320,0.821,0.430
4485.494,0.320,0.822,0.430
4486.494,0.320,0.820,0.430
4487.494,0.319,0.822,0.429
4488.494,0.320,0.821,0.430
4489.494,0.320,0.821,0.430
4490.494,0.319,0.822,0.429
4491.494,0.319,0.822,0.430
4492.494,0.319,0.822,0.429
4493.494,0.320,0.821,0.430
4494.494,0.320,0.821,0.430
4495.494,0.320,0.822,0.429
4496.494,0.321,0.822,0.429
4497.494,0.320,0.822,0.429
4498.494,0.320,0.821,0.429
4499.494,0.320,0.823,0.429
4500.494,0.321,0.822,0.429
4501.494,0.320,0.821,0.430
4502.494,0.320,0.822,0.430
4503.494,0.320,0.822,0.430
4504.494,0.320,0.823,0.429
4505.494,0.320,0.822,0.429
4506.494,0.321,0.822,0.430
4507.494,0.320,0.822,0.430
4508.494,0.320,0.823,0.428
4509.494,0.320,0.822,0.429
4510.494,0.319,0.822,0.430
4511.494,0.320,0.821,0.430
4512.494,0.319,0.822,0.429
4513.494,0.320,0.823,0.429
4514.494,0.319,0.822,0.430
4515.494,0.319,0.822,0.430
4516.494,0.319,0.823,0.429
4517.494,0.319,0.822,0.429
4518.494,0.320,0.822,0.429
4519.494,0.320,0.822,0.430
4520.494,0.319,0.822,0.430
4521.494,0.319,0.823,0.430
4522.494,0.318,0.823,0.429
4523.494,0.318,0.824,0.429
4524.494,0.318,0.822,0.429
4525.494,0.318,0.822,0.430
4526.494,0.318,0.821,0.429
4527.494,0.318,0.822,0.429
4528.494,0.320,0.822,0.430
4529.494,0.319,0.821,0.430
4530.494,0.319,0.821,0.430
4531.494,0.319,0.822,0.430
4532.494,0.320,0.823,0.429
4533.494,0.320,0.822,0.430
4534.494,0.320,0.821,0.430
4535.494,0.320,0.822,0.430
4536.494,0.319,0.822,0.429
4537.494,0.320,0.821,0.429
4538.494,0.320,0.820,0.430
4539.494,0.320,0.822,0.430
4540.494,0.319,0.823,0.430
4541.494,0.319,0.823,0.429
4542.494,0.320,0.821,0.429
4543.494,0.320,0.822,0.429
4544.494,0.320,0.821,0.429
4545.494,0.319,0.823,0.429
4546.494,0.319,0.822,0.429
4547.494,0.319,0.822,0.429
4548.494,0.320,0.823,0.429
4549.494,0.320,0.822,0.428
4550.494,0.319,0.821,0.430
4551.494,0.319,0.822,0.429
4552.494,0.319,0.822,0.429
4553.494,0.319,0.823,0.429
4554.494,0.319,0.822,0.430
4555.494,0.319,0.821,0.430
4556.494,0.319,0.822,0.429
4557.494,0.319,0.823,0.429
4558.494,0.319,0.822,0.430
4559.494,0.318,0.822,0.429
4560.494,0.319,0.822,0.429
4561.494,0.319,0.823,0.428
4562.494,0.319,0.822,0.429
4563.494,0.319,0.820,0.430
4564.494,0.319,0.822,0.430
4565.494,0.319,0.823,0.428
4566.494,0.319,0.823,0.429
4567.494,0.320,0.821,0.430
4568.494,0.319,0.823,0.429
4569.494,0.319,0.823,0.429
4570.494,0.319,0.823,0.429
4571.494,0.319,0.822,0.430
4572.494,0.318,0.822,0.430
4573.494,0.320,0.823,0.430
4574.494,0.319,0.823,0.429
4575.494,0.320,0.822,0.429
4576.494,0.320,0.821,0.430
4577.494,0.319,0.820,0.430
4578.494,0.320,0.822,0.429
4579.494,0.320,0.824,0.429
4580.494,0.320,0.822,0.430
4581.494,0.320,0.821,0.430
4582.494,0.321,0.822,0.429
4583.494,0.321,0.822,0.430
4584.494,0.320,0.822,0.429
4585.494,0.320,0.821,0.430
4586.494,0.320,0.821,0.430
4587.494,0.320,0.823,0.429
4588.494,0.320,0.822,0.429
4589.494,0.320,0.822,0.430
4590.494,0.320,0.821,0.430
4591.494,0.320,0.822,0.430
4592.494,0.321,0.823,0.429
4593.494,0.320,0.822,0.429
4594.494,0.319,0.821,0.429
4595.494,0.319,0.822,0.429
4596.494,0.320,0.821,0.429
4597.494,0.320,0.822,0.428
4598.494,0.319,0.821,0.430
4599.494,0.319,0.822,0.430
4600.494,0.319,0.822,0.429
4601.494,0.319,0.822,0.428
4602.494,0.319,0.822,0.429
4603.494,0.319,0.821,0.430
4604.494,0.320,0.822,0.430
4605.494,0.319,0.822,0.428
4606.494,0.320,0.823,0.428
4607.494,0.319,0.821,0.429
4608.494,0.319,0.821,0.429
4609.494,0.319,0.822,0.428
4610.494,0.319,0.822,0.428
4611.494,0.319,0.822,0.429
4612.494,0.319,0.821,0.429
4613.494,0.319,0.823,0.428
4614.494,0.319,0.823,0.428
4615.494,0.319,0.823,0.429
4616.494,0.320,0.822,0.429
4617.494,0.319,0.823,0.429
4618.494,0.319,0.823,0.428
4619.494,0.320,0.823,0.428
4620.494,0.319,0.822,0.430
4621.494,0.320,0.822,0.430
4622.494,0.319,0.823,0.429
4623.494,0.319,0.822,0.429
4624.494,0.320,0.823,0.429
4625.494,0.320,0.821,0.430
4626.494,0.319,0.822,0.430
4627.494,0.319,0.822,0.429
4628.494,0.320,0.821,0.429
4629.494,0.319,0.820,0.430
4630.494,0.321,0.822,0.430
4631.494,0.319,0.822,0.429
4632.494,0.320,0.822,0.429
4633.494,0.320,0.822,0.430
4634.494,0.319,0.822,0.430
4635.494,0.319,0.823,0.429
4636.494,0.319,0.823,0.430
4637.494,0.319,0.822,0.430
4638.494,0.320,0.822,0.431
4639.494,0.319,0.822,0.430
4640.494,0.319,0.822,0.429
4641.494,0.319,0.822,0.430
4642.494,0.319,0.822,0.430
4643.494,0.318,0.821,0.429
4644.494,0.319,0.822,0.429
4645.494,0.319,0.823,0.428
4646.494,0.320,0.823,0.429
4647.494,0.319,0.822,0.430
4648.494,0.320,0.821,0.429
4649.494,0.319,0.823,0.429
4650.494,0.320,0.823,0.428
4651.494,0.320,0.822,0.430
4652.494,0.319,0.823,0.430
4653.494,0.320,0.822,0.430
4654.494,0.320,0.823,0.429
4655.494,0.320,0.824,0.428
4656.494,0.320,0.822,0.430
4657.494,0.318,0.821,0.430
4658.494,0.319,0.822,0.429
4659.494,0.319,0.824,0.429
4660.494,0.319,0.823,0.429
4661.494,0.320,0.822,0.430
4662.494,0.320,0.822,0.430
4663.494,0.320,0.824,0.429
4664.494,0.319,0.823,0.429
4665.494,0.320,0.823,0.429
4666.494,0.318,0.822,0.430
4667.494,0.319,0.822,0.429
4668.494,0.319,0.823,0.429
4669.494,0.319,0.822,0.429
4670.494,0.319,0.821,0.430
4671.494,0.319,0.823,0.430
4672.494,0.319,0.825,0.429
4673.494,0.319,0.823,0.429
4674.494,0.320,0.822,0.429
4675.494,0.319,0.822,0.429
4676.494,0.319,0.822,0.429
4677.494,0.320,0.823,0.429
4678.494,0.319,0.822,0.428
4679.494,0.321,0.822,0.430
4680.494,0.319,0.820,0.430
4681.494,0.320,0.823,0.429
4682.494,0.320,0.823,0.429
4683.494,0.320,0.822,0.430
4684.494,0.319,0.822,0.429
4685.494,0.320,0.822,0.429
4686.494,0.319,0.822,0.429
4687.494,0.319,0.822,0.430
4688.494,0.320,0.823,0.430
4689.494,0.318,0.822,0.429
4690.494,0.320,0.823,0.427
4691.494,0.319,0.822,0.428
4692.494,0.320,0.822,0.429
4693.494,0.319,0.823,0.429
4694.494,0.320,0.822,0.427
4695.494,0.319,0.823,0.428
4696.494,0.319,0.822,0.429
4697.494,0.319,0.822,0.429
4698.494,0.319,0.822,0.428
4699.494,0.320,0.823,0.428
4700.494,0.319,0.823,0.429
4701.494,0.319,0.822,0.430
4702.494,0.319,0.823,0.428
4703.494,0.319,0.824,0.428
4704.494,0.320,0.823,0.428
4705.494,0.319,0.823,0.429
4706.494,0.319,0.822,0.429
4707.494,0.318,0.823,0.428
4708.494,0.319,0.824,0.428
4709.494,0.319,0.823,0.429
4710.494,0.319,0.823,0.429
4711.494,0.319,0.822,0.429
4712.494,0.319,0.824,0.429
4713.494,0.319,0.824,0.428
4714.494,0.318,0.822,0.429
4715.494,0.319,0.822,0.430
4716.494,0.320,0.823,0.430
4717.494,0.319,0.823,0.429
4718.494,0.319,0.822,0.429
4719.494,0.319,0.822,0.430
4720.494,0.319,0.822,0.429
4721.494,0.319,0.823,0.429
4722.494,0.319,0.822,0.429
4723.494,0.318,0.821,0.430
4724.494,0.320,0.821,0.429
4725.494,0.319,0.822,0.430
4726.494,0.319,0.823,0.429
4727.494,0.319,0.821,0.429
4728.494,0.319,0.821,0.429
4729.494,0.319,0.823,0.429
4730.494,0.319,0.822,0.429
4731.494,0.319,0.824,0.428
4732.494,0.320,0.824,0.429
4733.494,0.319,0.822,0.430
4734.494,0.319,0.823,0.429
4735.494,0.319,0.824,0.428
4736.494,0.319,0.823,0.429
4737.494,0.319,0.822,0.430
4738.494,0.319,0.823,0.430
4739.494,0.319,0.822,0.428
4740.494,0.319,0.824,0.428
4741.494,0.319,0.823,0.428
4742.494,0.319,0.823,0.429
4743.494,0.319,0.821,0.429
4744.494,0.319,0.823,0.428
4745.494,0.321,0.824,0.427
4746.494,0.319,0.822,0.429
4747.494,0.320,0.823,0.429
4748.494,0.319,0.825,0.429
4749.494,0.319,0.823,0.427
4750.494,0.319,0.823,0.429
4751.494,0.318,0.822,0.429
4752.494,0.319,0.823,0.429
4753.494,0.318,0.823,0.429
4754.494,0.319,0.823,0.428
4755.494,0.319,0.823,0.429
4756.494,0.318,0.822,0.430
4757.494,0.319,0.823,0.429
4758.494,0.318,0.823,0.428
4759.494,0.318,0.824,0.429
4760.494,0.320,0.822,0.429
4761.494,0.319,0.823,0.429
4762.494,0.319,0.824,0.428
4763.494,0.319,0.824,0.429
4764.494,0.319,0.822,0.429
4765.494,0.320,0.822,0.430
4766.494,0.318,0.822,0.429
4767.494,0.319,0.823,0.428
4768.494,0.319,0.823,0.429
4769.494,0.319,0.823,0.430
4770.494,0.319,0.822,0.429
4771.494,0.320,0.823,0.428
4772.494,0.319,0.823,0.428
4773.494,0.319,0.821,0.429
4774.494,0.320,0.822,0.429
4775.494,0.320,0.823,0.428
4776.494,0.319,0.824,0.428
4777.494,0.320,0.823,0.430
4778.494,0.319,0.822,0.430
4779.494,0.319,0.823,0.429
4780.494,0.319,0.822,0.428
4781.494,0.319,0.823,0.429
4782.494,0.318,0.823,0.430
4783.494,0.319,0.822,0.429
4784.494,0.320,0.824,0.429
4785.494,0.319,0.823,0.428
4786.494,0.320,0.823,0.429
4787.494,0.319,0.822,0.429
4788.494,0.320,0.823,0.429
4789.494,0.319,0.823,0.427
4790.494,0.320,0.823,0.428
4791.494,0.319,0.822,0.429
4792.494,0.320,0.822,0.429
4793.494,0.319,0.824,0.428
4794.494,0.320,0.823,0.428
4795.494,0.319,0.823,0.429
4796.494,0.318,0.822,0.429
4797.494,0.319,0.822,0.429
4798.494,0.319,0.824,0.429
4799.494,0.319,0.823,0.429
4800.494,0.318,0.822,0.429
4801.494,0.319,0.822,0.430
4802.494,0.319,0.823,0.428
4803.494,0.318,0.823,0.428
4804.494,0.319,0.823,0.429
4805.494,0.319,0.822,0.429
4806.494,0.320,0.824,0.429
4807.494,0.319,0.824,0.428
4808.494,0.318,0.824,0.429
4809.494,0.319,0.823,0.429
4810.494,0.318,0.823,0.429
4811.494,0.318,0.824,0.429
4812.494,0.318,0.824,0.428
4813.494,0.319,0.824,0.429
4814.494,0.319,0.823,0.429
4815.494,0.319,0.822,0.429
4816.494,0.319,0.823,0.428
4817.494,0.319,0.823,0.429
4818.494,0.318,0.822,0.430
4819.494,0.318,0.821,0.429
4820.494,0.319,0.822,0.429
4821.494,0.318,0.822,0.429
4822.494,0.319,0.822,0.430
4823.494,0.319,0.822,0.430
4824.494,0.319,0.823,0.429
4825.494,0.319,0.823,0.428
4826.494,0.320,0.824,0.428
4827.494,0.319,0.822,0.430
4828.494,0.318,0.822,0.429
4829.494,0.319,0.823,0.429
4830.494,0.319,0.824,0.429
4831.494,0.319,0.823,0.429
4832.494,0.319,0.823,0.430
4833.494,0.319,0.822,0.430
4834.494,0.319,0.823,0.428
4835.494,0.319,0.824,0.429
4836.494,0.318,0.821,0.430
4837.494,0.319,0.822,0.429
4838.494,0.319,0.823,0.428
4839.494,0.319,0.824,0.428
4840.494,0.319,0.823,0.429
4841.494,0.319,0.822,0.430
4842.494,0.319,0.822,0.429
4843.494,0.318,0.823,0.428
4844.494,0.320,0.823,0.428
4845.494,0.319,0.822,0.429
4846.494,0.320,0.823,0.429
4847.494,0.320,0.823,0.429
4848.494,0.319,0.823,0.428
4849.494,0.319,0.823,0.429
4850.494,0.318,0.822,0.429
4851.494,0.319,0.823,0.429
4852.494,0.319,0.823,0.429
4853.494,0.319,0.823,0.428
4854.494,0.319,0.823,0.430
4855.494,0.318,0.823,0.429
4856.494,0.319,0.823,0.429
4857.494,0.319,0.824,0.428
4858.494,0.319,0.823,0.429
4859.494,0.319,0.823,0.429
4860.494,0.319,0.823,0.429
4861.494,0.319,0.822,0.429
4862.494,0.318,0.824,0.428
4863.494,0.318,0.824,0.429
4864.494,0.319,0.822,0.429
4865.494,0.319,0.822,0.429
4866.494,0.319,0.824,0.428
4867.494,0.319,0.822,0.429
4868.494,0.318,0.822,0.430
4869.494,0.319,0.823,0.429
4870.494,0.318,0.822,0.429
4871.494,0.319,0.823,0.429
4872.494,0.319,0.822,0.429
4873.494,0.318,0.821,0.429
4874.494,0.319,0.823,0.429
4875.494,0.319,0.823,0.429
4876.494,0.319,0.822,0.429
4877.494,0.319,0.823,0.430
4878.494,0.319,0.823,0.429
4879.494,0.318,0.823,0.429
4880.494,0.318,0.823,0.429
4881.494,0.319,0.823,0.429
4882.494,0.319,0.824,0.429
4883.494,0.319,0.824,0.428
4884.494,0.320,0.823,0.429
4885.494,0.318,0.822,0.429
4886.494,0.319,0.823,0.429
4887.494,0.320,0.824,0.427
4888.494,0.319,0.824,0.428
4889.494,0.319,0.823,0.429
4890.494,0.319,0.822,0.429
4891.494,0.318,0.823,0.429
4892.494,0.319,0.822,0.428
4893.494,0.319,0.823,0.427
4894.494,0.319,0.824,0.428
4895.494,0.319,0.823,0.429
4896.494,0.320,0.824,0.429
4897.494,0.320,0.824,0.428
4898.494,0.319,0.823,0.429
4899.494,0.318,0.824,0.428
4900.494,0.318,0.823,0.429
4901.494,0.319,0.823,0.427
4902.494,0.319,0.824,0.428
4903.494,0.318,0.824,0.428
4904.494,0.318,0.830,0.419
4905.494,0.308,0.825,0.429
4906.494,0.314,0.833,0.416
4907.494,0.321,0.826,0.422
4908.494,0.318,0.824,0.426
4909.494,0.317,0.826,0.426
4910.494,0.317,0.825,0.427
4911.494,0.317,0.825,0.427
4912.494,0.318,0.826,0.424
4913.494,0.317,0.826,0.426
4914.494,0.317,0.825,0.427
4915.494,0.316,0.825,0.427
4916.494,0.316,0.825,0.426
4917.494,0.317,0.823,0.427
4918.494,0.316,0.824,0.428
4919.494,0.316,0.823,0.428
4920.494,0.318,0.824,0.429
4921.494,0.318,0.824,0.429
4922.494,0.317,0.822,0.429
4923.494,0.318,0.823,0.429
4924.494,0.318,0.823,0.429
4925.494,0.317,0.823,0.429
4926.494,0.317,0.824,0.429
4927.494,0.318,0.823,0.428
4928.494,0.316,0.823,0.429
4929.494,0.317,0.823,0.429
4930.494,0.318,0.823,0.429
4931.494,0.317,0.823,0.429
4932.494,0.317,0.824,0.428
4933.494,0.317,0.823,0.429
4934.494,0.317,0.824,0.429
4935.494,0.317,0.823,0.429
4936.494,0.317,0.823,0.428
4937.494,0.317,0.825,0.427
4938.494,0.317,0.823,0.428
4939.494,0.318,0.823,0.429
4940.494,0.316,0.823,0.429
4941.494,0.317,0.824,0.429
4942.494,0.317,0.825,0.428
4943.494,0.318,0.823,0.429
4944.494,0.317,0.823,0.430
4945.494,0.317,0.823,0.430
4946.494,0.317,0.825,0.428
4947.494,0.316,0.824,0.428
4948.494,0.316,0.822,0.429
4949.494,0.317,0.822,0.430
4950.494,0.317,0.823,0.429
4951.494,0.317,0.824,0.429
4952.494,0.317,0.823,0.428
4953.494,0.316,0.823,0.430
4954.494,0.317,0.823,0.430
4955.494,0.316,0.823,0.430
4956.494,0.317,0.824,0.429
4957.494,0.316,0.822,0.430
4958.494,0.317,0.822,0.430
4959.494,0.317,0.823,0.430
4960.494,0.318,0.823,0.429
4961.494,0.317,0.823,0.428
4962.494,0.316,0.823,0.430
4963.494,0.318,0.823,0.430
4964.494,0.316,0.822,0.429
4965.494,0.317,0.822,0.429
4966.494,0.317,0.822,0.429
4967.494,0.317,0.822,0.430
4968.494,0.317,0.821,0.430
4969.494,0.316,0.822,0.429
4970.494,0.317,0.824,0.429
4971.494,0.317,0.822,0.430
4972.494,0.318,0.822,0.430
4973.494,0.317,0.822,0.430
4974.494,0.317,0.823,0.430
4975.494,0.317,0.823,0.429
4976.494,0.316,0.822,0.429
4977.494,0.317,0.822,0.430
4978.494,0.317,0.822,0.430
4979.494,0.317,0.824,0.429
4980.494,0.317,0.822,0.429
4981.494,0.317,0.822,0.429
4982.494,0.317,0.823,0.430
4983.494,0.316,0.823,0.429
4984.494,0.317,0.822,0.430
4985.494,0.316,0.822,0.430
4986.494,0.316,0.822,0.430
4987.494,0.317,0.823,0.430
4988.494,0.317,0.823,0.430
4989.494,0.316,0.823,0.430
4990.494,0.317,0.822,0.430
4991.494,0.317,0.822,0.430
4992.494,0.317,0.822,0.430
4993.494,0.317,0.822,0.430
4994.494,0.316,0.822,0.430
4995.494,0.317,0.823,0.430
4996.494,0.317,0.822,0.430
4997.494,0.317,0.823,0.430
4998.494,0.316,0.823,0.430
4999.494,0.317,0.823,0.430
5000.494,0.316,0.822,0.430
5001.494,0.317,0.823,0.430
5002.494,0.317,0.822,0.430
5003.494,0.317,0.823,0.430
5004.494,0.316,0.823,0.430
5005.494,0.317,0.822,0.430
5006.494,0.317,0.823,0.430
5007.494,0.317,0.823,0.430
5008.494,0.316,0.822,0.430
5009.494,0.316,0.823,0.430
5010.494,0.317,0.822,0.429
5011.494,0.317,0.822,0.430
5012.494,0.317,0.823,0.430
5013.494,0.317,0.822,0.430
5014.494,0.317,0.823,0.430
5015.494,0.317,0.822,0.430
5016.494,0.317,0.823,0.430
5017.494,0.318,0.823,0.430
5018.494,0.318,0.822,0.430
5019.494,0.317,0.823,0.429
5020.494,0.318,0.822,0.430
5021.494,0.317,0.822,0.430
5022.494,0.318,0.823,0.430
5023.494,0.317,0.823,0.430
5024.494,0.317,0.823,0.430
5025.494,0.317,0.822,0.431
5026.494,0.317,0.822,0.430
5027.494,0.317,0.823,0.430
5028.494,0.317,0.822,0.430
5029.494,0.317,0.821,0.429
5030.494,0.317,0.823,0.429
5031.494,0.316,0.822,0.429
5032.494,0.317,0.822,0.429
5033.494,0.317,0.822,0.430
5034.494,0.317,0.822,0.430
5035.494,0.318,0.822,0.429
5036.494,0.316,0.822,0.430
5037.494,0.316,0.822,0.429
5038.494,0.317,0.822,0.430
5039.494,0.317,0.821,0.430
5040.494,0.317,0.823,0.430
5041.494,0.317,0.823,0.429
5042.494,0.318,0.822,0.430
5043.494,0.317,0.823,0.429
5044.494,0.318,0.822,0.429
5045.494,0.317,0.822,0.429
5046.494,0.317,0.822,0.430
5047.494,0.317,0.822,0.430
5048.494,0.318,0.824,0.429
5049.494,0.316,0.822,0.430
5050.494,0.317,0.823,0.429
5051.494,0.316,0.823,0.429
5052.494,0.317,0.823,0.429
5053.494,0.317,0.823,0.429
5054.494,0.317,0.823,0.429
5055.494,0.318,0.823,0.430
5056.494,0.317,0.823,0.429
5057.494,0.317,0.823,0.430
5058.494,0.318,0.823,0.429
5059.494,0.317,0.821,0.430
5060.494,0.317,0.822,0.429
5061.494,0.318,0.823,0.429
5062.494,0.318,0.822,0.429
5063.494,0.317,0.821,0.430
5064.494,0.318,0.822,0.429
5065.494,0.317,0.823,0.429
5066.494,0.318,0.822,0.429
5067.494,0.318,0.823,0.429
5068.494,0.317,0.823,0.429
5069.494,0.318,0.823,0.429
5070.494,0.319,0.823,0.429
5071.494,0.318,0.823,0.429
5072.494,0.317,0.823,0.430
5073.494,0.318,0.823,0.429
5074.494,0.318,0.822,0.429
5075.494,0.317,0.823,0.430
5076.494,0.318,0.824,0.429
5077.494,0.317,0.823,0.429
5078.494,0.317,0.822,0.430
5079.494,0.317,0.822,0.429
5080.494,0.317,0.823,0.429
5081.494,0.317,0.823,0.428
5082.494,0.317,0.823,0.429
5083.494,0.317,0.822,0.429
5084.494,0.317,0.823,0.430
5085.494,0.316,0.823,0.429
5086.494,0.317,0.823,0.430
5087.494,0.317,0.822,0.430
5088.494,0.317,0.822,0.429
5089.494,0.317,0.822,0.430
5090.494,0.318,0.822,0.430
5091.494,0.317,0.823,0.430
5092.494,0.317,0.823,0.430
5093.494,0.318,0.824,0.430
5094.494,0.318,0.822,0.430
5095.494,0.316,0.822,0.430
5096.494,0.317,0.823,0.429
5097.494,0.316,0.823,0.430
5098.494,0.317,0.822,0.430
5099.494,0.317,0.822,0.429
5100.494,0.317,0.822,0.429
5101.494,0.317,0.823,0.430
5102.494,0.317,0.823,0.430
5103.494,0.317,0.822,0.429
5104.494,0.317,0.824,0.429
5105.494,0.316,0.822,0.430
5106.494,0.316,0.823,0.430
5107.494,0.317,0.823,0.430
5108.494,0.317,0.823,0.430
5109.494,0.317,0.822,0.430
5110.494,0.317,0.823,0.430
5111.494,0.316,0.823,0.430
5112.494,0.317,0.822,0.429
5113.494,0.316,0.822,0.430
5114.494,0.317,0.822,0.430
5115.494,0.318,0.822,0.429
5116.494,0.318,0.824,0.428
5117.494,0.318,0.824,0.428
5118.494,0.318,0.824,0.429
5119.494,0.317,0.823,0.430
5120.494,0.317,0.824,0.428
5121.494,0.317,0.824,0.428
5122.494,0.317,0.825,0.428
5123.494,0.317,0.823,0.429
5124.494,0.318,0.824,0.428
5125.494,0.317,0.825,0.426
5126.494,0.318,0.824,0.426
5127.494,0.317,0.824,0.427
5128.494,0.318,0.825,0.428
5129.494,0.317,0.825,0.427
5130.494,0.318,0.825,0.426
5131.494,0.318,0.824,0.426
5132.494,0.317,0.824,0.428
5133.494,0.318,0.823,0.429
5134.494,0.318,0.823,0.429
5135.494,0.317,0.824,0.429
5136.494,0.318,0.823,0.429
5137.494,0.318,0.823,0.429
5138.494,0.317,0.823,0.429
5139.494,0.317,0.822,0.429
5140.494,0.316,0.823,0.429
5141.494,0.317,0.824,0.429
5142.494,0.316,0.823,0.430
5143.494,0.317,0.824,0.430
5144.494,0.317,0.823,0.429
5145.494,0.317,0.823,0.428
5146.494,0.317,0.823,0.428
5147.494,0.318,0.823,0.428
5148.494,0.317,0.823,0.429
5149.494,0.318,0.823,0.428
5150.494,0.317,0.824,0.428
5151.494,0.317,0.823,0.429
5152.494,0.316,0.823,0.429
5153.494,0.317,0.824,0.428
5154.494,0.317,0.823,0.428
5155.494,0.316,0.822,0.429
5156.494,0.316,0.823,0.429
5157.494,0.316,0.821,0.429
5158.494,0.317,0.823,0.429
5159.494,0.317,0.823,0.429
5160.494,0.317,0.821,0.430
5161.494,0.317,0.821,0.429
5162.494,0.317,0.822,0.428
5163.494,0.317,0.823,0.429
5164.494,0.318,0.822,0.429
5165.494,0.317,0.824,0.428
5166.494,0.316,0.823,0.429
5167.494,0.317,0.822,0.430
5168.494,0.317,0.822,0.428
5169.494,0.318,0.823,0.430
5170.494,0.317,0.822,0.429
5171.494,0.316,0.822,0.430
5172.494,0.318,0.824,0.429
5173.494,0.318,0.823,0.429
5174.494,0.317,0.824,0.428
5175.494,0.318,0.823,0.428
5176.494,0.317,0.824,0.428
5177.494,0.317,0.824,0.428
5178.494,0.318,0.823,0.428
5179.494,0.317,0.822,0.428
5180.494,0.318,0.824,0.428
5181.494,0.317,0.825,0.428
5182.494,0.317,0.824,0.428
5183.494,0.317,0.825,0.429
5184.494,0.317,0.825,0.429
5185.494,0.318,0.825,0.428
5186.494,0.318,0.825,0.429
5187.494,0.318,0.824,0.429
5188.494,0.317,0.824,0.429
5189.494,0.317,0.822,0.428
5190.494,0.316,0.823,0.429
5191.494,0.318,0.824,0.429
5192.494,0.318,0.824,0.428
5193.494,0.317,0.823,0.429
5194.494,0.316,0.824,0.429
5195.494,0.316,0.824,0.428
5196.494,0.318,0.825,0.428
5197.494,0.317,0.823,0.429
5198.494,0.317,0.823,0.428
5199.494,0.318,0.825,0.428
5200.494,0.318,0.825,0.427
5201.494,0.317,0.824,0.428
5202.494,0.318,0.825,0.428
5203.494,0.317,0.824,0.428
5204.494,0.317,0.824,0.429
5205.494,0.316,0.824,0.429
5206.494,0.317,0.823,0.428
5207.494,0.317,0.823,0.428
5208.494,0.316,0.823,0.428
5209.494,0.317,0.825,0.428
5210.494,0.318,0.824,0.429
5211.494,0.316,0.823,0.429
5212.494,0.318,0.824,0.429
5213.494,0.318,0.825,0.428
5214.494,0.318,0.825,0.429
5215.494,0.316,0.823,0.429
5216.494,0.318,0.825,0.428
5217.494,0.318,0.823,0.429
5218.494,0.317,0.824,0.429
5219.494,0.317,0.824,0.429
5220.494,0.317,0.824,0.429
5221.494,0.318,0.824,0.429
5222.494,0.318,0.824,0.428
5223.494,0.316,0.823,0.428
5224.494,0.317,0.823,0.428
5225.494,0.317,0.824,0.426
5226.494,0.318,0.825,0.427
5227.494,0.317,0.823,0.427
5228.494,0.317,0.824,0.428
5229.494,0.317,0.827,0.426
5230.494,0.318,0.825,0.426
5231.494,0.318,0.825,0.427
5232.494,0.317,0.823,0.428
5233.494,0.317,0.825,0.427
5234.494,0.318,0.826,0.424
5235.494,0.318,0.826,0.426
5236.494,0.317,0.824,0.426
5237.494,0.317,0.825,0.427
5238.494,0.317,0.826,0.424
5239.494,0.317,0.826,0.426
5240.494,0.317,0.824,0.429
5241.494,0.316,0.823,0.429
5242.494,0.316,0.825,0.427
5243.494,0.317,0.826,0.424
5244.494,0.318,0.824,0.426
5245.494,0.317,0.825,0.428
5246.494,0.317,0.823,0.428
5247.494,0.317,0.826,0.424
5248.494,0.317,0.826,0.424
5249.494,0.316,0.824,0.428
5250.494,0.317,0.823,0.429
5251.494,0.317,0.823,0.426
5252.494,0.318,0.827,0.424
5253.494,0.317,0.825,0.425
5254.494,0.317,0.823,0.427
5255.494,0.317,0.822,0.428
5256.494,0.318,0.825,0.427
5257.494,0.317,0.825,0.426
5258.494,0.318,0.825,0.426
5259.494,0.318,0.825,0.427
5260.494,0.318,0.823,0.428
5261.494,0.318,0.824,0.429
5262.494,0.318,0.823,0.429
5263.494,0.319,0.823,0.429
5264.494,0.318,0.823,0.429
5265.494,0.317,0.823,0.429
5266.494,0.317,0.824,0.429
5267.494,0.317,0.823,0.429
5268.494,0.318,0.823,0.429
5269.494,0.317,0.823,0.428
5270.494,0.318,0.823,0.429
5271.494,0.318,0.823,0.429
5272.494,0.318,0.824,0.429
5273.494,0.318,0.825,0.429
5274.494,0.318,0.824,0.428
5275.494,0.317,0.823,0.428
5276.494,0.318,0.822,0.429
5277.494,0.318,0.824,0.429
5278.494,0.317,0.823,0.428
5279.494,0.317,0.824,0.429
5280.494,0.319,0.822,0.429
5281.494,0.318,0.822,0.428
5282.494,0.317,0.824,0.428
5283.494,0.317,0.824,0.429
5284.494,0.318,0.823,0.429
5285.494,0.318,0.823,0.430
5286.494,0.317,0.823,0.428
5287.494,0.316,0.823,0.428
5288.494,0.317,0.823,0.429
5289.494,0.316,0.823,0.429
5290.494,0.317,0.824,0.429
5291.494,0.318,0.825,0.428
5292.494,0.317,0.825,0.429
5293.494,0.316,0.823,0.429
5294.494,0.316,0.822,0.429
5295.494,0.316,0.823,0.428
5296.494,0.317,0.824,0.428
5297.494,0.316,0.824,0.429
5298.494,0.316,0.823,0.429
5299.494,0.315,0.824,0.428
5300.494,0.316,0.825,0.429
5301.494,0.315,0.823,0.429
5302.494,0.316,0.823,0.428
5303.494,0.318,0.823,0.429
5304.494,0.317,0.824,0.428
5305.494,0.318,0.824,0.428
5306.494,0.317,0.823,0.429
5307.494,0.318,0.823,0.429
5308.494,0.318,0.823,0.429
5309.494,0.317,0.822,0.429
5310.494,0.318,0.823,0.429
5311.494,0.318,0.823,0.429
5312.494,0.317,0.823,0.429
5313.494,0.317,0.823,0.429
5314.494,0.318,0.824,0.429
5315.494,0.317,0.823,0.428
5316.494,0.317,0.824,0.428
5317.494,0.316,0.823,0.429
5318.494,0.317,0.823,0.429
5319.494,0.316,0.824,0.429
5320.494,0.316,0.824,0.427
5321.494,0.317,0.824,0.427
5322.494,0.316,0.825,0.428
5323.494,0.317,0.823,0.428
5324.494,0.317,0.824,0.429
5325.494,0.317,0.824,0.428
5326.494,0.317,0.825,0.428
5327.494,0.317,0.823,0.428
5328.494,0.317,0.823,0.428
5329.494,0.316,0.825,0.428
5330.494,0.317,0.824,0.428
5331.494,0.317,0.823,0.428
5332.494,0.317,0.824,0.428
5333.494,0.318,0.825,0.428
5334.494,0.317,0.824,0.427
5335.494,0.316,0.824,0.427
5336.494,0.316,0.824,0.429
5337.494,0.317,0.824,0.429
5338.494,0.317,0.824,0.428
5339.494,0.316,0.823,0.429
5340.494,0.317,0.825,0.428
5341.494,0.317,0.823,0.428
5342.494,0.317,0.824,0.429
5343.494,0.318,0.824,0.428
5344.494,0.316,0.825,0.428
5345.494,0.317,0.824,0.429
5346.494,0.317,0.823,0.428
5347.494,0.317,0.823,0.428
5348.494,0.317,0.823,0.428
5349.494,0.316,0.823,0.429
5350.494,0.318,0.824,0.429
5351.494,0.317,0.824,0.429
5352.494,0.317,0.823,0.429
5353.494,0.317,0.823,0.428
5354.494,0.318,0.823,0.428
5355.494,0.318,0.824,0.429
5356.494,0.318,0.823,0.429
5357.494,0.318,0.823,0.429
5358.494,0.317,0.824,0.428
5359.494,0.318,0.823,0.429
5360.494,0.319,0.822,0.428
5361.494,0.318,0.823,0.429
5362.494,0.318,0.823,0.428
5363.494,0.318,0.824,0.428
5364.494,0.317,0.823,0.429
5365.494,0.317,0.823,0.429
5366.494,0.319,0.825,0.427
5367.494,0.318,0.824,0.429
5368.494,0.317,0.823,0.428
5369.494,0.316,0.823,0.428
5370.494,0.317,0.824,0.428
5371.494,0.317,0.825,0.427
5372.494,0.316,0.824,0.427
5373.494,0.316,0.823,0.427
5374.494,0.316,0.822,0.428
5375.494,0.317,0.825,0.428
5376.494,0.318,0.823,0.427
5377.494,0.317,0.823,0.429
5378.494,0.317,0.823,0.429
5379.494,0.317,0.825,0.427
5380.494,0.318,0.824,0.427
5381.494,0.317,0.825,0.428
5382.494,0.317,0.823,0.428
5383.494,0.317,0.825,0.427
5384.494,0.317,0.823,0.428
5385.494,0.317,0.823,0.428
5386.494,0.318,0.825,0.428
5387.494,0.317,0.824,0.428
5388.494,0.318,0.825,0.428
5389.494,0.317,0.824,0.428
5390.494,0.317,0.824,0.428
5391.494,0.318,0.825,0.427
5392.494,0.317,0.825,0.427
5393.494,0.316,0.824,0.427
5394.494,0.316,0.824,0.428
5395.494,0.316,0.824,0.429
5396.494,0.318,0.825,0.427
5397.494,0.317,0.824,0.426
5398.494,0.316,0.823,0.427
5399.494,0.316,0.824,0.428
5400.494,0.317,0.823,0.427
5401.494,0.317,0.822,0.428
5402.494,0.316,0.823,0.429
5403.494,0.318,0.823,0.429
5404.494,0.317,0.823,0.428
5405.494,0.318,0.824,0.429
5406.494,0.317,0.823,0.428
5407.494,0.317,0.823,0.430
5408.494,0.317,0.823,0.429
5409.494,0.317,0.823,0.429
5410.494,0.317,0.824,0.429
5411.494,0.317,0.824,0.430
5412.494,0.318,0.824,0.429
5413.494,0.316,0.823,0.429
5414.494,0.318,0.824,0.429
5415.494,0.317,0.823,0.430
5416.494,0.317,0.823,0.430
5417.494,0.318,0.824,0.428
5418.494,0.316,0.823,0.429
5419.494,0.315,0.823,0.428
5420.494,0.317,0.825,0.428
5421.494,0.318,0.825,0.427
5422.494,0.317,0.824,0.428
5423.494,0.317,0.824,0.428
5424.494,0.317,0.824,0.429
5425.494,0.317,0.825,0.428
5426.494,0.315,0.824,0.429
5427.494,0.317,0.825,0.429
5428.494,0.317,0.825,0.429
5429.494,0.317,0.824,0.427
5430.494,0.316,0.823,0.428
5431.494,0.317,0.824,0.429
5432.494,0.317,0.824,0.429
5433.494,0.317,0.825,0.428
5434.494,0.316,0.824,0.429
5435.494,0.317,0.823,0.429
5436.494,0.317,0.824,0.428
5437.494,0.316,0.825,0.428
5438.494,0.316,0.823,0.429
5439.494,0.316,0.823,0.429
5440.494,0.317,0.825,0.428
5441.494,0.317,0.824,0.429
5442.494,0.317,0.824,0.429
5443.494,0.316,0.824,0.429
5444.494,0.317,0.824,0.428
5445.494,0.316,0.825,0.429
5446.494,0.316,0.824,0.429
5447.494,0.316,0.823,0.428
5448.494,0.317,0.825,0.428
5449.494,0.317,0.824,0.429
5450.494,0.317,0.822,0.430
5451.494,0.316,0.823,0.429
5452.494,0.317,0.823,0.428
5453.494,0.318,0.824,0.429
5454.494,0.316,0.823,0.429
5455.494,0.317,0.825,0.429
5456.494,0.317,0.824,0.428
5457.494,0.316,0.824,0.429
5458.494,0.317,0.824,0.429
5459.494,0.317,0.824,0.429
5460.494,0.317,0.823,0.428
5461.494,0.318,0.824,0.429
5462.494,0.317,0.823,0.428
5463.494,0.317,0.824,0.429
5464.494,0.317,0.823,0.429
5465.494,0.316,0.823,0.429
5466.494,0.317,0.824,0.428
5467.494,0.317,0.824,0.427
5468.494,0.317,0.824,0.428
5469.494,0.317,0.823,0.427
5470.494,0.317,0.825,0.427
5471.494,0.317,0.824,0.428
5472.494,0.318,0.824,0.428
5473.494,0.317,0.824,0.428
5474.494,0.317,0.823,0.428
5475.494,0.317,0.824,0.428
5476.494,0.317,0.823,0.429
5477.494,0.317,0.824,0.428
5478.494,0.317,0.824,0.428
5479.494,0.317,0.824,0.429
5480.494,0.317,0.823,0.428
5481.494,0.317,0.824,0.429
5482.494,0.316,0.824,0.428
5483.494,0.317,0.824,0.428
5484.494,0.316,0.823,0.428
5485.494,0.316,0.824,0.428
5486.494,0.317,0.824,0.428
5487.494,0.317,0.824,0.429
5488.494,0.317,0.824,0.428
5489.494,0.317,0.824,0.428
5490.494,0.317,0.822,0.429
5491.494,0.317,0.823,0.429
5492.494,0.317,0.824,0.428
5493.494,0.317,0.825,0.429
5494.494,0.316,0.823,0.429
5495.494,0.316,0.823,0.429
5496.494,0.317,0.823,0.429
5497.494,0.317,0.823,0.429
5498.494,0.316,0.823,0.429
5499.494,0.317,0.823,0.429
5500.494,0.317,0.823,0.429
5501.494,0.317,0.823,0.428
5502.494,0.317,0.824,0.428
5503.494,0.317,0.824,0.429
5504.494,0.318,0.823,0.429
5505.494,0.317,0.823,0.428
5506.494,0.317,0.823,0.428
5507.494,0.317,0.823,0.429
5508.494,0.317,0.824,0.429
5509.494,0.317,0.823,0.428
5510.494,0.318,0.824,0.428
5511.494,0.316,0.824,0.429
5512.494,0.317,0.823,0.428
5513.494,0.317,0.823,0.428
5514.494,0.316,0.823,0.428
5515.494,0.317,0.823,0.428
5516.494,0.317,0.823,0.428
5517.494,0.317,0.825,0.428
5518.494,0.317,0.825,0.427
5519.494,0.317,0.823,0.428
5520.494,0.316,0.824,0.428
5521.494,0.317,0.826,0.427
5522.494,0.317,0.824,0.428
5523.494,0.316,0.823,0.429
5524.494,0.318,0.824,0.428
5525.494,0.317,0.825,0.428
5526.494,0.317,0.824,0.427
5527.494,0.317,0.823,0.428
5528.494,0.317,0.824,0.429
5529.494,0.317,0.825,0.428
5530.494,0.317,0.824,0.429
5531.494,0.317,0.824,0.429
5532.494,0.317,0.825,0.428
5533.494,0.317,0.824,0.429
5534.494,0.317,0.824,0.429
5535.494,0.317,0.824,0.428
5536.494,0.317,0.824,0.428
5537.494,0.317,0.824,0.429
5538.494,0.317,0.823,0.428
5539.494,0.317,0.824,0.427
5540.494,0.316,0.825,0.428
5541.494,0.317,0.824,0.429
5542.494,0.317,0.824,0.428
5543.494,0.316,0.825,0.427
5544.494,0.316,0.823,0.429
5545.494,0.317,0.825,0.427
5546.494,0.317,0.825,0.427
5547.494,0.317,0.823,0.428
5548.494,0.316,0.823,0.427
5549.494,0.318,0.827,0.420
5550.494,0.320,0.824,0.424
5551.494,0.320,0.822,0.436
5552.494,0.339,0.825,0.409
5553.494,0.407,0.794,0.462
5554.494,0.775,-0.238,-0.023
5555.494,0.614,-0.711,-0.370
5556.494,0.574,-0.745,0.070
5557.494,0.814,-0.392,0.220
5558.494,0.798,0.116,0.362
5559.494,0.764,-0.418,0.287
5560.494,0.620,-0.105,0.733
5561.494,0.676,-0.109,0.710
5562.494,0.622,-0.158,0.745
5563.494,0.615,-0.241,0.730
5564.494,0.639,-0.336,0.668
5565.494,0.626,-0.359,0.667
5566.494,0.620,-0.353,0.677
5567.494,0.617,-0.351,0.683
5568.494,0.660,-0.281,0.656
5569.494,0.654,-0.455,0.599
5570.494,0.633,-0.450,0.608
5571.494,0.634,-0.445,0.608
5572.494,0.649,-0.447,0.593
5573.494,0.624,-0.439,0.626
5574.494,0.628,-0.449,0.613
5575.494,0.629,-0.448,0.611
5576.494,0.625,-0.442,0.622
5577.494,0.624,-0.442,0.622
5578.494,0.625,-0.445,0.619
5579.494,0.628,-0.453,0.608
5580.494,0.630,-0.450,0.607
5581.494,0.626,-0.445,0.618
5582.494,0.623,-0.445,0.622
5583.494,0.624,-0.448,0.617
5584.494,0.629,-0.453,0.606
5585.494,0.629,-0.447,0.612
5586.494,0.625,-0.446,0.619
5587.494,0.622,-0.445,0.621
5588.494,0.624,-0.448,0.615
5589.494,0.627,-0.454,0.606
5590.494,0.628,-0.448,0.613
5591.494,0.623,-0.449,0.620
5592.494,0.664,-0.461,0.565
5593.494,0.626,-0.463,0.606
5594.494,0.624,-0.455,0.611
5595.494,0.621,-0.452,0.619
5596.494,0.620,-0.451,0.619
5597.494,0.622,-0.457,0.613
5598.494,0.625,-0.459,0.606
5599.494,0.623,-0.452,0.615
5600.494,0.621,-0.450,0.620
5601.494,0.619,-0.451,0.622
5602.494,0.621,-0.452,0.619
5603.494,0.623,-0.456,0.610
5604.494,0.624,-0.453,0.612
5605.494,0.620,-0.452,0.619
5606.494,0.620,-0.451,0.621
5607.494,0.619,-0.451,0.622
5608.494,0.620,-0.452,0.618
5609.494,0.624,-0.457,0.609
5610.494,0.624,-0.452,0.613
5611.494,0.621,-0.451,0.620
5612.494,0.619,-0.452,0.621
5613.494,0.619,-0.451,0.621
5614.494,0.622,-0.454,0.613
5615.494,0.624,-0.453,0.610
5616.494,0.621,-0.451,0.618
5617.494,0.619,-0.451,0.621
5618.494,0.619,-0.450,0.623
5619.494,0.621,-0.452,0.619
5620.494,0.622,-0.455,0.613
5621.494,0.621,-0.453,0.618
5622.494,0.620,-0.451,0.622
5623.494,0.618,-0.450,0.622
5624.494,0.618,-0.451,0.622
5625.494,0.621,-0.453,0.617
5626.494,0.622,-0.456,0.612
5627.494,0.621,-0.455,0.615
5628.494,0.619,-0.452,0.620
5629.494,0.619,-0.454,0.620
5630.494,0.620,-0.463,0.611
5631.494,0.621,-0.460,0.610
5632.494,0.620,-0.455,0.619
5633.494,0.618,-0.452,0.621
5634.494,0.618,-0.452,0.623
5635.494,0.617,-0.452,0.622
5636.494,0.617,-0.453,0.622
5637.494,0.617,-0.452,0.622
5638.494,0.617,-0.452,0.622
5639.494,0.617,-0.452,0.624
5640.494,0.616,-0.452,0.624
5641.494,0.617,-0.454,0.621
5642.494,0.619,-0.455,0.617
5643.494,0.619,-0.454,0.620
5644.494,0.618,-0.453,0.621
5645.494,0.618,-0.453,0.621
5646.494,0.618,-0.453,0.622
5647.494,0.617,-0.453,0.623
5648.494,0.617,-0.454,0.623
5649.494,0.617,-0.452,0.623
5650.494,0.617,-0.452,0.623
5651.494,0.617,-0.452,0.624
5652.494,0.617,-0.454,0.623
5653.494,0.618,-0.454,0.622
5654.494,0.618,-0.452,0.622
5655.494,0.618,-0.453,0.623
5656.494,0.617,-0.453,0.623
5657.494,0.618,-0.455,0.619
5658.494,0.620,-0.459,0.613
5659.494,0.620,-0.454,0.617
5660.494,0.618,-0.452,0.621
5661.494,0.617,-0.452,0.623
5662.494,0.619,-0.455,0.618
5663.494,0.620,-0.459,0.613
5664.494,0.620,-0.455,0.616
5665.494,0.618,-0.452,0.620
5666.494,0.617,-0.452,0.623
5667.494,0.618,-0.456,0.618
5668.494,0.620,-0.460,0.612
5669.494,0.621,-0.454,0.616
5670.494,0.618,-0.453,0.623
5671.494,0.617,-0.452,0.624
5672.494,0.618,-0.455,0.619
5673.494,0.620,-0.460,0.613
5674.494,0.621,-0.455,0.614
5675.494,0.620,-0.453,0.619
5676.494,0.619,-0.453,0.622
5677.494,0.618,-0.452,0.622
5678.494,0.617,-0.454,0.623
5679.494,0.617,-0.455,0.620
5680.494,0.619,-0.453,0.620
5681.494,0.618,-0.452,0.622
5682.494,0.617,-0.452,0.623
5683.494,0.616,-0.453,0.622
5684.494,0.617,-0.454,0.622
5685.494,0.617,-0.454,0.621
5686.494,0.618,-0.453,0.623
5687.494,0.617,-0.452,0.623
5688.494,0.616,-0.453,0.624
5689.494,0.617,-0.454,0.620
5690.494,0.619,-0.455,0.618
5691.494,0.618,-0.454,0.620
5692.494,0.618,-0.453,0.622
5693.494,0.616,-0.453,0.623
5694.494,0.616,-0.455,0.622
5695.494,0.618,-0.456,0.620
5696.494,0.619,-0.453,0.622
5697.494,0.618,-0.452,0.623
5698.494,0.617,-0.453,0.623
5699.494,0.616,-0.454,0.623
5700.494,0.617,-0.453,0.624
5701.494,0.617,-0.452,0.624
5702.494,0.617,-0.452,0.625
5703.494,0.616,-0.453,0.624
5704.494,0.616,-0.454,0.624
5705.494,0.616,-0.452,0.624
5706.494,0.617,-0.453,0.624
5707.494,0.615,-0.456,0.624
5708.494,0.616,-0.454,0.622
5709.494,0.617,-0.453,0.624
5710.494,0.617,-0.453,0.624
5711.494,0.615,-0.455,0.623
5712.494,0.618,-0.456,0.618
5713.494,0.618,-0.453,0.620
5714.494,0.616,-0.454,0.621
5715.494,0.617,-0.456,0.621
5716.494,0.618,-0.460,0.615
5717.494,0.620,-0.456,0.616
5718.494,0.620,-0.454,0.619
5719.494,0.617,-0.456,0.620
5720.494,0.620,-0.463,0.612
5721.494,0.629,-0.485,0.586
5722.494,0.555,-0.189,0.782
5723.494,0.624,-0.408,0.646
5724.494,0.632,-0.451,0.606
5725.494,0.617,-0.440,0.630
5726.494,0.611,-0.429,0.644
5727.494,0.622,-0.442,0.630
5728.494,0.613,-0.704,0.147
5729.494,0.585,-0.743,0.210
5730.494,0.648,-0.756,0.112
5731.494,0.489,0.630,-0.492
5732.494,0.461,0.579,0.593
5733.494,0.397,0.694,0.563
5734.494,0.403,0.773,0.449
5735.494,0.371,0.764,0.480
5736.494,0.379,0.793,0.442
5737.494,0.396,0.778,0.448
5738.494,0.389,0.793,0.436
5739.494,0.387,0.790,0.439
5740.494,0.386,0.790,0.440
5741.494,0.386,0.788,0.441
5742.494,0.386,0.789,0.439
5743.494,0.387,0.791,0.439
5744.494,0.387,0.788,0.440
5745.494,0.386,0.787,0.441
5746.494,0.387,0.788,0.442
5747.494,0.387,0.787,0.442
5748.494,0.387,0.789,0.439
5749.494,0.388,0.791,0.439
5750.494,0.387,0.789,0.440
5751.494,0.388,0.790,0.442
5752.494,0.387,0.787,0.442
5753.494,0.387,0.786,0.442
5754.494,0.387,0.789,0.439
5755.494,0.387,0.791,0.438
5756.494,0.387,0.789,0.440
5757.494,0.387,0.789,0.440
5758.494,0.387,0.789,0.441
5759.494,0.386,0.788,0.442
5760.494,0.387,0.788,0.440
5761.494,0.387,0.790,0.439
5762.494,0.387,0.790,0.438
5763.494,0.387,0.789,0.441
5764.494,0.389,0.789,0.440
5765.494,0.387,0.788,0.442
5766.494,0.388,0.789,0.443
5767.494,0.387,0.789,0.441
5768.494,0.388,0.791,0.439
5769.494,0.388,0.791,0.439
5770.494,0.387,0.789,0.440
5771.494,0.388,0.787,0.441
5772.494,0.388,0.788,0.442
5773.494,0.388,0.788,0.440
5774.494,0.387,0.791,0.439
5775.494,0.388,0.790,0.440
5776.494,0.387,0.789,0.442
5777.494,0.387,0.789,0.441
5778.494,0.387,0.788,0.442
5779.494,0.387,0.789,0.440
5780.494,0.387,0.790,0.440
5781.494,0.387,0.789,0.441
5782.494,0.387,0.789,0.441
5783.494,0.388,0.788,0.443
5784.494,0.387,0.789,0.441
5785.494,0.386,0.788,0.440
5786.494,0.387,0.789,0.438
5787.494,0.387,0.789,0.440
5788.494,0.387,0.789,0.441
5789.494,0.386,0.788,0.441
5790.494,0.387,0.787,0.441
5791.494,0.387,0.787,0.439
5792.494,0.386,0.791,0.438
5793.494,0.387,0.790,0.439
5794.494,0.387,0.788,0.440
5795.494,0.388,0.789,0.441
5796.494,0.387,0.789,0.440
5797.494,0.387,0.790,0.439
5798.494,0.387,0.791,0.440
5799.494,0.386,0.789,0.441
5800.494,0.387,0.790,0.441
5801.494,0.386,0.790,0.441
5802.494,0.386,0.791,0.440
5803.494,0.387,0.789,0.439
5804.494,0.386,0.789,0.440
5805.494,0.386,0.789,0.442
5806.494,0.387,0.789,0.441
5807.494,0.387,0.789,0.439
5808.494,0.387,0.791,0.438
5809.494,0.387,0.791,0.439
5810.494,0.386,0.788,0.439
5811.494,0.386,0.789,0.440
5812.494,0.386,0.788,0.441
5813.494,0.386,0.788,0.441
5814.494,0.387,0.788,0.440
5815.494,0.387,0.789,0.440
5816.494,0.387,0.790,0.441
5817.494,0.386,0.789,0.441
5818.494,0.386,0.789,0.440
5819.494,0.386,0.787,0.441
5820.494,0.387,0.789,0.440
5821.494,0.387,0.788,0.442
5822.494,0.387,0.789,0.440
5823.494,0.386,0.788,0.441
5824.494,0.386,0.791,0.439
5825.494,0.386,0.790,0.439
5826.494,0.386,0.789,0.440
5827.494,0.386,0.789,0.441
5828.494,0.386,0.789,0.441
5829.494,0.385,0.789,0.441
5830.494,0.386,0.790,0.439
5831.494,0.386,0.790,0.439
5832.494,0.386,0.788,0.441
5833.494,0.385,0.789,0.440
5834.494,0.385,0.790,0.441
5835.494,0.387,0.789,0.440
5836.494,0.386,0.790,0.439
5837.494,0.386,0.787,0.440
5838.494,0.386,0.788,0.441
5839.494,0.385,0.789,0.441
5840.494,0.386,0.788,0.439
5841.494,0.387,0.791,0.438
5842.494,0.386,0.789,0.438
5843.494,0.386,0.790,0.439
5844.494,0.386,0.789,0.441
5845.494,0.386,0.789,0.441
5846.494,0.387,0.790,0.439
5847.494,0.387,0.791,0.439
5848.494,0.386,0.790,0.439
5849.494,0.386,0.790,0.441
5850.494,0.386,0.790,0.441
5851.494,0.386,0.790,0.440
5852.494,0.386,0.791,0.439
5853.494,0.386,0.792,0.437
5854.494,0.385,0.790,0.439
5855.494,0.386,0.790,0.439
5856.494,0.386,0.790,0.440
5857.494,0.386,0.789,0.439
5858.494,0.386,0.790,0.440
5859.494,0.387,0.789,0.440
5860.494,0.386,0.789,0.441
5861.494,0.386,0.790,0.441
5862.494,0.385,0.790,0.441
5863.494,0.386,0.790,0.440
5864.494,0.386,0.790,0.440
5865.494,0.386,0.789,0.439
5866.494,0.386,0.790,0.441
5867.494,0.386,0.789,0.440
5868.494,0.386,0.790,0.439
5869.494,0.386,0.789,0.441
5870.494,0.387,0.790,0.439
5871.494,0.386,0.789,0.440
5872.494,0.387,0.789,0.440
5873.494,0.387,0.790,0.440
5874.494,0.386,0.791,0.440
5875.494,0.386,0.790,0.441
5876.494,0.386,0.790,0.440
5877.494,0.386,0.790,0.440
5878.494,0.385,0.790,0.440
5879.494,0.386,0.791,0.442
5880.494,0.386,0.791,0.440
5881.494,0.386,0.790,0.440
5882.494,0.385,0.790,0.440
5883.494,0.386,0.790,0.440
5884.494,0.386,0.792,0.440
5885.494,0.385,0.790,0.439
5886.494,0.386,0.789,0.440
5887.494,0.386,0.791,0.440
5888.494,0.386,0.789,0.441
5889.494,0.386,0.789,0.441
5890.494,0.386,0.789,0.440
5891.494,0.385,0.790,0.440
5892.494,0.386,0.790,0.440
5893.494,0.387,0.792,0.440
5894.494,0.387,0.791,0.439
5895.494,0.386,0.790,0.439
5896.494,0.386,0.790,0.439
5897.494,0.387,0.791,0.440
5898.494,0.386,0.791,0.440
5899.494,0.386,0.791,0.440
5900.494,0.386,0.792,0.439
5901.494,0.385,0.790,0.438
5902.494,0.386,0.792,0.439
5903.494,0.386,0.791,0.439
5904.494,0.386,0.790,0.438
5905.494,0.386,0.791,0.438
5906.494,0.385,0.791,0.438
5907.494,0.385,0.791,0.438
5908.494,0.385,0.791,0.437
5909.494,0.385,0.792,0.438
5910.494,0.385,0.792,0.438
5911.494,0.385,0.790,0.438
5912.494,0.385,0.790,0.439
5913.494,0.386,0.790,0.438
5914.494,0.385,0.793,0.438
5915.494,0.385,0.791,0.438
5916.494,0.386,0.792,0.439
5917.494,0.385,0.791,0.439
5918.494,0.387,0.792,0.439
5919.494,0.386,0.792,0.438
5920.494,0.386,0.790,0.439
5921.494,0.385,0.791,0.440
5922.494,0.386,0.793,0.439
5923.494,0.385,0.792,0.438
5924.494,0.379,0.825,0.363
5925.494,0.381,0.862,0.282
5926.494,0.366,0.775,0.469
5927.494,0.386,0.783,0.445
5928.494,0.385,0.816,0.396
5929.494,0.362,0.788,0.462
5930.494,0.361,0.786,0.462
5931.494,0.368,0.798,0.441
5932.494,0.380,0.771,0.475
5933.494,0.378,0.787,0.446
5934.494,0.370,0.791,0.447
5935.494,0.373,0.787,0.454
5936.494,0.380,0.785,0.446
5937.494,0.370,0.796,0.443
5938.494,0.370,0.794,0.447
5939.494,0.370,0.792,0.448
5940.494,0.370,0.792,0.448
5941.494,0.370,0.794,0.445
5942.494,0.371,0.794,0.446
5943.494,0.370,0.792,0.447
5944.494,0.369,0.792,0.449
5945.494,0.370,0.792,0.449
5946.494,0.370,0.791,0.450
5947.494,0.370,0.792,0.449
5948.494,0.370,0.792,0.448
5949.494,0.370,0.792,0.449
5950.494,0.370,0.792,0.449
5951.494,0.370,0.792,0.449
5952.494,0.370,0.791,0.449
5953.494,0.370,0.792,0.448
5954.494,0.370,0.793,0.447
5955.494,0.370,0.792,0.446
5956.494,0.370,0.791,0.448
5957.494,0.370,0.792,0.449
5958.494,0.370,0.792,0.449
5959.494,0.371,0.792,0.449
5960.494,0.370,0.794,0.448
5961.494,0.370,0.793,0.449
5962.494,0.370,0.793,0.449
5963.494,0.370,0.794,0.451
5964.494,0.370,0.792,0.450
5965.494,0.370,0.792,0.450
5966.494,0.370,0.792,0.449
5967.494,0.370,0.792,0.450
5968.494,0.370,0.790,0.450
5969.494,0.370,0.791,0.451
5970.494,0.370,0.791,0.449
5971.494,0.370,0.792,0.449
5972.494,0.370,0.792,0.450
5973.494,0.370,0.791,0.450
5974.494,0.370,0.791,0.450
5975.494,0.370,0.791,0.450
5976.494,0.370,0.791,0.449
5977.494,0.370,0.790,0.451
5978.494,0.370,0.792,0.449
5979.494,0.370,0.790,0.450
5980.494,0.369,0.791,0.449
5981.494,0.370,0.791,0.449
5982.494,0.370,0.791,0.449
5983.494,0.370,0.790,0.450
5984.494,0.369,0.790,0.450
5985.494,0.370,0.791,0.449
5986.494,0.370,0.792,0.450
5987.494,0.370,0.791,0.450
5988.494,0.370,0.791,0.450
5989.494,0.370,0.792,0.450
5990.494,0.370,0.793,0.449
5991.494,0.370,0.793,0.450
5992.494,0.370,0.792,0.450
5993.494,0.371,0.792,0.451
5994.494,0.370,0.792,0.450
5995.494,0.370,0.793,0.450
5996.494,0.369,0.792,0.450
5997.494,0.369,0.792,0.450
5998.494,0.370,0.791,0.450
5999.494,0.369,0.793,0.450
6000.494,0.370,0.793,0.449
6001.494,0.370,0.793,0.450
6002.494,0.370,0.793,0.448
6003.494,0.370,0.792,0.448
6004.494,0.369,0.792,0.447
6005.494,0.370,0.793,0.447
6006.494,0.370,0.791,0.449
6007.494,0.370,0.791,0.449
6008.494,0.370,0.791,0.450
6009.494,0.370,0.792,0.448
6010.494,0.370,0.792,0.449
6011.494,0.369,0.792,0.449
6012.494,0.370,0.791,0.449
6013.494,0.369,0.792,0.450
6014.494,0.370,0.793,0.449
6015.494,0.370,0.792,0.448
6016.494,0.370,0.791,0.449
6017.494,0.370,0.792,0.449
6018.494,0.370,0.791,0.449
6019.494,0.370,0.792,0.448
6020.494,0.370,0.793,0.449
6021.494,0.369,0.791,0.450
6022.494,0.369,0.792,0.450
6023.494,0.369,0.791,0.450
6024.494,0.370,0.793,0.449
6025.494,0.370,0.792,0.449
6026.494,0.369,0.791,0.449
6027.494,0.369,0.791,0.450
6028.494,0.369,0.792,0.448
6029.494,0.370,0.792,0.448
6030.494,0.369,0.791,0.449
6031.494,0.370,0.791,0.449
6032.494,0.370,0.791,0.449
6033.494,0.370,0.792,0.449
6034.494,0.370,0.792,0.450
6035.494,0.370,0.790,0.449
6036.494,0.370,0.792,0.450
6037.494,0.370,0.791,0.449
6038.494,0.371,0.792,0.448
6039.494,0.370,0.793,0.450
6040.494,0.370,0.791,0.451
6041.494,0.370,0.791,0.449
6042.494,0.370,0.794,0.448
6043.494,0.370,0.793,0.448
6044.494,0.370,0.793,0.449
6045.494,0.370,0.792,0.450
6046.494,0.371,0.794,0.447
6047.494,0.370,0.795,0.446
6048.494,0.371,0.793,0.447
6049.494,0.370,0.792,0.448
6050.494,0.370,0.794,0.448
6051.494,0.370,0.794,0.446
6052.494,0.370,0.796,0.444
6053.494,0.370,0.796,0.446
6054.494,0.370,0.794,0.447
6055.494,0.370,0.794,0.447
6056.494,0.370,0.795,0.447
6057.494,0.370,0.795,0.445
6058.494,0.358,0.779,0.470
6059.494,0.370,0.832,0.378
6060.494,0.355,0.786,0.464
6061.494,0.373,0.802,0.428
6062.494,0.365,0.820,0.407
6063.494,0.364,0.818,0.407
6064.494,0.364,0.818,0.408
6065.494,0.364,0.818,0.407
6066.494,0.364,0.818,0.407
6067.494,0.364,0.818,0.408
6068.494,0.364,0.817,0.409
6069.494,0.364,0.816,0.410
6070.494,0.364,0.816,0.410
6071.494,0.363,0.817,0.412
6072.494,0.364,0.817,0.411
6073.494,0.364,0.817,0.409
6074.494,0.363,0.817,0.412
6075.494,0.363,0.816,0.414
6076.494,0.362,0.816,0.413
6077.494,0.362,0.815,0.414
6078.494,0.362,0.816,0.412
6079.494,0.363,0.816,0.411
6080.494,0.363,0.815,0.412
6081.494,0.363,0.815,0.414
6082.494,0.363,0.815,0.415
6083.494,0.364,0.815,0.414
6084.494,0.364,0.815,0.413
6085.494,0.364,0.815,0.413
6086.494,0.358,0.833,0.382
6087.494,0.356,0.816,0.405
6088.494,0.367,0.824,0.394
6089.494,0.364,0.817,0.411
6090.494,0.367,0.833,0.375
6091.494,0.350,0.911,0.154
6092.494,0.335,0.830,0.394
6093.494,0.327,0.783,0.491
6094.494,0.344,0.773,0.490
6095.494,0.345,0.781,0.478
6096.494,0.345,0.779,0.478
6097.494,0.345,0.780,0.477
6098.494,0.345,0.781,0.475
6099.494,0.346,0.780,0.476
6100.494,0.345,0.781,0.476
6101.494,0.345,0.781,0.475
6102.494,0.345,0.781,0.474
6103.494,0.345,0.782,0.475
6104.494,0.346,0.781,0.477
6105.494,0.345,0.779,0.477
6106.494,0.346,0.780,0.477
6107.494,0.345,0.780,0.477
6108.494,0.345,0.780,0.476
6109.494,0.346,0.780,0.476
6110.494,0.346,0.779,0.477
6111.494,0.345,0.779,0.478
6112.494,0.347,0.780,0.476
6113.494,0.345,0.781,0.475
6114.494,0.345,0.783,0.474
6115.494,0.345,0.781,0.475
6116.494,0.345,0.780,0.476
6117.494,0.345,0.780,0.476
6118.494,0.347,0.777,0.481
6119.494,0.351,0.780,0.476
6120.494,0.349,0.786,0.469
6121.494,0.347,0.784,0.471
6122.494,0.348,0.784,0.472
6123.494,0.347,0.783,0.471
6124.494,0.349,0.784,0.470
6125.494,0.349,0.784,0.470
6126.494,0.349,0.785,0.470
6127.494,0.348,0.783,0.471
6128.494,0.348,0.783,0.471
6129.494,0.348,0.783,0.472
6130.494,0.349,0.782,0.472
6131.494,0.349,0.783,0.470
6132.494,0.348,0.784,0.471
6133.494,0.350,0.783,0.473
6134.494,0.349,0.783,0.473
6135.494,0.350,0.782,0.473
6136.494,0.350,0.783,0.471
6137.494,0.349,0.784,0.470
6138.494,0.349,0.784,0.471
6139.494,0.350,0.783,0.471
6140.494,0.350,0.782,0.473
6141.494,0.350,0.782,0.471
6142.494,0.349,0.784,0.470
6143.494,0.348,0.782,0.470
6144.494,0.348,0.783,0.472
6145.494,0.348,0.781,0.473
6146.494,0.348,0.782,0.471
6147.494,0.349,0.783,0.471
6148.494,0.349,0.783,0.470
6149.494,0.348,0.783,0.470
6150.494,0.349,0.783,0.471
6151.494,0.349,0.783,0.472
6152.494,0.348,0.783,0.471
6153.494,0.349,0.785,0.471
6154.494,0.348,0.785,0.470
6155.494,0.350,0.784,0.471
6156.494,0.348,0.783,0.471
6157.494,0.349,0.782,0.471
6158.494,0.348,0.784,0.470
6159.494,0.349,0.786,0.469
6160.494,0.348,0.785,0.469
6161.494,0.349,0.783,0.470
6162.494,0.348,0.783,0.471
6163.494,0.349,0.784,0.469
6164.494,0.348,0.785,0.468
6165.494,0.349,0.786,0.468
6166.494,0.349,0.785,0.469
6167.494,0.349,0.786,0.469
6168.494,0.348,0.785,0.469
6169.494,0.347,0.785,0.467
6170.494,0.349,0.787,0.466
6171.494,0.348,0.786,0.467
6172.494,0.349,0.787,0.468
6173.494,0.338,0.759,0.510
6174.494,0.359,0.788,0.464
6175.494,0.375,0.855,0.299
6176.494,0.358,0.887,0.245
6177.494,0.350,0.882,0.276
6178.494,0.350,0.911,0.130
6179.494,0.329,0.827,0.404
6180.494,0.341,0.740,0.535
6181.494,0.349,0.725,0.549
6182.494,0.346,0.748,0.522
6183.494,0.344,0.752,0.518
6184.494,0.346,0.759,0.508
6185.494,0.346,0.765,0.500
6186.494,0.346,0.764,0.500
6187.494,0.346,0.764,0.500
6188.494,0.346,0.764,0.499
6189.494,0.346,0.765,0.500
6190.494,0.345,0.764,0.502
6191.494,0.345,0.763,0.501
6192.494,0.346,0.763,0.502
6193.494,0.345,0.762,0.502
6194.494,0.346,0.762,0.501
6195.494,0.347,0.764,0.500
6196.494,0.346,0.763,0.500
6197.494,0.346,0.762,0.501
6198.494,0.346,0.763,0.501
6199.494,0.346,0.762,0.499
6200.494,0.346,0.764,0.500
6201.494,0.345,0.764,0.500
6202.494,0.346,0.762,0.500
6203.494,0.345,0.762,0.501
6204.494,0.346,0.764,0.499
6205.494,0.346,0.766,0.498
6206.494,0.346,0.765,0.498
6207.494,0.345,0.764,0.499
6208.494,0.345,0.763,0.500
6209.494,0.346,0.764,0.498
6210.494,0.346,0.765,0.497
6211.494,0.346,0.765,0.498
6212.494,0.346,0.764,0.499
6213.494,0.346,0.764,0.499
6214.494,0.346,0.764,0.499
6215.494,0.346,0.766,0.497
6216.494,0.346,0.765,0.496
6217.494,0.345,0.765,0.498
6218.494,0.345,0.765,0.500
6219.494,0.346,0.764,0.499
6220.494,0.346,0.765,0.498
6221.494,0.346,0.766,0.497
6222.494,0.346,0.765,0.498
6223.494,0.345,0.764,0.499
6224.494,0.346,0.763,0.500
6225.494,0.346,0.764,0.499
6226.494,0.346,0.765,0.497
6227.494,0.346,0.765,0.497
6228.494,0.346,0.764,0.497
6229.494,0.345,0.764,0.499
6230.494,0.345,0.764,0.499
6231.494,0.346,0.764,0.499
6232.494,0.346,0.765,0.499
6233.494,0.346,0.765,0.497
6234.494,0.346,0.766,0.498
6235.494,0.346,0.765,0.499
6236.494,0.346,0.765,0.499
6237.494,0.346,0.764,0.500
6238.494,0.345,0.764,0.498
6239.494,0.346,0.766,0.497
6240.494,0.346,0.766,0.497
6241.494,0.346,0.765,0.497
6242.494,0.345,0.764,0.497
6243.494,0.344,0.765,0.497
6244.494,0.345,0.764,0.497
6245.494,0.347,0.766,0.497
6246.494,0.346,0.766,0.496
6247.494,0.345,0.765,0.498
6248.494,0.346,0.765,0.498
6249.494,0.345,0.764,0.498
6250.494,0.346,0.766,0.497
6251.494,0.346,0.766,0.496
6252.494,0.346,0.765,0.496
6253.494,0.346,0.764,0.497
6254.494,0.346,0.765,0.498
6255.494,0.346,0.765,0.497
6256.494,0.345,0.766,0.496
6257.494,0.346,0.765,0.496
6258.494,0.346,0.765,0.498
6259.494,0.346,0.765,0.498
6260.494,0.346,0.766,0.497
6261.494,0.346,0.766,0.496
6262.494,0.346,0.766,0.496
6263.494,0.346,0.765,0.497
6264.494,0.344,0.765,0.497
6265.494,0.346,0.765,0.497
6266.494,0.345,0.766,0.496
6267.494,0.345,0.767,0.496
6268.494,0.345,0.765,0.496
6269.494,0.345,0.766,0.497
6270.494,0.345,0.766,0.498
6271.494,0.346,0.764,0.497
6272.494,0.346,0.765,0.497
6273.494,0.346,0.766,0.496
6274.494,0.345,0.765,0.497
6275.494,0.345,0.764,0.498
6276.494,0.346,0.764,0.497
6277.494,0.346,0.766,0.496
6278.494,0.345,0.766,0.496
6279.494,0.346,0.766,0.497
6280.494,0.346,0.765,0.498
6281.494,0.346,0.765,0.498
6282.494,0.347,0.766,0.497
6283.494,0.347,0.766,0.497
6284.494,0.347,0.766,0.496
6285.494,0.346,0.767,0.497
6286.494,0.345,0.766,0.498
6287.494,0.346,0.765,0.498
6288.494,0.347,0.766,0.497
6289.494,0.346,0.766,0.496
6290.494,0.346,0.766,0.496
6291.494,0.346,0.766,0.497
6292.494,0.346,0.766,0.496
6293.494,0.348,0.769,0.493
6294.494,0.339,0.721,0.559
6295.494,0.339,0.714,0.569
6296.494,0.341,0.726,0.552
6297.494,0.341,0.735,0.542
6298.494,0.341,0.734,0.541
6299.494,0.342,0.741,0.533
6300.494,0.343,0.742,0.531
6301.494,0.342,0.741,0.530
6302.494,0.341,0.745,0.528
6303.494,0.342,0.747,0.526
6304.494,0.342,0.748,0.525
6305.494,0.342,0.748,0.525
6306.494,0.330,0.728,0.553
6307.494,0.326,0.729,0.557
6308.494,0.336,0.779,0.476
6309.494,0.396,0.889,-0.151
6310.494,0.452,0.767,-0.516
6311.494,0.431,0.076,-0.743
6312.494,0.384,-0.654,-0.713
6313.494,0.430,-0.633,-0.686
6314.494,0.394,-0.566,-0.771
6315.494,0.370,-0.555,-0.793
6316.494,0.368,-0.525,-0.814
6317.494,0.364,-0.479,-0.845
6318.494,0.363,-0.453,-0.859
6319.494,0.387,-0.439,-0.854
6320.494,0.365,-0.489,-0.840
6321.494,0.349,-0.483,-0.849
6322.494,0.343,-0.472,-0.859
6323.494,0.342,-0.465,-0.861
6324.494,0.343,-0.463,-0.863
6325.494,0.342,-0.464,-0.863
6326.494,0.343,-0.462,-0.864
6327.494,0.342,-0.460,-0.865
6328.494,0.342,-0.460,-0.865
6329.494,0.342,-0.459,-0.865
6330.494,0.342,-0.458,-0.865
6331.494,0.342,-0.459,-0.866
6332.494,0.342,-0.459,-0.865
6333.494,0.341,-0.459,-0.866
6334.494,0.341,-0.457,-0.866
6335.494,0.342,-0.457,-0.867
6336.494,0.341,-0.456,-0.867
6337.494,0.340,-0.459,-0.866
6338.494,0.341,-0.457,-0.867
6339.494,0.343,-0.457,-0.866
6340.494,0.341,-0.456,-0.868
6341.494,0.332,-0.482,-0.857
6342.494,0.357,-0.534,-0.817
6343.494,0.341,-0.571,-0.788
6344.494,0.392,-0.430,-0.855
6345.494,0.349,-0.485,-0.851
6346.494,0.342,-0.481,-0.853
6347.494,0.341,-0.475,-0.858
6348.494,0.357,-0.431,-0.874
6349.494,0.345,-0.455,-0.869
6350.494,0.340,-0.456,-0.871
6351.494,0.339,-0.454,-0.870
6352.494,0.339,-0.453,-0.872
6353.494,0.339,-0.451,-0.873
6354.494,0.340,-0.450,-0.874
6355.494,0.340,-0.449,-0.873
6356.494,0.339,-0.450,-0.875
6357.494,0.339,-0.450,-0.874
6358.494,0.339,-0.450,-0.875
6359.494,0.340,-0.450,-0.874
6360.494,0.340,-0.449,-0.874
6361.494,0.340,-0.449,-0.874
6362.494,0.340,-0.449,-0.875
6363.494,0.339,-0.449,-0.875
6364.494,0.340,-0.449,-0.875
6365.494,0.339,-0.449,-0.876
6366.494,0.340,-0.448,-0.876
6367.494,0.338,-0.448,-0.877
6368.494,0.340,-0.449,-0.876
6369.494,0.340,-0.449,-0.875
6370.494,0.339,-0.448,-0.876
6371.494,0.340,-0.448,-0.877
6372.494,0.339,-0.449,-0.876
6373.494,0.340,-0.449,-0.876
6374.494,0.340,-0.448,-0.877
6375.494,0.339,-0.447,-0.878
6376.494,0.345,-0.442,-0.879
6377.494,0.362,-0.421,-0.876
6378.494,0.340,-0.461,-0.868
6379.494,0.340,-0.452,-0.871
6380.494,0.347,-0.429,-0.885
6381.494,0.362,-0.425,-0.873
6382.494,0.340,-0.459,-0.867
6383.494,0.350,-0.435,-0.880
6384.494,0.356,-0.437,-0.869
6385.494,0.340,-0.459,-0.867
6386.494,0.341,-0.454,-0.868
6387.494,0.342,-0.452,-0.870
6388.494,0.342,-0.452,-0.870
6389.494,0.341,-0.452,-0.871
6390.494,0.341,-0.453,-0.870
6391.494,0.340,-0.453,-0.871
6392.494,0.341,-0.452,-0.871
6393.494,0.341,-0.452,-0.870
6394.494,0.341,-0.451,-0.870
6395.494,0.341,-0.451,-0.870
6396.494,0.340,-0.451,-0.871
6397.494,0.340,-0.453,-0.869
6398.494,0.341,-0.452,-0.869
6399.494,0.341,-0.451,-0.869
6400.494,0.341,-0.452,-0.870
6401.494,0.341,-0.451,-0.870
6402.494,0.341,-0.451,-0.870
6403.494,0.341,-0.451,-0.870
6404.494,0.341,-0.451,-0.870
6405.494,0.341,-0.451,-0.870
6406.494,0.341,-0.451,-0.871
6407.494,0.340,-0.451,-0.871
6408.494,0.340,-0.451,-0.871
6409.494,0.341,-0.451,-0.870
6410.494,0.341,-0.450,-0.870
6411.494,0.341,-0.451,-0.871
6412.494,0.340,-0.450,-0.871
6413.494,0.340,-0.451,-0.872
6414.494,0.341,-0.450,-0.870
6415.494,0.341,-0.451,-0.871
6416.494,0.342,-0.451,-0.870
6417.494,0.341,-0.450,-0.870
6418.494,0.341,-0.450,-0.870
6419.494,0.341,-0.451,-0.871
6420.494,0.340,-0.451,-0.870
6421.494,0.341,-0.451,-0.870
6422.494,0.340,-0.451,-0.870
6423.494,0.340,-0.451,-0.871
6424.494,0.341,-0.451,-0.870
6425.494,0.341,-0.451,-0.870
6426.494,0.341,-0.451,-0.869
6427.494,0.341,-0.450,-0.869
6428.494,0.341,-0.451,-0.870
6429.494,0.340,-0.451,-0.870
6430.494,0.341,-0.451,-0.869
6431.494,0.341,-0.451,-0.869
6432.494,0.341,-0.451,-0.870
6433.494,0.341,-0.450,-0.870
6434.494,0.340,-0.451,-0.871
6435.494,0.341,-0.451,-0.870
6436.494,0.341,-0.451,-0.871
6437.494,0.341,-0.451,-0.871
6438.494,0.341,-0.450,-0.872
6439.494,0.340,-0.451,-0.872
6440.494,0.340,-0.451,-0.872
6441.494,0.341,-0.451,-0.871
6442.494,0.341,-0.451,-0.871
6443.494,0.341,-0.450,-0.871
6444.494,0.341,-0.450,-0.870
6445.494,0.340,-0.451,-0.870
6446.494,0.341,-0.451,-0.871
6447.494,0.342,-0.450,-0.870
6448.494,0.341,-0.450,-0.869
6449.494,0.341,-0.451,-0.871
6450.494,0.340,-0.450,-0.871
6451.494,0.340,-0.461,-0.866
6452.494,0.343,-0.463,-0.861
6453.494,0.340,-0.424,-0.888
6454.494,0.359,-0.401,-0.891
6455.494,0.331,-0.375,-0.906
6456.494,0.298,-0.497,-0.857
6457.494,0.275,-0.391,-0.918
6458.494,0.230,-0.164,-0.997
6459.494,0.233,-0.152,-0.999
6460.494,0.283,-0.095,-0.987
6461.494,0.270,-0.159,-0.992
6462.494,0.266,-0.145,-0.993
6463.494,0.264,-0.138,-0.994
6464.494,0.265,-0.136,-0.994
6465.494,0.264,-0.136,-0.994
6466.494,0.264,-0.136,-0.994
6467.494,0.265,-0.133,-0.994
6468.494,0.263,-0.133,-0.995
6469.494,0.264,-0.131,-0.995
6470.494,0.264,-0.133,-0.995
6471.494,0.264,-0.134,-0.995
6472.494,0.263,-0.133,-0.995
6473.494,0.263,-0.132,-0.995
6474.494,0.263,-0.133,-0.995
6475.494,0.263,-0.131,-0.995
6476.494,0.263,-0.133,-0.994
6477.494,0.264,-0.133,-0.995
6478.494,0.264,-0.133,-0.994
6479.494,0.263,-0.130,-0.995
6480.494,0.263,-0.131,-0.994
6481.494,0.262,-0.132,-0.995
6482.494,0.263,-0.134,-0.995
6483.494,0.263,-0.136,-0.995
6484.494,0.264,-0.133,-0.996
6485.494,0.264,-0.132,-0.995
6486.494,0.264,-0.131,-0.996
6487.494,0.264,-0.134,-0.995
6488.494,0.264,-0.137,-0.996
6489.494,0.265,-0.135,-0.995
6490.494,0.265,-0.132,-0.996
6491.494,0.264,-0.132,-0.995
6492.494,0.264,-0.132,-0.995
6493.494,0.264,-0.134,-0.996
6494.494,0.263,-0.135,-0.995
6495.494,0.264,-0.131,-0.995
6496.494,0.264,-0.132,-0.995
6497.494,0.264,-0.132,-0.995
6498.494,0.264,-0.134,-0.995
6499.494,0.263,-0.136,-0.995
6500.494,0.264,-0.133,-0.995
6501.494,0.263,-0.132,-0.995
6502.494,0.264,-0.133,-0.995
6503.494,0.265,-0.135,-0.995
6504.494,0.265,-0.135,-0.995
6505.494,0.263,-0.134,-0.994
6506.494,0.265,-0.133,-0.995
6507.494,0.263,-0.132,-0.995
6508.494,0.264,-0.135,-0.995
6509.494,0.264,-0.135,-0.995
6510.494,0.265,-0.133,-0.995
6511.494,0.264,-0.131,-0.995
6512.494,0.265,-0.132,-0.995
6513.494,0.264,-0.133,-0.995
6514.494,0.264,-0.134,-0.994
6515.494,0.264,-0.135,-0.994
6516.494,0.264,-0.133,-0.995
6517.494,0.265,-0.132,-0.995
6518.494,0.264,-0.131,-0.995
6519.494,0.264,-0.133,-0.995
6520.494,0.265,-0.135,-0.995
6521.494,0.264,-0.135,-0.995
6522.494,0.265,-0.133,-0.995
6523.494,0.264,-0.132,-0.995
6524.494,0.265,-0.131,-0.995
6525.494,0.265,-0.133,-0.994
6526.494,0.265,-0.136,-0.995
6527.494,0.265,-0.135,-0.995
6528.494,0.264,-0.133,-0.995
6529.494,0.265,-0.131,-0.996
6530.494,0.264,-0.131,-0.995
6531.494,0.265,-0.134,-0.995
6532.494,0.265,-0.136,-0.995
6533.494,0.265,-0.133,-0.995
6534.494,0.264,-0.132,-0.996
6535.494,0.265,-0.131,-0.996
6536.494,0.265,-0.134,-0.996
6537.494,0.266,-0.135,-0.995
6538.494,0.265,-0.133,-0.995
6539.494,0.265,-0.133,-0.996
6540.494,0.265,-0.131,-0.995
6541.494,0.265,-0.133,-0.995
6542.494,0.265,-0.136,-0.995
6543.494,0.264,-0.134,-0.995
6544.494,0.265,-0.133,-0.995
6545.494,0.264,-0.130,-0.995
6546.494,0.264,-0.134,-0.995
6547.494,0.265,-0.135,-0.995
6548.494,0.265,-0.134,-0.995
6549.494,0.266,-0.133,-0.995
6550.494,0.265,-0.131,-0.995
6551.494,0.265,-0.131,-0.995
6552.494,0.265,-0.135,-0.995
6553.494,0.265,-0.135,-0.995
6554.494,0.265,-0.132,-0.995
6555.494,0.264,-0.131,-0.995
6556.494,0.265,-0.131,-0.994
6557.494,0.265,-0.134,-0.995
6558.494,0.265,-0.136,-0.995
6559.494,0.266,-0.135,-0.995
6560.494,0.265,-0.132,-0.995
6561.494,0.265,-0.131,-0.994
6562.494,0.265,-0.133,-0.994
6563.494,0.266,-0.135,-0.994
6564.494,0.265,-0.135,-0.994
6565.494,0.265,-0.133,-0.995
6566.494,0.265,-0.132,-0.995
6567.494,0.265,-0.133,-0.995
6568.494,0.265,-0.135,-0.994
6569.494,0.265,-0.135,-0.994
6570.494,0.265,-0.133,-0.995
6571.494,0.266,-0.133,-0.994
6572.494,0.265,-0.133,-0.995
6573.494,0.266,-0.134,-0.994
6574.494,0.266,-0.136,-0.994
6575.494,0.266,-0.135,-0.994
6576.494,0.265,-0.133,-0.995
6577.494,0.266,-0.132,-0.995
6578.494,0.266,-0.136,-0.994
6579.494,0.266,-0.137,-0.994
6580.494,0.266,-0.133,-0.994
6581.494,0.266,-0.133,-0.995
6582.494,0.266,-0.132,-0.995
6583.494,0.266,-0.136,-0.995
6584.494,0.266,-0.135,-0.995
6585.494,0.265,-0.134,-0.995
6586.494,0.266,-0.133,-0.995
6587.494,0.266,-0.133,-0.995
6588.494,0.267,-0.136,-0.994
6589.494,0.266,-0.136,-0.995
6590.494,0.266,-0.133,-0.995
6591.494,0.267,-0.132,-0.995
6592.494,0.266,-0.132,-0.995
6593.494,0.266,-0.135,-0.994
6594.494,0.266,-0.135,-0.994
6595.494,0.266,-0.134,-0.994
6596.494,0.266,-0.134,-0.995
6597.494,0.266,-0.133,-0.995
6598.494,0.266,-0.134,-0.994
6599.494,0.267,-0.135,-0.994
6600.494,0.266,-0.133,-0.994
6601.494,0.266,-0.132,-0.995
6602.494,0.266,-0.131,-0.994
6603.494,0.266,-0.134,-0.995
6604.494,0.266,-0.136,-0.995
6605.494,0.266,-0.135,-0.994
6606.494,0.267,-0.132,-0.994
6607.494,0.266,-0.132,-0.995
6608.494,0.266,-0.134,-0.995
6609.494,0.267,-0.135,-0.994
6610.494,0.266,-0.134,-0.995
6611.494,0.265,-0.132,-0.995
6612.494,0.265,-0.131,-0.995
6613.494,0.265,-0.134,-0.995
6614.494,0.267,-0.136,-0.994
6615.494,0.265,-0.135,-0.994
6616.494,0.266,-0.133,-0.995
6617.494,0.266,-0.132,-0.995
6618.494,0.267,-0.136,-0.995
6619.494,0.267,-0.136,-0.995
6620.494,0.266,-0.133,-0.994
6621.494,0.266,-0.132,-0.994
6622.494,0.266,-0.133,-0.995
6623.494,0.266,-0.135,-0.994
6624.494,0.267,-0.136,-0.994
6625.494,0.267,-0.133,-0.994
6626.494,0.266,-0.132,-0.995
6627.494,0.267,-0.132,-0.994
6628.494,0.267,-0.135,-0.994
6629.494,0.266,-0.136,-0.994
6630.494,0.267,-0.134,-0.995
6631.494,0.267,-0.132,-0.995
6632.494,0.267,-0.133,-0.995
6633.494,0.267,-0.134,-0.995
6634.494,0.267,-0.135,-0.994
6635.494,0.267,-0.135,-0.995
6636.494,0.267,-0.134,-0.995
6637.494,0.266,-0.132,-0.995
6638.494,0.268,-0.134,-0.994
6639.494,0.268,-0.137,-0.995
6640.494,0.267,-0.134,-0.994
6641.494,0.267,-0.132,-0.995
6642.494,0.267,-0.133,-0.995
6643.494,0.267,-0.134,-0.994
6644.494,0.268,-0.136,-0.994
6645.494,0.267,-0.134,-0.995
6646.494,0.266,-0.134,-0.995
6647.494,0.266,-0.132,-0.994
6648.494,0.267,-0.135,-0.995
6649.494,0.268,-0.136,-0.995
6650.494,0.267,-0.135,-0.995
6651.494,0.267,-0.132,-0.995
6652.494,0.267,-0.133,-0.995
6653.494,0.259,-0.126,-0.996
6654.494,0.262,-0.094,-0.997
6655.494,0.250,-0.101,-1.000
6656.494,0.304,-0.428,-0.878
6657.494,0.289,-0.270,-0.957
6658.494,0.358,-0.086,-0.967
6659.494,0.280,-0.248,-0.973
6660.494,0.312,-0.270,-0.947
6661.494,0.301,-0.315,-0.943
6662.494,0.350,-0.244,-0.939
6663.494,0.283,-0.154,-0.987
6664.494,0.292,-0.126,-0.991
6665.494,0.318,-0.147,-0.972
6666.494,0.274,-0.080,-0.996
6667.494,0.272,-0.080,-0.996
6668.494,0.272,-0.085,-0.996
6669.494,0.271,-0.088,-0.996
6670.494,0.271,-0.088,-0.996
6671.494,0.271,-0.089,-0.996
6672.494,0.271,-0.090,-0.996
6673.494,0.271,-0.091,-0.996
6674.494,0.271,-0.093,-0.996
6675.494,0.270,-0.092,-0.996
6676.494,0.271,-0.091,-0.996
6677.494,0.271,-0.091,-0.996
6678.494,0.270,-0.092,-0.996
6679.494,0.270,-0.094,-0.996
6680.494,0.270,-0.096,-0.997
6681.494,0.270,-0.093,-0.997
6682.494,0.269,-0.093,-0.996
6683.494,0.270,-0.093,-0.997
6684.494,0.270,-0.095,-0.997
6685.494,0.270,-0.095,-0.997
6686.494,0.269,-0.093,-0.996
6687.494,0.270,-0.092,-0.996
6688.494,0.270,-0.094,-0.997
6689.494,0.269,-0.096,-0.997
6690.494,0.269,-0.094,-0.996
6691.494,0.270,-0.094,-0.996
6692.494,0.269,-0.092,-0.996
6693.494,0.269,-0.096,-0.997
6694.494,0.269,-0.098,-0.997
6695.494,0.269,-0.096,-0.996
6696.494,0.268,-0.094,-0.997
6697.494,0.269,-0.094,-0.997
6698.494,0.268,-0.096,-0.996
6699.494,0.269,-0.098,-0.996
6700.494,0.269,-0.097,-0.997
6701.494,0.269,-0.094,-0.996
6702.494,0.269,-0.094,-0.997
6703.494,0.269,-0.095,-0.996
6704.494,0.269,-0.098,-0.996
6705.494,0.269,-0.097,-0.996
6706.494,0.268,-0.096,-0.997
6707.494,0.269,-0.093,-0.996
6708.494,0.269,-0.095,-0.997
6709.494,0.268,-0.098,-0.997
6710.494,0.268,-0.099,-0.996
6711.494,0.268,-0.097,-0.996
6712.494,0.268,-0.095,-0.997
6713.494,0.269,-0.095,-0.996
6714.494,0.269,-0.098,-0.997
6715.494,0.268,-0.098,-0.997
6716.494,0.269,-0.097,-0.997
6717.494,0.269,-0.094,-0.997
6718.494,0.269,-0.094,-0.996
6719.494,0.269,-0.097,-0.996
6720.494,0.269,-0.097,-0.997
6721.494,0.268,-0.096,-0.996
6722.494,0.268,-0.095,-0.996
6723.494,0.269,-0.095,-0.996
6724.494,0.269,-0.094,-0.997
6725.494,0.268,-0.097,-0.997
6726.494,0.268,-0.097,-0.997
6727.494,0.268,-0.096,-0.996
6728.494,0.268,-0.096,-0.997
6729.494,0.268,-0.093,-0.997
6730.494,0.269,-0.095,-0.998
6731.494,0.268,-0.097,-0.997
6732.494,0.268,-0.096,-0.997
6733.494,0.268,-0.094,-0.997
6734.494,0.268,-0.094,-0.997
6735.494,0.269,-0.093,-0.996
6736.494,0.268,-0.096,-0.996
6737.494,0.268,-0.096,-0.997
6738.494,0.268,-0.093,-0.997
6739.494,0.267,-0.093,-0.997
6740.494,0.268,-0.093,-0.997
6741.494,0.269,-0.095,-0.997
6742.494,0.268,-0.096,-0.997
6743.494,0.268,-0.097,-0.997
6744.494,0.267,-0.095,-0.996
6745.494,0.268,-0.094,-0.996
6746.494,0.268,-0.095,-0.997
6747.494,0.268,-0.096,-0.996
6748.494,0.268,-0.096,-0.996
6749.494,0.268,-0.095,-0.997
6750.494,0.268,-0.094,-0.996
6751.494,0.268,-0.094,-0.996
6752.494,0.268,-0.096,-0.997
6753.494,0.268,-0.097,-0.996
6754.494,0.268,-0.095,-0.997
6755.494,0.268,-0.094,-0.997
6756.494,0.267,-0.094,-0.997
6757.494,0.267,-0.094,-0.997
6758.494,0.268,-0.096,-0.997
6759.494,0.266,-0.097,-0.997
6760.494,0.267,-0.096,-0.997
6761.494,0.267,-0.095,-0.997
6762.494,0.267,-0.095,-0.997
6763.494,0.267,-0.095,-0.997
6764.494,0.268,-0.097,-0.997
6765.494,0.268,-0.097,-0.996
6766.494,0.269,-0.094,-0.997
6767.494,0.268,-0.093,-0.997
6768.494,0.267,-0.096,-0.997
6769.494,0.268,-0.096,-0.997
6770.494,0.268,-0.096,-0.997
6771.494,0.267,-0.095,-0.997
6772.494,0.268,-0.093,-0.997
6773.494,0.267,-0.095,-0.997
6774.494,0.267,-0.096,-0.996
6775.494,0.267,-0.096,-0.996
6776.494,0.268,-0.095,-0.997
6777.494,0.268,-0.094,-0.997
6778.494,0.268,-0.095,-0.998
6779.494,0.268,-0.097,-0.997
6780.494,0.267,-0.097,-0.997
6781.494,0.267,-0.095,-0.997
6782.494,0.267,-0.093,-0.997
6783.494,0.268,-0.094,-0.997
6784.494,0.268,-0.095,-0.997
6785.494,0.267,-0.096,-0.997
6786.494,0.267,-0.094,-0.996
6787.494,0.268,-0.093,-0.997
6788.494,0.268,-0.095,-0.997
6789.494,0.267,-0.097,-0.997
6790.494,0.268,-0.096,-0.997
6791.494,0.267,-0.094,-0.997
6792.494,0.267,-0.094,-0.997
6793.494,0.268,-0.095,-0.997
6794.494,0.268,-0.097,-0.997
6795.494,0.268,-0.096,-0.997
6796.494,0.267,-0.095,-0.997
6797.494,0.268,-0.095,-0.997
6798.494,0.268,-0.096,-0.997
6799.494,0.267,-0.097,-0.997
6800.494,0.267,-0.096,-0.997
6801.494,0.267,-0.095,-0.997
6802.494,0.267,-0.094,-0.997
6803.494,0.267,-0.096,-0.996
6804.494,0.267,-0.097,-0.997
6805.494,0.267,-0.097,-0.997
6806.494,0.267,-0.096,-0.998
6807.494,0.268,-0.095,-0.996
6808.494,0.268,-0.096,-0.997
6809.494,0.267,-0.098,-0.997
6810.494,0.267,-0.096,-0.997
6811.494,0.268,-0.094,-0.997
6812.494,0.268,-0.094,-0.996
6813.494,0.268,-0.096,-0.997
6814.494,0.268,-0.096,-0.997
6815.494,0.268,-0.096,-0.996
6816.494,0.268,-0.093,-0.996
6817.494,0.267,-0.094,-0.996
6818.494,0.268,-0.096,-0.997
6819.494,0.267,-0.097,-0.997
6820.494,0.268,-0.096,-0.996
6821.494,0.268,-0.093,-0.996
6822.494,0.268,-0.094,-0.997
6823.494,0.267,-0.095,-0.997
6824.494,0.267,-0.097,-0.997
6825.494,0.267,-0.096,-0.997
6826.494,0.268,-0.093,-0.997
6827.494,0.268,-0.094,-0.997
6828.494,0.268,-0.095,-0.997
6829.494,0.267,-0.097,-0.997
6830.494,0.267,-0.095,-0.997
6831.494,0.268,-0.094,-0.997
6832.494,0.268,-0.094,-0.997
6833.494,0.268,-0.094,-0.996
6834.494,0.267,-0.097,-0.997
6835.494,0.267,-0.095,-0.997
6836.494,0.268,-0.093,-0.997
6837.494,0.268,-0.094,-0.997
6838.494,0.267,-0.096,-0.997
6839.494,0.267,-0.098,-0.997
6840.494,0.267,-0.095,-0.997
6841.494,0.268,-0.093,-0.997
6842.494,0.268,-0.093,-0.997
6843.494,0.267,-0.096,-0.997
6844.494,0.266,-0.096,-0.997
6845.494,0.267,-0.095,-0.997
6846.494,0.267,-0.094,-0.997
6847.494,0.267,-0.093,-0.997
6848.494,0.266,-0.095,-0.997
6849.494,0.266,-0.097,-0.997
6850.494,0.266,-0.096,-0.998
6851.494,0.265,-0.095,-0.997
6852.494,0.266,-0.094,-0.997
6853.494,0.266,-0.094,-0.997
6854.494,0.266,-0.097,-0.997
6855.494,0.266,-0.098,-0.997
6856.494,0.267,-0.096,-0.997
6857.494,0.267,-0.094,-0.997
6858.494,0.267,-0.094,-0.997
6859.494,0.267,-0.096,-0.996
6860.494,0.266,-0.097,-0.997
6861.494,0.268,-0.095,-0.997
6862.494,0.267,-0.094,-0.997
6863.494,0.268,-0.093,-0.997
6864.494,0.268,-0.096,-0.997
6865.494,0.267,-0.097,-0.996
6866.494,0.267,-0.095,-0.997
6867.494,0.268,-0.094,-0.996
6868.494,0.268,-0.093,-0.997
6869.494,0.266,-0.095,-0.997
6870.494,0.267,-0.096,-0.996
6871.494,0.267,-0.097,-0.997
6872.494,0.267,-0.094,-0.997
6873.494,0.266,-0.094,-0.997
6874.494,0.267,-0.093,-0.997
6875.494,0.266,-0.096,-0.997
6876.494,0.266,-0.096,-0.997
6877.494,0.266,-0.094,-0.997
6878.494,0.267,-0.093,-0.997
6879.494,0.268,-0.094,-0.997
6880.494,0.268,-0.097,-0.997
6881.494,0.266,-0.097,-0.997
6882.494,0.267,-0.095,-0.997
6883.494,0.267,-0.094,-0.997
6884.494,0.267,-0.095,-0.997
6885.494,0.267,-0.096,-0.996
6886.494,0.266,-0.097,-0.997
6887.494,0.266,-0.096,-0.997
6888.494,0.267,-0.094,-0.997
6889.494,0.267,-0.094,-0.997
6890.494,0.267,-0.095,-0.997
6891.494,0.266,-0.097,-0.997
6892.494,0.266,-0.095,-0.997
6893.494,0.267,-0.094,-0.997
6894.494,0.267,-0.093,-0.997
6895.494,0.267,-0.096,-0.997
6896.494,0.266,-0.097,-0.997
6897.494,0.266,-0.096,-0.997
6898.494,0.267,-0.093,-0.997
6899.494,0.267,-0.093,-0.997
6900.494,0.266,-0.095,-0.997
6901.494,0.266,-0.097,-0.998
6902.494,0.266,-0.096,-0.997
6903.494,0.267,-0.094,-0.997
6904.494,0.266,-0.093,-0.997
6905.494,0.267,-0.095,-0.997
6906.494,0.266,-0.097,-0.997
6907.494,0.267,-0.097,-0.997
6908.494,0.267,-0.094,-0.997
6909.494,0.268,-0.093,-0.997
6910.494,0.268,-0.096,-0.997
6911.494,0.267,-0.096,-0.997
6912.494,0.267,-0.094,-0.997
6913.494,0.268,-0.093,-0.997
6914.494,0.268,-0.094,-0.997
6915.494,0.267,-0.096,-0.996
6916.494,0.267,-0.095,-0.997
6917.494,0.268,-0.094,-0.997
6918.494,0.268,-0.094,-0.997
6919.494,0.268,-0.095,-0.997
6920.494,0.267,-0.097,-0.997
6921.494,0.268,-0.096,-0.997
6922.494,0.267,-0.094,-0.997
6923.494,0.267,-0.093,-0.998
6924.494,0.267,-0.096,-0.997
6925.494,0.266,-0.096,-0.997
6926.494,0.267,-0.095,-0.997
6927.494,0.268,-0.093,-0.997
6928.494,0.268,-0.094,-0.997
6929.494,0.267,-0.095,-0.997
6930.494,0.266,-0.096,-0.997
6931.494,0.268,-0.094,-0.997
6932.494,0.267,-0.093,-0.997
6933.494,0.267,-0.094,-0.997
6934.494,0.267,-0.095,-0.997
6935.494,0.268,-0.095,-0.997
6936.494,0.268,-0.094,-0.997
6937.494,0.268,-0.092,-0.997
6938.494,0.267,-0.094,-0.997
6939.494,0.267,-0.095,-0.997
6940.494,0.267,-0.096,-0.997
6941.494,0.267,-0.094,-0.997
6942.494,0.268,-0.093,-0.998
6943.494,0.267,-0.094,-0.997
6944.494,0.267,-0.096,-0.998
6945.494,0.267,-0.095,-0.998
6946.494,0.267,-0.093,-0.997
6947.494,0.267,-0.093,-0.997
6948.494,0.267,-0.095,-0.997
6949.494,0.267,-0.095,-0.997
6950.494,0.266,-0.095,-0.997
6951.494,0.267,-0.093,-0.997
6952.494,0.267,-0.094,-0.997
6953.494,0.267,-0.096,-0.997
6954.494,0.267,-0.096,-0.998
6955.494,0.268,-0.095,-0.997
6956.494,0.267,-0.092,-0.997
6957.494,0.267,-0.095,-0.997
6958.494,0.267,-0.096,-0.997
6959.494,0.267,-0.096,-0.997
6960.494,0.267,-0.094,-0.997
6961.494,0.267,-0.094,-0.997
6962.494,0.267,-0.094,-0.997
6963.494,0.266,-0.097,-0.997
6964.494,0.267,-0.095,-0.996
6965.494,0.267,-0.093,-0.996
6966.494,0.267,-0.093,-0.996
6967.494,0.267,-0.094,-0.995
6968.494,0.267,-0.096,-0.996
6969.494,0.266,-0.095,-0.996
6970.494,0.267,-0.094,-0.997
6971.494,0.266,-0.094,-0.998
6972.494,0.267,-0.095,-0.998
6973.494,0.265,-0.096,-0.997
6974.494,0.267,-0.094,-0.997
6975.494,0.267,-0.093,-0.998
6976.494,0.267,-0.093,-0.997
6977.494,0.266,-0.095,-0.997
6978.494,0.266,-0.096,-0.998
6979.494,0.267,-0.095,-0.998
6980.494,0.267,-0.093,-0.997
6981.494,0.267,-0.093,-0.996
6982.494,0.267,-0.095,-0.997
6983.494,0.266,-0.096,-0.997
6984.494,0.267,-0.094,-0.997
6985.494,0.266,-0.092,-0.997
6986.494,0.266,-0.093,-0.997
6987.494,0.266,-0.095,-0.997
6988.494,0.267,-0.095,-0.997
6989.494,0.267,-0.093,-0.997
6990.494,0.266,-0.092,-0.997
6991.494,0.266,-0.093,-0.997
6992.494,0.267,-0.096,-0.997
6993.494,0.266,-0.096,-0.997
6994.494,0.265,-0.094,-0.997
6995.494,0.267,-0.093,-0.997
6996.494,0.267,-0.093,-0.997
6997.494,0.266,-0.095,-0.997
6998.494,0.266,-0.095,-0.997
6999.494,0.266,-0.095,-0.997
7000.494,0.267,-0.094,-0.997
7001.494,0.266,-0.096,-0.997
7002.494,0.266,-0.096,-0.997
7003.494,0.266,-0.095,-0.997
7004.494,0.267,-0.094,-0.997
7005.494,0.267,-0.093,-0.997
7006.494,0.267,-0.094,-0.997
7007.494,0.266,-0.097,-0.996
7008.494,0.267,-0.096,-0.997
7009.494,0.268,-0.093,-0.996
7010.494,0.266,-0.094,-0.996
7011.494,0.267,-0.095,-0.996
7012.494,0.266,-0.096,-0.996
7013.494,0.267,-0.094,-0.997
7014.494,0.267,-0.094,-0.997
7015.494,0.267,-0.094,-0.997
7016.494,0.267,-0.095,-0.997
7017.494,0.267,-0.095,-0.997
7018.494,0.267,-0.094,-0.997
7019.494,0.267,-0.092,-0.997
7020.494,0.267,-0.095,-0.998
7021.494,0.266,-0.097,-0.997
7022.494,0.266,-0.093,-0.997
7023.494,0.267,-0.093,-0.998
7024.494,0.267,-0.094,-0.997
7025.494,0.267,-0.096,-0.997
7026.494,0.267,-0.094,-0.996
7027.494,0.266,-0.093,-0.997
7028.494,0.267,-0.092,-0.997
7029.494,0.267,-0.095,-0.997
7030.494,0.266,-0.095,-0.998
7031.494,0.267,-0.094,-0.998
7032.494,0.266,-0.092,-0.997
7033.494,0.267,-0.094,-0.998
7034.494,0.267,-0.098,-0.997
7035.494,0.265,-0.130,-0.994
7036.494,0.293,-0.229,-0.967
7037.494,0.355,-0.143,-0.963
7038.494,0.299,-0.199,-0.974
7039.494,0.286,-0.166,-0.983
7040.494,0.294,-0.081,-0.992
7041.494,0.323,-0.063,-0.982
7042.494,0.282,-0.009,-0.996
7043.494,0.284,-0.012,-0.996
7044.494,0.283,-0.009,-0.996
7045.494,0.297,0.023,-0.994
7046.494,0.292,0.004,-0.992
7047.494,0.278,-0.008,-0.997
7048.494,0.274,-0.020,-0.998
7049.494,0.272,-0.024,-0.998
7050.494,0.273,-0.025,-0.998
7051.494,0.272,-0.026,-0.998
7052.494,0.273,-0.025,-0.998
7053.494,0.273,-0.026,-0.997
7054.494,0.273,-0.025,-0.998
7055.494,0.273,-0.024,-0.997
7056.494,0.273,-0.025,-0.998
7057.494,0.272,-0.025,-0.998
7058.494,0.273,-0.025,-0.997
7059.494,0.273,-0.025,-0.998
7060.494,0.272,-0.027,-0.998
7061.494,0.272,-0.027,-0.998
7062.494,0.272,-0.027,-0.998
7063.494,0.272,-0.026,-0.998
7064.494,0.272,-0.027,-0.998
7065.494,0.272,-0.031,-0.998
7066.494,0.272,-0.030,-0.998
7067.494,0.272,-0.030,-0.998
7068.494,0.272,-0.030,-1.000
7069.494,0.272,-0.029,-0.998
7070.494,0.314,-0.090,-0.983
7071.494,0.286,-0.040,-0.997
7072.494,0.275,-0.020,-0.998
7073.494,0.274,-0.023,-0.998
7074.494,0.307,-0.047,-0.994
7075.494,0.312,-0.074,-0.980
7076.494,0.277,-0.032,-0.996
7077.494,0.275,-0.037,-0.997
7078.494,0.273,-0.041,-0.998
7079.494,0.273,-0.045,-0.998
7080.494,0.273,-0.044,-0.997
7081.494,0.273,-0.042,-0.998
7082.494,0.273,-0.041,-0.998
7083.494,0.274,-0.041,-0.998
7084.494,0.273,-0.041,-0.997
7085.494,0.273,-0.045,-0.998
7086.494,0.272,-0.046,-0.997
7087.494,0.273,-0.045,-0.998
7088.494,0.273,-0.044,-0.997
7089.494,0.273,-0.044,-0.997
7090.494,0.273,-0.045,-0.997
7091.494,0.272,-0.044,-0.997
7092.494,0.273,-0.044,-0.998
7093.494,0.273,-0.043,-0.998
7094.494,0.272,-0.044,-0.998
7095.494,0.272,-0.046,-0.998
7096.494,0.273,-0.046,-0.998
7097.494,0.272,-0.044,-0.998
7098.494,0.272,-0.043,-0.997
7099.494,0.273,-0.044,-0.997
7100.494,0.272,-0.045,-0.998
7101.494,0.272,-0.047,-0.998
7102.494,0.272,-0.044,-0.997
7103.494,0.273,-0.042,-0.997
7104.494,0.273,-0.043,-0.998
7105.494,0.273,-0.045,-0.998
7106.494,0.273,-0.046,-0.997
7107.494,0.272,-0.046,-0.997
7108.494,0.273,-0.043,-0.997
7109.494,0.272,-0.040,-0.997
7110.494,0.272,-0.042,-0.998
7111.494,0.272,-0.044,-0.997
7112.494,0.272,-0.046,-0.997
7113.494,0.272,-0.045,-0.997
7114.494,0.273,-0.041,-0.998
7115.494,0.272,-0.042,-0.998
7116.494,0.272,-0.044,-0.998
7117.494,0.272,-0.046,-0.998
7118.494,0.272,-0.044,-0.998
7119.494,0.272,-0.042,-0.998
7120.494,0.273,-0.041,-0.998
7121.494,0.273,-0.043,-0.998
7122.494,0.272,-0.045,-0.998
7123.494,0.272,-0.045,-0.997
7124.494,0.272,-0.044,-0.998
7125.494,0.272,-0.041,-0.998
7126.494,0.272,-0.043,-0.998
7127.494,0.272,-0.045,-0.998
7128.494,0.272,-0.045,-0.998
7129.494,0.271,-0.043,-0.998
7130.494,0.272,-0.041,-0.998
7131.494,0.272,-0.043,-0.998
7132.494,0.272,-0.045,-0.998
7133.494,0.272,-0.045,-0.997
7134.494,0.272,-0.043,-0.998
7135.494,0.272,-0.041,-0.997
7136.494,0.272,-0.043,-0.998
7137.494,0.271,-0.045,-0.998
7138.494,0.271,-0.045,-0.998
7139.494,0.272,-0.043,-0.998
7140.494,0.272,-0.040,-0.998
7141.494,0.272,-0.043,-0.998
7142.494,0.272,-0.045,-0.997
7143.494,0.271,-0.046,-0.997
7144.494,0.271,-0.043,-0.998
7145.494,0.271,-0.042,-0.998
7146.494,0.272,-0.041,-0.997
7147.494,0.272,-0.045,-0.997
7148.494,0.272,-0.046,-0.997
7149.494,0.272,-0.045,-0.997
7150.494,0.271,-0.044,-0.998
7151.494,0.272,-0.043,-0.998
7152.494,0.272,-0.045,-0.998
7153.494,0.272,-0.046,-0.998
7154.494,0.272,-0.046,-0.998
7155.494,0.272,-0.042,-0.997
7156.494,0.272,-0.042,-0.997
7157.494,0.272,-0.044,-0.998
7158.494,0.272,-0.046,-0.997
7159.494,0.272,-0.046,-0.997
7160.494,0.272,-0.042,-0.998
7161.494,0.273,-0.042,-0.998
7162.494,0.272,-0.044,-0.997
7163.494,0.272,-0.045,-0.998
7164.494,0.272,-0.045,-0.999
7165.494,0.272,-0.045,-0.998
7166.494,0.272,-0.042,-0.998
7167.494,0.272,-0.043,-0.999
7168.494,0.272,-0.045,-0.998
7169.494,0.272,-0.045,-0.998
7170.494,0.272,-0.044,-0.998
7171.494,0.272,-0.042,-0.997
7172.494,0.272,-0.044,-0.997
7173.494,0.271,-0.045,-0.998
7174.494,0.272,-0.044,-0.998
7175.494,0.272,-0.042,-0.997
7176.494,0.271,-0.042,-0.997
7177.494,0.272,-0.043,-0.998
7178.494,0.272,-0.046,-0.998
7179.494,0.271,-0.046,-0.998
7180.494,0.271,-0.043,-0.998
7181.494,0.272,-0.041,-0.998
7182.494,0.271,-0.042,-0.998
7183.494,0.271,-0.045,-0.998
7184.494,0.271,-0.045,-0.998
7185.494,0.272,-0.043,-0.998
7186.494,0.272,-0.043,-0.998
7187.494,0.272,-0.043,-0.998
7188.494,0.272,-0.045,-0.997
7189.494,0.272,-0.045,-0.998
7190.494,0.272,-0.043,-0.998
7191.494,0.271,-0.043,-0.998
7192.494,0.272,-0.044,-0.997
7193.494,0.272,-0.045,-0.997
7194.494,0.271,-0.046,-0.998
7195.494,0.272,-0.043,-0.998
7196.494,0.272,-0.043,-0.998
7197.494,0.271,-0.045,-0.998
7198.494,0.271,-0.045,-0.997
7199.494,0.272,-0.045,-0.997
