HEADER_TIME_STAMP,START_TIME,STOP_TIME,LABEL_PROBABILITY
2017-05-28 01:00:48.000,2017-05-28 01:00:48.000,2017-05-28 01:01:52.000,0.701
2017-05-28 01:01:52.000,2017-05-28 01:01:52.000,2017-05-28 01:02:56.000,0.701
2017-05-28 01:02:56.000,2017-05-28 01:02:56.000,2017-05-28 01:04:00.000,0.559
2017-05-28 01:04:00.000,2017-05-28 01:04:00.000,2017-05-28 01:05:04.000,0.559
2017-05-28 01:05:04.000,2017-05-28 01:05:04.000,2017-05-28 01:06:08.000,0.559
2017-05-28 01:06:08.000,2017-05-28 01:06:08.000,2017-05-28 01:07:12.000,0.559
2017-05-28 01:07:12.000,2017-05-28 01:07:12.000,2017-05-28 01:08:16.000,0.559
2017-05-28 01:08:16.000,2017-05-28 01:08:16.000,2017-05-28 01:09:20.000,0.559
2017-05-28 01:09:20.000,2017-05-28 01:09:20.000,2017-05-28 01:10:24.000,0.559
2017-05-28 01:10:24.000,2017-05-28 01:10:24.000,2017-05-28 01:11:28.000,0.559
2017-05-28 01:11:28.000,2017-05-28 01:11:28.000,2017-05-28 01:12:32.000,0.559
2017-05-28 01:12:32.000,2017-05-28 01:12:32.000,2017-05-28 01:13:36.000,0.692
2017-05-28 01:13:36.000,2017-05-28 01:13:36.000,2017-05-28 01:14:40.000,0.559
2017-05-28 01:14:40.000,2017-05-28 01:14:40.000,2017-05-28 01:15:44.000,0.559
2017-05-28 01:15:44.000,2017-05-28 01:15:44.000,2017-05-28 01:16:48.000,0.559
2017-05-28 01:16:48.000,2017-05-28 01:16:48.000,2017-05-28 01:17:52.000,0.692
2017-05-28 01:17:52.000,2017-05-28 01:17:52.000,2017-05-28 01:18:56.000,0.559
2017-05-28 01:18:56.000,2017-05-28 01:18:56.000,2017-05-28 01:20:00.000,0.692
2017-05-28 01:20:00.000,2017-05-28 01:20:00.000,2017-05-28 01:21:04.000,0.665
2017-05-28 01:21:04.000,2017-05-28 01:21:04.000,2017-05-28 01:22:08.000,0.765
2017-05-28 01:22:08.000,2017-05-28 01:22:08.000,2017-05-28 01:23:12.000,0.765
2017-05-28 01:23:12.000,2017-05-28 01:23:12.000,2017-05-28 01:24:16.000,0.572
2017-05-28 01:24:16.000,2017-05-28 01:24:16.000,2017-05-28 01:25:20.000,0.57
2017-05-28 01:25:20.000,2017-05-28 01:25:20.000,2017-05-28 01:26:24.000,0.847
2017-05-28 01:26:24.000,2017-05-28 01:26:24.000,2017-05-28 01:27:28.000,0.851
2017-05-28 01:27:28.000,2017-05-28 01:27:28.000,2017-05-28 01:28:32.000,0.863
2017-05-28 01:28:32.000,2017-05-28 01:28:32.000,2017-05-28 01:29:36.000,0.764
2017-05-28 01:29:36.000,2017-05-28 01:29:36.000,2017-05-28 01:30:40.000,0.764
2017-05-28 01:30:40.000,2017-05-28 01:30:40.000,2017-05-28 01:31:44.000,0.791
2017-05-28 01:31:44.000,2017-05-28 01:31:44.000,2017-05-28 01:32:48.000,0.772
2017-05-28 01:32:48.000,2017-05-28 01:32:48.000,2017-05-28 01:33:52.000,0.772
2017-05-28 01:33:52.000,2017-05-28 01:33:52.000,2017-05-28 01:34:56.000,0.791
2017-05-28 01:34:56.000,2017-05-28 01:34:56.000,2017-05-28 01:36:00.000,0.764
2017-05-28 01:36:00.000,2017-05-28 01:36:00.000,2017-05-28 01:37:04.000,0.829
2017-05-28 01:37:04.000,2017-05-28 01:37:04.000,2017-05-28 01:38:08.000,0.829
2017-05-28 01:38:08.000,2017-05-28 01:38:08.000,2017-05-28 01:39:12.000,0.829
2017-05-28 01:39:12.000,2017-05-28 01:39:12.000,2017-05-28 01:40:16.000,0.772
2017-05-28 01:40:16.000,2017-05-28 01:40:16.000,2017-05-28 01:41:20.000,0.764
2017-05-28 01:41:20.000,2017-05-28 01:41:20.000,2017-05-28 01:42:24.000,0.829
2017-05-28 01:42:24.000,2017-05-28 01:42:24.000,2017-05-28 01:43:28.000,0.829
2017-05-28 01:43:28.000,2017-05-28 01:43:28.000,2017-05-28 01:44:32.000,0.772
2017-05-28 01:44:32.000,2017-05-28 01:44:32.000,2017-05-28 01:45:36.000,0.597
2017-05-28 01:45:36.000,2017-05-28 01:45:36.000,2017-05-28 01:46:40.000,0.645
2017-05-28 01:46:40.000,2017-05-28 01:46:40.000,2017-05-28 01:47:44.000,0.518
2017-05-28 01:47:44.000,2017-05-28 01:47:44.000,2017-05-28 01:48:48.000,0.597
2017-05-28 01:48:48.000,2017-05-28 01:48:48.000,2017-05-28 01:49:52.000,0.656
2017-05-28 01:49:52.000,2017-05-28 01:49:52.000,2017-05-28 01:50:56.000,0.645
2017-05-28 01:50:56.000,2017-05-28 01:50:56.000,2017-05-28 01:52:00.000,0.518
2017-05-28 01:52:00.000,2017-05-28 01:52:00.000,2017-05-28 01:53:04.000,0.518
2017-05-28 01:53:04.000,2017-05-28 01:53:04.000,2017-05-28 01:54:08.000,0.597
2017-05-28 01:54:08.000,2017-05-28 01:54:08.000,2017-05-28 01:55:12.000,0.656
2017-05-28 01:55:12.000,2017-05-28 01:55:12.000,2017-05-28 01:56:16.000,0.597
2017-05-28 01:56:16.000,2017-05-28 01:56:16.000,2017-05-28 01:57:20.000,0.597
2017-05-28 01:57:20.000,2017-05-28 01:57:20.000,2017-05-28 01:58:24.000,0.656
2017-05-28 01:58:24.000,2017-05-28 01:58:24.000,2017-05-28 01:59:28.000,0.518
2017-05-28 01:59:28.000,2017-05-28 01:59:28.000,2017-05-28 01:59:59.999,0.597
