HEADER_TIME_STAMP,START_TIME,STOP_TIME,LABEL_PREDICTED
2017-05-28 16:00:00.000,2017-05-28 16:00:00.000,2017-05-28 16:01:04.000,wear
2017-05-28 16:01:04.000,2017-05-28 16:01:04.000,2017-05-28 16:02:08.000,wear
2017-05-28 16:02:08.000,2017-05-28 16:02:08.000,2017-05-28 16:03:12.000,wear
2017-05-28 16:03:12.000,2017-05-28 16:03:12.000,2017-05-28 16:04:16.000,wear
2017-05-28 16:04:16.000,2017-05-28 16:04:16.000,2017-05-28 16:05:20.000,wear
2017-05-28 16:05:20.000,2017-05-28 16:05:20.000,2017-05-28 16:06:24.000,wear
2017-05-28 16:06:24.000,2017-05-28 16:06:24.000,2017-05-28 16:07:28.000,wear
2017-05-28 16:07:28.000,2017-05-28 16:07:28.000,2017-05-28 16:08:32.000,wear
2017-05-28 16:08:32.000,2017-05-28 16:08:32.000,2017-05-28 16:09:36.000,wear
2017-05-28 16:09:36.000,2017-05-28 16:09:36.000,2017-05-28 16:10:40.000,wear
2017-05-28 16:10:40.000,2017-05-28 16:10:40.000,2017-05-28 16:11:44.000,wear
2017-05-28 16:11:44.000,2017-05-28 16:11:44.000,2017-05-28 16:12:48.000,wear
2017-05-28 16:12:48.000,2017-05-28 16:12:48.000,2017-05-28 16:13:52.000,wear
2017-05-28 16:13:52.000,2017-05-28 16:13:52.000,2017-05-28 16:14:56.000,wear
2017-05-28 16:14:56.000,2017-05-28 16:14:56.000,2017-05-28 16:16:00.000,wear
2017-05-28 16:16:00.000,2017-05-28 16:16:00.000,2017-05-28 16:17:04.000,wear
2017-05-28 16:17:04.000,2017-05-28 16:17:04.000,2017-05-28 16:18:08.000,wear
2017-05-28 16:18:08.000,2017-05-28 16:18:08.000,2017-05-28 16:19:12.000,wear
2017-05-28 16:19:12.000,2017-05-28 16:19:12.000,2017-05-28 16:20:16.000,wear
2017-05-28 16:20:16.000,2017-05-28 16:20:16.000,2017-05-28 16:21:20.000,wear
2017-05-28 16:21:20.000,2017-05-28 16:21:20.000,2017-05-28 16:22:24.000,wear
2017-05-28 16:22:24.000,2017-05-28 16:22:24.000,2017-05-28 16:23:28.000,wear
2017-05-28 16:23:28.000,2017-05-28 16:23:28.000,2017-05-28 16:24:32.000,wear
2017-05-28 16:24:32.000,2017-05-28 16:24:32.000,2017-05-28 16:25:36.000,wear
2017-05-28 16:25:36.000,2017-05-28 16:25:36.000,2017-05-28 16:26:40.000,wear
2017-05-28 16:26:40.000,2017-05-28 16:26:40.000,2017-05-28 16:27:44.000,wear
2017-05-28 16:27:44.000,2017-05-28 16:27:44.000,2017-05-28 16:28:48.000,wear
2017-05-28 16:28:48.000,2017-05-28 16:28:48.000,2017-05-28 16:29:52.000,wear
2017-05-28 16:29:52.000,2017-05-28 16:29:52.000,2017-05-28 16:30:56.000,wear
2017-05-28 16:30:56.000,2017-05-28 16:30:56.000,2017-05-28 16:32:00.000,wear
2017-05-28 16:32:00.000,2017-05-28 16:32:00.000,2017-05-28 16:33:04.000,wear
2017-05-28 16:33:04.000,2017-05-28 16:33:04.000,2017-05-28 16:34:08.000,wear
2017-05-28 16:34:08.000,2017-05-28 16:34:08.000,2017-05-28 16:35:12.000,wear
2017-05-28 16:35:12.000,2017-05-28 16:35:12.000,2017-05-28 16:36:16.000,wear
2017-05-28 16:36:16.000,2017-05-28 16:36:16.000,2017-05-28 16:37:20.000,wear
2017-05-28 16:37:20.000,2017-05-28 16:37:20.000,2017-05-28 16:38:24.000,wear
2017-05-28 16:38:24.000,2017-05-28 16:38:24.000,2017-05-28 16:39:28.000,wear
2017-05-28 16:39:28.000,2017-05-28 16:39:28.000,2017-05-28 16:40:32.000,wear
2017-05-28 16:40:32.000,2017-05-28 16:40:32.000,2017-05-28 16:41:36.000,wear
2017-05-28 16:41:36.000,2017-05-28 16:41:36.000,2017-05-28 16:42:40.000,wear
2017-05-28 16:42:40.000,2017-05-28 16:42:40.000,2017-05-28 16:43:44.000,wear
2017-05-28 16:43:44.000,2017-05-28 16:43:44.000,2017-05-28 16:44:48.000,wear
2017-05-28 16:44:48.000,2017-05-28 16:44:48.000,2017-05-28 16:45:52.000,wear
2017-05-28 16:45:52.000,2017-05-28 16:45:52.000,2017-05-28 16:46:56.000,wear
2017-05-28 16:46:56.000,2017-05-28 16:46:56.000,2017-05-28 16:48:00.000,wear
2017-05-28 16:48:00.000,2017-05-28 16:48:00.000,2017-05-28 16:49:04.000,wear
2017-05-28 16:49:04.000,2017-05-28 16:49:04.000,2017-05-28 16:50:08.000,wear
2017-05-28 16:50:08.000,2017-05-28 16:50:08.000,2017-05-28 16:51:12.000,wear
2017-05-28 16:51:12.000,2017-05-28 16:51:12.000,2017-05-28 16:52:16.000,wear
2017-05-28 16:52:16.000,2017-05-28 16:52:16.000,2017-05-28 16:53:20.000,wear
2017-05-28 16:53:20.000,2017-05-28 16:53:20.000,2017-05-28 16:54:24.000,wear
2017-05-28 16:54:24.000,2017-05-28 16:54:24.000,2017-05-28 16:55:28.000,nonwear
2017-05-28 16:55:28.000,2017-05-28 16:55:28.000,2017-05-28 16:56:32.000,wear
2017-05-28 16:56:32.000,2017-05-28 16:56:32.000,2017-05-28 16:57:36.000,wear
2017-05-28 16:57:36.000,2017-05-28 16:57:36.000,2017-05-28 16:58:40.000,wear
2017-05-28 16:58:40.000,2017-05-28 16:58:40.000,2017-05-28 16:59:44.000,wear
2017-05-28 16:59:44.000,2017-05-28 16:59:44.000,2017-05-28 16:59:59.999,wear
