HEADER_TIME_STAMP,START_TIME,STOP_TIME,LABEL_PROBABILITY
2017-05-28 12:00:00.000,2017-05-28 12:00:00.000,2017-05-28 12:01:04.000,0.935
2017-05-28 12:01:04.000,2017-05-28 12:01:04.000,2017-05-28 12:02:08.000,0.988
2017-05-28 12:02:08.000,2017-05-28 12:02:08.000,2017-05-28 12:03:12.000,0.999
2017-05-28 12:03:12.000,2017-05-28 12:03:12.000,2017-05-28 12:04:16.000,0.902
2017-05-28 12:04:16.000,2017-05-28 12:04:16.000,2017-05-28 12:05:20.000,0.998
2017-05-28 12:05:20.000,2017-05-28 12:05:20.000,2017-05-28 12:06:24.000,0.998
2017-05-28 12:06:24.000,2017-05-28 12:06:24.000,2017-05-28 12:07:28.000,0.999
2017-05-28 12:07:28.000,2017-05-28 12:07:28.000,2017-05-28 12:08:32.000,0.957
2017-05-28 12:08:32.000,2017-05-28 12:08:32.000,2017-05-28 12:09:36.000,0.967
2017-05-28 12:09:36.000,2017-05-28 12:09:36.000,2017-05-28 12:10:40.000,0.998
2017-05-28 12:10:40.000,2017-05-28 12:10:40.000,2017-05-28 12:11:44.000,0.991
2017-05-28 12:11:44.000,2017-05-28 12:11:44.000,2017-05-28 12:12:48.000,0.999
2017-05-28 12:12:48.000,2017-05-28 12:12:48.000,2017-05-28 12:13:52.000,0.569
2017-05-28 12:13:52.000,2017-05-28 12:13:52.000,2017-05-28 12:14:56.000,0.925
2017-05-28 12:14:56.000,2017-05-28 12:14:56.000,2017-05-28 12:16:00.000,0.605
2017-05-28 12:16:00.000,2017-05-28 12:16:00.000,2017-05-28 12:17:04.000,0.976
2017-05-28 12:17:04.000,2017-05-28 12:17:04.000,2017-05-28 12:18:08.000,0.993
2017-05-28 12:18:08.000,2017-05-28 12:18:08.000,2017-05-28 12:19:12.000,0.901
2017-05-28 12:19:12.000,2017-05-28 12:19:12.000,2017-05-28 12:20:16.000,0.897
2017-05-28 12:20:16.000,2017-05-28 12:20:16.000,2017-05-28 12:21:20.000,0.986
2017-05-28 12:21:20.000,2017-05-28 12:21:20.000,2017-05-28 12:22:24.000,0.951
2017-05-28 12:22:24.000,2017-05-28 12:22:24.000,2017-05-28 12:23:28.000,0.672
2017-05-28 12:23:28.000,2017-05-28 12:23:28.000,2017-05-28 12:24:32.000,0.745
2017-05-28 12:24:32.000,2017-05-28 12:24:32.000,2017-05-28 12:25:36.000,0.597
2017-05-28 12:25:36.000,2017-05-28 12:25:36.000,2017-05-28 12:26:40.000,0.597
2017-05-28 12:26:40.000,2017-05-28 12:26:40.000,2017-05-28 12:27:44.000,0.823
2017-05-28 12:27:44.000,2017-05-28 12:27:44.000,2017-05-28 12:28:48.000,0.994
2017-05-28 12:28:48.000,2017-05-28 12:28:48.000,2017-05-28 12:29:52.000,0.959
2017-05-28 12:29:52.000,2017-05-28 12:29:52.000,2017-05-28 12:30:56.000,0.826
2017-05-28 12:30:56.000,2017-05-28 12:30:56.000,2017-05-28 12:32:00.000,0.857
2017-05-28 12:32:00.000,2017-05-28 12:32:00.000,2017-05-28 12:33:04.000,0.701
2017-05-28 12:33:04.000,2017-05-28 12:33:04.000,2017-05-28 12:34:08.000,0.996
2017-05-28 12:34:08.000,2017-05-28 12:34:08.000,2017-05-28 12:35:12.000,0.924
2017-05-28 12:35:12.000,2017-05-28 12:35:12.000,2017-05-28 12:36:16.000,0.982
2017-05-28 12:36:16.000,2017-05-28 12:36:16.000,2017-05-28 12:37:20.000,0.987
2017-05-28 12:37:20.000,2017-05-28 12:37:20.000,2017-05-28 12:38:24.000,0.991
2017-05-28 12:38:24.000,2017-05-28 12:38:24.000,2017-05-28 12:39:28.000,0.994
2017-05-28 12:39:28.000,2017-05-28 12:39:28.000,2017-05-28 12:40:32.000,0.996
2017-05-28 12:40:32.000,2017-05-28 12:40:32.000,2017-05-28 12:41:36.000,0.992
2017-05-28 12:41:36.000,2017-05-28 12:41:36.000,2017-05-28 12:42:40.000,0.988
2017-05-28 12:42:40.000,2017-05-28 12:42:40.000,2017-05-28 12:43:44.000,0.959
2017-05-28 12:43:44.000,2017-05-28 12:43:44.000,2017-05-28 12:44:48.000,0.998
2017-05-28 12:44:48.000,2017-05-28 12:44:48.000,2017-05-28 12:45:52.000,0.954
2017-05-28 12:45:52.000,2017-05-28 12:45:52.000,2017-05-28 12:46:56.000,0.794
2017-05-28 12:46:56.000,2017-05-28 12:46:56.000,2017-05-28 12:48:00.000,0.982
2017-05-28 12:48:00.000,2017-05-28 12:48:00.000,2017-05-28 12:49:04.000,0.916
2017-05-28 12:49:04.000,2017-05-28 12:49:04.000,2017-05-28 12:50:08.000,0.889
2017-05-28 12:50:08.000,2017-05-28 12:50:08.000,2017-05-28 12:51:12.000,0.998
2017-05-28 12:51:12.000,2017-05-28 12:51:12.000,2017-05-28 12:52:16.000,0.922
2017-05-28 12:52:16.000,2017-05-28 12:52:16.000,2017-05-28 12:53:20.000,0.889
2017-05-28 12:53:20.000,2017-05-28 12:53:20.000,2017-05-28 12:54:24.000,0.841
2017-05-28 12:54:24.000,2017-05-28 12:54:24.000,2017-05-28 12:55:28.000,0.807
2017-05-28 12:55:28.000,2017-05-28 12:55:28.000,2017-05-28 12:56:32.000,0.573
2017-05-28 12:56:32.000,2017-05-28 12:56:32.000,2017-05-28 12:57:36.000,0.942
2017-05-28 12:57:36.000,2017-05-28 12:57:36.000,2017-05-28 12:58:40.000,0.982
2017-05-28 12:58:40.000,2017-05-28 12:58:40.000,2017-05-28 12:59:44.000,0.933
2017-05-28 12:59:44.000,2017-05-28 12:59:44.000,2017-05-28 12:59:59.999,0.9895
