HEADER_TIME_STAMP,START_TIME,STOP_TIME,LABEL_PROBABILITY
2017-05-27 05:00:48.000,2017-05-27 05:00:48.000,2017-05-27 05:01:52.000,0.697
2017-05-27 05:01:52.000,2017-05-27 05:01:52.000,2017-05-27 05:02:56.000,0.697
2017-05-27 05:02:56.000,2017-05-27 05:02:56.000,2017-05-27 05:04:00.000,0.697
2017-05-27 05:04:00.000,2017-05-27 05:04:00.000,2017-05-27 05:05:04.000,0.693
2017-05-27 05:05:04.000,2017-05-27 05:05:04.000,2017-05-27 05:06:08.000,0.697
2017-05-27 05:06:08.000,2017-05-27 05:06:08.000,2017-05-27 05:07:12.000,0.697
2017-05-27 05:07:12.000,2017-05-27 05:07:12.000,2017-05-27 05:08:16.000,0.697
2017-05-27 05:08:16.000,2017-05-27 05:08:16.000,2017-05-27 05:09:20.000,0.697
2017-05-27 05:09:20.000,2017-05-27 05:09:20.000,2017-05-27 05:10:24.000,0.592
2017-05-27 05:10:24.000,2017-05-27 05:10:24.000,2017-05-27 05:11:28.000,0.697
2017-05-27 05:11:28.000,2017-05-27 05:11:28.000,2017-05-27 05:12:32.000,0.697
2017-05-27 05:12:32.000,2017-05-27 05:12:32.000,2017-05-27 05:13:36.000,0.697
2017-05-27 05:13:36.000,2017-05-27 05:13:36.000,2017-05-27 05:14:40.000,0.697
2017-05-27 05:14:40.000,2017-05-27 05:14:40.000,2017-05-27 05:15:44.000,0.592
2017-05-27 05:15:44.000,2017-05-27 05:15:44.000,2017-05-27 05:16:48.000,0.697
2017-05-27 05:16:48.000,2017-05-27 05:16:48.000,2017-05-27 05:17:52.000,0.697
2017-05-27 05:17:52.000,2017-05-27 05:17:52.000,2017-05-27 05:18:56.000,0.592
2017-05-27 05:18:56.000,2017-05-27 05:18:56.000,2017-05-27 05:20:00.000,0.697
2017-05-27 05:20:00.000,2017-05-27 05:20:00.000,2017-05-27 05:21:04.000,0.592
2017-05-27 05:21:04.000,2017-05-27 05:21:04.000,2017-05-27 05:22:08.000,0.693
2017-05-27 05:22:08.000,2017-05-27 05:22:08.000,2017-05-27 05:23:12.000,0.697
2017-05-27 05:23:12.000,2017-05-27 05:23:12.000,2017-05-27 05:24:16.000,0.592
2017-05-27 05:24:16.000,2017-05-27 05:24:16.000,2017-05-27 05:25:20.000,0.592
2017-05-27 05:25:20.000,2017-05-27 05:25:20.000,2017-05-27 05:26:24.000,0.693
2017-05-27 05:26:24.000,2017-05-27 05:26:24.000,2017-05-27 05:27:28.000,0.697
2017-05-27 05:27:28.000,2017-05-27 05:27:28.000,2017-05-27 05:28:32.000,0.697
2017-05-27 05:28:32.000,2017-05-27 05:28:32.000,2017-05-27 05:29:36.000,0.697
2017-05-27 05:29:36.000,2017-05-27 05:29:36.000,2017-05-27 05:30:40.000,0.697
2017-05-27 05:30:40.000,2017-05-27 05:30:40.000,2017-05-27 05:31:44.000,0.693
2017-05-27 05:31:44.000,2017-05-27 05:31:44.000,2017-05-27 05:32:48.000,0.697
2017-05-27 05:32:48.000,2017-05-27 05:32:48.000,2017-05-27 05:33:52.000,0.697
2017-05-27 05:33:52.000,2017-05-27 05:33:52.000,2017-05-27 05:34:56.000,0.697
2017-05-27 05:34:56.000,2017-05-27 05:34:56.000,2017-05-27 05:36:00.000,0.592
2017-05-27 05:36:00.000,2017-05-27 05:36:00.000,2017-05-27 05:37:04.000,0.697
2017-05-27 05:37:04.000,2017-05-27 05:37:04.000,2017-05-27 05:38:08.000,0.592
2017-05-27 05:38:08.000,2017-05-27 05:38:08.000,2017-05-27 05:39:12.000,0.697
2017-05-27 05:39:12.000,2017-05-27 05:39:12.000,2017-05-27 05:40:16.000,0.697
2017-05-27 05:40:16.000,2017-05-27 05:40:16.000,2017-05-27 05:41:20.000,0.592
2017-05-27 05:41:20.000,2017-05-27 05:41:20.000,2017-05-27 05:42:24.000,0.697
2017-05-27 05:42:24.000,2017-05-27 05:42:24.000,2017-05-27 05:43:28.000,0.697
2017-05-27 05:43:28.000,2017-05-27 05:43:28.000,2017-05-27 05:44:32.000,0.693
2017-05-27 05:44:32.000,2017-05-27 05:44:32.000,2017-05-27 05:45:36.000,0.697
2017-05-27 05:45:36.000,2017-05-27 05:45:36.000,2017-05-27 05:46:40.000,0.697
2017-05-27 05:46:40.000,2017-05-27 05:46:40.000,2017-05-27 05:47:44.000,0.592
2017-05-27 05:47:44.000,2017-05-27 05:47:44.000,2017-05-27 05:48:48.000,0.697
2017-05-27 05:48:48.000,2017-05-27 05:48:48.000,2017-05-27 05:49:52.000,0.592
2017-05-27 05:49:52.000,2017-05-27 05:49:52.000,2017-05-27 05:50:56.000,0.697
2017-05-27 05:50:56.000,2017-05-27 05:50:56.000,2017-05-27 05:52:00.000,0.693
2017-05-27 05:52:00.000,2017-05-27 05:52:00.000,2017-05-27 05:53:04.000,0.592
2017-05-27 05:53:04.000,2017-05-27 05:53:04.000,2017-05-27 05:54:08.000,0.697
2017-05-27 05:54:08.000,2017-05-27 05:54:08.000,2017-05-27 05:55:12.000,0.697
2017-05-27 05:55:12.000,2017-05-27 05:55:12.000,2017-05-27 05:56:16.000,0.697
2017-05-27 05:56:16.000,2017-05-27 05:56:16.000,2017-05-27 05:57:20.000,0.697
2017-05-27 05:57:20.000,2017-05-27 05:57:20.000,2017-05-27 05:58:24.000,0.697
2017-05-27 05:58:24.000,2017-05-27 05:58:24.000,2017-05-27 05:59:28.000,0.592
2017-05-27 05:59:28.000,2017-05-27 05:59:28.000,2017-05-27 05:59:59.999,0.697
