HEADER_TIME_STAMP,START_TIME,STOP_TIME,LABEL_NAME
2017-05-31 07:00:03.200,2017-05-31 07:00:03.200,2017-05-31 07:00:16.000,nonwear
2017-05-31 07:00:16.000,2017-05-31 07:00:16.000,2017-05-31 07:00:28.800,nonwear
2017-05-31 07:00:28.800,2017-05-31 07:00:28.800,2017-05-31 07:00:41.600,nonwear
2017-05-31 07:00:41.600,2017-05-31 07:00:41.600,2017-05-31 07:00:54.400,nonwear
2017-05-31 07:00:54.400,2017-05-31 07:00:54.400,2017-05-31 07:01:07.200,nonwear
2017-05-31 07:01:07.200,2017-05-31 07:01:07.200,2017-05-31 07:01:20.000,nonwear
2017-05-31 07:01:20.000,2017-05-31 07:01:20.000,2017-05-31 07:01:32.800,nonwear
2017-05-31 07:01:32.800,2017-05-31 07:01:32.800,2017-05-31 07:01:45.600,nonwear
2017-05-31 07:01:45.600,2017-05-31 07:01:45.600,2017-05-31 07:01:58.400,nonwear
2017-05-31 07:01:58.400,2017-05-31 07:01:58.400,2017-05-31 07:02:11.200,nonwear
2017-05-31 07:02:11.200,2017-05-31 07:02:11.200,2017-05-31 07:02:24.000,nonwear
2017-05-31 07:02:24.000,2017-05-31 07:02:24.000,2017-05-31 07:02:36.800,nonwear
2017-05-31 07:02:36.800,2017-05-31 07:02:36.800,2017-05-31 07:02:49.600,nonwear
2017-05-31 07:02:49.600,2017-05-31 07:02:49.600,2017-05-31 07:03:02.400,nonwear
2017-05-31 07:03:02.400,2017-05-31 07:03:02.400,2017-05-31 07:03:15.200,nonwear
2017-05-31 07:03:15.200,2017-05-31 07:03:15.200,2017-05-31 07:03:28.000,nonwear
2017-05-31 07:03:28.000,2017-05-31 07:03:28.000,2017-05-31 07:03:40.800,nonwear
2017-05-31 07:03:40.800,2017-05-31 07:03:40.800,2017-05-31 07:03:53.600,nonwear
2017-05-31 07:03:53.600,2017-05-31 07:03:53.600,2017-05-31 07:04:06.400,nonwear
2017-05-31 07:04:06.400,2017-05-31 07:04:06.400,2017-05-31 07:04:19.200,nonwear
2017-05-31 07:04:19.200,2017-05-31 07:04:19.200,2017-05-31 07:04:32.000,nonwear
2017-05-31 07:04:32.000,2017-05-31 07:04:32.000,2017-05-31 07:04:44.800,nonwear
2017-05-31 07:04:44.800,2017-05-31 07:04:44.800,2017-05-31 07:04:57.600,nonwear
2017-05-31 07:04:57.600,2017-05-31 07:04:57.600,2017-05-31 07:05:10.400,nonwear
2017-05-31 07:05:10.400,2017-05-31 07:05:10.400,2017-05-31 07:05:23.200,nonwear
2017-05-31 07:05:23.200,2017-05-31 07:05:23.200,2017-05-31 07:05:36.000,nonwear
2017-05-31 07:05:36.000,2017-05-31 07:05:36.000,2017-05-31 07:05:48.800,nonwear
2017-05-31 07:05:48.800,2017-05-31 07:05:48.800,2017-05-31 07:06:01.600,nonwear
2017-05-31 07:06:01.600,2017-05-31 07:06:01.600,2017-05-31 07:06:14.400,nonwear
2017-05-31 07:06:14.400,2017-05-31 07:06:14.400,2017-05-31 07:06:27.200,nonwear
2017-05-31 07:06:27.200,2017-05-31 07:06:27.200,2017-05-31 07:06:40.000,nonwear
2017-05-31 07:06:40.000,2017-05-31 07:06:40.000,2017-05-31 07:06:52.800,nonwear
2017-05-31 07:06:52.800,2017-05-31 07:06:52.800,2017-05-31 07:07:05.600,nonwear
2017-05-31 07:07:05.600,2017-05-31 07:07:05.600,2017-05-31 07:07:18.400,nonwear
2017-05-31 07:07:18.400,2017-05-31 07:07:18.400,2017-05-31 07:07:31.200,nonwear
2017-05-31 07:07:31.200,2017-05-31 07:07:31.200,2017-05-31 07:07:44.000,nonwear
2017-05-31 07:07:44.000,2017-05-31 07:07:44.000,2017-05-31 07:07:56.800,nonwear
2017-05-31 07:07:56.800,2017-05-31 07:07:56.800,2017-05-31 07:08:09.600,nonwear
2017-05-31 07:08:09.600,2017-05-31 07:08:09.600,2017-05-31 07:08:22.400,nonwear
2017-05-31 07:08:22.400,2017-05-31 07:08:22.400,2017-05-31 07:08:35.200,nonwear
2017-05-31 07:08:35.200,2017-05-31 07:08:35.200,2017-05-31 07:08:48.000,nonwear
2017-05-31 07:08:48.000,2017-05-31 07:08:48.000,2017-05-31 07:09:00.800,nonwear
2017-05-31 07:09:00.800,2017-05-31 07:09:00.800,2017-05-31 07:09:13.600,nonwear
2017-05-31 07:09:13.600,2017-05-31 07:09:13.600,2017-05-31 07:09:26.400,nonwear
2017-05-31 07:09:26.400,2017-05-31 07:09:26.400,2017-05-31 07:09:39.200,nonwear
2017-05-31 07:09:39.200,2017-05-31 07:09:39.200,2017-05-31 07:09:52.000,nonwear
2017-05-31 07:09:52.000,2017-05-31 07:09:52.000,2017-05-31 07:10:04.800,nonwear
2017-05-31 07:10:04.800,2017-05-31 07:10:04.800,2017-05-31 07:10:17.600,nonwear
2017-05-31 07:10:17.600,2017-05-31 07:10:17.600,2017-05-31 07:10:30.400,nonwear
2017-05-31 07:10:30.400,2017-05-31 07:10:30.400,2017-05-31 07:10:43.200,nonwear
2017-05-31 07:10:43.200,2017-05-31 07:10:43.200,2017-05-31 07:10:56.000,nonwear
2017-05-31 07:10:56.000,2017-05-31 07:10:56.000,2017-05-31 07:11:08.800,nonwear
2017-05-31 07:11:08.800,2017-05-31 07:11:08.800,2017-05-31 07:11:21.600,nonwear
2017-05-31 07:11:21.600,2017-05-31 07:11:21.600,2017-05-31 07:11:34.400,nonwear
2017-05-31 07:11:34.400,2017-05-31 07:11:34.400,2017-05-31 07:11:47.200,nonwear
2017-05-31 07:11:47.200,2017-05-31 07:11:47.200,2017-05-31 07:12:00.000,nonwear
2017-05-31 07:12:00.000,2017-05-31 07:12:00.000,2017-05-31 07:12:12.800,nonwear
2017-05-31 07:12:12.800,2017-05-31 07:12:12.800,2017-05-31 07:12:25.600,nonwear
2017-05-31 07:12:25.600,2017-05-31 07:12:25.600,2017-05-31 07:12:38.400,nonwear
2017-05-31 07:12:38.400,2017-05-31 07:12:38.400,2017-05-31 07:12:51.200,nonwear
2017-05-31 07:12:51.200,2017-05-31 07:12:51.200,2017-05-31 07:13:04.000,nonwear
2017-05-31 07:13:04.000,2017-05-31 07:13:04.000,2017-05-31 07:13:16.800,nonwear
2017-05-31 07:13:16.800,2017-05-31 07:13:16.800,2017-05-31 07:13:29.600,nonwear
2017-05-31 07:13:29.600,2017-05-31 07:13:29.600,2017-05-31 07:13:42.400,nonwear
2017-05-31 07:13:42.400,2017-05-31 07:13:42.400,2017-05-31 07:13:55.200,nonwear
2017-05-31 07:13:55.200,2017-05-31 07:13:55.200,2017-05-31 07:14:08.000,nonwear
2017-05-31 07:14:08.000,2017-05-31 07:14:08.000,2017-05-31 07:14:20.800,nonwear
2017-05-31 07:14:20.800,2017-05-31 07:14:20.800,2017-05-31 07:14:33.600,nonwear
2017-05-31 07:14:33.600,2017-05-31 07:14:33.600,2017-05-31 07:14:46.400,nonwear
2017-05-31 07:14:46.400,2017-05-31 07:14:46.400,2017-05-31 07:14:59.200,nonwear
2017-05-31 07:14:59.200,2017-05-31 07:14:59.200,2017-05-31 07:15:12.000,nonwear
2017-05-31 07:15:12.000,2017-05-31 07:15:12.000,2017-05-31 07:15:24.800,nonwear
2017-05-31 07:15:24.800,2017-05-31 07:15:24.800,2017-05-31 07:15:37.600,nonwear
2017-05-31 07:15:37.600,2017-05-31 07:15:37.600,2017-05-31 07:15:50.400,nonwear
2017-05-31 07:15:50.400,2017-05-31 07:15:50.400,2017-05-31 07:16:03.200,nonwear
2017-05-31 07:16:03.200,2017-05-31 07:16:03.200,2017-05-31 07:16:16.000,nonwear
2017-05-31 07:16:16.000,2017-05-31 07:16:16.000,2017-05-31 07:16:28.800,nonwear
2017-05-31 07:16:28.800,2017-05-31 07:16:28.800,2017-05-31 07:16:41.600,nonwear
2017-05-31 07:16:41.600,2017-05-31 07:16:41.600,2017-05-31 07:16:54.400,nonwear
2017-05-31 07:16:54.400,2017-05-31 07:16:54.400,2017-05-31 07:17:07.200,nonwear
2017-05-31 07:17:07.200,2017-05-31 07:17:07.200,2017-05-31 07:17:20.000,nonwear
2017-05-31 07:17:20.000,2017-05-31 07:17:20.000,2017-05-31 07:17:32.800,nonwear
2017-05-31 07:17:32.800,2017-05-31 07:17:32.800,2017-05-31 07:17:45.600,nonwear
2017-05-31 07:17:45.600,2017-05-31 07:17:45.600,2017-05-31 07:17:58.400,nonwear
2017-05-31 07:17:58.400,2017-05-31 07:17:58.400,2017-05-31 07:18:11.200,nonwear
2017-05-31 07:18:11.200,2017-05-31 07:18:11.200,2017-05-31 07:18:24.000,nonwear
2017-05-31 07:18:24.000,2017-05-31 07:18:24.000,2017-05-31 07:18:36.800,nonwear
2017-05-31 07:18:36.800,2017-05-31 07:18:36.800,2017-05-31 07:18:49.600,nonwear
2017-05-31 07:18:49.600,2017-05-31 07:18:49.600,2017-05-31 07:19:02.400,nonwear
2017-05-31 07:19:02.400,2017-05-31 07:19:02.400,2017-05-31 07:19:15.200,nonwear
2017-05-31 07:19:15.200,2017-05-31 07:19:15.200,2017-05-31 07:19:28.000,nonwear
2017-05-31 07:19:28.000,2017-05-31 07:19:28.000,2017-05-31 07:19:40.800,nonwear
2017-05-31 07:19:40.800,2017-05-31 07:19:40.800,2017-05-31 07:19:53.600,nonwear
2017-05-31 07:19:53.600,2017-05-31 07:19:53.600,2017-05-31 07:20:06.400,nonwear
2017-05-31 07:20:06.400,2017-05-31 07:20:06.400,2017-05-31 07:20:19.200,nonwear
2017-05-31 07:20:19.200,2017-05-31 07:20:19.200,2017-05-31 07:20:32.000,nonwear
2017-05-31 07:20:32.000,2017-05-31 07:20:32.000,2017-05-31 07:20:44.800,nonwear
2017-05-31 07:20:44.800,2017-05-31 07:20:44.800,2017-05-31 07:20:57.600,nonwear
2017-05-31 07:20:57.600,2017-05-31 07:20:57.600,2017-05-31 07:21:10.400,nonwear
2017-05-31 07:21:10.400,2017-05-31 07:21:10.400,2017-05-31 07:21:23.200,nonwear
2017-05-31 07:21:23.200,2017-05-31 07:21:23.200,2017-05-31 07:21:36.000,nonwear
2017-05-31 07:21:36.000,2017-05-31 07:21:36.000,2017-05-31 07:21:48.800,nonwear
2017-05-31 07:21:48.800,2017-05-31 07:21:48.800,2017-05-31 07:22:01.600,nonwear
2017-05-31 07:22:01.600,2017-05-31 07:22:01.600,2017-05-31 07:22:14.400,nonwear
2017-05-31 07:22:14.400,2017-05-31 07:22:14.400,2017-05-31 07:22:27.200,nonwear
2017-05-31 07:22:27.200,2017-05-31 07:22:27.200,2017-05-31 07:22:40.000,nonwear
2017-05-31 07:22:40.000,2017-05-31 07:22:40.000,2017-05-31 07:22:52.800,nonwear
2017-05-31 07:22:52.800,2017-05-31 07:22:52.800,2017-05-31 07:23:05.600,nonwear
2017-05-31 07:23:05.600,2017-05-31 07:23:05.600,2017-05-31 07:23:18.400,nonwear
2017-05-31 07:23:18.400,2017-05-31 07:23:18.400,2017-05-31 07:23:31.200,nonwear
2017-05-31 07:23:31.200,2017-05-31 07:23:31.200,2017-05-31 07:23:44.000,nonwear
2017-05-31 07:23:44.000,2017-05-31 07:23:44.000,2017-05-31 07:23:56.800,nonwear
2017-05-31 07:23:56.800,2017-05-31 07:23:56.800,2017-05-31 07:24:09.600,nonwear
2017-05-31 07:24:09.600,2017-05-31 07:24:09.600,2017-05-31 07:24:22.400,nonwear
2017-05-31 07:24:22.400,2017-05-31 07:24:22.400,2017-05-31 07:24:35.200,nonwear
2017-05-31 07:24:35.200,2017-05-31 07:24:35.200,2017-05-31 07:24:48.000,nonwear
2017-05-31 07:24:48.000,2017-05-31 07:24:48.000,2017-05-31 07:25:00.800,nonwear
2017-05-31 07:25:00.800,2017-05-31 07:25:00.800,2017-05-31 07:25:13.600,nonwear
2017-05-31 07:25:13.600,2017-05-31 07:25:13.600,2017-05-31 07:25:26.400,nonwear
2017-05-31 07:25:26.400,2017-05-31 07:25:26.400,2017-05-31 07:25:39.200,nonwear
2017-05-31 07:25:39.200,2017-05-31 07:25:39.200,2017-05-31 07:25:52.000,nonwear
2017-05-31 07:25:52.000,2017-05-31 07:25:52.000,2017-05-31 07:26:04.800,nonwear
2017-05-31 07:26:04.800,2017-05-31 07:26:04.800,2017-05-31 07:26:17.600,nonwear
2017-05-31 07:26:17.600,2017-05-31 07:26:17.600,2017-05-31 07:26:30.400,nonwear
2017-05-31 07:26:30.400,2017-05-31 07:26:30.400,2017-05-31 07:26:43.200,nonwear
2017-05-31 07:26:43.200,2017-05-31 07:26:43.200,2017-05-31 07:26:56.000,nonwear
2017-05-31 07:26:56.000,2017-05-31 07:26:56.000,2017-05-31 07:27:08.800,nonwear
2017-05-31 07:27:08.800,2017-05-31 07:27:08.800,2017-05-31 07:27:21.600,nonwear
2017-05-31 07:27:21.600,2017-05-31 07:27:21.600,2017-05-31 07:27:34.400,nonwear
2017-05-31 07:27:34.400,2017-05-31 07:27:34.400,2017-05-31 07:27:47.200,nonwear
2017-05-31 07:27:47.200,2017-05-31 07:27:47.200,2017-05-31 07:28:00.000,nonwear
2017-05-31 07:28:00.000,2017-05-31 07:28:00.000,2017-05-31 07:28:12.800,nonwear
2017-05-31 07:28:12.800,2017-05-31 07:28:12.800,2017-05-31 07:28:25.600,nonwear
2017-05-31 07:28:25.600,2017-05-31 07:28:25.600,2017-05-31 07:28:38.400,nonwear
2017-05-31 07:28:38.400,2017-05-31 07:28:38.400,2017-05-31 07:28:51.200,nonwear
2017-05-31 07:28:51.200,2017-05-31 07:28:51.200,2017-05-31 07:29:04.000,nonwear
2017-05-31 07:29:04.000,2017-05-31 07:29:04.000,2017-05-31 07:29:16.800,nonwear
2017-05-31 07:29:16.800,2017-05-31 07:29:16.800,2017-05-31 07:29:29.600,nonwear
2017-05-31 07:29:29.600,2017-05-31 07:29:29.600,2017-05-31 07:29:42.400,nonwear
2017-05-31 07:29:42.400,2017-05-31 07:29:42.400,2017-05-31 07:29:55.200,nonwear
2017-05-31 07:29:55.200,2017-05-31 07:29:55.200,2017-05-31 07:30:08.000,nonwear
2017-05-31 07:30:08.000,2017-05-31 07:30:08.000,2017-05-31 07:30:20.800,nonwear
2017-05-31 07:30:20.800,2017-05-31 07:30:20.800,2017-05-31 07:30:33.600,nonwear
2017-05-31 07:30:33.600,2017-05-31 07:30:33.600,2017-05-31 07:30:46.400,nonwear
2017-05-31 07:30:46.400,2017-05-31 07:30:46.400,2017-05-31 07:30:59.200,nonwear
2017-05-31 07:30:59.200,2017-05-31 07:30:59.200,2017-05-31 07:31:12.000,nonwear
2017-05-31 07:31:12.000,2017-05-31 07:31:12.000,2017-05-31 07:31:24.800,nonwear
2017-05-31 07:31:24.800,2017-05-31 07:31:24.800,2017-05-31 07:31:37.600,nonwear
2017-05-31 07:31:37.600,2017-05-31 07:31:37.600,2017-05-31 07:31:50.400,nonwear
2017-05-31 07:31:50.400,2017-05-31 07:31:50.400,2017-05-31 07:32:03.200,wear
2017-05-31 07:32:03.200,2017-05-31 07:32:03.200,2017-05-31 07:32:16.000,wear
2017-05-31 07:32:16.000,2017-05-31 07:32:16.000,2017-05-31 07:32:28.800,wear
2017-05-31 07:32:28.800,2017-05-31 07:32:28.800,2017-05-31 07:32:41.600,wear
2017-05-31 07:32:41.600,2017-05-31 07:32:41.600,2017-05-31 07:32:54.400,wear
2017-05-31 07:32:54.400,2017-05-31 07:32:54.400,2017-05-31 07:33:07.200,wear
2017-05-31 07:33:07.200,2017-05-31 07:33:07.200,2017-05-31 07:33:20.000,wear
2017-05-31 07:33:20.000,2017-05-31 07:33:20.000,2017-05-31 07:33:32.800,wear
2017-05-31 07:33:32.800,2017-05-31 07:33:32.800,2017-05-31 07:33:45.600,wear
2017-05-31 07:33:45.600,2017-05-31 07:33:45.600,2017-05-31 07:33:58.400,wear
2017-05-31 07:33:58.400,2017-05-31 07:33:58.400,2017-05-31 07:34:11.200,wear
2017-05-31 07:34:11.200,2017-05-31 07:34:11.200,2017-05-31 07:34:24.000,wear
2017-05-31 07:34:24.000,2017-05-31 07:34:24.000,2017-05-31 07:34:36.800,wear
2017-05-31 07:34:36.800,2017-05-31 07:34:36.800,2017-05-31 07:34:49.600,wear
2017-05-31 07:34:49.600,2017-05-31 07:34:49.600,2017-05-31 07:35:02.400,wear
2017-05-31 07:35:02.400,2017-05-31 07:35:02.400,2017-05-31 07:35:15.200,wear
2017-05-31 07:35:15.200,2017-05-31 07:35:15.200,2017-05-31 07:35:28.000,wear
2017-05-31 07:35:28.000,2017-05-31 07:35:28.000,2017-05-31 07:35:40.800,wear
2017-05-31 07:35:40.800,2017-05-31 07:35:40.800,2017-05-31 07:35:53.600,wear
2017-05-31 07:35:53.600,2017-05-31 07:35:53.600,2017-05-31 07:36:06.400,wear
2017-05-31 07:36:06.400,2017-05-31 07:36:06.400,2017-05-31 07:36:19.200,wear
2017-05-31 07:36:19.200,2017-05-31 07:36:19.200,2017-05-31 07:36:32.000,wear
2017-05-31 07:36:32.000,2017-05-31 07:36:32.000,2017-05-31 07:36:44.800,wear
2017-05-31 07:36:44.800,2017-05-31 07:36:44.800,2017-05-31 07:36:57.600,wear
2017-05-31 07:36:57.600,2017-05-31 07:36:57.600,2017-05-31 07:37:10.400,wear
2017-05-31 07:37:10.400,2017-05-31 07:37:10.400,2017-05-31 07:37:23.200,wear
2017-05-31 07:37:23.200,2017-05-31 07:37:23.200,2017-05-31 07:37:36.000,wear
2017-05-31 07:37:36.000,2017-05-31 07:37:36.000,2017-05-31 07:37:48.800,wear
2017-05-31 07:37:48.800,2017-05-31 07:37:48.800,2017-05-31 07:38:01.600,wear
2017-05-31 07:38:01.600,2017-05-31 07:38:01.600,2017-05-31 07:38:14.400,wear
2017-05-31 07:38:14.400,2017-05-31 07:38:14.400,2017-05-31 07:38:27.200,wear
2017-05-31 07:38:27.200,2017-05-31 07:38:27.200,2017-05-31 07:38:40.000,wear
2017-05-31 07:38:40.000,2017-05-31 07:38:40.000,2017-05-31 07:38:52.800,wear
2017-05-31 07:38:52.800,2017-05-31 07:38:52.800,2017-05-31 07:39:05.600,wear
2017-05-31 07:39:05.600,2017-05-31 07:39:05.600,2017-05-31 07:39:18.400,wear
2017-05-31 07:39:18.400,2017-05-31 07:39:18.400,2017-05-31 07:39:31.200,wear
2017-05-31 07:39:31.200,2017-05-31 07:39:31.200,2017-05-31 07:39:44.000,wear
2017-05-31 07:39:44.000,2017-05-31 07:39:44.000,2017-05-31 07:39:56.800,wear
2017-05-31 07:39:56.800,2017-05-31 07:39:56.800,2017-05-31 07:40:09.600,wear
2017-05-31 07:40:09.600,2017-05-31 07:40:09.600,2017-05-31 07:40:22.400,wear
2017-05-31 07:40:22.400,2017-05-31 07:40:22.400,2017-05-31 07:40:35.200,wear
2017-05-31 07:40:35.200,2017-05-31 07:40:35.200,2017-05-31 07:40:48.000,wear
2017-05-31 07:40:48.000,2017-05-31 07:40:48.000,2017-05-31 07:41:00.800,wear
2017-05-31 07:41:00.800,2017-05-31 07:41:00.800,2017-05-31 07:41:13.600,wear
2017-05-31 07:41:13.600,2017-05-31 07:41:13.600,2017-05-31 07:41:26.400,wear
2017-05-31 07:41:26.400,2017-05-31 07:41:26.400,2017-05-31 07:41:39.200,wear
2017-05-31 07:41:39.200,2017-05-31 07:41:39.200,2017-05-31 07:41:52.000,wear
2017-05-31 07:41:52.000,2017-05-31 07:41:52.000,2017-05-31 07:42:04.800,wear
2017-05-31 07:42:04.800,2017-05-31 07:42:04.800,2017-05-31 07:42:17.600,wear
2017-05-31 07:42:17.600,2017-05-31 07:42:17.600,2017-05-31 07:42:30.400,wear
2017-05-31 07:42:30.400,2017-05-31 07:42:30.400,2017-05-31 07:42:43.200,wear
2017-05-31 07:42:43.200,2017-05-31 07:42:43.200,2017-05-31 07:42:56.000,wear
2017-05-31 07:42:56.000,2017-05-31 07:42:56.000,2017-05-31 07:43:08.800,wear
2017-05-31 07:43:08.800,2017-05-31 07:43:08.800,2017-05-31 07:43:21.600,wear
2017-05-31 07:43:21.600,2017-05-31 07:43:21.600,2017-05-31 07:43:34.400,wear
2017-05-31 07:43:34.400,2017-05-31 07:43:34.400,2017-05-31 07:43:47.200,wear
2017-05-31 07:43:47.200,2017-05-31 07:43:47.200,2017-05-31 07:44:00.000,wear
2017-05-31 07:44:00.000,2017-05-31 07:44:00.000,2017-05-31 07:44:12.800,wear
2017-05-31 07:44:12.800,2017-05-31 07:44:12.800,2017-05-31 07:44:25.600,wear
2017-05-31 07:44:25.600,2017-05-31 07:44:25.600,2017-05-31 07:44:38.400,wear
2017-05-31 07:44:38.400,2017-05-31 07:44:38.400,2017-05-31 07:44:51.200,wear
2017-05-31 07:44:51.200,2017-05-31 07:44:51.200,2017-05-31 07:45:04.000,wear
2017-05-31 07:45:04.000,2017-05-31 07:45:04.000,2017-05-31 07:45:16.800,wear
2017-05-31 07:45:16.800,2017-05-31 07:45:16.800,2017-05-31 07:45:29.600,wear
2017-05-31 07:45:29.600,2017-05-31 07:45:29.600,2017-05-31 07:45:42.400,wear
2017-05-31 07:45:42.400,2017-05-31 07:45:42.400,2017-05-31 07:45:55.200,wear
2017-05-31 07:45:55.200,2017-05-31 07:45:55.200,2017-05-31 07:46:08.000,wear
2017-05-31 07:46:08.000,2017-05-31 07:46:08.000,2017-05-31 07:46:20.800,wear
2017-05-31 07:46:20.800,2017-05-31 07:46:20.800,2017-05-31 07:46:33.600,wear
2017-05-31 07:46:33.600,2017-05-31 07:46:33.600,2017-05-31 07:46:46.400,wear
2017-05-31 07:46:46.400,2017-05-31 07:46:46.400,2017-05-31 07:46:59.200,wear
2017-05-31 07:46:59.200,2017-05-31 07:46:59.200,2017-05-31 07:47:12.000,wear
2017-05-31 07:47:12.000,2017-05-31 07:47:12.000,2017-05-31 07:47:24.800,wear
2017-05-31 07:47:24.800,2017-05-31 07:47:24.800,2017-05-31 07:47:37.600,wear
2017-05-31 07:47:37.600,2017-05-31 07:47:37.600,2017-05-31 07:47:50.400,wear
2017-05-31 07:47:50.400,2017-05-31 07:47:50.400,2017-05-31 07:48:03.200,wear
2017-05-31 07:48:03.200,2017-05-31 07:48:03.200,2017-05-31 07:48:16.000,wear
2017-05-31 07:48:16.000,2017-05-31 07:48:16.000,2017-05-31 07:48:28.800,wear
2017-05-31 07:48:28.800,2017-05-31 07:48:28.800,2017-05-31 07:48:41.600,wear
2017-05-31 07:48:41.600,2017-05-31 07:48:41.600,2017-05-31 07:48:54.400,wear
2017-05-31 07:48:54.400,2017-05-31 07:48:54.400,2017-05-31 07:49:07.200,wear
2017-05-31 07:49:07.200,2017-05-31 07:49:07.200,2017-05-31 07:49:20.000,wear
2017-05-31 07:49:20.000,2017-05-31 07:49:20.000,2017-05-31 07:49:32.800,wear
2017-05-31 07:49:32.800,2017-05-31 07:49:32.800,2017-05-31 07:49:45.600,wear
2017-05-31 07:49:45.600,2017-05-31 07:49:45.600,2017-05-31 07:49:58.400,wear
2017-05-31 07:49:58.400,2017-05-31 07:49:58.400,2017-05-31 07:50:11.200,wear
2017-05-31 07:50:11.200,2017-05-31 07:50:11.200,2017-05-31 07:50:24.000,wear
2017-05-31 07:50:24.000,2017-05-31 07:50:24.000,2017-05-31 07:50:36.800,wear
2017-05-31 07:50:36.800,2017-05-31 07:50:36.800,2017-05-31 07:50:49.600,wear
2017-05-31 07:50:49.600,2017-05-31 07:50:49.600,2017-05-31 07:51:02.400,wear
2017-05-31 07:51:02.400,2017-05-31 07:51:02.400,2017-05-31 07:51:15.200,wear
2017-05-31 07:51:15.200,2017-05-31 07:51:15.200,2017-05-31 07:51:28.000,wear
2017-05-31 07:51:28.000,2017-05-31 07:51:28.000,2017-05-31 07:51:40.800,wear
2017-05-31 07:51:40.800,2017-05-31 07:51:40.800,2017-05-31 07:51:53.600,wear
2017-05-31 07:51:53.600,2017-05-31 07:51:53.600,2017-05-31 07:52:06.400,wear
2017-05-31 07:52:06.400,2017-05-31 07:52:06.400,2017-05-31 07:52:19.200,wear
2017-05-31 07:52:19.200,2017-05-31 07:52:19.200,2017-05-31 07:52:32.000,wear
2017-05-31 07:52:32.000,2017-05-31 07:52:32.000,2017-05-31 07:52:44.800,wear
2017-05-31 07:52:44.800,2017-05-31 07:52:44.800,2017-05-31 07:52:57.600,wear
2017-05-31 07:52:57.600,2017-05-31 07:52:57.600,2017-05-31 07:53:10.400,wear
2017-05-31 07:53:10.400,2017-05-31 07:53:10.400,2017-05-31 07:53:23.200,wear
2017-05-31 07:53:23.200,2017-05-31 07:53:23.200,2017-05-31 07:53:36.000,wear
2017-05-31 07:53:36.000,2017-05-31 07:53:36.000,2017-05-31 07:53:48.800,wear
2017-05-31 07:53:48.800,2017-05-31 07:53:48.800,2017-05-31 07:54:01.600,wear
2017-05-31 07:54:01.600,2017-05-31 07:54:01.600,2017-05-31 07:54:14.400,wear
2017-05-31 07:54:14.400,2017-05-31 07:54:14.400,2017-05-31 07:54:27.200,wear
2017-05-31 07:54:27.200,2017-05-31 07:54:27.200,2017-05-31 07:54:40.000,wear
2017-05-31 07:54:40.000,2017-05-31 07:54:40.000,2017-05-31 07:54:52.800,wear
2017-05-31 07:54:52.800,2017-05-31 07:54:52.800,2017-05-31 07:55:05.600,wear
2017-05-31 07:55:05.600,2017-05-31 07:55:05.600,2017-05-31 07:55:18.400,wear
2017-05-31 07:55:18.400,2017-05-31 07:55:18.400,2017-05-31 07:55:31.200,wear
2017-05-31 07:55:31.200,2017-05-31 07:55:31.200,2017-05-31 07:55:44.000,wear
2017-05-31 07:55:44.000,2017-05-31 07:55:44.000,2017-05-31 07:55:56.800,wear
2017-05-31 07:55:56.800,2017-05-31 07:55:56.800,2017-05-31 07:56:09.600,wear
2017-05-31 07:56:09.600,2017-05-31 07:56:09.600,2017-05-31 07:56:22.400,wear
2017-05-31 07:56:22.400,2017-05-31 07:56:22.400,2017-05-31 07:56:35.200,wear
2017-05-31 07:56:35.200,2017-05-31 07:56:35.200,2017-05-31 07:56:48.000,wear
2017-05-31 07:56:48.000,2017-05-31 07:56:48.000,2017-05-31 07:57:00.800,wear
2017-05-31 07:57:00.800,2017-05-31 07:57:00.800,2017-05-31 07:57:13.600,wear
2017-05-31 07:57:13.600,2017-05-31 07:57:13.600,2017-05-31 07:57:26.400,wear
2017-05-31 07:57:26.400,2017-05-31 07:57:26.400,2017-05-31 07:57:39.200,wear
2017-05-31 07:57:39.200,2017-05-31 07:57:39.200,2017-05-31 07:57:52.000,wear
2017-05-31 07:57:52.000,2017-05-31 07:57:52.000,2017-05-31 07:58:04.800,wear
2017-05-31 07:58:04.800,2017-05-31 07:58:04.800,2017-05-31 07:58:17.600,wear
2017-05-31 07:58:17.600,2017-05-31 07:58:17.600,2017-05-31 07:58:30.400,wear
2017-05-31 07:58:30.400,2017-05-31 07:58:30.400,2017-05-31 07:58:43.200,wear
2017-05-31 07:58:43.200,2017-05-31 07:58:43.200,2017-05-31 07:58:56.000,wear
2017-05-31 07:58:56.000,2017-05-31 07:58:56.000,2017-05-31 07:59:08.800,wear
2017-05-31 07:59:08.800,2017-05-31 07:59:08.800,2017-05-31 07:59:21.600,wear
2017-05-31 07:59:21.600,2017-05-31 07:59:21.600,2017-05-31 07:59:34.400,wear
2017-05-31 07:59:34.400,2017-05-31 07:59:34.400,2017-05-31 07:59:47.200,wear
2017-05-31 07:59:47.200,2017-05-31 07:59:47.200,2017-05-31 07:59:59.999,wear
