HEADER_TIME_STAMP,START_TIME,STOP_TIME,LABEL_PROBABILITY
2017-05-27 16:00:00.000,2017-05-27 16:00:00.000,2017-05-27 16:01:04.000,0.992
2017-05-27 16:01:04.000,2017-05-27 16:01:04.000,2017-05-27 16:02:08.000,0.997
2017-05-27 16:02:08.000,2017-05-27 16:02:08.000,2017-05-27 16:03:12.000,0.983
2017-05-27 16:03:12.000,2017-05-27 16:03:12.000,2017-05-27 16:04:16.000,0.99
2017-05-27 16:04:16.000,2017-05-27 16:04:16.000,2017-05-27 16:05:20.000,0.943
2017-05-27 16:05:20.000,2017-05-27 16:05:20.000,2017-05-27 16:06:24.000,0.789
2017-05-27 16:06:24.000,2017-05-27 16:06:24.000,2017-05-27 16:07:28.000,0.973
2017-05-27 16:07:28.000,2017-05-27 16:07:28.000,2017-05-27 16:08:32.000,0.927
2017-05-27 16:08:32.000,2017-05-27 16:08:32.000,2017-05-27 16:09:36.000,0.949
2017-05-27 16:09:36.000,2017-05-27 16:09:36.000,2017-05-27 16:10:40.000,0.985
2017-05-27 16:10:40.000,2017-05-27 16:10:40.000,2017-05-27 16:11:44.000,0.99
2017-05-27 16:11:44.000,2017-05-27 16:11:44.000,2017-05-27 16:12:48.000,0.991
2017-05-27 16:12:48.000,2017-05-27 16:12:48.000,2017-05-27 16:13:52.000,0.97
2017-05-27 16:13:52.000,2017-05-27 16:13:52.000,2017-05-27 16:14:56.000,0.81
2017-05-27 16:14:56.000,2017-05-27 16:14:56.000,2017-05-27 16:16:00.000,0.982
2017-05-27 16:16:00.000,2017-05-27 16:16:00.000,2017-05-27 16:17:04.000,0.843
2017-05-27 16:17:04.000,2017-05-27 16:17:04.000,2017-05-27 16:18:08.000,0.963
2017-05-27 16:18:08.000,2017-05-27 16:18:08.000,2017-05-27 16:19:12.000,0.933
2017-05-27 16:19:12.000,2017-05-27 16:19:12.000,2017-05-27 16:20:16.000,0.989
2017-05-27 16:20:16.000,2017-05-27 16:20:16.000,2017-05-27 16:21:20.000,0.996
2017-05-27 16:21:20.000,2017-05-27 16:21:20.000,2017-05-27 16:22:24.000,0.927
2017-05-27 16:22:24.000,2017-05-27 16:22:24.000,2017-05-27 16:23:28.000,0.981
2017-05-27 16:23:28.000,2017-05-27 16:23:28.000,2017-05-27 16:24:32.000,0.955
2017-05-27 16:24:32.000,2017-05-27 16:24:32.000,2017-05-27 16:25:36.000,0.942
2017-05-27 16:25:36.000,2017-05-27 16:25:36.000,2017-05-27 16:26:40.000,0.847
2017-05-27 16:26:40.000,2017-05-27 16:26:40.000,2017-05-27 16:27:44.000,0.989
2017-05-27 16:27:44.000,2017-05-27 16:27:44.000,2017-05-27 16:28:48.000,0.994
2017-05-27 16:28:48.000,2017-05-27 16:28:48.000,2017-05-27 16:29:52.000,0.981
2017-05-27 16:29:52.000,2017-05-27 16:29:52.000,2017-05-27 16:30:56.000,0.983
2017-05-27 16:30:56.000,2017-05-27 16:30:56.000,2017-05-27 16:32:00.000,0.864
2017-05-27 16:32:00.000,2017-05-27 16:32:00.000,2017-05-27 16:33:04.000,0.784
2017-05-27 16:33:04.000,2017-05-27 16:33:04.000,2017-05-27 16:34:08.000,0.772
2017-05-27 16:34:08.000,2017-05-27 16:34:08.000,2017-05-27 16:35:12.000,0.973
2017-05-27 16:35:12.000,2017-05-27 16:35:12.000,2017-05-27 16:36:16.000,0.861
2017-05-27 16:36:16.000,2017-05-27 16:36:16.000,2017-05-27 16:37:20.000,0.921
2017-05-27 16:37:20.000,2017-05-27 16:37:20.000,2017-05-27 16:38:24.000,0.81
2017-05-27 16:38:24.000,2017-05-27 16:38:24.000,2017-05-27 16:39:28.000,0.973
2017-05-27 16:39:28.000,2017-05-27 16:39:28.000,2017-05-27 16:40:32.000,0.996
2017-05-27 16:40:32.000,2017-05-27 16:40:32.000,2017-05-27 16:41:36.000,0.968
2017-05-27 16:41:36.000,2017-05-27 16:41:36.000,2017-05-27 16:42:40.000,0.998
2017-05-27 16:42:40.000,2017-05-27 16:42:40.000,2017-05-27 16:43:44.000,0.925
2017-05-27 16:43:44.000,2017-05-27 16:43:44.000,2017-05-27 16:44:48.000,0.992
2017-05-27 16:44:48.000,2017-05-27 16:44:48.000,2017-05-27 16:45:52.000,0.998
2017-05-27 16:45:52.000,2017-05-27 16:45:52.000,2017-05-27 16:46:56.000,0.982
2017-05-27 16:46:56.000,2017-05-27 16:46:56.000,2017-05-27 16:48:00.000,0.994
2017-05-27 16:48:00.000,2017-05-27 16:48:00.000,2017-05-27 16:49:04.000,0.984
2017-05-27 16:49:04.000,2017-05-27 16:49:04.000,2017-05-27 16:50:08.000,0.856
2017-05-27 16:50:08.000,2017-05-27 16:50:08.000,2017-05-27 16:51:12.000,0.924
2017-05-27 16:51:12.000,2017-05-27 16:51:12.000,2017-05-27 16:52:16.000,0.9
2017-05-27 16:52:16.000,2017-05-27 16:52:16.000,2017-05-27 16:53:20.000,0.993
2017-05-27 16:53:20.000,2017-05-27 16:53:20.000,2017-05-27 16:54:24.000,0.977
2017-05-27 16:54:24.000,2017-05-27 16:54:24.000,2017-05-27 16:55:28.000,0.996
2017-05-27 16:55:28.000,2017-05-27 16:55:28.000,2017-05-27 16:56:32.000,0.998
2017-05-27 16:56:32.000,2017-05-27 16:56:32.000,2017-05-27 16:57:36.000,0.85
2017-05-27 16:57:36.000,2017-05-27 16:57:36.000,2017-05-27 16:58:40.000,0.944
2017-05-27 16:58:40.000,2017-05-27 16:58:40.000,2017-05-27 16:59:44.000,0.997
2017-05-27 16:59:44.000,2017-05-27 16:59:44.000,2017-05-27 16:59:59.999,0.9695
