HEADER_TIME_STAMP,START_TIME,STOP_TIME,LABEL_NAME
2017-06-06 07:00:00.000,2017-06-06 07:00:00.000,2017-06-07 07:29:59.999,Sleep
2017-06-07 07:30:00.000,2017-06-07 07:30:00.000,2017-06-07 07:59:59.999,Other
