HEADER_TIME_STAMP,START_TIME,STOP_TIME,LABEL_PROBABILITY
2017-05-30 09:00:48.000,2017-05-30 09:00:48.000,2017-05-30 09:01:52.000,0.867
2017-05-30 09:01:52.000,2017-05-30 09:01:52.000,2017-05-30 09:02:56.000,0.99
2017-05-30 09:02:56.000,2017-05-30 09:02:56.000,2017-05-30 09:04:00.000,0.995
2017-05-30 09:04:00.000,2017-05-30 09:04:00.000,2017-05-30 09:05:04.000,0.972
2017-05-30 09:05:04.000,2017-05-30 09:05:04.000,2017-05-30 09:06:08.000,1.0
2017-05-30 09:06:08.000,2017-05-30 09:06:08.000,2017-05-30 09:07:12.000,0.796
2017-05-30 09:07:12.000,2017-05-30 09:07:12.000,2017-05-30 09:08:16.000,0.916
2017-05-30 09:08:16.000,2017-05-30 09:08:16.000,2017-05-30 09:09:20.000,0.953
2017-05-30 09:09:20.000,2017-05-30 09:09:20.000,2017-05-30 09:10:24.000,1.0
2017-05-30 09:10:24.000,2017-05-30 09:10:24.000,2017-05-30 09:11:28.000,1.0
2017-05-30 09:11:28.000,2017-05-30 09:11:28.000,2017-05-30 09:12:32.000,0.999
2017-05-30 09:12:32.000,2017-05-30 09:12:32.000,2017-05-30 09:13:36.000,0.982
2017-05-30 09:13:36.000,2017-05-30 09:13:36.000,2017-05-30 09:14:40.000,0.995
2017-05-30 09:14:40.000,2017-05-30 09:14:40.000,2017-05-30 09:15:44.000,1.0
2017-05-30 09:15:44.000,2017-05-30 09:15:44.000,2017-05-30 09:16:48.000,1.0
2017-05-30 09:16:48.000,2017-05-30 09:16:48.000,2017-05-30 09:17:52.000,0.996
2017-05-30 09:17:52.000,2017-05-30 09:17:52.000,2017-05-30 09:18:56.000,1.0
2017-05-30 09:18:56.000,2017-05-30 09:18:56.000,2017-05-30 09:20:00.000,1.0
2017-05-30 09:20:00.000,2017-05-30 09:20:00.000,2017-05-30 09:21:04.000,0.999
2017-05-30 09:21:04.000,2017-05-30 09:21:04.000,2017-05-30 09:22:08.000,0.998
2017-05-30 09:22:08.000,2017-05-30 09:22:08.000,2017-05-30 09:23:12.000,1.0
2017-05-30 09:23:12.000,2017-05-30 09:23:12.000,2017-05-30 09:24:16.000,1.0
2017-05-30 09:24:16.000,2017-05-30 09:24:16.000,2017-05-30 09:25:20.000,0.939
2017-05-30 09:25:20.000,2017-05-30 09:25:20.000,2017-05-30 09:26:24.000,0.985
2017-05-30 09:26:24.000,2017-05-30 09:26:24.000,2017-05-30 09:27:28.000,0.984
2017-05-30 09:27:28.000,2017-05-30 09:27:28.000,2017-05-30 09:28:32.000,0.892
2017-05-30 09:28:32.000,2017-05-30 09:28:32.000,2017-05-30 09:29:36.000,0.953
2017-05-30 09:29:36.000,2017-05-30 09:29:36.000,2017-05-30 09:30:40.000,0.817
2017-05-30 09:30:40.000,2017-05-30 09:30:40.000,2017-05-30 09:31:44.000,0.999
2017-05-30 09:31:44.000,2017-05-30 09:31:44.000,2017-05-30 09:32:48.000,0.569
2017-05-30 09:32:48.000,2017-05-30 09:32:48.000,2017-05-30 09:33:52.000,0.933
2017-05-30 09:33:52.000,2017-05-30 09:33:52.000,2017-05-30 09:34:56.000,0.915
2017-05-30 09:34:56.000,2017-05-30 09:34:56.000,2017-05-30 09:36:00.000,0.903
2017-05-30 09:36:00.000,2017-05-30 09:36:00.000,2017-05-30 09:37:04.000,0.946
2017-05-30 09:37:04.000,2017-05-30 09:37:04.000,2017-05-30 09:38:08.000,1.0
2017-05-30 09:38:08.000,2017-05-30 09:38:08.000,2017-05-30 09:39:12.000,0.924
2017-05-30 09:39:12.000,2017-05-30 09:39:12.000,2017-05-30 09:40:16.000,0.999
2017-05-30 09:40:16.000,2017-05-30 09:40:16.000,2017-05-30 09:41:20.000,1.0
2017-05-30 09:41:20.000,2017-05-30 09:41:20.000,2017-05-30 09:42:24.000,0.998
2017-05-30 09:42:24.000,2017-05-30 09:42:24.000,2017-05-30 09:43:28.000,0.999
2017-05-30 09:43:28.000,2017-05-30 09:43:28.000,2017-05-30 09:44:32.000,0.916
2017-05-30 09:44:32.000,2017-05-30 09:44:32.000,2017-05-30 09:45:36.000,0.933
2017-05-30 09:45:36.000,2017-05-30 09:45:36.000,2017-05-30 09:46:40.000,0.976
2017-05-30 09:46:40.000,2017-05-30 09:46:40.000,2017-05-30 09:47:44.000,0.999
2017-05-30 09:47:44.000,2017-05-30 09:47:44.000,2017-05-30 09:48:48.000,0.999
2017-05-30 09:48:48.000,2017-05-30 09:48:48.000,2017-05-30 09:49:52.000,0.804
2017-05-30 09:49:52.000,2017-05-30 09:49:52.000,2017-05-30 09:50:56.000,0.569
2017-05-30 09:50:56.000,2017-05-30 09:50:56.000,2017-05-30 09:52:00.000,0.748
2017-05-30 09:52:00.000,2017-05-30 09:52:00.000,2017-05-30 09:53:04.000,0.797
2017-05-30 09:53:04.000,2017-05-30 09:53:04.000,2017-05-30 09:54:08.000,0.978
2017-05-30 09:54:08.000,2017-05-30 09:54:08.000,2017-05-30 09:55:12.000,0.949
2017-05-30 09:55:12.000,2017-05-30 09:55:12.000,2017-05-30 09:56:16.000,0.994
2017-05-30 09:56:16.000,2017-05-30 09:56:16.000,2017-05-30 09:57:20.000,0.994
2017-05-30 09:57:20.000,2017-05-30 09:57:20.000,2017-05-30 09:58:24.000,0.903
2017-05-30 09:58:24.000,2017-05-30 09:58:24.000,2017-05-30 09:59:28.000,0.655
2017-05-30 09:59:28.000,2017-05-30 09:59:28.000,2017-05-30 09:59:59.999,0.968
