HEADER_TIME_STAMP,START_TIME,STOP_TIME,LABEL_PREDICTED
2017-05-29 23:00:16.000,2017-05-29 23:00:16.000,2017-05-29 23:01:20.000,wear
2017-05-29 23:01:20.000,2017-05-29 23:01:20.000,2017-05-29 23:02:24.000,wear
2017-05-29 23:02:24.000,2017-05-29 23:02:24.000,2017-05-29 23:03:28.000,wear
2017-05-29 23:03:28.000,2017-05-29 23:03:28.000,2017-05-29 23:04:32.000,wear
2017-05-29 23:04:32.000,2017-05-29 23:04:32.000,2017-05-29 23:05:36.000,wear
2017-05-29 23:05:36.000,2017-05-29 23:05:36.000,2017-05-29 23:06:40.000,wear
2017-05-29 23:06:40.000,2017-05-29 23:06:40.000,2017-05-29 23:07:44.000,wear
2017-05-29 23:07:44.000,2017-05-29 23:07:44.000,2017-05-29 23:08:48.000,wear
2017-05-29 23:08:48.000,2017-05-29 23:08:48.000,2017-05-29 23:09:52.000,wear
2017-05-29 23:09:52.000,2017-05-29 23:09:52.000,2017-05-29 23:10:56.000,wear
2017-05-29 23:10:56.000,2017-05-29 23:10:56.000,2017-05-29 23:12:00.000,wear
2017-05-29 23:12:00.000,2017-05-29 23:12:00.000,2017-05-29 23:13:04.000,wear
2017-05-29 23:13:04.000,2017-05-29 23:13:04.000,2017-05-29 23:14:08.000,wear
2017-05-29 23:14:08.000,2017-05-29 23:14:08.000,2017-05-29 23:15:12.000,wear
2017-05-29 23:15:12.000,2017-05-29 23:15:12.000,2017-05-29 23:16:16.000,wear
2017-05-29 23:16:16.000,2017-05-29 23:16:16.000,2017-05-29 23:17:20.000,wear
2017-05-29 23:17:20.000,2017-05-29 23:17:20.000,2017-05-29 23:18:24.000,wear
2017-05-29 23:18:24.000,2017-05-29 23:18:24.000,2017-05-29 23:19:28.000,wear
2017-05-29 23:19:28.000,2017-05-29 23:19:28.000,2017-05-29 23:20:32.000,wear
2017-05-29 23:20:32.000,2017-05-29 23:20:32.000,2017-05-29 23:21:36.000,wear
2017-05-29 23:21:36.000,2017-05-29 23:21:36.000,2017-05-29 23:22:40.000,wear
2017-05-29 23:22:40.000,2017-05-29 23:22:40.000,2017-05-29 23:23:44.000,wear
2017-05-29 23:23:44.000,2017-05-29 23:23:44.000,2017-05-29 23:24:48.000,wear
2017-05-29 23:24:48.000,2017-05-29 23:24:48.000,2017-05-29 23:25:52.000,wear
2017-05-29 23:25:52.000,2017-05-29 23:25:52.000,2017-05-29 23:26:56.000,wear
2017-05-29 23:26:56.000,2017-05-29 23:26:56.000,2017-05-29 23:28:00.000,wear
2017-05-29 23:28:00.000,2017-05-29 23:28:00.000,2017-05-29 23:29:04.000,wear
2017-05-29 23:29:04.000,2017-05-29 23:29:04.000,2017-05-29 23:30:08.000,wear
2017-05-29 23:30:08.000,2017-05-29 23:30:08.000,2017-05-29 23:31:12.000,wear
2017-05-29 23:31:12.000,2017-05-29 23:31:12.000,2017-05-29 23:32:16.000,wear
2017-05-29 23:32:16.000,2017-05-29 23:32:16.000,2017-05-29 23:33:20.000,wear
2017-05-29 23:33:20.000,2017-05-29 23:33:20.000,2017-05-29 23:34:24.000,wear
2017-05-29 23:34:24.000,2017-05-29 23:34:24.000,2017-05-29 23:35:28.000,wear
2017-05-29 23:35:28.000,2017-05-29 23:35:28.000,2017-05-29 23:36:32.000,wear
2017-05-29 23:36:32.000,2017-05-29 23:36:32.000,2017-05-29 23:37:36.000,wear
2017-05-29 23:37:36.000,2017-05-29 23:37:36.000,2017-05-29 23:38:40.000,wear
2017-05-29 23:38:40.000,2017-05-29 23:38:40.000,2017-05-29 23:39:44.000,wear
2017-05-29 23:39:44.000,2017-05-29 23:39:44.000,2017-05-29 23:40:48.000,wear
2017-05-29 23:40:48.000,2017-05-29 23:40:48.000,2017-05-29 23:41:52.000,nonwear
2017-05-29 23:41:52.000,2017-05-29 23:41:52.000,2017-05-29 23:42:56.000,nonwear
2017-05-29 23:42:56.000,2017-05-29 23:42:56.000,2017-05-29 23:44:00.000,nonwear
2017-05-29 23:44:00.000,2017-05-29 23:44:00.000,2017-05-29 23:45:04.000,wear
2017-05-29 23:45:04.000,2017-05-29 23:45:04.000,2017-05-29 23:46:08.000,wear
2017-05-29 23:46:08.000,2017-05-29 23:46:08.000,2017-05-29 23:47:12.000,nonwear
2017-05-29 23:47:12.000,2017-05-29 23:47:12.000,2017-05-29 23:48:16.000,nonwear
2017-05-29 23:48:16.000,2017-05-29 23:48:16.000,2017-05-29 23:49:20.000,nonwear
2017-05-29 23:49:20.000,2017-05-29 23:49:20.000,2017-05-29 23:50:24.000,wear
2017-05-29 23:50:24.000,2017-05-29 23:50:24.000,2017-05-29 23:51:28.000,nonwear
2017-05-29 23:51:28.000,2017-05-29 23:51:28.000,2017-05-29 23:52:32.000,nonwear
2017-05-29 23:52:32.000,2017-05-29 23:52:32.000,2017-05-29 23:53:36.000,nonwear
2017-05-29 23:53:36.000,2017-05-29 23:53:36.000,2017-05-29 23:54:40.000,nonwear
2017-05-29 23:54:40.000,2017-05-29 23:54:40.000,2017-05-29 23:55:44.000,nonwear
2017-05-29 23:55:44.000,2017-05-29 23:55:44.000,2017-05-29 23:56:48.000,nonwear
2017-05-29 23:56:48.000,2017-05-29 23:56:48.000,2017-05-29 23:57:52.000,nonwear
2017-05-29 23:57:52.000,2017-05-29 23:57:52.000,2017-05-29 23:58:56.000,nonwear
2017-05-29 23:58:56.000,2017-05-29 23:58:56.000,2017-05-29 23:59:59.999,nonwear
