HEADER_TIME_STAMP,START_TIME,STOP_TIME,LABEL_PROBABILITY
2017-05-27 12:00:00.000,2017-05-27 12:00:00.000,2017-05-27 12:01:04.000,0.879
2017-05-27 12:01:04.000,2017-05-27 12:01:04.000,2017-05-27 12:02:08.000,0.813
2017-05-27 12:02:08.000,2017-05-27 12:02:08.000,2017-05-27 12:03:12.000,0.735
2017-05-27 12:03:12.000,2017-05-27 12:03:12.000,2017-05-27 12:04:16.000,0.735
2017-05-27 12:04:16.000,2017-05-27 12:04:16.000,2017-05-27 12:05:20.000,0.896
2017-05-27 12:05:20.000,2017-05-27 12:05:20.000,2017-05-27 12:06:24.000,0.769
2017-05-27 12:06:24.000,2017-05-27 12:06:24.000,2017-05-27 12:07:28.000,0.977
2017-05-27 12:07:28.000,2017-05-27 12:07:28.000,2017-05-27 12:08:32.000,0.909
2017-05-27 12:08:32.000,2017-05-27 12:08:32.000,2017-05-27 12:09:36.000,0.87
2017-05-27 12:09:36.000,2017-05-27 12:09:36.000,2017-05-27 12:10:40.000,0.781
2017-05-27 12:10:40.000,2017-05-27 12:10:40.000,2017-05-27 12:11:44.000,0.826
2017-05-27 12:11:44.000,2017-05-27 12:11:44.000,2017-05-27 12:12:48.000,0.751
2017-05-27 12:12:48.000,2017-05-27 12:12:48.000,2017-05-27 12:13:52.000,0.751
2017-05-27 12:13:52.000,2017-05-27 12:13:52.000,2017-05-27 12:14:56.000,0.869
2017-05-27 12:14:56.000,2017-05-27 12:14:56.000,2017-05-27 12:16:00.000,0.732
2017-05-27 12:16:00.000,2017-05-27 12:16:00.000,2017-05-27 12:17:04.000,0.841
2017-05-27 12:17:04.000,2017-05-27 12:17:04.000,2017-05-27 12:18:08.000,0.714
2017-05-27 12:18:08.000,2017-05-27 12:18:08.000,2017-05-27 12:19:12.000,0.868
2017-05-27 12:19:12.000,2017-05-27 12:19:12.000,2017-05-27 12:20:16.000,0.842
2017-05-27 12:20:16.000,2017-05-27 12:20:16.000,2017-05-27 12:21:20.000,0.775
2017-05-27 12:21:20.000,2017-05-27 12:21:20.000,2017-05-27 12:22:24.000,0.822
2017-05-27 12:22:24.000,2017-05-27 12:22:24.000,2017-05-27 12:23:28.000,0.868
2017-05-27 12:23:28.000,2017-05-27 12:23:28.000,2017-05-27 12:24:32.000,0.826
2017-05-27 12:24:32.000,2017-05-27 12:24:32.000,2017-05-27 12:25:36.000,0.841
2017-05-27 12:25:36.000,2017-05-27 12:25:36.000,2017-05-27 12:26:40.000,0.928
2017-05-27 12:26:40.000,2017-05-27 12:26:40.000,2017-05-27 12:27:44.000,0.996
2017-05-27 12:27:44.000,2017-05-27 12:27:44.000,2017-05-27 12:28:48.000,0.992
2017-05-27 12:28:48.000,2017-05-27 12:28:48.000,2017-05-27 12:29:52.000,0.981
2017-05-27 12:29:52.000,2017-05-27 12:29:52.000,2017-05-27 12:30:56.000,0.978
2017-05-27 12:30:56.000,2017-05-27 12:30:56.000,2017-05-27 12:32:00.000,0.96
2017-05-27 12:32:00.000,2017-05-27 12:32:00.000,2017-05-27 12:33:04.000,0.987
2017-05-27 12:33:04.000,2017-05-27 12:33:04.000,2017-05-27 12:34:08.000,0.986
2017-05-27 12:34:08.000,2017-05-27 12:34:08.000,2017-05-27 12:35:12.000,0.993
2017-05-27 12:35:12.000,2017-05-27 12:35:12.000,2017-05-27 12:36:16.000,0.92
2017-05-27 12:36:16.000,2017-05-27 12:36:16.000,2017-05-27 12:37:20.000,0.92
2017-05-27 12:37:20.000,2017-05-27 12:37:20.000,2017-05-27 12:38:24.000,0.997
2017-05-27 12:38:24.000,2017-05-27 12:38:24.000,2017-05-27 12:39:28.000,0.92
2017-05-27 12:39:28.000,2017-05-27 12:39:28.000,2017-05-27 12:40:32.000,0.998
2017-05-27 12:40:32.000,2017-05-27 12:40:32.000,2017-05-27 12:41:36.000,0.995
2017-05-27 12:41:36.000,2017-05-27 12:41:36.000,2017-05-27 12:42:40.000,0.978
2017-05-27 12:42:40.000,2017-05-27 12:42:40.000,2017-05-27 12:43:44.000,0.995
2017-05-27 12:43:44.000,2017-05-27 12:43:44.000,2017-05-27 12:44:48.000,0.998
2017-05-27 12:44:48.000,2017-05-27 12:44:48.000,2017-05-27 12:45:52.000,0.999
2017-05-27 12:45:52.000,2017-05-27 12:45:52.000,2017-05-27 12:46:56.000,0.997
2017-05-27 12:46:56.000,2017-05-27 12:46:56.000,2017-05-27 12:48:00.000,1.0
2017-05-27 12:48:00.000,2017-05-27 12:48:00.000,2017-05-27 12:49:04.000,0.997
2017-05-27 12:49:04.000,2017-05-27 12:49:04.000,2017-05-27 12:50:08.000,0.995
2017-05-27 12:50:08.000,2017-05-27 12:50:08.000,2017-05-27 12:51:12.000,0.998
2017-05-27 12:51:12.000,2017-05-27 12:51:12.000,2017-05-27 12:52:16.000,0.989
2017-05-27 12:52:16.000,2017-05-27 12:52:16.000,2017-05-27 12:53:20.000,0.997
2017-05-27 12:53:20.000,2017-05-27 12:53:20.000,2017-05-27 12:54:24.000,0.998
2017-05-27 12:54:24.000,2017-05-27 12:54:24.000,2017-05-27 12:55:28.000,1.0
2017-05-27 12:55:28.000,2017-05-27 12:55:28.000,2017-05-27 12:56:32.000,0.997
2017-05-27 12:56:32.000,2017-05-27 12:56:32.000,2017-05-27 12:57:36.000,0.997
2017-05-27 12:57:36.000,2017-05-27 12:57:36.000,2017-05-27 12:58:40.000,0.998
2017-05-27 12:58:40.000,2017-05-27 12:58:40.000,2017-05-27 12:59:44.000,0.998
2017-05-27 12:59:44.000,2017-05-27 12:59:44.000,2017-05-27 12:59:59.999,0.9975
