HEADER_TIME_STAMP,START_TIME,STOP_TIME,LABEL_PROBABILITY
2017-05-28 22:00:32.000,2017-05-28 22:00:32.000,2017-05-28 22:01:36.000,0.983
2017-05-28 22:01:36.000,2017-05-28 22:01:36.000,2017-05-28 22:02:40.000,0.983
2017-05-28 22:02:40.000,2017-05-28 22:02:40.000,2017-05-28 22:03:44.000,0.983
2017-05-28 22:03:44.000,2017-05-28 22:03:44.000,2017-05-28 22:04:48.000,0.882
2017-05-28 22:04:48.000,2017-05-28 22:04:48.000,2017-05-28 22:05:52.000,0.917
2017-05-28 22:05:52.000,2017-05-28 22:05:52.000,2017-05-28 22:06:56.000,0.7
2017-05-28 22:06:56.000,2017-05-28 22:06:56.000,2017-05-28 22:08:00.000,0.739
2017-05-28 22:08:00.000,2017-05-28 22:08:00.000,2017-05-28 22:09:04.000,0.99
2017-05-28 22:09:04.000,2017-05-28 22:09:04.000,2017-05-28 22:10:08.000,0.793
2017-05-28 22:10:08.000,2017-05-28 22:10:08.000,2017-05-28 22:11:12.000,0.905
2017-05-28 22:11:12.000,2017-05-28 22:11:12.000,2017-05-28 22:12:16.000,0.859
2017-05-28 22:12:16.000,2017-05-28 22:12:16.000,2017-05-28 22:13:20.000,0.968
2017-05-28 22:13:20.000,2017-05-28 22:13:20.000,2017-05-28 22:14:24.000,0.968
2017-05-28 22:14:24.000,2017-05-28 22:14:24.000,2017-05-28 22:15:28.000,0.766
2017-05-28 22:15:28.000,2017-05-28 22:15:28.000,2017-05-28 22:16:32.000,0.617
2017-05-28 22:16:32.000,2017-05-28 22:16:32.000,2017-05-28 22:17:36.000,0.765
2017-05-28 22:17:36.000,2017-05-28 22:17:36.000,2017-05-28 22:18:40.000,0.823
2017-05-28 22:18:40.000,2017-05-28 22:18:40.000,2017-05-28 22:19:44.000,0.868
2017-05-28 22:19:44.000,2017-05-28 22:19:44.000,2017-05-28 22:20:48.000,0.779
2017-05-28 22:20:48.000,2017-05-28 22:20:48.000,2017-05-28 22:21:52.000,0.785
2017-05-28 22:21:52.000,2017-05-28 22:21:52.000,2017-05-28 22:22:56.000,0.614
2017-05-28 22:22:56.000,2017-05-28 22:22:56.000,2017-05-28 22:24:00.000,0.614
2017-05-28 22:24:00.000,2017-05-28 22:24:00.000,2017-05-28 22:25:04.000,0.866
2017-05-28 22:25:04.000,2017-05-28 22:25:04.000,2017-05-28 22:26:08.000,0.78
2017-05-28 22:26:08.000,2017-05-28 22:26:08.000,2017-05-28 22:27:12.000,0.78
2017-05-28 22:27:12.000,2017-05-28 22:27:12.000,2017-05-28 22:28:16.000,0.78
2017-05-28 22:28:16.000,2017-05-28 22:28:16.000,2017-05-28 22:29:20.000,0.651
2017-05-28 22:29:20.000,2017-05-28 22:29:20.000,2017-05-28 22:30:24.000,0.71
2017-05-28 22:30:24.000,2017-05-28 22:30:24.000,2017-05-28 22:31:28.000,0.605
2017-05-28 22:31:28.000,2017-05-28 22:31:28.000,2017-05-28 22:32:32.000,0.568
2017-05-28 22:32:32.000,2017-05-28 22:32:32.000,2017-05-28 22:33:36.000,0.749
2017-05-28 22:33:36.000,2017-05-28 22:33:36.000,2017-05-28 22:34:40.000,0.736
2017-05-28 22:34:40.000,2017-05-28 22:34:40.000,2017-05-28 22:35:44.000,0.994
2017-05-28 22:35:44.000,2017-05-28 22:35:44.000,2017-05-28 22:36:48.000,0.903
2017-05-28 22:36:48.000,2017-05-28 22:36:48.000,2017-05-28 22:37:52.000,0.898
2017-05-28 22:37:52.000,2017-05-28 22:37:52.000,2017-05-28 22:38:56.000,0.978
2017-05-28 22:38:56.000,2017-05-28 22:38:56.000,2017-05-28 22:40:00.000,0.727
2017-05-28 22:40:00.000,2017-05-28 22:40:00.000,2017-05-28 22:41:04.000,0.914
2017-05-28 22:41:04.000,2017-05-28 22:41:04.000,2017-05-28 22:42:08.000,1.0
2017-05-28 22:42:08.000,2017-05-28 22:42:08.000,2017-05-28 22:43:12.000,0.997
2017-05-28 22:43:12.000,2017-05-28 22:43:12.000,2017-05-28 22:44:16.000,0.757
2017-05-28 22:44:16.000,2017-05-28 22:44:16.000,2017-05-28 22:45:20.000,0.711
2017-05-28 22:45:20.000,2017-05-28 22:45:20.000,2017-05-28 22:46:24.000,0.832
2017-05-28 22:46:24.000,2017-05-28 22:46:24.000,2017-05-28 22:47:28.000,0.582
2017-05-28 22:47:28.000,2017-05-28 22:47:28.000,2017-05-28 22:48:32.000,0.907
2017-05-28 22:48:32.000,2017-05-28 22:48:32.000,2017-05-28 22:49:36.000,0.907
2017-05-28 22:49:36.000,2017-05-28 22:49:36.000,2017-05-28 22:50:40.000,0.94
2017-05-28 22:50:40.000,2017-05-28 22:50:40.000,2017-05-28 22:51:44.000,0.519
2017-05-28 22:51:44.000,2017-05-28 22:51:44.000,2017-05-28 22:52:48.000,0.605
2017-05-28 22:52:48.000,2017-05-28 22:52:48.000,2017-05-28 22:53:52.000,0.633
2017-05-28 22:53:52.000,2017-05-28 22:53:52.000,2017-05-28 22:54:56.000,0.993
2017-05-28 22:54:56.000,2017-05-28 22:54:56.000,2017-05-28 22:56:00.000,1.0
2017-05-28 22:56:00.000,2017-05-28 22:56:00.000,2017-05-28 22:57:04.000,1.0
2017-05-28 22:57:04.000,2017-05-28 22:57:04.000,2017-05-28 22:58:08.000,1.0
2017-05-28 22:58:08.000,2017-05-28 22:58:08.000,2017-05-28 22:59:12.000,1.0
2017-05-28 22:59:12.000,2017-05-28 22:59:12.000,2017-05-28 22:59:59.999,1.0
