HEADER_TIME_STAMP,START_TIME,STOP_TIME,LABEL_PREDICTED
2017-05-29 01:00:48.000,2017-05-29 01:00:48.000,2017-05-29 01:01:52.000,wear
2017-05-29 01:01:52.000,2017-05-29 01:01:52.000,2017-05-29 01:02:56.000,wear
2017-05-29 01:02:56.000,2017-05-29 01:02:56.000,2017-05-29 01:04:00.000,wear
2017-05-29 01:04:00.000,2017-05-29 01:04:00.000,2017-05-29 01:05:04.000,wear
2017-05-29 01:05:04.000,2017-05-29 01:05:04.000,2017-05-29 01:06:08.000,wear
2017-05-29 01:06:08.000,2017-05-29 01:06:08.000,2017-05-29 01:07:12.000,wear
2017-05-29 01:07:12.000,2017-05-29 01:07:12.000,2017-05-29 01:08:16.000,wear
2017-05-29 01:08:16.000,2017-05-29 01:08:16.000,2017-05-29 01:09:20.000,wear
2017-05-29 01:09:20.000,2017-05-29 01:09:20.000,2017-05-29 01:10:24.000,nonwear
2017-05-29 01:10:24.000,2017-05-29 01:10:24.000,2017-05-29 01:11:28.000,wear
2017-05-29 01:11:28.000,2017-05-29 01:11:28.000,2017-05-29 01:12:32.000,wear
2017-05-29 01:12:32.000,2017-05-29 01:12:32.000,2017-05-29 01:13:36.000,wear
2017-05-29 01:13:36.000,2017-05-29 01:13:36.000,2017-05-29 01:14:40.000,wear
2017-05-29 01:14:40.000,2017-05-29 01:14:40.000,2017-05-29 01:15:44.000,wear
2017-05-29 01:15:44.000,2017-05-29 01:15:44.000,2017-05-29 01:16:48.000,nonwear
2017-05-29 01:16:48.000,2017-05-29 01:16:48.000,2017-05-29 01:17:52.000,wear
2017-05-29 01:17:52.000,2017-05-29 01:17:52.000,2017-05-29 01:18:56.000,wear
2017-05-29 01:18:56.000,2017-05-29 01:18:56.000,2017-05-29 01:20:00.000,wear
2017-05-29 01:20:00.000,2017-05-29 01:20:00.000,2017-05-29 01:21:04.000,wear
2017-05-29 01:21:04.000,2017-05-29 01:21:04.000,2017-05-29 01:22:08.000,wear
2017-05-29 01:22:08.000,2017-05-29 01:22:08.000,2017-05-29 01:23:12.000,wear
2017-05-29 01:23:12.000,2017-05-29 01:23:12.000,2017-05-29 01:24:16.000,nonwear
2017-05-29 01:24:16.000,2017-05-29 01:24:16.000,2017-05-29 01:25:20.000,nonwear
2017-05-29 01:25:20.000,2017-05-29 01:25:20.000,2017-05-29 01:26:24.000,nonwear
2017-05-29 01:26:24.000,2017-05-29 01:26:24.000,2017-05-29 01:27:28.000,nonwear
2017-05-29 01:27:28.000,2017-05-29 01:27:28.000,2017-05-29 01:28:32.000,nonwear
2017-05-29 01:28:32.000,2017-05-29 01:28:32.000,2017-05-29 01:29:36.000,nonwear
2017-05-29 01:29:36.000,2017-05-29 01:29:36.000,2017-05-29 01:30:40.000,nonwear
2017-05-29 01:30:40.000,2017-05-29 01:30:40.000,2017-05-29 01:31:44.000,nonwear
2017-05-29 01:31:44.000,2017-05-29 01:31:44.000,2017-05-29 01:32:48.000,nonwear
2017-05-29 01:32:48.000,2017-05-29 01:32:48.000,2017-05-29 01:33:52.000,nonwear
2017-05-29 01:33:52.000,2017-05-29 01:33:52.000,2017-05-29 01:34:56.000,nonwear
2017-05-29 01:34:56.000,2017-05-29 01:34:56.000,2017-05-29 01:36:00.000,nonwear
2017-05-29 01:36:00.000,2017-05-29 01:36:00.000,2017-05-29 01:37:04.000,wear
2017-05-29 01:37:04.000,2017-05-29 01:37:04.000,2017-05-29 01:38:08.000,nonwear
2017-05-29 01:38:08.000,2017-05-29 01:38:08.000,2017-05-29 01:39:12.000,nonwear
2017-05-29 01:39:12.000,2017-05-29 01:39:12.000,2017-05-29 01:40:16.000,nonwear
2017-05-29 01:40:16.000,2017-05-29 01:40:16.000,2017-05-29 01:41:20.000,nonwear
2017-05-29 01:41:20.000,2017-05-29 01:41:20.000,2017-05-29 01:42:24.000,nonwear
2017-05-29 01:42:24.000,2017-05-29 01:42:24.000,2017-05-29 01:43:28.000,nonwear
2017-05-29 01:43:28.000,2017-05-29 01:43:28.000,2017-05-29 01:44:32.000,wear
2017-05-29 01:44:32.000,2017-05-29 01:44:32.000,2017-05-29 01:45:36.000,nonwear
2017-05-29 01:45:36.000,2017-05-29 01:45:36.000,2017-05-29 01:46:40.000,nonwear
2017-05-29 01:46:40.000,2017-05-29 01:46:40.000,2017-05-29 01:47:44.000,nonwear
2017-05-29 01:47:44.000,2017-05-29 01:47:44.000,2017-05-29 01:48:48.000,nonwear
2017-05-29 01:48:48.000,2017-05-29 01:48:48.000,2017-05-29 01:49:52.000,nonwear
2017-05-29 01:49:52.000,2017-05-29 01:49:52.000,2017-05-29 01:50:56.000,nonwear
2017-05-29 01:50:56.000,2017-05-29 01:50:56.000,2017-05-29 01:52:00.000,nonwear
2017-05-29 01:52:00.000,2017-05-29 01:52:00.000,2017-05-29 01:53:04.000,nonwear
2017-05-29 01:53:04.000,2017-05-29 01:53:04.000,2017-05-29 01:54:08.000,nonwear
2017-05-29 01:54:08.000,2017-05-29 01:54:08.000,2017-05-29 01:55:12.000,nonwear
2017-05-29 01:55:12.000,2017-05-29 01:55:12.000,2017-05-29 01:56:16.000,nonwear
2017-05-29 01:56:16.000,2017-05-29 01:56:16.000,2017-05-29 01:57:20.000,nonwear
2017-05-29 01:57:20.000,2017-05-29 01:57:20.000,2017-05-29 01:58:24.000,wear
2017-05-29 01:58:24.000,2017-05-29 01:58:24.000,2017-05-29 01:59:28.000,wear
2017-05-29 01:59:28.000,2017-05-29 01:59:28.000,2017-05-29 01:59:59.999,wear
