HEADER_TIME_STAMP,START_TIME,STOP_TIME,LABEL_PREDICTED
2017-05-29 10:00:32.000,2017-05-29 10:00:32.000,2017-05-29 10:01:36.000,wear
2017-05-29 10:01:36.000,2017-05-29 10:01:36.000,2017-05-29 10:02:40.000,wear
2017-05-29 10:02:40.000,2017-05-29 10:02:40.000,2017-05-29 10:03:44.000,wear
2017-05-29 10:03:44.000,2017-05-29 10:03:44.000,2017-05-29 10:04:48.000,wear
2017-05-29 10:04:48.000,2017-05-29 10:04:48.000,2017-05-29 10:05:52.000,wear
2017-05-29 10:05:52.000,2017-05-29 10:05:52.000,2017-05-29 10:06:56.000,wear
2017-05-29 10:06:56.000,2017-05-29 10:06:56.000,2017-05-29 10:08:00.000,wear
2017-05-29 10:08:00.000,2017-05-29 10:08:00.000,2017-05-29 10:09:04.000,wear
2017-05-29 10:09:04.000,2017-05-29 10:09:04.000,2017-05-29 10:10:08.000,wear
2017-05-29 10:10:08.000,2017-05-29 10:10:08.000,2017-05-29 10:11:12.000,wear
2017-05-29 10:11:12.000,2017-05-29 10:11:12.000,2017-05-29 10:12:16.000,wear
2017-05-29 10:12:16.000,2017-05-29 10:12:16.000,2017-05-29 10:13:20.000,wear
2017-05-29 10:13:20.000,2017-05-29 10:13:20.000,2017-05-29 10:14:24.000,wear
2017-05-29 10:14:24.000,2017-05-29 10:14:24.000,2017-05-29 10:15:28.000,wear
2017-05-29 10:15:28.000,2017-05-29 10:15:28.000,2017-05-29 10:16:32.000,wear
2017-05-29 10:16:32.000,2017-05-29 10:16:32.000,2017-05-29 10:17:36.000,wear
2017-05-29 10:17:36.000,2017-05-29 10:17:36.000,2017-05-29 10:18:40.000,wear
2017-05-29 10:18:40.000,2017-05-29 10:18:40.000,2017-05-29 10:19:44.000,wear
2017-05-29 10:19:44.000,2017-05-29 10:19:44.000,2017-05-29 10:20:48.000,sleep
2017-05-29 10:20:48.000,2017-05-29 10:20:48.000,2017-05-29 10:21:52.000,sleep
2017-05-29 10:21:52.000,2017-05-29 10:21:52.000,2017-05-29 10:22:56.000,sleep
2017-05-29 10:22:56.000,2017-05-29 10:22:56.000,2017-05-29 10:24:00.000,sleep
2017-05-29 10:24:00.000,2017-05-29 10:24:00.000,2017-05-29 10:25:04.000,sleep
2017-05-29 10:25:04.000,2017-05-29 10:25:04.000,2017-05-29 10:26:08.000,sleep
2017-05-29 10:26:08.000,2017-05-29 10:26:08.000,2017-05-29 10:27:12.000,sleep
2017-05-29 10:27:12.000,2017-05-29 10:27:12.000,2017-05-29 10:28:16.000,sleep
2017-05-29 10:28:16.000,2017-05-29 10:28:16.000,2017-05-29 10:29:20.000,wear
2017-05-29 10:29:20.000,2017-05-29 10:29:20.000,2017-05-29 10:30:24.000,wear
2017-05-29 10:30:24.000,2017-05-29 10:30:24.000,2017-05-29 10:31:28.000,wear
2017-05-29 10:31:28.000,2017-05-29 10:31:28.000,2017-05-29 10:32:32.000,wear
2017-05-29 10:32:32.000,2017-05-29 10:32:32.000,2017-05-29 10:33:36.000,wear
2017-05-29 10:33:36.000,2017-05-29 10:33:36.000,2017-05-29 10:34:40.000,wear
2017-05-29 10:34:40.000,2017-05-29 10:34:40.000,2017-05-29 10:35:44.000,wear
2017-05-29 10:35:44.000,2017-05-29 10:35:44.000,2017-05-29 10:36:48.000,wear
2017-05-29 10:36:48.000,2017-05-29 10:36:48.000,2017-05-29 10:37:52.000,wear
2017-05-29 10:37:52.000,2017-05-29 10:37:52.000,2017-05-29 10:38:56.000,wear
2017-05-29 10:38:56.000,2017-05-29 10:38:56.000,2017-05-29 10:40:00.000,wear
2017-05-29 10:40:00.000,2017-05-29 10:40:00.000,2017-05-29 10:41:04.000,wear
2017-05-29 10:41:04.000,2017-05-29 10:41:04.000,2017-05-29 10:42:08.000,wear
2017-05-29 10:42:08.000,2017-05-29 10:42:08.000,2017-05-29 10:43:12.000,wear
2017-05-29 10:43:12.000,2017-05-29 10:43:12.000,2017-05-29 10:44:16.000,wear
2017-05-29 10:44:16.000,2017-05-29 10:44:16.000,2017-05-29 10:45:20.000,wear
2017-05-29 10:45:20.000,2017-05-29 10:45:20.000,2017-05-29 10:46:24.000,wear
2017-05-29 10:46:24.000,2017-05-29 10:46:24.000,2017-05-29 10:47:28.000,wear
2017-05-29 10:47:28.000,2017-05-29 10:47:28.000,2017-05-29 10:48:32.000,wear
2017-05-29 10:48:32.000,2017-05-29 10:48:32.000,2017-05-29 10:49:36.000,wear
2017-05-29 10:49:36.000,2017-05-29 10:49:36.000,2017-05-29 10:50:40.000,wear
2017-05-29 10:50:40.000,2017-05-29 10:50:40.000,2017-05-29 10:51:44.000,wear
2017-05-29 10:51:44.000,2017-05-29 10:51:44.000,2017-05-29 10:52:48.000,wear
2017-05-29 10:52:48.000,2017-05-29 10:52:48.000,2017-05-29 10:53:52.000,wear
2017-05-29 10:53:52.000,2017-05-29 10:53:52.000,2017-05-29 10:54:56.000,wear
2017-05-29 10:54:56.000,2017-05-29 10:54:56.000,2017-05-29 10:56:00.000,wear
2017-05-29 10:56:00.000,2017-05-29 10:56:00.000,2017-05-29 10:57:04.000,wear
2017-05-29 10:57:04.000,2017-05-29 10:57:04.000,2017-05-29 10:58:08.000,wear
2017-05-29 10:58:08.000,2017-05-29 10:58:08.000,2017-05-29 10:59:12.000,wear
2017-05-29 10:59:12.000,2017-05-29 10:59:12.000,2017-05-29 10:59:59.999,wear
