HEADER_TIME_STAMP,START_TIME,STOP_TIME,LABEL_PREDICTED
2017-05-30 08:00:00.000,2017-05-30 08:00:00.000,2017-05-30 08:01:04.000,wear
2017-05-30 08:01:04.000,2017-05-30 08:01:04.000,2017-05-30 08:02:08.000,wear
2017-05-30 08:02:08.000,2017-05-30 08:02:08.000,2017-05-30 08:03:12.000,wear
2017-05-30 08:03:12.000,2017-05-30 08:03:12.000,2017-05-30 08:04:16.000,wear
2017-05-30 08:04:16.000,2017-05-30 08:04:16.000,2017-05-30 08:05:20.000,wear
2017-05-30 08:05:20.000,2017-05-30 08:05:20.000,2017-05-30 08:06:24.000,wear
2017-05-30 08:06:24.000,2017-05-30 08:06:24.000,2017-05-30 08:07:28.000,wear
2017-05-30 08:07:28.000,2017-05-30 08:07:28.000,2017-05-30 08:08:32.000,wear
2017-05-30 08:08:32.000,2017-05-30 08:08:32.000,2017-05-30 08:09:36.000,wear
2017-05-30 08:09:36.000,2017-05-30 08:09:36.000,2017-05-30 08:10:40.000,wear
2017-05-30 08:10:40.000,2017-05-30 08:10:40.000,2017-05-30 08:11:44.000,wear
2017-05-30 08:11:44.000,2017-05-30 08:11:44.000,2017-05-30 08:12:48.000,nonwear
2017-05-30 08:12:48.000,2017-05-30 08:12:48.000,2017-05-30 08:13:52.000,wear
2017-05-30 08:13:52.000,2017-05-30 08:13:52.000,2017-05-30 08:14:56.000,wear
2017-05-30 08:14:56.000,2017-05-30 08:14:56.000,2017-05-30 08:16:00.000,wear
2017-05-30 08:16:00.000,2017-05-30 08:16:00.000,2017-05-30 08:17:04.000,wear
2017-05-30 08:17:04.000,2017-05-30 08:17:04.000,2017-05-30 08:18:08.000,wear
2017-05-30 08:18:08.000,2017-05-30 08:18:08.000,2017-05-30 08:19:12.000,wear
2017-05-30 08:19:12.000,2017-05-30 08:19:12.000,2017-05-30 08:20:16.000,wear
2017-05-30 08:20:16.000,2017-05-30 08:20:16.000,2017-05-30 08:21:20.000,wear
2017-05-30 08:21:20.000,2017-05-30 08:21:20.000,2017-05-30 08:22:24.000,wear
2017-05-30 08:22:24.000,2017-05-30 08:22:24.000,2017-05-30 08:23:28.000,wear
2017-05-30 08:23:28.000,2017-05-30 08:23:28.000,2017-05-30 08:24:32.000,wear
2017-05-30 08:24:32.000,2017-05-30 08:24:32.000,2017-05-30 08:25:36.000,wear
2017-05-30 08:25:36.000,2017-05-30 08:25:36.000,2017-05-30 08:26:40.000,wear
2017-05-30 08:26:40.000,2017-05-30 08:26:40.000,2017-05-30 08:27:44.000,wear
2017-05-30 08:27:44.000,2017-05-30 08:27:44.000,2017-05-30 08:28:48.000,wear
2017-05-30 08:28:48.000,2017-05-30 08:28:48.000,2017-05-30 08:29:52.000,wear
2017-05-30 08:29:52.000,2017-05-30 08:29:52.000,2017-05-30 08:30:56.000,wear
2017-05-30 08:30:56.000,2017-05-30 08:30:56.000,2017-05-30 08:32:00.000,wear
2017-05-30 08:32:00.000,2017-05-30 08:32:00.000,2017-05-30 08:33:04.000,wear
2017-05-30 08:33:04.000,2017-05-30 08:33:04.000,2017-05-30 08:34:08.000,wear
2017-05-30 08:34:08.000,2017-05-30 08:34:08.000,2017-05-30 08:35:12.000,wear
2017-05-30 08:35:12.000,2017-05-30 08:35:12.000,2017-05-30 08:36:16.000,wear
2017-05-30 08:36:16.000,2017-05-30 08:36:16.000,2017-05-30 08:37:20.000,wear
2017-05-30 08:37:20.000,2017-05-30 08:37:20.000,2017-05-30 08:38:24.000,wear
2017-05-30 08:38:24.000,2017-05-30 08:38:24.000,2017-05-30 08:39:28.000,wear
2017-05-30 08:39:28.000,2017-05-30 08:39:28.000,2017-05-30 08:40:32.000,wear
2017-05-30 08:40:32.000,2017-05-30 08:40:32.000,2017-05-30 08:41:36.000,wear
2017-05-30 08:41:36.000,2017-05-30 08:41:36.000,2017-05-30 08:42:40.000,wear
2017-05-30 08:42:40.000,2017-05-30 08:42:40.000,2017-05-30 08:43:44.000,wear
2017-05-30 08:43:44.000,2017-05-30 08:43:44.000,2017-05-30 08:44:48.000,wear
2017-05-30 08:44:48.000,2017-05-30 08:44:48.000,2017-05-30 08:45:52.000,wear
2017-05-30 08:45:52.000,2017-05-30 08:45:52.000,2017-05-30 08:46:56.000,wear
2017-05-30 08:46:56.000,2017-05-30 08:46:56.000,2017-05-30 08:48:00.000,wear
2017-05-30 08:48:00.000,2017-05-30 08:48:00.000,2017-05-30 08:49:04.000,wear
2017-05-30 08:49:04.000,2017-05-30 08:49:04.000,2017-05-30 08:50:08.000,wear
2017-05-30 08:50:08.000,2017-05-30 08:50:08.000,2017-05-30 08:51:12.000,wear
2017-05-30 08:51:12.000,2017-05-30 08:51:12.000,2017-05-30 08:52:16.000,wear
2017-05-30 08:52:16.000,2017-05-30 08:52:16.000,2017-05-30 08:53:20.000,wear
2017-05-30 08:53:20.000,2017-05-30 08:53:20.000,2017-05-30 08:54:24.000,wear
2017-05-30 08:54:24.000,2017-05-30 08:54:24.000,2017-05-30 08:55:28.000,wear
2017-05-30 08:55:28.000,2017-05-30 08:55:28.000,2017-05-30 08:56:32.000,wear
2017-05-30 08:56:32.000,2017-05-30 08:56:32.000,2017-05-30 08:57:36.000,wear
2017-05-30 08:57:36.000,2017-05-30 08:57:36.000,2017-05-30 08:58:40.000,wear
2017-05-30 08:58:40.000,2017-05-30 08:58:40.000,2017-05-30 08:59:44.000,wear
2017-05-30 08:59:44.000,2017-05-30 08:59:44.000,2017-05-30 08:59:59.999,wear
