0.000,0.000,64.000,0.513
64.000,64.000,128.000,0.743
128.000,128.000,192.000,0.805
192.000,192.000,256.000,0.780
256.000,256.000,320.000,0.713
320.000,320.000,384.000,0.713
384.000,384.000,448.000,0.713
448.000,448.000,512.000,0.713
512.000,512.000,576.000,0.880
576.000,576.000,640.000,0.909
640.000,640.000,704.000,0.559
704.000,704.000,768.000,0.692
768.000,768.000,832.000,0.782
832.000,832.000,896.000,0.755
896.000,896.000,960.000,0.634
960.000,960.000,1024.000,0.755
1024.000,1024.000,1088.000,0.755
1088.000,1088.000,1152.000,0.755
1152.000,1152.000,1216.000,0.681
1216.000,1216.000,1280.000,0.827
1280.000,1280.000,1344.000,0.827
1344.000,1344.000,1408.000,0.827
1408.000,1408.000,1472.000,0.827
1472.000,1472.000,1536.000,0.827
1536.000,1536.000,1600.000,0.827
1600.000,1600.000,1664.000,0.929
1664.000,1664.000,1728.000,0.967
1728.000,1728.000,1792.000,0.785
1792.000,1792.000,1856.000,0.636
1856.000,1856.000,1920.000,0.636
1920.000,1920.000,1984.000,0.636
1984.000,1984.000,2048.000,0.636
2048.000,2048.000,2112.000,0.818
2112.000,2112.000,2176.000,0.555
2176.000,2176.000,2240.000,0.572
2240.000,2240.000,2304.000,0.572
2304.000,2304.000,2368.000,0.633
2368.000,2368.000,2432.000,0.845
2432.000,2432.000,2496.000,0.701
2496.000,2496.000,2560.000,0.701
2560.000,2560.000,2624.000,0.701
2624.000,2624.000,2688.000,0.701
2688.000,2688.000,2752.000,0.677
2752.000,2752.000,2816.000,0.701
2816.000,2816.000,2880.000,0.701
2880.000,2880.000,2944.000,0.559
2944.000,2944.000,3008.000,0.559
3008.000,3008.000,3072.000,0.541
3072.000,3072.000,3136.000,0.701
3136.000,3136.000,3200.000,0.701
3200.000,3200.000,3264.000,0.701
3264.000,3264.000,3328.000,0.701
3328.000,3328.000,3392.000,0.701
3392.000,3392.000,3456.000,0.559
3456.000,3456.000,3520.000,0.559
3520.000,3520.000,3584.000,0.559
3584.000,3584.000,3599.999,0.701
3648.000,3648.000,3712.000,0.701
3712.000,3712.000,3776.000,0.701
3776.000,3776.000,3840.000,0.559
3840.000,3840.000,3904.000,0.559
3904.000,3904.000,3968.000,0.559
3968.000,3968.000,4032.000,0.559
4032.000,4032.000,4096.000,0.559
4096.000,4096.000,4160.000,0.559
4160.000,4160.000,4224.000,0.559
4224.000,4224.000,4288.000,0.559
4288.000,4288.000,4352.000,0.559
4352.000,4352.000,4416.000,0.692
4416.000,4416.000,4480.000,0.559
4480.000,4480.000,4544.000,0.559
4544.000,4544.000,4608.000,0.559
4608.000,4608.000,4672.000,0.692
4672.000,4672.000,4736.000,0.559
4736.000,4736.000,4800.000,0.692
4800.000,4800.000,4864.000,0.665
4864.000,4864.000,4928.000,0.765
4928.000,4928.000,4992.000,0.765
4992.000,4992.000,5056.000,0.572
5056.000,5056.000,5120.000,0.570
5120.000,5120.000,5184.000,0.847
5184.000,5184.000,5248.000,0.851
5248.000,5248.000,5312.000,0.863
5312.000,5312.000,5376.000,0.764
5376.000,5376.000,5440.000,0.764
5440.000,5440.000,5504.000,0.791
5504.000,5504.000,5568.000,0.772
5568.000,5568.000,5632.000,0.772
5632.000,5632.000,5696.000,0.791
5696.000,5696.000,5760.000,0.764
5760.000,5760.000,5824.000,0.829
5824.000,5824.000,5888.000,0.829
5888.000,5888.000,5952.000,0.829
5952.000,5952.000,6016.000,0.772
6016.000,6016.000,6080.000,0.764
6080.000,6080.000,6144.000,0.829
6144.000,6144.000,6208.000,0.829
6208.000,6208.000,6272.000,0.772
6272.000,6272.000,6336.000,0.597
6336.000,6336.000,6400.000,0.645
6400.000,6400.000,6464.000,0.518
6464.000,6464.000,6528.000,0.597
6528.000,6528.000,6592.000,0.656
6592.000,6592.000,6656.000,0.645
6656.000,6656.000,6720.000,0.518
6720.000,6720.000,6784.000,0.518
6784.000,6784.000,6848.000,0.597
6848.000,6848.000,6912.000,0.656
6912.000,6912.000,6976.000,0.597
6976.000,6976.000,7040.000,0.597
7040.000,7040.000,7104.000,0.656
7104.000,7104.000,7168.000,0.518
7168.000,7168.000,7199.999,0.597
7232.000,7232.000,7296.000,0.597
7296.000,7296.000,7360.000,0.597
7360.000,7360.000,7424.000,0.597
7424.000,7424.000,7488.000,0.518
7488.000,7488.000,7552.000,0.597
7552.000,7552.000,7616.000,0.597
7616.000,7616.000,7680.000,0.597
7680.000,7680.000,7744.000,0.597
7744.000,7744.000,7808.000,0.518
7808.000,7808.000,7872.000,0.597
7872.000,7872.000,7936.000,0.656
7936.000,7936.000,8000.000,0.705
8000.000,8000.000,8064.000,0.705
8064.000,8064.000,8128.000,0.705
8128.000,8128.000,8192.000,0.792
8192.000,8192.000,8256.000,0.705
8256.000,8256.000,8320.000,0.792
8320.000,8320.000,8384.000,0.705
8384.000,8384.000,8448.000,0.705
8448.000,8448.000,8512.000,0.705
8512.000,8512.000,8576.000,0.705
8576.000,8576.000,8640.000,0.705
8640.000,8640.000,8704.000,0.792
8704.000,8704.000,8768.000,0.705
8768.000,8768.000,8832.000,0.767
8832.000,8832.000,8896.000,0.838
8896.000,8896.000,8960.000,0.767
8960.000,8960.000,9024.000,0.700
9024.000,9024.000,9088.000,0.700
9088.000,9088.000,9152.000,0.700
9152.000,9152.000,9216.000,0.529
9216.000,9216.000,9280.000,0.921
9280.000,9280.000,9344.000,0.881
9344.000,9344.000,9408.000,0.921
9408.000,9408.000,9472.000,0.921
9472.000,9472.000,9536.000,0.921
9536.000,9536.000,9600.000,0.937
9600.000,9600.000,9664.000,0.797
9664.000,9664.000,9728.000,0.860
9728.000,9728.000,9792.000,0.794
9792.000,9792.000,9856.000,0.794
9856.000,9856.000,9920.000,0.689
9920.000,9920.000,9984.000,0.797
9984.000,9984.000,10048.000,0.794
10048.000,10048.000,10112.000,0.689
10112.000,10112.000,10176.000,0.794
10176.000,10176.000,10240.000,0.860
10240.000,10240.000,10304.000,0.689
10304.000,10304.000,10368.000,0.684
10368.000,10368.000,10432.000,0.689
10432.000,10432.000,10496.000,0.860
10496.000,10496.000,10560.000,0.689
10560.000,10560.000,10624.000,0.860
10624.000,10624.000,10688.000,0.860
10688.000,10688.000,10752.000,0.860
10752.000,10752.000,10799.999,0.827
10816.000,10816.000,10880.000,0.922
10880.000,10880.000,10944.000,0.860
10944.000,10944.000,11008.000,0.794
11008.000,11008.000,11072.000,0.689
11072.000,11072.000,11136.000,0.922
11136.000,11136.000,11200.000,0.581
11200.000,11200.000,11264.000,0.860
11264.000,11264.000,11328.000,0.881
11328.000,11328.000,11392.000,0.881
11392.000,11392.000,11456.000,0.797
11456.000,11456.000,11520.000,0.689
11520.000,11520.000,11584.000,0.689
11584.000,11584.000,11648.000,0.860
11648.000,11648.000,11712.000,0.860
11712.000,11712.000,11776.000,0.794
11776.000,11776.000,11840.000,0.860
11840.000,11840.000,11904.000,0.860
11904.000,11904.000,11968.000,0.860
11968.000,11968.000,12032.000,0.781
12032.000,12032.000,12096.000,0.739
12096.000,12096.000,12160.000,0.615
12160.000,12160.000,12224.000,0.615
12224.000,12224.000,12288.000,0.615
12288.000,12288.000,12352.000,0.739
12352.000,12352.000,12416.000,0.739
12416.000,12416.000,12480.000,0.739
12480.000,12480.000,12544.000,0.739
12544.000,12544.000,12608.000,0.739
12608.000,12608.000,12672.000,0.615
12672.000,12672.000,12736.000,0.611
12736.000,12736.000,12800.000,0.615
12800.000,12800.000,12864.000,0.500
12864.000,12864.000,12928.000,0.500
12928.000,12928.000,12992.000,0.500
12992.000,12992.000,13056.000,0.500
13056.000,13056.000,13120.000,0.500
13120.000,13120.000,13184.000,0.844
13184.000,13184.000,13248.000,0.776
13248.000,13248.000,13312.000,0.844
13312.000,13312.000,13376.000,0.844
13376.000,13376.000,13440.000,0.844
13440.000,13440.000,13504.000,0.844
13504.000,13504.000,13568.000,0.844
13568.000,13568.000,13632.000,0.844
13632.000,13632.000,13696.000,0.939
13696.000,13696.000,13760.000,0.706
13760.000,13760.000,13824.000,0.931
13824.000,13824.000,13888.000,0.756
13888.000,13888.000,13952.000,0.756
13952.000,13952.000,14016.000,0.853
14016.000,14016.000,14080.000,0.725
14080.000,14080.000,14144.000,0.799
14144.000,14144.000,14208.000,0.745
14208.000,14208.000,14272.000,0.799
14272.000,14272.000,14336.000,0.968
14336.000,14336.000,14399.999,0.984
14400.000,14400.000,14464.000,0.919
14464.000,14464.000,14528.000,0.521
14528.000,14528.000,14592.000,0.594
14592.000,14592.000,14656.000,0.521
14656.000,14656.000,14720.000,0.521
14720.000,14720.000,14784.000,0.521
14784.000,14784.000,14848.000,0.521
14848.000,14848.000,14912.000,0.521
14912.000,14912.000,14976.000,0.521
14976.000,14976.000,15040.000,0.521
15040.000,15040.000,15104.000,0.521
15104.000,15104.000,15168.000,0.744
15168.000,15168.000,15232.000,0.518
15232.000,15232.000,15296.000,0.518
15296.000,15296.000,15360.000,0.518
15360.000,15360.000,15424.000,0.518
15424.000,15424.000,15488.000,0.518
15488.000,15488.000,15552.000,0.518
15552.000,15552.000,15616.000,0.518
15616.000,15616.000,15680.000,0.628
15680.000,15680.000,15744.000,0.518
15744.000,15744.000,15808.000,0.518
15808.000,15808.000,15872.000,0.518
15872.000,15872.000,15936.000,0.741
15936.000,15936.000,16000.000,0.799
16000.000,16000.000,16064.000,0.692
16064.000,16064.000,16128.000,0.799
16128.000,16128.000,16192.000,0.799
16192.000,16192.000,16256.000,0.692
16256.000,16256.000,16320.000,0.692
16320.000,16320.000,16384.000,0.692
16384.000,16384.000,16448.000,0.692
16448.000,16448.000,16512.000,0.584
16512.000,16512.000,16576.000,0.692
16576.000,16576.000,16640.000,0.584
16640.000,16640.000,16704.000,0.692
16704.000,16704.000,16768.000,0.692
16768.000,16768.000,16832.000,0.607
16832.000,16832.000,16896.000,0.746
16896.000,16896.000,16960.000,0.746
16960.000,16960.000,17024.000,0.746
17024.000,17024.000,17088.000,0.746
17088.000,17088.000,17152.000,0.782
17152.000,17152.000,17216.000,0.782
17216.000,17216.000,17280.000,0.686
17280.000,17280.000,17344.000,0.782
17344.000,17344.000,17408.000,0.692
17408.000,17408.000,17472.000,0.692
17472.000,17472.000,17536.000,0.782
17536.000,17536.000,17600.000,0.782
17600.000,17600.000,17664.000,0.782
17664.000,17664.000,17728.000,0.782
17728.000,17728.000,17792.000,0.782
17792.000,17792.000,17856.000,0.755
17856.000,17856.000,17920.000,0.591
17920.000,17920.000,17984.000,0.681
17984.000,17984.000,17999.999,0.726
18048.000,18048.000,18112.000,0.570
18112.000,18112.000,18176.000,0.681
18176.000,18176.000,18240.000,0.770
18240.000,18240.000,18304.000,0.956
18304.000,18304.000,18368.000,0.960
18368.000,18368.000,18432.000,0.938
18432.000,18432.000,18496.000,0.956
18496.000,18496.000,18560.000,0.958
18560.000,18560.000,18624.000,0.942
18624.000,18624.000,18688.000,0.958
18688.000,18688.000,18752.000,0.942
18752.000,18752.000,18816.000,0.958
18816.000,18816.000,18880.000,0.951
18880.000,18880.000,18944.000,0.921
18944.000,18944.000,19008.000,0.942
19008.000,19008.000,19072.000,0.934
19072.000,19072.000,19136.000,0.793
19136.000,19136.000,19200.000,0.590
19200.000,19200.000,19264.000,0.552
19264.000,19264.000,19328.000,0.590
19328.000,19328.000,19392.000,0.697
19392.000,19392.000,19456.000,0.552
19456.000,19456.000,19520.000,0.712
19520.000,19520.000,19584.000,0.712
19584.000,19584.000,19648.000,0.712
19648.000,19648.000,19712.000,0.712
19712.000,19712.000,19776.000,0.578
19776.000,19776.000,19840.000,0.578
19840.000,19840.000,19904.000,0.588
19904.000,19904.000,19968.000,0.578
19968.000,19968.000,20032.000,0.578
20032.000,20032.000,20096.000,0.682
20096.000,20096.000,20160.000,0.578
20160.000,20160.000,20224.000,0.578
20224.000,20224.000,20288.000,0.510
20288.000,20288.000,20352.000,0.795
20352.000,20352.000,20416.000,0.578
20416.000,20416.000,20480.000,0.578
20480.000,20480.000,20544.000,0.578
20544.000,20544.000,20608.000,0.578
20608.000,20608.000,20672.000,0.578
20672.000,20672.000,20736.000,0.922
20736.000,20736.000,20800.000,0.818
20800.000,20800.000,20864.000,0.818
20864.000,20864.000,20928.000,0.837
20928.000,20928.000,20992.000,0.782
20992.000,20992.000,21056.000,0.677
21056.000,21056.000,21120.000,0.560
21120.000,21120.000,21184.000,0.722
21184.000,21184.000,21248.000,0.722
21248.000,21248.000,21312.000,0.926
21312.000,21312.000,21376.000,0.926
21376.000,21376.000,21440.000,0.660
21440.000,21440.000,21504.000,0.737
21504.000,21504.000,21568.000,0.892
21568.000,21568.000,21599.999,0.715
21632.000,21632.000,21696.000,0.683
21696.000,21696.000,21760.000,0.683
21760.000,21760.000,21824.000,0.683
21824.000,21824.000,21888.000,0.683
21888.000,21888.000,21952.000,0.751
21952.000,21952.000,22016.000,0.895
22016.000,22016.000,22080.000,0.895
22080.000,22080.000,22144.000,0.603
22144.000,22144.000,22208.000,0.603
22208.000,22208.000,22272.000,0.603
22272.000,22272.000,22336.000,0.603
22336.000,22336.000,22400.000,0.603
22400.000,22400.000,22464.000,0.603
22464.000,22464.000,22528.000,0.603
22528.000,22528.000,22592.000,0.603
22592.000,22592.000,22656.000,0.603
22656.000,22656.000,22720.000,0.603
22720.000,22720.000,22784.000,0.603
22784.000,22784.000,22848.000,0.603
22848.000,22848.000,22912.000,0.603
22912.000,22912.000,22976.000,0.603
22976.000,22976.000,23040.000,0.603
23040.000,23040.000,23104.000,0.603
23104.000,23104.000,23168.000,0.603
23168.000,23168.000,23232.000,0.603
23232.000,23232.000,23296.000,0.603
23296.000,23296.000,23360.000,0.603
23360.000,23360.000,23424.000,0.603
23424.000,23424.000,23488.000,0.603
23488.000,23488.000,23552.000,0.603
23552.000,23552.000,23616.000,0.603
23616.000,23616.000,23680.000,0.603
23680.000,23680.000,23744.000,0.603
23744.000,23744.000,23808.000,0.603
23808.000,23808.000,23872.000,0.603
23872.000,23872.000,23936.000,0.603
23936.000,23936.000,24000.000,0.603
24000.000,24000.000,24064.000,0.603
24064.000,24064.000,24128.000,0.975
24128.000,24128.000,24192.000,0.950
24192.000,24192.000,24256.000,0.865
24256.000,24256.000,24320.000,0.746
24320.000,24320.000,24384.000,0.746
24384.000,24384.000,24448.000,0.822
24448.000,24448.000,24512.000,0.822
24512.000,24512.000,24576.000,0.822
24576.000,24576.000,24640.000,0.746
24640.000,24640.000,24704.000,0.647
24704.000,24704.000,24768.000,0.681
24768.000,24768.000,24832.000,0.576
24832.000,24832.000,24896.000,0.681
24896.000,24896.000,24960.000,0.607
24960.000,24960.000,25024.000,0.681
25024.000,25024.000,25088.000,0.681
25088.000,25088.000,25152.000,0.681
25152.000,25152.000,25199.999,0.656
25216.000,25216.000,25280.000,0.631
25280.000,25280.000,25344.000,0.681
25344.000,25344.000,25408.000,0.681
25408.000,25408.000,25472.000,0.521
25472.000,25472.000,25536.000,0.631
25536.000,25536.000,25600.000,0.709
25600.000,25600.000,25664.000,0.631
25664.000,25664.000,25728.000,0.631
25728.000,25728.000,25792.000,0.631
25792.000,25792.000,25856.000,0.727
25856.000,25856.000,25920.000,0.722
25920.000,25920.000,25984.000,0.849
25984.000,25984.000,26048.000,0.922
26048.000,26048.000,26112.000,0.986
26112.000,26112.000,26176.000,0.983
26176.000,26176.000,26240.000,0.890
26240.000,26240.000,26304.000,0.697
26304.000,26304.000,26368.000,0.693
26368.000,26368.000,26432.000,0.697
26432.000,26432.000,26496.000,0.693
26496.000,26496.000,26560.000,0.592
26560.000,26560.000,26624.000,0.652
26624.000,26624.000,26688.000,0.823
26688.000,26688.000,26752.000,0.999
26752.000,26752.000,26816.000,0.999
26816.000,26816.000,26880.000,0.999
26880.000,26880.000,26944.000,0.999
26944.000,26944.000,27008.000,0.999
27008.000,27008.000,27072.000,1.000
27072.000,27072.000,27136.000,0.990
27136.000,27136.000,27200.000,0.788
27200.000,27200.000,27264.000,0.993
27264.000,27264.000,27328.000,0.974
27328.000,27328.000,27392.000,0.990
27392.000,27392.000,27456.000,0.974
27456.000,27456.000,27520.000,0.998
27520.000,27520.000,27584.000,0.998
27584.000,27584.000,27648.000,0.996
27648.000,27648.000,27712.000,0.998
27712.000,27712.000,27776.000,0.998
27776.000,27776.000,27840.000,0.988
27840.000,27840.000,27904.000,0.995
27904.000,27904.000,27968.000,0.936
27968.000,27968.000,28032.000,0.946
28032.000,28032.000,28096.000,0.998
28096.000,28096.000,28160.000,0.989
28160.000,28160.000,28224.000,0.949
28224.000,28224.000,28288.000,0.960
28288.000,28288.000,28352.000,0.998
28352.000,28352.000,28416.000,0.992
28416.000,28416.000,28480.000,0.991
28480.000,28480.000,28544.000,0.956
28544.000,28544.000,28608.000,0.793
28608.000,28608.000,28672.000,0.986
28672.000,28672.000,28736.000,0.953
28736.000,28736.000,28799.999,0.930
28800.000,28800.000,28864.000,0.981
28864.000,28864.000,28928.000,0.969
28928.000,28928.000,28992.000,0.710
28992.000,28992.000,29056.000,0.934
29056.000,29056.000,29120.000,0.938
29120.000,29120.000,29184.000,0.999
29184.000,29184.000,29248.000,0.991
29248.000,29248.000,29312.000,0.976
29312.000,29312.000,29376.000,0.990
29376.000,29376.000,29440.000,0.963
29440.000,29440.000,29504.000,0.955
29504.000,29504.000,29568.000,0.994
29568.000,29568.000,29632.000,0.981
29632.000,29632.000,29696.000,0.968
29696.000,29696.000,29760.000,0.944
29760.000,29760.000,29824.000,0.989
29824.000,29824.000,29888.000,0.966
29888.000,29888.000,29952.000,0.925
29952.000,29952.000,30016.000,0.950
30016.000,30016.000,30080.000,0.982
30080.000,30080.000,30144.000,0.961
30144.000,30144.000,30208.000,0.984
30208.000,30208.000,30272.000,0.995
30272.000,30272.000,30336.000,0.986
30336.000,30336.000,30400.000,0.980
30400.000,30400.000,30464.000,0.892
30464.000,30464.000,30528.000,0.979
30528.000,30528.000,30592.000,0.993
30592.000,30592.000,30656.000,0.987
30656.000,30656.000,30720.000,0.994
30720.000,30720.000,30784.000,0.969
30784.000,30784.000,30848.000,0.998
30848.000,30848.000,30912.000,0.929
30912.000,30912.000,30976.000,0.995
30976.000,30976.000,31040.000,0.992
31040.000,31040.000,31104.000,0.993
31104.000,31104.000,31168.000,0.984
31168.000,31168.000,31232.000,0.987
31232.000,31232.000,31296.000,0.998
31296.000,31296.000,31360.000,0.998
31360.000,31360.000,31424.000,0.903
31424.000,31424.000,31488.000,0.946
31488.000,31488.000,31552.000,0.984
31552.000,31552.000,31616.000,0.990
31616.000,31616.000,31680.000,0.983
31680.000,31680.000,31744.000,0.972
31744.000,31744.000,31808.000,0.960
31808.000,31808.000,31872.000,0.978
31872.000,31872.000,31936.000,0.987
31936.000,31936.000,32000.000,0.991
32000.000,32000.000,32064.000,0.974
32064.000,32064.000,32128.000,0.924
32128.000,32128.000,32192.000,0.972
32192.000,32192.000,32256.000,0.959
32256.000,32256.000,32320.000,0.987
32320.000,32320.000,32384.000,0.992
32384.000,32384.000,32399.999,0.651
32448.000,32448.000,32512.000,0.543
32512.000,32512.000,32576.000,0.778
32576.000,32576.000,32640.000,0.561
32640.000,32640.000,32704.000,0.972
32704.000,32704.000,32768.000,0.998
32768.000,32768.000,32832.000,0.997
32832.000,32832.000,32896.000,0.998
32896.000,32896.000,32960.000,0.988
32960.000,32960.000,33024.000,1.000
33024.000,33024.000,33088.000,0.987
33088.000,33088.000,33152.000,0.991
33152.000,33152.000,33216.000,0.988
33216.000,33216.000,33280.000,0.874
33280.000,33280.000,33344.000,0.994
33344.000,33344.000,33408.000,0.867
33408.000,33408.000,33472.000,0.989
33472.000,33472.000,33536.000,0.995
33536.000,33536.000,33600.000,0.998
33600.000,33600.000,33664.000,0.942
33664.000,33664.000,33728.000,0.997
33728.000,33728.000,33792.000,0.996
33792.000,33792.000,33856.000,0.986
33856.000,33856.000,33920.000,0.998
33920.000,33920.000,33984.000,0.855
33984.000,33984.000,34048.000,0.944
34048.000,34048.000,34112.000,0.995
34112.000,34112.000,34176.000,0.932
34176.000,34176.000,34240.000,0.972
34240.000,34240.000,34304.000,0.766
34304.000,34304.000,34368.000,0.843
34368.000,34368.000,34432.000,0.843
34432.000,34432.000,34496.000,0.883
34496.000,34496.000,34560.000,0.577
34560.000,34560.000,34624.000,0.994
34624.000,34624.000,34688.000,0.979
34688.000,34688.000,34752.000,0.967
34752.000,34752.000,34816.000,0.992
34816.000,34816.000,34880.000,0.985
34880.000,34880.000,34944.000,0.993
34944.000,34944.000,35008.000,0.983
35008.000,35008.000,35072.000,0.935
35072.000,35072.000,35136.000,0.975
35136.000,35136.000,35200.000,0.998
35200.000,35200.000,35264.000,0.987
35264.000,35264.000,35328.000,0.985
35328.000,35328.000,35392.000,0.997
35392.000,35392.000,35456.000,0.995
35456.000,35456.000,35520.000,0.984
35520.000,35520.000,35584.000,0.994
35584.000,35584.000,35648.000,0.990
35648.000,35648.000,35712.000,0.998
35712.000,35712.000,35776.000,0.999
35776.000,35776.000,35840.000,0.871
35840.000,35840.000,35904.000,0.996
35904.000,35904.000,35968.000,0.920
35968.000,35968.000,35999.999,0.995
36032.000,36032.000,36096.000,0.998
36096.000,36096.000,36160.000,0.984
36160.000,36160.000,36224.000,0.992
36224.000,36224.000,36288.000,0.998
36288.000,36288.000,36352.000,0.998
36352.000,36352.000,36416.000,0.996
36416.000,36416.000,36480.000,0.860
36480.000,36480.000,36544.000,0.984
36544.000,36544.000,36608.000,0.952
36608.000,36608.000,36672.000,0.988
36672.000,36672.000,36736.000,0.988
36736.000,36736.000,36800.000,0.954
36800.000,36800.000,36864.000,0.999
36864.000,36864.000,36928.000,0.975
36928.000,36928.000,36992.000,0.997
36992.000,36992.000,37056.000,0.956
37056.000,37056.000,37120.000,0.998
37120.000,37120.000,37184.000,0.997
37184.000,37184.000,37248.000,0.991
37248.000,37248.000,37312.000,0.997
37312.000,37312.000,37376.000,0.992
37376.000,37376.000,37440.000,0.999
37440.000,37440.000,37504.000,0.999
37504.000,37504.000,37568.000,0.955
37568.000,37568.000,37632.000,0.980
37632.000,37632.000,37696.000,0.990
37696.000,37696.000,37760.000,0.990
37760.000,37760.000,37824.000,0.998
37824.000,37824.000,37888.000,0.965
37888.000,37888.000,37952.000,0.992
37952.000,37952.000,38016.000,0.992
38016.000,38016.000,38080.000,0.913
38080.000,38080.000,38144.000,0.994
38144.000,38144.000,38208.000,0.948
38208.000,38208.000,38272.000,0.997
38272.000,38272.000,38336.000,0.984
38336.000,38336.000,38400.000,0.990
38400.000,38400.000,38464.000,0.988
38464.000,38464.000,38528.000,0.996
38528.000,38528.000,38592.000,0.999
38592.000,38592.000,38656.000,0.999
38656.000,38656.000,38720.000,0.999
38720.000,38720.000,38784.000,0.999
38784.000,38784.000,38848.000,0.993
38848.000,38848.000,38912.000,0.913
38912.000,38912.000,38976.000,0.954
38976.000,38976.000,39040.000,0.991
39040.000,39040.000,39104.000,0.982
39104.000,39104.000,39168.000,0.982
39168.000,39168.000,39232.000,0.954
39232.000,39232.000,39296.000,0.887
39296.000,39296.000,39360.000,0.929
39360.000,39360.000,39424.000,0.958
39424.000,39424.000,39488.000,0.996
39488.000,39488.000,39552.000,0.994
39552.000,39552.000,39599.999,0.993
39616.000,39616.000,39680.000,0.958
39680.000,39680.000,39744.000,0.955
39744.000,39744.000,39808.000,0.977
39808.000,39808.000,39872.000,0.919
39872.000,39872.000,39936.000,0.953
39936.000,39936.000,40000.000,0.992
40000.000,40000.000,40064.000,0.980
40064.000,40064.000,40128.000,0.941
40128.000,40128.000,40192.000,0.968
40192.000,40192.000,40256.000,0.983
40256.000,40256.000,40320.000,0.955
40320.000,40320.000,40384.000,0.991
40384.000,40384.000,40448.000,0.925
40448.000,40448.000,40512.000,0.996
40512.000,40512.000,40576.000,0.976
40576.000,40576.000,40640.000,0.992
40640.000,40640.000,40704.000,0.988
40704.000,40704.000,40768.000,0.994
40768.000,40768.000,40832.000,0.970
40832.000,40832.000,40896.000,0.989
40896.000,40896.000,40960.000,0.986
40960.000,40960.000,41024.000,0.989
41024.000,41024.000,41088.000,0.825
41088.000,41088.000,41152.000,0.797
41152.000,41152.000,41216.000,0.623
41216.000,41216.000,41280.000,0.914
41280.000,41280.000,41344.000,0.996
41344.000,41344.000,41408.000,0.992
41408.000,41408.000,41472.000,0.930
41472.000,41472.000,41536.000,0.838
41536.000,41536.000,41600.000,0.970
41600.000,41600.000,41664.000,0.986
41664.000,41664.000,41728.000,0.982
41728.000,41728.000,41792.000,0.996
41792.000,41792.000,41856.000,0.999
41856.000,41856.000,41920.000,0.978
41920.000,41920.000,41984.000,0.996
41984.000,41984.000,42048.000,0.976
42048.000,42048.000,42112.000,0.966
42112.000,42112.000,42176.000,0.997
42176.000,42176.000,42240.000,0.994
42240.000,42240.000,42304.000,0.995
42304.000,42304.000,42368.000,0.934
42368.000,42368.000,42432.000,0.694
42432.000,42432.000,42496.000,0.954
42496.000,42496.000,42560.000,0.969
42560.000,42560.000,42624.000,0.979
42624.000,42624.000,42688.000,0.984
42688.000,42688.000,42752.000,0.994
42752.000,42752.000,42816.000,0.988
42816.000,42816.000,42880.000,0.955
42880.000,42880.000,42944.000,0.991
42944.000,42944.000,43008.000,0.974
43008.000,43008.000,43072.000,0.996
43072.000,43072.000,43136.000,0.962
43136.000,43136.000,43199.999,0.992
43200.000,43200.000,43264.000,0.935
43264.000,43264.000,43328.000,0.988
43328.000,43328.000,43392.000,0.999
43392.000,43392.000,43456.000,0.902
43456.000,43456.000,43520.000,0.998
43520.000,43520.000,43584.000,0.998
43584.000,43584.000,43648.000,0.999
43648.000,43648.000,43712.000,0.957
43712.000,43712.000,43776.000,0.967
43776.000,43776.000,43840.000,0.998
43840.000,43840.000,43904.000,0.991
43904.000,43904.000,43968.000,0.999
43968.000,43968.000,44032.000,0.569
44032.000,44032.000,44096.000,0.925
44096.000,44096.000,44160.000,0.605
44160.000,44160.000,44224.000,0.976
44224.000,44224.000,44288.000,0.993
44288.000,44288.000,44352.000,0.901
44352.000,44352.000,44416.000,0.897
44416.000,44416.000,44480.000,0.986
44480.000,44480.000,44544.000,0.951
44544.000,44544.000,44608.000,0.672
44608.000,44608.000,44672.000,0.745
44672.000,44672.000,44736.000,0.597
44736.000,44736.000,44800.000,0.597
44800.000,44800.000,44864.000,0.823
44864.000,44864.000,44928.000,0.994
44928.000,44928.000,44992.000,0.959
44992.000,44992.000,45056.000,0.826
45056.000,45056.000,45120.000,0.857
45120.000,45120.000,45184.000,0.701
45184.000,45184.000,45248.000,0.996
45248.000,45248.000,45312.000,0.924
45312.000,45312.000,45376.000,0.982
45376.000,45376.000,45440.000,0.987
45440.000,45440.000,45504.000,0.991
45504.000,45504.000,45568.000,0.994
45568.000,45568.000,45632.000,0.996
45632.000,45632.000,45696.000,0.992
45696.000,45696.000,45760.000,0.988
45760.000,45760.000,45824.000,0.959
45824.000,45824.000,45888.000,0.998
45888.000,45888.000,45952.000,0.954
45952.000,45952.000,46016.000,0.794
46016.000,46016.000,46080.000,0.982
46080.000,46080.000,46144.000,0.916
46144.000,46144.000,46208.000,0.889
46208.000,46208.000,46272.000,0.998
46272.000,46272.000,46336.000,0.922
46336.000,46336.000,46400.000,0.889
46400.000,46400.000,46464.000,0.841
46464.000,46464.000,46528.000,0.807
46528.000,46528.000,46592.000,0.573
46592.000,46592.000,46656.000,0.942
46656.000,46656.000,46720.000,0.982
46720.000,46720.000,46784.000,0.933
46784.000,46784.000,46799.999,0.990
46848.000,46848.000,46912.000,0.996
46912.000,46912.000,46976.000,0.996
46976.000,46976.000,47040.000,0.986
47040.000,47040.000,47104.000,0.968
47104.000,47104.000,47168.000,0.992
47168.000,47168.000,47232.000,0.972
47232.000,47232.000,47296.000,0.976
47296.000,47296.000,47360.000,0.999
47360.000,47360.000,47424.000,0.999
47424.000,47424.000,47488.000,0.934
47488.000,47488.000,47552.000,0.978
47552.000,47552.000,47616.000,0.976
47616.000,47616.000,47680.000,0.955
47680.000,47680.000,47744.000,0.950
47744.000,47744.000,47808.000,0.991
47808.000,47808.000,47872.000,0.939
47872.000,47872.000,47936.000,0.979
47936.000,47936.000,48000.000,0.976
48000.000,48000.000,48064.000,0.917
48064.000,48064.000,48128.000,0.989
48128.000,48128.000,48192.000,0.987
48192.000,48192.000,48256.000,0.987
48256.000,48256.000,48320.000,0.998
48320.000,48320.000,48384.000,0.991
48384.000,48384.000,48448.000,0.997
48448.000,48448.000,48512.000,0.991
48512.000,48512.000,48576.000,0.992
48576.000,48576.000,48640.000,0.873
48640.000,48640.000,48704.000,0.786
48704.000,48704.000,48768.000,0.924
48768.000,48768.000,48832.000,0.997
48832.000,48832.000,48896.000,0.984
48896.000,48896.000,48960.000,0.994
48960.000,48960.000,49024.000,0.999
49024.000,49024.000,49088.000,0.998
49088.000,49088.000,49152.000,0.999
49152.000,49152.000,49216.000,0.996
49216.000,49216.000,49280.000,0.995
49280.000,49280.000,49344.000,0.964
49344.000,49344.000,49408.000,0.993
49408.000,49408.000,49472.000,0.992
49472.000,49472.000,49536.000,0.996
49536.000,49536.000,49600.000,0.988
49600.000,49600.000,49664.000,0.714
49664.000,49664.000,49728.000,0.956
49728.000,49728.000,49792.000,0.933
49792.000,49792.000,49856.000,0.987
49856.000,49856.000,49920.000,0.944
49920.000,49920.000,49984.000,0.972
49984.000,49984.000,50048.000,0.976
50048.000,50048.000,50112.000,0.981
50112.000,50112.000,50176.000,0.998
50176.000,50176.000,50240.000,0.998
50240.000,50240.000,50304.000,0.997
50304.000,50304.000,50368.000,0.995
50368.000,50368.000,50399.999,0.999
50432.000,50432.000,50496.000,0.994
50496.000,50496.000,50560.000,0.962
50560.000,50560.000,50624.000,0.997
50624.000,50624.000,50688.000,0.989
50688.000,50688.000,50752.000,0.948
50752.000,50752.000,50816.000,0.954
50816.000,50816.000,50880.000,0.797
50880.000,50880.000,50944.000,0.888
50944.000,50944.000,51008.000,0.887
51008.000,51008.000,51072.000,0.940
51072.000,51072.000,51136.000,0.886
51136.000,51136.000,51200.000,0.869
51200.000,51200.000,51264.000,0.968
51264.000,51264.000,51328.000,0.917
51328.000,51328.000,51392.000,0.965
51392.000,51392.000,51456.000,0.935
51456.000,51456.000,51520.000,0.984
51520.000,51520.000,51584.000,0.934
51584.000,51584.000,51648.000,0.993
51648.000,51648.000,51712.000,0.997
51712.000,51712.000,51776.000,0.987
51776.000,51776.000,51840.000,0.994
51840.000,51840.000,51904.000,0.857
51904.000,51904.000,51968.000,0.927
51968.000,51968.000,52032.000,0.976
52032.000,52032.000,52096.000,0.959
52096.000,52096.000,52160.000,0.965
52160.000,52160.000,52224.000,0.961
52224.000,52224.000,52288.000,0.991
52288.000,52288.000,52352.000,0.931
52352.000,52352.000,52416.000,0.978
52416.000,52416.000,52480.000,0.978
52480.000,52480.000,52544.000,0.992
52544.000,52544.000,52608.000,0.994
52608.000,52608.000,52672.000,1.000
52672.000,52672.000,52736.000,0.999
52736.000,52736.000,52800.000,0.999
52800.000,52800.000,52864.000,0.988
52864.000,52864.000,52928.000,0.968
52928.000,52928.000,52992.000,0.983
52992.000,52992.000,53056.000,0.809
53056.000,53056.000,53120.000,0.838
53120.000,53120.000,53184.000,0.890
53184.000,53184.000,53248.000,0.781
53248.000,53248.000,53312.000,0.942
53312.000,53312.000,53376.000,0.972
53376.000,53376.000,53440.000,0.967
53440.000,53440.000,53504.000,0.886
53504.000,53504.000,53568.000,0.968
53568.000,53568.000,53632.000,0.971
53632.000,53632.000,53696.000,0.947
53696.000,53696.000,53760.000,0.976
53760.000,53760.000,53824.000,0.946
53824.000,53824.000,53888.000,0.946
53888.000,53888.000,53952.000,0.970
53952.000,53952.000,53999.999,0.995
54016.000,54016.000,54080.000,0.996
54080.000,54080.000,54144.000,0.989
54144.000,54144.000,54208.000,0.994
54208.000,54208.000,54272.000,0.933
54272.000,54272.000,54336.000,0.797
54336.000,54336.000,54400.000,0.748
54400.000,54400.000,54464.000,0.823
54464.000,54464.000,54528.000,0.966
54528.000,54528.000,54592.000,0.986
54592.000,54592.000,54656.000,0.997
54656.000,54656.000,54720.000,0.992
54720.000,54720.000,54784.000,0.990
54784.000,54784.000,54848.000,0.997
54848.000,54848.000,54912.000,0.911
54912.000,54912.000,54976.000,0.914
54976.000,54976.000,55040.000,0.884
55040.000,55040.000,55104.000,0.813
55104.000,55104.000,55168.000,0.952
55168.000,55168.000,55232.000,0.998
55232.000,55232.000,55296.000,0.986
55296.000,55296.000,55360.000,0.932
55360.000,55360.000,55424.000,0.936
55424.000,55424.000,55488.000,0.902
55488.000,55488.000,55552.000,0.956
55552.000,55552.000,55616.000,0.961
55616.000,55616.000,55680.000,0.817
55680.000,55680.000,55744.000,0.909
55744.000,55744.000,55808.000,0.996
55808.000,55808.000,55872.000,0.928
55872.000,55872.000,55936.000,0.998
55936.000,55936.000,56000.000,0.993
56000.000,56000.000,56064.000,0.968
56064.000,56064.000,56128.000,0.993
56128.000,56128.000,56192.000,0.997
56192.000,56192.000,56256.000,0.997
56256.000,56256.000,56320.000,0.997
56320.000,56320.000,56384.000,0.997
56384.000,56384.000,56448.000,0.997
56448.000,56448.000,56512.000,0.970
56512.000,56512.000,56576.000,0.996
56576.000,56576.000,56640.000,0.974
56640.000,56640.000,56704.000,0.997
56704.000,56704.000,56768.000,1.000
56768.000,56768.000,56832.000,0.997
56832.000,56832.000,56896.000,0.987
56896.000,56896.000,56960.000,0.999
56960.000,56960.000,57024.000,0.999
57024.000,57024.000,57088.000,0.992
57088.000,57088.000,57152.000,0.999
57152.000,57152.000,57216.000,0.997
57216.000,57216.000,57280.000,0.985
57280.000,57280.000,57344.000,0.920
57344.000,57344.000,57408.000,0.993
57408.000,57408.000,57472.000,0.948
57472.000,57472.000,57536.000,0.960
57536.000,57536.000,57599.999,0.997
57600.000,57600.000,57664.000,0.997
57664.000,57664.000,57728.000,0.997
57728.000,57728.000,57792.000,0.997
57792.000,57792.000,57856.000,0.947
57856.000,57856.000,57920.000,0.989
57920.000,57920.000,57984.000,0.939
57984.000,57984.000,58048.000,0.998
58048.000,58048.000,58112.000,0.998
58112.000,58112.000,58176.000,0.993
58176.000,58176.000,58240.000,0.990
58240.000,58240.000,58304.000,0.998
58304.000,58304.000,58368.000,0.998
58368.000,58368.000,58432.000,0.997
58432.000,58432.000,58496.000,0.998
58496.000,58496.000,58560.000,1.000
58560.000,58560.000,58624.000,0.998
58624.000,58624.000,58688.000,0.997
58688.000,58688.000,58752.000,0.998
58752.000,58752.000,58816.000,1.000
58816.000,58816.000,58880.000,0.998
58880.000,58880.000,58944.000,1.000
58944.000,58944.000,59008.000,1.000
59008.000,59008.000,59072.000,0.986
59072.000,59072.000,59136.000,0.938
59136.000,59136.000,59200.000,0.946
59200.000,59200.000,59264.000,0.740
59264.000,59264.000,59328.000,0.788
59328.000,59328.000,59392.000,0.929
59392.000,59392.000,59456.000,0.935
59456.000,59456.000,59520.000,0.992
59520.000,59520.000,59584.000,0.959
59584.000,59584.000,59648.000,0.998
59648.000,59648.000,59712.000,0.985
59712.000,59712.000,59776.000,0.998
59776.000,59776.000,59840.000,0.974
59840.000,59840.000,59904.000,0.997
59904.000,59904.000,59968.000,0.997
59968.000,59968.000,60032.000,0.998
60032.000,60032.000,60096.000,0.998
60096.000,60096.000,60160.000,0.998
60160.000,60160.000,60224.000,0.998
60224.000,60224.000,60288.000,0.998
60288.000,60288.000,60352.000,0.998
60352.000,60352.000,60416.000,0.998
60416.000,60416.000,60480.000,0.926
60480.000,60480.000,60544.000,0.956
60544.000,60544.000,60608.000,0.864
60608.000,60608.000,60672.000,0.864
60672.000,60672.000,60736.000,0.748
60736.000,60736.000,60800.000,0.899
60800.000,60800.000,60864.000,0.886
60864.000,60864.000,60928.000,0.804
60928.000,60928.000,60992.000,0.724
60992.000,60992.000,61056.000,0.912
61056.000,61056.000,61120.000,0.987
61120.000,61120.000,61184.000,0.975
61184.000,61184.000,61199.999,0.993
61248.000,61248.000,61312.000,0.990
61312.000,61312.000,61376.000,0.925
61376.000,61376.000,61440.000,0.971
61440.000,61440.000,61504.000,0.956
61504.000,61504.000,61568.000,0.940
61568.000,61568.000,61632.000,0.974
61632.000,61632.000,61696.000,0.991
61696.000,61696.000,61760.000,0.976
61760.000,61760.000,61824.000,0.920
61824.000,61824.000,61888.000,0.902
61888.000,61888.000,61952.000,0.998
61952.000,61952.000,62016.000,0.955
62016.000,62016.000,62080.000,0.997
62080.000,62080.000,62144.000,0.980
62144.000,62144.000,62208.000,0.979
62208.000,62208.000,62272.000,0.992
62272.000,62272.000,62336.000,0.998
62336.000,62336.000,62400.000,0.969
62400.000,62400.000,62464.000,0.979
62464.000,62464.000,62528.000,0.986
62528.000,62528.000,62592.000,0.992
62592.000,62592.000,62656.000,0.931
62656.000,62656.000,62720.000,0.991
62720.000,62720.000,62784.000,0.882
62784.000,62784.000,62848.000,0.936
62848.000,62848.000,62912.000,0.984
62912.000,62912.000,62976.000,0.986
62976.000,62976.000,63040.000,0.914
63040.000,63040.000,63104.000,0.883
63104.000,63104.000,63168.000,0.990
63168.000,63168.000,63232.000,0.928
63232.000,63232.000,63296.000,0.992
63296.000,63296.000,63360.000,0.856
63360.000,63360.000,63424.000,0.994
63424.000,63424.000,63488.000,0.936
63488.000,63488.000,63552.000,0.930
63552.000,63552.000,63616.000,0.881
63616.000,63616.000,63680.000,0.968
63680.000,63680.000,63744.000,0.989
63744.000,63744.000,63808.000,0.955
63808.000,63808.000,63872.000,0.925
63872.000,63872.000,63936.000,0.990
63936.000,63936.000,64000.000,0.942
64000.000,64000.000,64064.000,0.890
64064.000,64064.000,64128.000,0.967
64128.000,64128.000,64192.000,0.946
64192.000,64192.000,64256.000,0.924
64256.000,64256.000,64320.000,0.989
64320.000,64320.000,64384.000,0.991
64384.000,64384.000,64448.000,0.996
64448.000,64448.000,64512.000,0.995
64512.000,64512.000,64576.000,0.990
64576.000,64576.000,64640.000,0.867
64640.000,64640.000,64704.000,0.995
64704.000,64704.000,64768.000,0.996
64768.000,64768.000,64799.999,0.998
64832.000,64832.000,64896.000,0.990
64896.000,64896.000,64960.000,0.995
64960.000,64960.000,65024.000,0.997
65024.000,65024.000,65088.000,0.907
65088.000,65088.000,65152.000,0.940
65152.000,65152.000,65216.000,0.991
65216.000,65216.000,65280.000,0.972
65280.000,65280.000,65344.000,0.861
65344.000,65344.000,65408.000,0.912
65408.000,65408.000,65472.000,0.996
65472.000,65472.000,65536.000,0.945
65536.000,65536.000,65600.000,0.991
65600.000,65600.000,65664.000,0.990
65664.000,65664.000,65728.000,0.890
65728.000,65728.000,65792.000,0.949
65792.000,65792.000,65856.000,0.908
65856.000,65856.000,65920.000,0.986
65920.000,65920.000,65984.000,0.932
65984.000,65984.000,66048.000,0.975
66048.000,66048.000,66112.000,0.987
66112.000,66112.000,66176.000,0.848
66176.000,66176.000,66240.000,0.990
66240.000,66240.000,66304.000,0.969
66304.000,66304.000,66368.000,0.936
66368.000,66368.000,66432.000,0.969
66432.000,66432.000,66496.000,0.990
66496.000,66496.000,66560.000,0.936
66560.000,66560.000,66624.000,0.864
66624.000,66624.000,66688.000,0.979
66688.000,66688.000,66752.000,0.983
66752.000,66752.000,66816.000,0.992
66816.000,66816.000,66880.000,0.998
66880.000,66880.000,66944.000,0.946
66944.000,66944.000,67008.000,0.938
67008.000,67008.000,67072.000,0.950
67072.000,67072.000,67136.000,0.979
67136.000,67136.000,67200.000,0.996
67200.000,67200.000,67264.000,0.929
67264.000,67264.000,67328.000,0.935
67328.000,67328.000,67392.000,0.970
67392.000,67392.000,67456.000,0.991
67456.000,67456.000,67520.000,0.970
67520.000,67520.000,67584.000,0.990
67584.000,67584.000,67648.000,0.989
67648.000,67648.000,67712.000,0.995
67712.000,67712.000,67776.000,0.979
67776.000,67776.000,67840.000,0.996
67840.000,67840.000,67904.000,0.967
67904.000,67904.000,67968.000,0.996
67968.000,67968.000,68032.000,0.971
68032.000,68032.000,68096.000,0.989
68096.000,68096.000,68160.000,0.903
68160.000,68160.000,68224.000,0.936
68224.000,68224.000,68288.000,0.998
68288.000,68288.000,68352.000,0.997
68352.000,68352.000,68399.999,0.912
68416.000,68416.000,68480.000,0.949
68480.000,68480.000,68544.000,0.929
68544.000,68544.000,68608.000,0.952
68608.000,68608.000,68672.000,0.995
68672.000,68672.000,68736.000,0.956
68736.000,68736.000,68800.000,0.998
68800.000,68800.000,68864.000,0.993
68864.000,68864.000,68928.000,0.996
68928.000,68928.000,68992.000,0.915
68992.000,68992.000,69056.000,0.988
69056.000,69056.000,69120.000,0.899
69120.000,69120.000,69184.000,0.679
69184.000,69184.000,69248.000,0.900
69248.000,69248.000,69312.000,0.918
69312.000,69312.000,69376.000,0.892
69376.000,69376.000,69440.000,0.715
69440.000,69440.000,69504.000,0.955
69504.000,69504.000,69568.000,0.676
69568.000,69568.000,69632.000,0.864
69632.000,69632.000,69696.000,0.864
69696.000,69696.000,69760.000,0.864
69760.000,69760.000,69824.000,0.766
69824.000,69824.000,69888.000,0.918
69888.000,69888.000,69952.000,0.957
69952.000,69952.000,70016.000,0.908
70016.000,70016.000,70080.000,0.935
70080.000,70080.000,70144.000,0.927
70144.000,70144.000,70208.000,0.978
70208.000,70208.000,70272.000,0.995
70272.000,70272.000,70336.000,0.987
70336.000,70336.000,70400.000,0.950
70400.000,70400.000,70464.000,0.939
70464.000,70464.000,70528.000,0.921
70528.000,70528.000,70592.000,0.878
70592.000,70592.000,70656.000,0.960
70656.000,70656.000,70720.000,0.733
70720.000,70720.000,70784.000,0.797
70784.000,70784.000,70848.000,0.815
70848.000,70848.000,70912.000,0.906
70912.000,70912.000,70976.000,0.935
70976.000,70976.000,71040.000,0.899
71040.000,71040.000,71104.000,0.881
71104.000,71104.000,71168.000,0.755
71168.000,71168.000,71232.000,0.891
71232.000,71232.000,71296.000,0.990
71296.000,71296.000,71360.000,0.911
71360.000,71360.000,71424.000,0.797
71424.000,71424.000,71488.000,0.905
71488.000,71488.000,71552.000,0.787
71552.000,71552.000,71616.000,0.736
71616.000,71616.000,71680.000,0.897
71680.000,71680.000,71744.000,0.960
71744.000,71744.000,71808.000,0.947
71808.000,71808.000,71872.000,0.773
71872.000,71872.000,71936.000,0.783
71936.000,71936.000,71999.999,0.570
72000.000,72000.000,72064.000,0.959
72064.000,72064.000,72128.000,0.956
72128.000,72128.000,72192.000,0.956
72192.000,72192.000,72256.000,0.984
72256.000,72256.000,72320.000,0.973
72320.000,72320.000,72384.000,0.956
72384.000,72384.000,72448.000,0.998
72448.000,72448.000,72512.000,0.965
72512.000,72512.000,72576.000,0.993
72576.000,72576.000,72640.000,0.981
72640.000,72640.000,72704.000,0.998
72704.000,72704.000,72768.000,0.991
72768.000,72768.000,72832.000,0.984
72832.000,72832.000,72896.000,0.984
72896.000,72896.000,72960.000,0.991
72960.000,72960.000,73024.000,0.987
73024.000,73024.000,73088.000,0.988
73088.000,73088.000,73152.000,0.981
73152.000,73152.000,73216.000,0.981
73216.000,73216.000,73280.000,0.987
73280.000,73280.000,73344.000,0.984
73344.000,73344.000,73408.000,0.989
73408.000,73408.000,73472.000,0.998
73472.000,73472.000,73536.000,0.998
73536.000,73536.000,73600.000,0.998
73600.000,73600.000,73664.000,0.983
73664.000,73664.000,73728.000,0.993
73728.000,73728.000,73792.000,0.998
73792.000,73792.000,73856.000,0.980
73856.000,73856.000,73920.000,0.999
73920.000,73920.000,73984.000,0.969
73984.000,73984.000,74048.000,0.935
74048.000,74048.000,74112.000,0.826
74112.000,74112.000,74176.000,0.826
74176.000,74176.000,74240.000,0.941
74240.000,74240.000,74304.000,0.822
74304.000,74304.000,74368.000,0.969
74368.000,74368.000,74432.000,0.944
74432.000,74432.000,74496.000,0.982
74496.000,74496.000,74560.000,0.998
74560.000,74560.000,74624.000,0.998
74624.000,74624.000,74688.000,0.998
74688.000,74688.000,74752.000,0.998
74752.000,74752.000,74816.000,0.998
74816.000,74816.000,74880.000,0.998
74880.000,74880.000,74944.000,0.998
74944.000,74944.000,75008.000,0.998
75008.000,75008.000,75072.000,0.998
75072.000,75072.000,75136.000,0.913
75136.000,75136.000,75200.000,0.929
75200.000,75200.000,75264.000,0.988
75264.000,75264.000,75328.000,0.991
75328.000,75328.000,75392.000,0.989
75392.000,75392.000,75456.000,0.957
75456.000,75456.000,75520.000,0.998
75520.000,75520.000,75584.000,0.922
75584.000,75584.000,75599.999,0.888
75648.000,75648.000,75712.000,0.991
75712.000,75712.000,75776.000,0.989
75776.000,75776.000,75840.000,0.929
75840.000,75840.000,75904.000,1.000
75904.000,75904.000,75968.000,0.985
75968.000,75968.000,76032.000,0.805
76032.000,76032.000,76096.000,0.906
76096.000,76096.000,76160.000,0.873
76160.000,76160.000,76224.000,0.679
76224.000,76224.000,76288.000,0.769
76288.000,76288.000,76352.000,0.876
76352.000,76352.000,76416.000,0.806
76416.000,76416.000,76480.000,0.659
76480.000,76480.000,76544.000,0.560
76544.000,76544.000,76608.000,0.720
76608.000,76608.000,76672.000,0.977
76672.000,76672.000,76736.000,0.772
76736.000,76736.000,76800.000,0.915
76800.000,76800.000,76864.000,0.605
76864.000,76864.000,76928.000,0.622
76928.000,76928.000,76992.000,0.514
76992.000,76992.000,77056.000,0.986
77056.000,77056.000,77120.000,0.706
77120.000,77120.000,77184.000,0.706
77184.000,77184.000,77248.000,0.902
77248.000,77248.000,77312.000,0.651
77312.000,77312.000,77376.000,0.631
77376.000,77376.000,77440.000,0.946
77440.000,77440.000,77504.000,0.985
77504.000,77504.000,77568.000,0.903
77568.000,77568.000,77632.000,0.956
77632.000,77632.000,77696.000,0.886
77696.000,77696.000,77760.000,0.991
77760.000,77760.000,77824.000,0.845
77824.000,77824.000,77888.000,0.980
77888.000,77888.000,77952.000,0.897
77952.000,77952.000,78016.000,0.847
78016.000,78016.000,78080.000,0.946
78080.000,78080.000,78144.000,0.924
78144.000,78144.000,78208.000,0.971
78208.000,78208.000,78272.000,0.961
78272.000,78272.000,78336.000,0.875
78336.000,78336.000,78400.000,0.513
78400.000,78400.000,78464.000,0.824
78464.000,78464.000,78528.000,0.900
78528.000,78528.000,78592.000,0.797
78592.000,78592.000,78656.000,0.960
78656.000,78656.000,78720.000,0.944
78720.000,78720.000,78784.000,0.956
78784.000,78784.000,78848.000,0.901
78848.000,78848.000,78912.000,0.695
78912.000,78912.000,78976.000,0.667
78976.000,78976.000,79040.000,0.957
79040.000,79040.000,79104.000,0.813
79104.000,79104.000,79168.000,0.626
79168.000,79168.000,79199.999,0.945
79232.000,79232.000,79296.000,0.983
79296.000,79296.000,79360.000,0.983
79360.000,79360.000,79424.000,0.983
79424.000,79424.000,79488.000,0.882
79488.000,79488.000,79552.000,0.917
79552.000,79552.000,79616.000,0.700
79616.000,79616.000,79680.000,0.739
79680.000,79680.000,79744.000,0.990
79744.000,79744.000,79808.000,0.793
79808.000,79808.000,79872.000,0.905
79872.000,79872.000,79936.000,0.859
79936.000,79936.000,80000.000,0.968
80000.000,80000.000,80064.000,0.968
80064.000,80064.000,80128.000,0.766
80128.000,80128.000,80192.000,0.617
80192.000,80192.000,80256.000,0.765
80256.000,80256.000,80320.000,0.823
80320.000,80320.000,80384.000,0.868
80384.000,80384.000,80448.000,0.779
80448.000,80448.000,80512.000,0.785
80512.000,80512.000,80576.000,0.614
80576.000,80576.000,80640.000,0.614
80640.000,80640.000,80704.000,0.866
80704.000,80704.000,80768.000,0.780
80768.000,80768.000,80832.000,0.780
80832.000,80832.000,80896.000,0.780
80896.000,80896.000,80960.000,0.651
80960.000,80960.000,81024.000,0.710
81024.000,81024.000,81088.000,0.605
81088.000,81088.000,81152.000,0.568
81152.000,81152.000,81216.000,0.749
81216.000,81216.000,81280.000,0.736
81280.000,81280.000,81344.000,0.994
81344.000,81344.000,81408.000,0.903
81408.000,81408.000,81472.000,0.898
81472.000,81472.000,81536.000,0.978
81536.000,81536.000,81600.000,0.727
81600.000,81600.000,81664.000,0.914
81664.000,81664.000,81728.000,1.000
81728.000,81728.000,81792.000,0.997
81792.000,81792.000,81856.000,0.757
81856.000,81856.000,81920.000,0.711
81920.000,81920.000,81984.000,0.832
81984.000,81984.000,82048.000,0.582
82048.000,82048.000,82112.000,0.907
82112.000,82112.000,82176.000,0.907
82176.000,82176.000,82240.000,0.940
82240.000,82240.000,82304.000,0.519
82304.000,82304.000,82368.000,0.605
82368.000,82368.000,82432.000,0.633
82432.000,82432.000,82496.000,0.993
82496.000,82496.000,82560.000,1.000
82560.000,82560.000,82624.000,1.000
82624.000,82624.000,82688.000,1.000
82688.000,82688.000,82752.000,1.000
82752.000,82752.000,82799.999,1.000
82816.000,82816.000,82880.000,0.999
82880.000,82880.000,82944.000,1.000
82944.000,82944.000,83008.000,0.963
83008.000,83008.000,83072.000,0.868
83072.000,83072.000,83136.000,0.915
83136.000,83136.000,83200.000,0.917
83200.000,83200.000,83264.000,0.819
83264.000,83264.000,83328.000,0.760
83328.000,83328.000,83392.000,0.924
83392.000,83392.000,83456.000,0.782
83456.000,83456.000,83520.000,0.822
83520.000,83520.000,83584.000,0.772
83584.000,83584.000,83648.000,0.821
83648.000,83648.000,83712.000,0.764
83712.000,83712.000,83776.000,0.836
83776.000,83776.000,83840.000,0.997
83840.000,83840.000,83904.000,0.970
83904.000,83904.000,83968.000,0.990
83968.000,83968.000,84032.000,0.991
84032.000,84032.000,84096.000,0.946
84096.000,84096.000,84160.000,0.986
84160.000,84160.000,84224.000,0.998
84224.000,84224.000,84288.000,0.995
84288.000,84288.000,84352.000,0.992
84352.000,84352.000,84416.000,0.995
84416.000,84416.000,84480.000,0.992
84480.000,84480.000,84544.000,0.825
84544.000,84544.000,84608.000,0.891
84608.000,84608.000,84672.000,0.997
84672.000,84672.000,84736.000,0.996
84736.000,84736.000,84800.000,0.995
84800.000,84800.000,84864.000,0.999
84864.000,84864.000,84928.000,0.725
84928.000,84928.000,84992.000,0.973
84992.000,84992.000,85056.000,0.999
85056.000,85056.000,85120.000,0.992
85120.000,85120.000,85184.000,0.936
85184.000,85184.000,85248.000,0.675
85248.000,85248.000,85312.000,0.576
85312.000,85312.000,85376.000,0.998
85376.000,85376.000,85440.000,0.998
85440.000,85440.000,85504.000,0.995
85504.000,85504.000,85568.000,0.998
85568.000,85568.000,85632.000,0.996
85632.000,85632.000,85696.000,0.970
85696.000,85696.000,85760.000,0.973
85760.000,85760.000,85824.000,0.836
85824.000,85824.000,85888.000,0.675
85888.000,85888.000,85952.000,0.736
85952.000,85952.000,86016.000,0.874
86016.000,86016.000,86080.000,0.874
86080.000,86080.000,86144.000,0.984
86144.000,86144.000,86208.000,0.999
86208.000,86208.000,86272.000,0.986
86272.000,86272.000,86336.000,0.797
86336.000,86336.000,86399.999,0.997
